<?xml version="1.0" encoding="UTF-8"?>
<kml xmlns="http://www.opengis.net/kml/2.2" xmlns:gx="http://www.google.com/kml/ext/2.2" xmlns:kml="http://www.opengis.net/kml/2.2" xmlns:atom="http://www.w3.org/2005/Atom">
<Document>
<name>DownSites.kml</name>
<Style id="s_ylw-pushpin">
<IconStyle>
<color>ff0000ff</color>
<scale>0.4</scale>
<Icon>
<href>http://maps.google.com/mapfiles/kml/shapes/target.png</href>
</Icon>
</IconStyle>
<ListStyle>
</ListStyle>
</Style>
<StyleMap id="m_ylw-pushpin">
<Pair>
<key>normal</key>
<styleUrl>#s_ylw-pushpin</styleUrl>
</Pair>
<Pair>
<key>highlight</key>
<styleUrl>#s_ylw-pushpin_hl</styleUrl>
</Pair>
</StyleMap>
<Style id="s_ylw-pushpin_hl">
<IconStyle>
<color>ff0000ff</color>
<scale>1.4</scale>
<Icon>
<href>http://maps.google.com/mapfiles/kml/shapes/target.png</href>
</Icon>
</IconStyle>
<ListStyle>
</ListStyle>
</Style>
<Folder>
<name>DownSites</name>
<open>1</open>
<Placemark>
<name>0067</name>
<styleUrl>#m_ylw-pushpin</styleUrl>
<Point>
<coordinates>31.203712,30.07061,0</coordinates>
</Point>
</Placemark>
<Placemark>
<name>0402</name>
<styleUrl>#m_ylw-pushpin</styleUrl>
<Point>
<coordinates>31.141726,29.987873,0</coordinates>
</Point>
</Placemark>
<Placemark>
<name>0424</name>
<styleUrl>#m_ylw-pushpin</styleUrl>
<Point>
<coordinates>31.235783,30.029118,0</coordinates>
</Point>
</Placemark>
<Placemark>
<name>0715</name>
<styleUrl>#m_ylw-pushpin</styleUrl>
<Point>
<coordinates>31.242361,30.055973,0</coordinates>
</Point>
</Placemark>
<Placemark>
<name>0906</name>
<styleUrl>#m_ylw-pushpin</styleUrl>
<Point>
<coordinates>31.327967,30.096333,0</coordinates>
</Point>
</Placemark>
<Placemark>
<name>0927</name>
<styleUrl>#m_ylw-pushpin</styleUrl>
<Point>
<coordinates>31.332823,30.101238,0</coordinates>
</Point>
</Placemark>
<Placemark>
<name>0953</name>
<styleUrl>#m_ylw-pushpin</styleUrl>
<Point>
<coordinates>31.303694,30.087334,0</coordinates>
</Point>
</Placemark>
<Placemark>
<name>0971</name>
<styleUrl>#m_ylw-pushpin</styleUrl>
<Point>
<coordinates>31.291945,30.068195,0</coordinates>
</Point>
</Placemark>
<Placemark>
<name>0974</name>
<styleUrl>#m_ylw-pushpin</styleUrl>
<Point>
<coordinates>31.326069,30.082237,0</coordinates>
</Point>
</Placemark>
<Placemark>
<name>0975</name>
<styleUrl>#m_ylw-pushpin</styleUrl>
<Point>
<coordinates>31.317333,30.091972,0</coordinates>
</Point>
</Placemark>
<Placemark>
<name>1107</name>
<styleUrl>#m_ylw-pushpin</styleUrl>
<Point>
<coordinates>31.24545,30.049864,0</coordinates>
</Point>
</Placemark>
<Placemark>
<name>1134</name>
<styleUrl>#m_ylw-pushpin</styleUrl>
<Point>
<coordinates>31.262506,30.047663,0</coordinates>
</Point>
</Placemark>
<Placemark>
<name>1163</name>
<styleUrl>#m_ylw-pushpin</styleUrl>
<Point>
<coordinates>31.23453,30.05089,0</coordinates>
</Point>
</Placemark>
<Placemark>
<name>1166</name>
<styleUrl>#m_ylw-pushpin</styleUrl>
<Point>
<coordinates>31.241056,30.041893,0</coordinates>
</Point>
</Placemark>
<Placemark>
<name>1440</name>
<styleUrl>#m_ylw-pushpin</styleUrl>
<Point>
<coordinates>31.262394,30.04723,0</coordinates>
</Point>
</Placemark>
<Placemark>
<name>1554</name>
<styleUrl>#m_ylw-pushpin</styleUrl>
<Point>
<coordinates>31.246084,30.13214,0</coordinates>
</Point>
</Placemark>
<Placemark>
<name>1651</name>
<styleUrl>#m_ylw-pushpin</styleUrl>
<Point>
<coordinates>31.213985,30.056522,0</coordinates>
</Point>
</Placemark>
<Placemark>
<name>1786</name>
<styleUrl>#m_ylw-pushpin</styleUrl>
<Point>
<coordinates>31.341347,30.066809,0</coordinates>
</Point>
</Placemark>
<Placemark>
<name>2014</name>
<styleUrl>#m_ylw-pushpin</styleUrl>
<Point>
<coordinates>30.023836,31.207037,0</coordinates>
</Point>
</Placemark>
<Placemark>
<name>2298</name>
<styleUrl>#m_ylw-pushpin</styleUrl>
<Point>
<coordinates>29.989946,30.804445,0</coordinates>
</Point>
</Placemark>
<Placemark>
<name>2457</name>
<styleUrl>#m_ylw-pushpin</styleUrl>
<Point>
<coordinates>26.654972,31.482834,0</coordinates>
</Point>
</Placemark>
<Placemark>
<name>2470</name>
<styleUrl>#m_ylw-pushpin</styleUrl>
<Point>
<coordinates>29.11039,30.722473,0</coordinates>
</Point>
</Placemark>
<Placemark>
<name>2563</name>
<styleUrl>#m_ylw-pushpin</styleUrl>
<Point>
<coordinates>29.72931,31.089258,0</coordinates>
</Point>
</Placemark>
<Placemark>
<name>2606</name>
<styleUrl>#m_ylw-pushpin</styleUrl>
<Point>
<coordinates>29.892809,31.197365,0</coordinates>
</Point>
</Placemark>
<Placemark>
<name>2718</name>
<styleUrl>#m_ylw-pushpin</styleUrl>
<Point>
<coordinates>29.780613,31.128092,0</coordinates>
</Point>
</Placemark>
<Placemark>
<name>2721</name>
<styleUrl>#m_ylw-pushpin</styleUrl>
<Point>
<coordinates>29.783642,31.13262,0</coordinates>
</Point>
</Placemark>
<Placemark>
<name>2905</name>
<styleUrl>#m_ylw-pushpin</styleUrl>
<Point>
<coordinates>30.011364,31.28137,0</coordinates>
</Point>
</Placemark>
<Placemark>
<name>2915</name>
<styleUrl>#m_ylw-pushpin</styleUrl>
<Point>
<coordinates>29.896364,31.198425,0</coordinates>
</Point>
</Placemark>
<Placemark>
<name>2920</name>
<styleUrl>#m_ylw-pushpin</styleUrl>
<Point>
<coordinates>29.964613,31.245314,0</coordinates>
</Point>
</Placemark>
<Placemark>
<name>2961</name>
<styleUrl>#m_ylw-pushpin</styleUrl>
<Point>
<coordinates>29.9659,31.24566,0</coordinates>
</Point>
</Placemark>
<Placemark>
<name>2962</name>
<styleUrl>#m_ylw-pushpin</styleUrl>
<Point>
<coordinates>29.966364,31.246037,0</coordinates>
</Point>
</Placemark>
<Placemark>
<name>3114</name>
<styleUrl>#m_ylw-pushpin</styleUrl>
<Point>
<coordinates>33.827484,27.251394,0</coordinates>
</Point>
</Placemark>
<Placemark>
<name>3573</name>
<styleUrl>#m_ylw-pushpin</styleUrl>
<Point>
<coordinates>30.8227,27.438059,0</coordinates>
</Point>
</Placemark>
<Placemark>
<name>3722</name>
<styleUrl>#m_ylw-pushpin</styleUrl>
<Point>
<coordinates>31.351006,29.423952,0</coordinates>
</Point>
</Placemark>
<Placemark>
<name>4221</name>
<styleUrl>#m_ylw-pushpin</styleUrl>
<Point>
<coordinates>27.856667,31.236872,0</coordinates>
</Point>
</Placemark>
<Placemark>
<name>4638</name>
<styleUrl>#m_ylw-pushpin</styleUrl>
<Point>
<coordinates>30.726393,30.463701,0</coordinates>
</Point>
</Placemark>
<Placemark>
<name>4807</name>
<styleUrl>#m_ylw-pushpin</styleUrl>
<Point>
<coordinates>31.83942,31.518372,0</coordinates>
</Point>
</Placemark>
<Placemark>
<name>4866</name>
<styleUrl>#m_ylw-pushpin</styleUrl>
<Point>
<coordinates>30.998667,30.786,0</coordinates>
</Point>
</Placemark>
<Placemark>
<name>4990</name>
<styleUrl>#m_ylw-pushpin</styleUrl>
<Point>
<coordinates>31.835777,31.502916,0</coordinates>
</Point>
</Placemark>
<Placemark>
<name>5000</name>
<styleUrl>#m_ylw-pushpin</styleUrl>
<Point>
<coordinates>32.673504,29.827724,0</coordinates>
</Point>
</Placemark>
<Placemark>
<name>5086</name>
<styleUrl>#m_ylw-pushpin</styleUrl>
<Point>
<coordinates>32.694366,29.741564,0</coordinates>
</Point>
</Placemark>
<Placemark>
<name>5198</name>
<styleUrl>#m_ylw-pushpin</styleUrl>
<Point>
<coordinates>33.82673,31.140844,0</coordinates>
</Point>
</Placemark>
<Placemark>
<name>5206</name>
<styleUrl>#m_ylw-pushpin</styleUrl>
<Point>
<coordinates>34.145275,31.21528,0</coordinates>
</Point>
</Placemark>
<Placemark>
<name>5208</name>
<styleUrl>#m_ylw-pushpin</styleUrl>
<Point>
<coordinates>33.95455,31.166168,0</coordinates>
</Point>
</Placemark>
<Placemark>
<name>5359</name>
<styleUrl>#m_ylw-pushpin</styleUrl>
<Point>
<coordinates>34.04176,28.745508,0</coordinates>
</Point>
</Placemark>
<Placemark>
<name>5693</name>
<styleUrl>#m_ylw-pushpin</styleUrl>
<Point>
<coordinates>31.825521,31.507523,0</coordinates>
</Point>
</Placemark>
<Placemark>
<name>5744</name>
<styleUrl>#m_ylw-pushpin</styleUrl>
<Point>
<coordinates>30.711975,30.892675,0</coordinates>
</Point>
</Placemark>
<Placemark>
<name>5804</name>
<styleUrl>#m_ylw-pushpin</styleUrl>
<Point>
<coordinates>31.45911,30.509445,0</coordinates>
</Point>
</Placemark>
<Placemark>
<name>5897</name>
<styleUrl>#m_ylw-pushpin</styleUrl>
<Point>
<coordinates>31.561255,30.956703,0</coordinates>
</Point>
</Placemark>
<Placemark>
<name>5915</name>
<styleUrl>#m_ylw-pushpin</styleUrl>
<Point>
<coordinates>30.72228,30.83534,0</coordinates>
</Point>
</Placemark>
<Placemark>
<name>5992</name>
<styleUrl>#m_ylw-pushpin</styleUrl>
<Point>
<coordinates>30.950565,30.755808,0</coordinates>
</Point>
</Placemark>
<Placemark>
<name>6158</name>
<styleUrl>#m_ylw-pushpin</styleUrl>
<Point>
<coordinates>31.376476,30.103674,0</coordinates>
</Point>
</Placemark>
<Placemark>
<name>6305</name>
<styleUrl>#m_ylw-pushpin</styleUrl>
<Point>
<coordinates>30.742336,30.760008,0</coordinates>
</Point>
</Placemark>
<Placemark>
<name>6339</name>
<styleUrl>#m_ylw-pushpin</styleUrl>
<Point>
<coordinates>31.35725,30.417473,0</coordinates>
</Point>
</Placemark>
<Placemark>
<name>A6397</name>
<styleUrl>#m_ylw-pushpin</styleUrl>
<Point>
<coordinates>30.02014,31.213444,0</coordinates>
</Point>
</Placemark>
<Placemark>
<name>C0291</name>
<styleUrl>#m_ylw-pushpin</styleUrl>
<Point>
<coordinates>31.114552,30.18286,0</coordinates>
</Point>
</Placemark>
<Placemark>
<name>C0640</name>
<styleUrl>#m_ylw-pushpin</styleUrl>
<Point>
<coordinates>31.206137,30.100048,0</coordinates>
</Point>
</Placemark>
<Placemark>
<name>C1298</name>
<styleUrl>#m_ylw-pushpin</styleUrl>
<Point>
<coordinates>31.220148,30.050137,0</coordinates>
</Point>
</Placemark>
<Placemark>
<name>C1864</name>
<styleUrl>#m_ylw-pushpin</styleUrl>
<Point>
<coordinates>31.246916,30.107721,0</coordinates>
</Point>
</Placemark>
<Placemark>
<name>C4638</name>
<styleUrl>#m_ylw-pushpin</styleUrl>
<Point>
<coordinates>30.726305,30.463694,0</coordinates>
</Point>
</Placemark>
<Placemark>
<name>C4709</name>
<styleUrl>#m_ylw-pushpin</styleUrl>
<Point>
<coordinates>30.820223,31.181389,0</coordinates>
</Point>
</Placemark>
<Placemark>
<name>C4990</name>
<styleUrl>#m_ylw-pushpin</styleUrl>
<Point>
<coordinates>31.835777,31.502861,0</coordinates>
</Point>
</Placemark>
<Placemark>
<name>C5693</name>
<styleUrl>#m_ylw-pushpin</styleUrl>
<Point>
<coordinates>31.825523,31.507523,0</coordinates>
</Point>
</Placemark>
<Placemark>
<name>C5744</name>
<styleUrl>#m_ylw-pushpin</styleUrl>
<Point>
<coordinates>30.711975,30.892675,0</coordinates>
</Point>
</Placemark>
<Placemark>
<name>C5897</name>
<styleUrl>#m_ylw-pushpin</styleUrl>
<Point>
<coordinates>31.561255,30.956703,0</coordinates>
</Point>
</Placemark>
<Placemark>
<name>C5939</name>
<styleUrl>#m_ylw-pushpin</styleUrl>
<Point>
<coordinates>31.16028,31.035482,0</coordinates>
</Point>
</Placemark>
<Placemark>
<name>CD3150</name>
<styleUrl>#m_ylw-pushpin</styleUrl>
<Point>
<coordinates>31.751698,31.460537,0</coordinates>
</Point>
</Placemark>
<Placemark>
<name>CD3224</name>
<styleUrl>#m_ylw-pushpin</styleUrl>
<Point>
<coordinates>31.800167,30.733297,0</coordinates>
</Point>
</Placemark>
<Placemark>
<name>CD3308</name>
<styleUrl>#m_ylw-pushpin</styleUrl>
<Point>
<coordinates>31.537336,30.60798,0</coordinates>
</Point>
</Placemark>
<Placemark>
<name>CD3568</name>
<styleUrl>#m_ylw-pushpin</styleUrl>
<Point>
<coordinates>31.37,30.82,0</coordinates>
</Point>
</Placemark>
<Placemark>
<name>CD3739</name>
<styleUrl>#m_ylw-pushpin</styleUrl>
<Point>
<coordinates>31.140528,30.948889,0</coordinates>
</Point>
</Placemark>
<Placemark>
<name>CD3764</name>
<styleUrl>#m_ylw-pushpin</styleUrl>
<Point>
<coordinates>31.70212,30.926786,0</coordinates>
</Point>
</Placemark>
<Placemark>
<name>CD3895</name>
<styleUrl>#m_ylw-pushpin</styleUrl>
<Point>
<coordinates>30.50682,31.045055,0</coordinates>
</Point>
</Placemark>
<Placemark>
<name>CD3895</name>
<styleUrl>#m_ylw-pushpin</styleUrl>
<Point>
<coordinates>30.50682,31.045055,0</coordinates>
</Point>
</Placemark>
<Placemark>
<name>CD7014</name>
<styleUrl>#m_ylw-pushpin</styleUrl>
<Point>
<coordinates>31.521833,31.164417,0</coordinates>
</Point>
</Placemark>
<Placemark>
<name>CD7114</name>
<styleUrl>#m_ylw-pushpin</styleUrl>
<Point>
<coordinates>31.730362,30.962063,0</coordinates>
</Point>
</Placemark>
<Placemark>
<name>CD7403</name>
<styleUrl>#m_ylw-pushpin</styleUrl>
<Point>
<coordinates>31.083025,31.030956,0</coordinates>
</Point>
</Placemark>
<Placemark>
<name>CD7409</name>
<styleUrl>#m_ylw-pushpin</styleUrl>
<Point>
<coordinates>31.129417,30.732416,0</coordinates>
</Point>
</Placemark>
<Placemark>
<name>CD7586</name>
<styleUrl>#m_ylw-pushpin</styleUrl>
<Point>
<coordinates>30.662807,31.022648,0</coordinates>
</Point>
</Placemark>
<Placemark>
<name>CD7873</name>
<styleUrl>#m_ylw-pushpin</styleUrl>
<Point>
<coordinates>30.59501,30.877855,0</coordinates>
</Point>
</Placemark>
<Placemark>
<name>CD7888</name>
<styleUrl>#m_ylw-pushpin</styleUrl>
<Point>
<coordinates>31.002556,30.90925,0</coordinates>
</Point>
</Placemark>
<Placemark>
<name>CD8012</name>
<styleUrl>#m_ylw-pushpin</styleUrl>
<Point>
<coordinates>30.941206,31.115658,0</coordinates>
</Point>
</Placemark>
<Placemark>
<name>CK0030</name>
<styleUrl>#m_ylw-pushpin</styleUrl>
<Point>
<coordinates>31.198837,30.052202,0</coordinates>
</Point>
</Placemark>
<Placemark>
<name>CK0105</name>
<styleUrl>#m_ylw-pushpin</styleUrl>
<Point>
<coordinates>31.254726,30.061619,0</coordinates>
</Point>
</Placemark>
<Placemark>
<name>CK3636</name>
<styleUrl>#m_ylw-pushpin</styleUrl>
<Point>
<coordinates>31.325699,30.018286,0</coordinates>
</Point>
</Placemark>
<Placemark>
<name>D3062</name>
<styleUrl>#m_ylw-pushpin</styleUrl>
<Point>
<coordinates>31.49784,30.965778,0</coordinates>
</Point>
</Placemark>
<Placemark>
<name>D3119</name>
<styleUrl>#m_ylw-pushpin</styleUrl>
<Point>
<coordinates>31.285833,30.228611,0</coordinates>
</Point>
</Placemark>
<Placemark>
<name>D3150</name>
<styleUrl>#m_ylw-pushpin</styleUrl>
<Point>
<coordinates>31.751698,31.460537,0</coordinates>
</Point>
</Placemark>
<Placemark>
<name>D3224</name>
<styleUrl>#m_ylw-pushpin</styleUrl>
<Point>
<coordinates>31.800167,30.733278,0</coordinates>
</Point>
</Placemark>
<Placemark>
<name>D3308</name>
<styleUrl>#m_ylw-pushpin</styleUrl>
<Point>
<coordinates>31.537306,30.608,0</coordinates>
</Point>
</Placemark>
<Placemark>
<name>D3509</name>
<styleUrl>#m_ylw-pushpin</styleUrl>
<Point>
<coordinates>32.00007,30.702084,0</coordinates>
</Point>
</Placemark>
<Placemark>
<name>D3532</name>
<styleUrl>#m_ylw-pushpin</styleUrl>
<Point>
<coordinates>30.27717,30.81037,0</coordinates>
</Point>
</Placemark>
<Placemark>
<name>D3534</name>
<styleUrl>#m_ylw-pushpin</styleUrl>
<Point>
<coordinates>30.078363,31.154285,0</coordinates>
</Point>
</Placemark>
<Placemark>
<name>D3568</name>
<styleUrl>#m_ylw-pushpin</styleUrl>
<Point>
<coordinates>31.37,30.82,0</coordinates>
</Point>
</Placemark>
<Placemark>
<name>D3653</name>
<styleUrl>#m_ylw-pushpin</styleUrl>
<Point>
<coordinates>31.427837,30.801508,0</coordinates>
</Point>
</Placemark>
<Placemark>
<name>D3739</name>
<styleUrl>#m_ylw-pushpin</styleUrl>
<Point>
<coordinates>31.140528,30.948889,0</coordinates>
</Point>
</Placemark>
<Placemark>
<name>D3843</name>
<styleUrl>#m_ylw-pushpin</styleUrl>
<Point>
<coordinates>31.206167,30.562723,0</coordinates>
</Point>
</Placemark>
<Placemark>
<name>D7014</name>
<styleUrl>#m_ylw-pushpin</styleUrl>
<Point>
<coordinates>31.521833,31.164417,0</coordinates>
</Point>
</Placemark>
<Placemark>
<name>D7019</name>
<styleUrl>#m_ylw-pushpin</styleUrl>
<Point>
<coordinates>31.383389,31.045334,0</coordinates>
</Point>
</Placemark>
<Placemark>
<name>D7065</name>
<styleUrl>#m_ylw-pushpin</styleUrl>
<Point>
<coordinates>31.254084,31.065834,0</coordinates>
</Point>
</Placemark>
<Placemark>
<name>D7114</name>
<styleUrl>#m_ylw-pushpin</styleUrl>
<Point>
<coordinates>31.73075,30.962278,0</coordinates>
</Point>
</Placemark>
<Placemark>
<name>D7403</name>
<styleUrl>#m_ylw-pushpin</styleUrl>
<Point>
<coordinates>31.083025,31.030956,0</coordinates>
</Point>
</Placemark>
<Placemark>
<name>D7586</name>
<styleUrl>#m_ylw-pushpin</styleUrl>
<Point>
<coordinates>30.66264,31.022528,0</coordinates>
</Point>
</Placemark>
<Placemark>
<name>D7623</name>
<styleUrl>#m_ylw-pushpin</styleUrl>
<Point>
<coordinates>31.739922,30.785973,0</coordinates>
</Point>
</Placemark>
<Placemark>
<name>D7873</name>
<styleUrl>#m_ylw-pushpin</styleUrl>
<Point>
<coordinates>30.595,30.877861,0</coordinates>
</Point>
</Placemark>
<Placemark>
<name>D7888</name>
<styleUrl>#m_ylw-pushpin</styleUrl>
<Point>
<coordinates>31.002556,30.90925,0</coordinates>
</Point>
</Placemark>
<Placemark>
<name>G0091</name>
<styleUrl>#m_ylw-pushpin</styleUrl>
<Point>
<coordinates>31.210848,30.016466,0</coordinates>
</Point>
</Placemark>
<Placemark>
<name>G0424</name>
<styleUrl>#m_ylw-pushpin</styleUrl>
<Point>
<coordinates>31.236616,30.031376,0</coordinates>
</Point>
</Placemark>
<Placemark>
<name>G1786</name>
<styleUrl>#m_ylw-pushpin</styleUrl>
<Point>
<coordinates>31.341505,30.067015,0</coordinates>
</Point>
</Placemark>
<Placemark>
<name>G2028</name>
<styleUrl>#m_ylw-pushpin</styleUrl>
<Point>
<coordinates>30.349722,30.378963,0</coordinates>
</Point>
</Placemark>
<Placemark>
<name>G2112</name>
<styleUrl>#m_ylw-pushpin</styleUrl>
<Point>
<coordinates>29.933355,31.199577,0</coordinates>
</Point>
</Placemark>
<Placemark>
<name>G2201</name>
<styleUrl>#m_ylw-pushpin</styleUrl>
<Point>
<coordinates>29.983505,31.260517,0</coordinates>
</Point>
</Placemark>
<Placemark>
<name>G2284</name>
<styleUrl>#m_ylw-pushpin</styleUrl>
<Point>
<coordinates>29.840776,31.141666,0</coordinates>
</Point>
</Placemark>
<Placemark>
<name>G2298</name>
<styleUrl>#m_ylw-pushpin</styleUrl>
<Point>
<coordinates>29.98984,30.804424,0</coordinates>
</Point>
</Placemark>
<Placemark>
<name>G2470</name>
<styleUrl>#m_ylw-pushpin</styleUrl>
<Point>
<coordinates>29.092377,30.730604,0</coordinates>
</Point>
</Placemark>
<Placemark>
<name>G2961</name>
<styleUrl>#m_ylw-pushpin</styleUrl>
<Point>
<coordinates>29.965654,31.245771,0</coordinates>
</Point>
</Placemark>
<Placemark>
<name>G2962</name>
<styleUrl>#m_ylw-pushpin</styleUrl>
<Point>
<coordinates>29.965113,31.245722,0</coordinates>
</Point>
</Placemark>
<Placemark>
<name>G3011</name>
<styleUrl>#m_ylw-pushpin</styleUrl>
<Point>
<coordinates>33.82403,27.19186,0</coordinates>
</Point>
</Placemark>
<Placemark>
<name>G3012</name>
<styleUrl>#m_ylw-pushpin</styleUrl>
<Point>
<coordinates>33.848835,27.088694,0</coordinates>
</Point>
</Placemark>
<Placemark>
<name>G3019</name>
<styleUrl>#m_ylw-pushpin</styleUrl>
<Point>
<coordinates>33.830177,27.098923,0</coordinates>
</Point>
</Placemark>
<Placemark>
<name>G3103</name>
<styleUrl>#m_ylw-pushpin</styleUrl>
<Point>
<coordinates>33.834194,27.220306,0</coordinates>
</Point>
</Placemark>
<Placemark>
<name>G3114</name>
<styleUrl>#m_ylw-pushpin</styleUrl>
<Point>
<coordinates>33.827484,27.251394,0</coordinates>
</Point>
</Placemark>
<Placemark>
<name>G3116</name>
<styleUrl>#m_ylw-pushpin</styleUrl>
<Point>
<coordinates>33.88826,27.049284,0</coordinates>
</Point>
</Placemark>
<Placemark>
<name>G3118</name>
<styleUrl>#m_ylw-pushpin</styleUrl>
<Point>
<coordinates>33.93864,26.758583,0</coordinates>
</Point>
</Placemark>
<Placemark>
<name>G3122</name>
<styleUrl>#m_ylw-pushpin</styleUrl>
<Point>
<coordinates>33.80711,27.255667,0</coordinates>
</Point>
</Placemark>
<Placemark>
<name>G3123</name>
<styleUrl>#m_ylw-pushpin</styleUrl>
<Point>
<coordinates>33.94378,26.8365,0</coordinates>
</Point>
</Placemark>
<Placemark>
<name>G3126</name>
<styleUrl>#m_ylw-pushpin</styleUrl>
<Point>
<coordinates>33.99272,26.859612,0</coordinates>
</Point>
</Placemark>
<Placemark>
<name>G3129</name>
<styleUrl>#m_ylw-pushpin</styleUrl>
<Point>
<coordinates>33.820057,27.259527,0</coordinates>
</Point>
</Placemark>
<Placemark>
<name>G3138</name>
<styleUrl>#m_ylw-pushpin</styleUrl>
<Point>
<coordinates>33.838223,27.089027,0</coordinates>
</Point>
</Placemark>
<Placemark>
<name>G3302</name>
<styleUrl>#m_ylw-pushpin</styleUrl>
<Point>
<coordinates>33.90092,26.897808,0</coordinates>
</Point>
</Placemark>
<Placemark>
<name>G3303</name>
<styleUrl>#m_ylw-pushpin</styleUrl>
<Point>
<coordinates>33.933773,26.79789,0</coordinates>
</Point>
</Placemark>
<Placemark>
<name>G3312</name>
<styleUrl>#m_ylw-pushpin</styleUrl>
<Point>
<coordinates>33.839417,27.095638,0</coordinates>
</Point>
</Placemark>
<Placemark>
<name>G3320</name>
<styleUrl>#m_ylw-pushpin</styleUrl>
<Point>
<coordinates>33.65589,27.35439,0</coordinates>
</Point>
</Placemark>
<Placemark>
<name>G3321</name>
<styleUrl>#m_ylw-pushpin</styleUrl>
<Point>
<coordinates>33.980556,26.880945,0</coordinates>
</Point>
</Placemark>
<Placemark>
<name>G3322</name>
<styleUrl>#m_ylw-pushpin</styleUrl>
<Point>
<coordinates>33.940304,26.74289,0</coordinates>
</Point>
</Placemark>
<Placemark>
<name>G3324</name>
<styleUrl>#m_ylw-pushpin</styleUrl>
<Point>
<coordinates>33.99653,26.846695,0</coordinates>
</Point>
</Placemark>
<Placemark>
<name>G3573</name>
<styleUrl>#m_ylw-pushpin</styleUrl>
<Point>
<coordinates>30.8227,27.438059,0</coordinates>
</Point>
</Placemark>
<Placemark>
<name>G3958</name>
<styleUrl>#m_ylw-pushpin</styleUrl>
<Point>
<coordinates>33.95878,27.183111,0</coordinates>
</Point>
</Placemark>
<Placemark>
<name>G3969</name>
<styleUrl>#m_ylw-pushpin</styleUrl>
<Point>
<coordinates>33.989834,26.848335,0</coordinates>
</Point>
</Placemark>
<Placemark>
<name>G3972</name>
<styleUrl>#m_ylw-pushpin</styleUrl>
<Point>
<coordinates>33.804222,27.265612,0</coordinates>
</Point>
</Placemark>
<Placemark>
<name>G3976</name>
<styleUrl>#m_ylw-pushpin</styleUrl>
<Point>
<coordinates>33.82752,27.2571,0</coordinates>
</Point>
</Placemark>
<Placemark>
<name>G3977</name>
<styleUrl>#m_ylw-pushpin</styleUrl>
<Point>
<coordinates>33.88065,27.076727,0</coordinates>
</Point>
</Placemark>
<Placemark>
<name>G4034</name>
<styleUrl>#m_ylw-pushpin</styleUrl>
<Point>
<coordinates>32.354527,29.670172,0</coordinates>
</Point>
</Placemark>
<Placemark>
<name>G4040</name>
<styleUrl>#m_ylw-pushpin</styleUrl>
<Point>
<coordinates>32.341366,29.585064,0</coordinates>
</Point>
</Placemark>
<Placemark>
<name>G4068</name>
<styleUrl>#m_ylw-pushpin</styleUrl>
<Point>
<coordinates>32.48739,29.838667,0</coordinates>
</Point>
</Placemark>
<Placemark>
<name>G4069</name>
<styleUrl>#m_ylw-pushpin</styleUrl>
<Point>
<coordinates>32.305088,29.67023,0</coordinates>
</Point>
</Placemark>
<Placemark>
<name>G4256</name>
<styleUrl>#m_ylw-pushpin</styleUrl>
<Point>
<coordinates>32.241028,29.74195,0</coordinates>
</Point>
</Placemark>
<Placemark>
<name>G4294</name>
<styleUrl>#m_ylw-pushpin</styleUrl>
<Point>
<coordinates>32.45283,29.91236,0</coordinates>
</Point>
</Placemark>
<Placemark>
<name>G4305</name>
<styleUrl>#m_ylw-pushpin</styleUrl>
<Point>
<coordinates>33.456264,27.821888,0</coordinates>
</Point>
</Placemark>
<Placemark>
<name>G4309</name>
<styleUrl>#m_ylw-pushpin</styleUrl>
<Point>
<coordinates>33.48555,27.645554,0</coordinates>
</Point>
</Placemark>
<Placemark>
<name>G4320</name>
<styleUrl>#m_ylw-pushpin</styleUrl>
<Point>
<coordinates>32.172417,29.69139,0</coordinates>
</Point>
</Placemark>
<Placemark>
<name>G4325</name>
<styleUrl>#m_ylw-pushpin</styleUrl>
<Point>
<coordinates>32.567062,29.367231,0</coordinates>
</Point>
</Placemark>
<Placemark>
<name>G4326</name>
<styleUrl>#m_ylw-pushpin</styleUrl>
<Point>
<coordinates>32.626694,29.197027,0</coordinates>
</Point>
</Placemark>
<Placemark>
<name>G4889</name>
<styleUrl>#m_ylw-pushpin</styleUrl>
<Point>
<coordinates>31.254631,30.72052,0</coordinates>
</Point>
</Placemark>
<Placemark>
<name>G4990</name>
<styleUrl>#m_ylw-pushpin</styleUrl>
<Point>
<coordinates>31.835777,31.502916,0</coordinates>
</Point>
</Placemark>
<Placemark>
<name>G5086</name>
<styleUrl>#m_ylw-pushpin</styleUrl>
<Point>
<coordinates>32.694366,29.741564,0</coordinates>
</Point>
</Placemark>
<Placemark>
<name>G5162</name>
<styleUrl>#m_ylw-pushpin</styleUrl>
<Point>
<coordinates>33.80675,31.126583,0</coordinates>
</Point>
</Placemark>
<Placemark>
<name>G5663</name>
<styleUrl>#m_ylw-pushpin</styleUrl>
<Point>
<coordinates>31.536806,30.852222,0</coordinates>
</Point>
</Placemark>
<Placemark>
<name>G5665</name>
<styleUrl>#m_ylw-pushpin</styleUrl>
<Point>
<coordinates>31.07981,31.054203,0</coordinates>
</Point>
</Placemark>
<Placemark>
<name>G5693</name>
<styleUrl>#m_ylw-pushpin</styleUrl>
<Point>
<coordinates>31.825521,31.507523,0</coordinates>
</Point>
</Placemark>
<Placemark>
<name>G5992</name>
<styleUrl>#m_ylw-pushpin</styleUrl>
<Point>
<coordinates>30.950565,30.755808,0</coordinates>
</Point>
</Placemark>
<Placemark>
<name>G6158</name>
<styleUrl>#m_ylw-pushpin</styleUrl>
<Point>
<coordinates>31.376476,30.103674,0</coordinates>
</Point>
</Placemark>
<Placemark>
<name>GD3150</name>
<styleUrl>#m_ylw-pushpin</styleUrl>
<Point>
<coordinates>31.751698,31.460537,0</coordinates>
</Point>
</Placemark>
<Placemark>
<name>GD3224</name>
<styleUrl>#m_ylw-pushpin</styleUrl>
<Point>
<coordinates>31.800167,30.733278,0</coordinates>
</Point>
</Placemark>
<Placemark>
<name>GD3271</name>
<styleUrl>#m_ylw-pushpin</styleUrl>
<Point>
<coordinates>30.724503,31.185966,0</coordinates>
</Point>
</Placemark>
<Placemark>
<name>GD3389</name>
<styleUrl>#m_ylw-pushpin</styleUrl>
<Point>
<coordinates>31.586021,30.662111,0</coordinates>
</Point>
</Placemark>
<Placemark>
<name>GD3568</name>
<styleUrl>#m_ylw-pushpin</styleUrl>
<Point>
<coordinates>31.37,30.82,0</coordinates>
</Point>
</Placemark>
<Placemark>
<name>GD3739</name>
<styleUrl>#m_ylw-pushpin</styleUrl>
<Point>
<coordinates>31.14042,30.94887,0</coordinates>
</Point>
</Placemark>
<Placemark>
<name>GD3895</name>
<styleUrl>#m_ylw-pushpin</styleUrl>
<Point>
<coordinates>30.506836,31.045063,0</coordinates>
</Point>
</Placemark>
<Placemark>
<name>GD7014</name>
<styleUrl>#m_ylw-pushpin</styleUrl>
<Point>
<coordinates>31.521833,31.164417,0</coordinates>
</Point>
</Placemark>
<Placemark>
<name>GD7403</name>
<styleUrl>#m_ylw-pushpin</styleUrl>
<Point>
<coordinates>31.082916,31.030937,0</coordinates>
</Point>
</Placemark>
<Placemark>
<name>GD7563</name>
<styleUrl>#m_ylw-pushpin</styleUrl>
<Point>
<coordinates>30.707586,31.048952,0</coordinates>
</Point>
</Placemark>
<Placemark>
<name>GD7873</name>
<styleUrl>#m_ylw-pushpin</styleUrl>
<Point>
<coordinates>30.594893,30.877842,0</coordinates>
</Point>
</Placemark>
<Placemark>
<name>GD7888</name>
<styleUrl>#m_ylw-pushpin</styleUrl>
<Point>
<coordinates>31.002449,30.909231,0</coordinates>
</Point>
</Placemark>
<Placemark>
<name>GD8059</name>
<styleUrl>#m_ylw-pushpin</styleUrl>
<Point>
<coordinates>31.227667,31.169147,0</coordinates>
</Point>
</Placemark>
<Placemark>
<name>GI0046</name>
<styleUrl>#m_ylw-pushpin</styleUrl>
<Point>
<coordinates>31.337782,30.060925,0</coordinates>
</Point>
</Placemark>
<Placemark>
<name>GI2030</name>
<styleUrl>#m_ylw-pushpin</styleUrl>
<Point>
<coordinates>31.239199,30.055618,0</coordinates>
</Point>
</Placemark>
<Placemark>
<name>GK0030</name>
<styleUrl>#m_ylw-pushpin</styleUrl>
<Point>
<coordinates>31.199255,30.052702,0</coordinates>
</Point>
</Placemark>
<Placemark>
<name>GK2153</name>
<styleUrl>#m_ylw-pushpin</styleUrl>
<Point>
<coordinates>31.305588,29.971203,0</coordinates>
</Point>
</Placemark>
<Placemark>
<name>GK3636</name>
<styleUrl>#m_ylw-pushpin</styleUrl>
<Point>
<coordinates>31.325699,30.018286,0</coordinates>
</Point>
</Placemark>
<Placemark>
<name>GK3652</name>
<styleUrl>#m_ylw-pushpin</styleUrl>
<Point>
<coordinates>31.26339,30.022203,0</coordinates>
</Point>
</Placemark>
<Placemark>
<name>GR2510</name>
<styleUrl>#m_ylw-pushpin</styleUrl>
<Point>
<coordinates>32.30467,30.945028,0</coordinates>
</Point>
</Placemark>
<Placemark>
<name>GR2553</name>
<styleUrl>#m_ylw-pushpin</styleUrl>
<Point>
<coordinates>32.292805,29.625084,0</coordinates>
</Point>
</Placemark>
<Placemark>
<name>GR2554</name>
<styleUrl>#m_ylw-pushpin</styleUrl>
<Point>
<coordinates>32.6229,29.242481,0</coordinates>
</Point>
</Placemark>
<Placemark>
<name>GR2587</name>
<styleUrl>#m_ylw-pushpin</styleUrl>
<Point>
<coordinates>32.358917,29.657194,0</coordinates>
</Point>
</Placemark>
<Placemark>
<name>GR2601</name>
<styleUrl>#m_ylw-pushpin</styleUrl>
<Point>
<coordinates>33.889946,27.01764,0</coordinates>
</Point>
</Placemark>
<Placemark>
<name>GR2602</name>
<styleUrl>#m_ylw-pushpin</styleUrl>
<Point>
<coordinates>33.885593,27.024256,0</coordinates>
</Point>
</Placemark>
<Placemark>
<name>GR2604</name>
<styleUrl>#m_ylw-pushpin</styleUrl>
<Point>
<coordinates>33.880596,27.04281,0</coordinates>
</Point>
</Placemark>
<Placemark>
<name>GR2625</name>
<styleUrl>#m_ylw-pushpin</styleUrl>
<Point>
<coordinates>33.76889,27.279583,0</coordinates>
</Point>
</Placemark>
<Placemark>
<name>GR2626</name>
<styleUrl>#m_ylw-pushpin</styleUrl>
<Point>
<coordinates>33.842377,27.197289,0</coordinates>
</Point>
</Placemark>
<Placemark>
<name>GR2627</name>
<styleUrl>#m_ylw-pushpin</styleUrl>
<Point>
<coordinates>33.862568,27.078005,0</coordinates>
</Point>
</Placemark>
<Placemark>
<name>GR2628</name>
<styleUrl>#m_ylw-pushpin</styleUrl>
<Point>
<coordinates>33.826527,27.106445,0</coordinates>
</Point>
</Placemark>
<Placemark>
<name>GR2631</name>
<styleUrl>#m_ylw-pushpin</styleUrl>
<Point>
<coordinates>33.90515,27.00084,0</coordinates>
</Point>
</Placemark>
<Placemark>
<name>GR2634</name>
<styleUrl>#m_ylw-pushpin</styleUrl>
<Point>
<coordinates>33.82733,27.142416,0</coordinates>
</Point>
</Placemark>
<Placemark>
<name>GR2638</name>
<styleUrl>#m_ylw-pushpin</styleUrl>
<Point>
<coordinates>33.934612,26.727528,0</coordinates>
</Point>
</Placemark>
<Placemark>
<name>GR2640</name>
<styleUrl>#m_ylw-pushpin</styleUrl>
<Point>
<coordinates>33.900055,26.997,0</coordinates>
</Point>
</Placemark>
<Placemark>
<name>GR2650</name>
<styleUrl>#m_ylw-pushpin</styleUrl>
<Point>
<coordinates>33.95861,26.635834,0</coordinates>
</Point>
</Placemark>
<Placemark>
<name>GR2658</name>
<styleUrl>#m_ylw-pushpin</styleUrl>
<Point>
<coordinates>33.822807,27.124195,0</coordinates>
</Point>
</Placemark>
<Placemark>
<name>GR2689</name>
<styleUrl>#m_ylw-pushpin</styleUrl>
<Point>
<coordinates>33.90143,26.985338,0</coordinates>
</Point>
</Placemark>
<Placemark>
<name>GR2697</name>
<styleUrl>#m_ylw-pushpin</styleUrl>
<Point>
<coordinates>33.9119,26.97956,0</coordinates>
</Point>
</Placemark>
<Placemark>
<name>GR2699</name>
<styleUrl>#m_ylw-pushpin</styleUrl>
<Point>
<coordinates>32.593388,29.323944,0</coordinates>
</Point>
</Placemark>
<Placemark>
<name>GR2734</name>
<styleUrl>#m_ylw-pushpin</styleUrl>
<Point>
<coordinates>33.93089,26.75964,0</coordinates>
</Point>
</Placemark>
<Placemark>
<name>GR2752</name>
<styleUrl>#m_ylw-pushpin</styleUrl>
<Point>
<coordinates>33.670654,27.377045,0</coordinates>
</Point>
</Placemark>
<Placemark>
<name>GR2753</name>
<styleUrl>#m_ylw-pushpin</styleUrl>
<Point>
<coordinates>32.620945,29.21696,0</coordinates>
</Point>
</Placemark>
<Placemark>
<name>GR2754</name>
<styleUrl>#m_ylw-pushpin</styleUrl>
<Point>
<coordinates>33.84864,27.204082,0</coordinates>
</Point>
</Placemark>
<Placemark>
<name>GR2822</name>
<styleUrl>#m_ylw-pushpin</styleUrl>
<Point>
<coordinates>32.563972,29.380527,0</coordinates>
</Point>
</Placemark>
<Placemark>
<name>GR2823</name>
<styleUrl>#m_ylw-pushpin</styleUrl>
<Point>
<coordinates>32.57523,29.359756,0</coordinates>
</Point>
</Placemark>
<Placemark>
<name>GR2824</name>
<styleUrl>#m_ylw-pushpin</styleUrl>
<Point>
<coordinates>32.579037,29.355175,0</coordinates>
</Point>
</Placemark>
<Placemark>
<name>GR2825</name>
<styleUrl>#m_ylw-pushpin</styleUrl>
<Point>
<coordinates>32.590958,29.340794,0</coordinates>
</Point>
</Placemark>
<Placemark>
<name>GR2860</name>
<styleUrl>#m_ylw-pushpin</styleUrl>
<Point>
<coordinates>32.41156,29.761065,0</coordinates>
</Point>
</Placemark>
<Placemark>
<name>GR2894</name>
<styleUrl>#m_ylw-pushpin</styleUrl>
<Point>
<coordinates>33.812954,27.259283,0</coordinates>
</Point>
</Placemark>
<Placemark>
<name>GR2896</name>
<styleUrl>#m_ylw-pushpin</styleUrl>
<Point>
<coordinates>33.82803,27.150583,0</coordinates>
</Point>
</Placemark>
<Placemark>
<name>GR2897</name>
<styleUrl>#m_ylw-pushpin</styleUrl>
<Point>
<coordinates>33.836483,27.21345,0</coordinates>
</Point>
</Placemark>
<Placemark>
<name>GS2961</name>
<styleUrl>#m_ylw-pushpin</styleUrl>
<Point>
<coordinates>29.965385,31.245739,0</coordinates>
</Point>
</Placemark>
<Placemark>
<name>GS2962</name>
<styleUrl>#m_ylw-pushpin</styleUrl>
<Point>
<coordinates>29.964712,31.24577,0</coordinates>
</Point>
</Placemark>
<Placemark>
<name>GU4749</name>
<styleUrl>#m_ylw-pushpin</styleUrl>
<Point>
<coordinates>31.192778,27.182444,0</coordinates>
</Point>
</Placemark>
<Placemark>
<name>GU4913</name>
<styleUrl>#m_ylw-pushpin</styleUrl>
<Point>
<coordinates>32.92758,24.051111,0</coordinates>
</Point>
</Placemark>
<Placemark>
<name>I2030</name>
<styleUrl>#m_ylw-pushpin</styleUrl>
<Point>
<coordinates>31.239199,30.055618,0</coordinates>
</Point>
</Placemark>
<Placemark>
<name>K2044</name>
<styleUrl>#m_ylw-pushpin</styleUrl>
<Point>
<coordinates>31.12997,30.120804,0</coordinates>
</Point>
</Placemark>
<Placemark>
<name>K3636</name>
<styleUrl>#m_ylw-pushpin</styleUrl>
<Point>
<coordinates>31.325699,30.018286,0</coordinates>
</Point>
</Placemark>
<Placemark>
<name>K3652</name>
<styleUrl>#m_ylw-pushpin</styleUrl>
<Point>
<coordinates>31.262672,30.024813,0</coordinates>
</Point>
</Placemark>
<Placemark>
<name>K5011</name>
<styleUrl>#m_ylw-pushpin</styleUrl>
<Point>
<coordinates>31.381004,30.16348,0</coordinates>
</Point>
</Placemark>
<Placemark>
<name>K5814</name>
<styleUrl>#m_ylw-pushpin</styleUrl>
<Point>
<coordinates>30.951027,29.971666,0</coordinates>
</Point>
</Placemark>
<Placemark>
<name>M3334</name>
<styleUrl>#m_ylw-pushpin</styleUrl>
<Point>
<coordinates>34.033554,26.56261,0</coordinates>
</Point>
</Placemark>
<Placemark>
<name>M4255</name>
<styleUrl>#m_ylw-pushpin</styleUrl>
<Point>
<coordinates>32.071056,29.778418,0</coordinates>
</Point>
</Placemark>
<Placemark>
<name>M4308</name>
<styleUrl>#m_ylw-pushpin</styleUrl>
<Point>
<coordinates>33.573055,27.499441,0</coordinates>
</Point>
</Placemark>
<Placemark>
<name>M4327</name>
<styleUrl>#m_ylw-pushpin</styleUrl>
<Point>
<coordinates>32.61605,28.979822,0</coordinates>
</Point>
</Placemark>
<Placemark>
<name>M5224</name>
<styleUrl>#m_ylw-pushpin</styleUrl>
<Point>
<coordinates>33.885197,30.98725,0</coordinates>
</Point>
</Placemark>
<Placemark>
<name>MR2829</name>
<styleUrl>#m_ylw-pushpin</styleUrl>
<Point>
<coordinates>32.12268,29.69371,0</coordinates>
</Point>
</Placemark>
<Placemark>
<name>MR2853</name>
<styleUrl>#m_ylw-pushpin</styleUrl>
<Point>
<coordinates>32.204144,29.771065,0</coordinates>
</Point>
</Placemark>
<Placemark>
<name>MR2856</name>
<styleUrl>#m_ylw-pushpin</styleUrl>
<Point>
<coordinates>32.140278,29.779148,0</coordinates>
</Point>
</Placemark>
<Placemark>
<name>R2510</name>
<styleUrl>#m_ylw-pushpin</styleUrl>
<Point>
<coordinates>32.30467,30.945028,0</coordinates>
</Point>
</Placemark>
<Placemark>
<name>R2736</name>
<styleUrl>#m_ylw-pushpin</styleUrl>
<Point>
<coordinates>33.762665,31.121,0</coordinates>
</Point>
</Placemark>
<Placemark>
<name>U4749</name>
<styleUrl>#m_ylw-pushpin</styleUrl>
<Point>
<coordinates>31.192778,27.182444,0</coordinates>
</Point>
</Placemark>
<Placemark>
<name>U4913</name>
<styleUrl>#m_ylw-pushpin</styleUrl>
<Point>
<coordinates>32.92758,24.051111,0</coordinates>
</Point>
</Placemark>
</Folder>
</Document>
</kml>
