0067,31.203712,30.07061
0402,31.141726,29.987873
0424,31.235783,30.029118
0715,31.242361,30.055973
0906,31.327967,30.096333
0927,31.332823,30.101238
0953,31.303694,30.087334
0971,31.291945,30.068195
0974,31.326069,30.082237
0975,31.317333,30.091972
1107,31.24545,30.049864
1134,31.262506,30.047663
1163,31.23453,30.05089
1166,31.241056,30.041893
1440,31.262394,30.04723
1554,31.246084,30.13214
1651,31.213985,30.056522
1760,,
1786,31.341347,30.066809
2014,30.023836,31.207037
2291,,
2298,29.989946,30.804445
2457,26.654972,31.482834
2470,29.11039,30.722473
2563,29.72931,31.089258
2606,29.892809,31.197365
2718,29.780613,31.128092
2721,29.783642,31.13262
2905,30.011364,31.28137
2915,29.896364,31.198425
2920,29.964613,31.245314
2961,29.9659,31.24566
2962,29.966364,31.246037
3114,33.827484,27.251394
3573,30.8227,27.438059
3722,31.351006,29.423952
3724,,
4221,27.856667,31.236872
4638,30.726393,30.463701
4807,31.83942,31.518372
4866,30.998667,30.786
4990,31.835777,31.502916
5000,32.673504,29.827724
5086,32.694366,29.741564
5198,33.82673,31.140844
5206,34.145275,31.21528
5208,33.95455,31.166168
5359,34.04176,28.745508
5693,31.825521,31.507523
5744,30.711975,30.892675
5804,31.45911,30.509445
5897,31.561255,30.956703
5915,30.72228,30.83534
5976,,
5992,30.950565,30.755808
6158,31.376476,30.103674
6305,30.742336,30.760008
6339,31.35725,30.417473
A6397,30.02014,31.213444
C0291,31.114552,30.18286
C0640,31.206137,30.100048
C1298,31.220148,30.050137
C1864,31.246916,30.107721
C4638,30.726305,30.463694
C4709,30.820223,31.181389
C4990,31.835777,31.502861
C5587,,
C5693,31.825523,31.507523
C5744,30.711975,30.892675
C5897,31.561255,30.956703
C5939,31.16028,31.035482
C5976,,
C6354,,
CD2117,,
CD3119,,
CD3150,31.751698,31.460537
CD3224,31.800167,30.733297
CD3308,31.537336,30.60798
CD3568,31.37,30.82
CD3737,,
CD3739,31.140528,30.948889
CD3764,31.70212,30.926786
CD3895,30.50682,31.045055
CD3895,30.50682,31.045055
CD6268,,
CD6353,,
CD6855,,
CD7014,31.521833,31.164417
CD7087,,
CD7114,31.730362,30.962063
CD7403,31.083025,31.030956
CD7409,31.129417,30.732416
CD7586,30.662807,31.022648
CD7873,30.59501,30.877855
CD7888,31.002556,30.90925
CD8012,30.941206,31.115658
CK0030,31.198837,30.052202
CK0105,31.254726,30.061619
CK3636,31.325699,30.018286
D2117,,
D3055,,
D3062,31.49784,30.965778
D3119,31.285833,30.228611
D3150,31.751698,31.460537
D3224,31.800167,30.733278
D3308,31.537306,30.608
D3509,32.00007,30.702084
D3532,30.27717,30.81037
D3534,30.078363,31.154285
D3568,31.37,30.82
D3653,31.427837,30.801508
D3737,,
D3739,31.140528,30.948889
D3843,31.206167,30.562723
D6268,,
D6353,,
D6855,,
D7014,31.521833,31.164417
D7019,31.383389,31.045334
D7065,31.254084,31.065834
D7087,,
D7114,31.73075,30.962278
D7219,,
D7403,31.083025,31.030956
D7586,30.66264,31.022528
D7623,31.739922,30.785973
D7873,30.595,30.877861
D7888,31.002556,30.90925
G0091,31.210848,30.016466
G0424,31.236616,30.031376
G1760,,
G1786,31.341505,30.067015
G2028,30.349722,30.378963
G2112,29.933355,31.199577
G2201,29.983505,31.260517
G2284,29.840776,31.141666
G2298,29.98984,30.804424
G2470,29.092377,30.730604
G2961,29.965654,31.245771
G2962,29.965113,31.245722
G3011,33.82403,27.19186
G3012,33.848835,27.088694
G3019,33.830177,27.098923
G3103,33.834194,27.220306
G3114,33.827484,27.251394
G3116,33.88826,27.049284
G3118,33.93864,26.758583
G3122,33.80711,27.255667
G3123,33.94378,26.8365
G3126,33.99272,26.859612
G3129,33.820057,27.259527
G3138,33.838223,27.089027
G3302,33.90092,26.897808
G3303,33.933773,26.79789
G3312,33.839417,27.095638
G3320,33.65589,27.35439
G3321,33.980556,26.880945
G3322,33.940304,26.74289
G3324,33.99653,26.846695
G3573,30.8227,27.438059
G3958,33.95878,27.183111
G3969,33.989834,26.848335
G3972,33.804222,27.265612
G3976,33.82752,27.2571
G3977,33.88065,27.076727
G4034,32.354527,29.670172
G4040,32.341366,29.585064
G4068,32.48739,29.838667
G4069,32.305088,29.67023
G4221,,
G4256,32.241028,29.74195
G4294,32.45283,29.91236
G4305,33.456264,27.821888
G4309,33.48555,27.645554
G4320,32.172417,29.69139
G4325,32.567062,29.367231
G4326,32.626694,29.197027
G4889,31.254631,30.72052
G4990,31.835777,31.502916
G5000,,
G5086,32.694366,29.741564
G5162,33.80675,31.126583
G5663,31.536806,30.852222
G5665,31.07981,31.054203
G5693,31.825521,31.507523
G5900,,
G5992,30.950565,30.755808
G6158,31.376476,30.103674
GD3055,,
GD3119,,
GD3150,31.751698,31.460537
GD3224,31.800167,30.733278
GD3271,30.724503,31.185966
GD3389,31.586021,30.662111
GD3480,,
GD3509,,
GD3568,31.37,30.82
GD3739,31.14042,30.94887
GD3895,30.506836,31.045063
GD6353,,
GD6855,,
GD7014,31.521833,31.164417
GD7403,31.082916,31.030937
GD7563,30.707586,31.048952
GD7873,30.594893,30.877842
GD7888,31.002449,30.909231
GD8059,31.227667,31.169147
GI0046,31.337782,30.060925
GI2030,31.239199,30.055618
GK0030,31.199255,30.052702
GK1912,,
GK2153,31.305588,29.971203
GK3624,,
GK3636,31.325699,30.018286
GK3652,31.26339,30.022203
GK5814,,
GR2510,32.30467,30.945028
GR2553,32.292805,29.625084
GR2554,32.6229,29.242481
GR2587,32.358917,29.657194
GR2601,33.889946,27.01764
GR2602,33.885593,27.024256
GR2604,33.880596,27.04281
GR2625,33.76889,27.279583
GR2626,33.842377,27.197289
GR2627,33.862568,27.078005
GR2628,33.826527,27.106445
GR2631,33.90515,27.00084
GR2634,33.82733,27.142416
GR2638,33.934612,26.727528
GR2640,33.900055,26.997
GR2650,33.95861,26.635834
GR2658,33.822807,27.124195
GR2689,33.90143,26.985338
GR2697,33.9119,26.97956
GR2699,32.593388,29.323944
GR2734,33.93089,26.75964
GR2748,,
GR2752,33.670654,27.377045
GR2753,32.620945,29.21696
GR2754,33.84864,27.204082
GR2820,,
GR2821,,
GR2822,32.563972,29.380527
GR2823,32.57523,29.359756
GR2824,32.579037,29.355175
GR2825,32.590958,29.340794
GR2826,,
GR2860,32.41156,29.761065
GR2878,,
GR2891,,
GR2894,33.812954,27.259283
GR2896,33.82803,27.150583
GR2897,33.836483,27.21345
GR5015,,
GR5078,,
GR5079,,
GS2961,29.965385,31.245739
GS2962,29.964712,31.24577
GTSSV2,,
GU4749,31.192778,27.182444
GU4913,32.92758,24.051111
I2030,31.239199,30.055618
J2654,,
K2044,31.12997,30.120804
K3636,31.325699,30.018286
K3652,31.262672,30.024813
K5011,31.381004,30.16348
K5814,30.951027,29.971666
K6040,,
M1786,,
M3334,34.033554,26.56261
M4255,32.071056,29.778418
M4308,33.573055,27.499441
M4327,32.61605,28.979822
M5224,33.885197,30.98725
MR2829,32.12268,29.69371
MR2853,32.204144,29.771065
MR2856,32.140278,29.779148
R2510,32.30467,30.945028
R2736,33.762665,31.121
R2777,,
R3504,,
Site_ID,,
U4749,31.192778,27.182444
U4913,32.92758,24.051111
