Site_ID,TRUCount,Node,DownTime_StartDate,Region,LastModified_Date,cTimeStamp
6158,12,BSC81,2015-11-22 10:33:00,Cairo,Mar 13 2016 12:02PM,2016-03-13 12:02:15.963000000
C5939,3,BSC24,2015-11-13 23:27:00,Delta,Mar 13 2016 12:02PM,2016-03-13 12:02:15.963000000
CK0105,4,BSC59,2015-11-09 01:27:00,Cairo,Mar 13 2016 12:02PM,2016-03-13 12:02:15.963000000
0975,2,BSC81,2015-12-15 09:42:01,Cairo,Mar 13 2016 12:02PM,2016-03-13 12:02:15.963000000
I2030,24,BSC59,2015-11-09 01:20:00,Cairo,Mar 13 2016 12:02PM,2016-03-13 12:02:15.963000000
CD8012,4,BSC68,2015-12-21 00:03:00,Delta,Mar 13 2016 12:02PM,2016-03-13 12:02:15.963000000
0715,2,BSC59,2015-12-28 11:43:00,Cairo,Mar 13 2016 12:02PM,2016-03-13 12:02:15.963000000
G2112,1,RNC03,2014-09-24 23:07:12,,Mar 13 2016 12:02PM,2016-03-13 12:02:15.963000000
GK0030,2,RNC33,2015-12-31 15:10:46,Giza,Mar 13 2016 12:02PM,2016-03-13 12:02:15.963000000
GI2030,12,RNC41,2016-01-04 13:41:11,Cairo,Mar 13 2016 12:02PM,2016-03-13 12:02:15.963000000
CK0030,4,BSC78,2016-01-11 14:17:00,Giza,Mar 13 2016 12:02PM,2016-03-13 12:02:15.963000000
M5224,1,RNCH04,2016-01-23 11:52:12,Canal,Mar 13 2016 12:02PM,2016-03-13 12:02:15.963000000
G4889,2,RNC29,2016-01-24 06:48:21,Delta,Mar 13 2016 12:02PM,2016-03-13 12:02:15.963000000
D6268,32,BSC64,2016-01-28 04:03:16,NULL,Mar 13 2016 12:02PM,2016-03-13 12:02:15.963000000
CD6268,24,BSC64,2016-01-28 04:03:16,NULL,Mar 13 2016 12:02PM,2016-03-13 12:02:15.963000000
D7586,32,BSC53,2016-02-07 11:33:31,Delta,Mar 13 2016 12:02PM,2016-03-13 12:02:15.963000000
CD7586,32,BSC53,2016-02-07 11:33:31,Delta,Mar 13 2016 12:02PM,2016-03-13 12:02:15.963000000
K6040,36,BSCH34,2016-02-11 10:37:59,Cairo,Mar 13 2016 12:02PM,2016-03-13 12:02:15.963000000
3114,38,BSCH09,2016-02-17 14:16:50,Canal,Mar 13 2016 12:02PM,2016-03-13 12:02:15.963000000
K3636,8,BSC63,2016-02-23 13:28:55,Cairo,Mar 13 2016 12:02PM,2016-03-13 12:02:15.963000000
CK3636,12,BSC63,2016-02-23 13:28:55,Cairo,Mar 13 2016 12:02PM,2016-03-13 12:02:15.963000000
R2777,24,BSCH10,2016-02-23 22:53:57,,Mar 13 2016 12:02PM,2016-03-13 12:02:15.963000000
GK3636,6,RNC35,2016-02-24 10:22:00,Cairo,Mar 13 2016 12:02PM,2016-03-13 12:02:15.963000000
G6158,9,RNC42,2015-11-22 10:35:21,Cairo,Mar 13 2016 12:02PM,2016-03-13 12:02:15.963000000
2470,18,BSCH17,2016-02-29 14:36:19,Alexandria,Mar 13 2016 12:02PM,2016-03-13 12:02:15.963000000
G2470,5,RNCH08,2016-02-29 14:35:13,Alexandria,Mar 13 2016 12:02PM,2016-03-13 12:02:15.963000000
D3737,24,BSC42,2016-02-29 23:59:13,delta,Mar 13 2016 12:02PM,2016-03-13 12:02:15.963000000
CD3737,18,BSC42,2016-02-29 23:59:13,delta,Mar 13 2016 12:02PM,2016-03-13 12:02:15.963000000
GD8059,2,RNC40,2016-03-01 03:51:36,Delta,Mar 13 2016 12:02PM,2016-03-13 12:02:15.963000000
1440,2,BSC58,2015-11-10 02:45:00,Cairo,Mar 13 2016 12:02PM,2016-03-13 12:02:15.963000000
GK3624,6,RNC31,2016-03-01 11:49:59,,Mar 13 2016 12:02PM,2016-03-13 12:02:15.963000000
G2028,1,RNCH09,2016-03-03 07:44:10,Alexandria,Mar 13 2016 12:02PM,2016-03-13 12:02:15.963000000
0402,7,BSC83,2016-03-04 00:18:00,Giza,Mar 13 2016 12:02PM,2016-03-13 12:02:15.963000000
5208,32,BSCH16,2016-03-04 11:23:35,Canal,Mar 13 2016 12:02PM,2016-03-13 12:02:15.963000000
5976,14,BSC34,2016-03-06 23:11:00,delta,Mar 13 2016 12:02PM,2016-03-13 12:02:15.963000000
C5976,10,BSC34,2016-03-06 23:11:00,delta,Mar 13 2016 12:02PM,2016-03-13 12:02:15.963000000
GK1912,2,RNC41,2016-03-07 10:40:16,,Mar 13 2016 12:02PM,2016-03-13 12:02:15.963000000
GTSSV2,1,RNC40,2016-03-07 11:13:23,,Mar 13 2016 12:02PM,2016-03-13 12:02:15.963000000
D7219,16,BSCH25,2016-03-07 07:42:16,,Mar 13 2016 12:02PM,2016-03-13 12:02:15.963000000
GI0046,1,RNC24,2016-03-07 17:13:49,Cairo,Mar 13 2016 12:02PM,2016-03-13 12:02:15.963000000
5198,48,BSCH16,2016-03-08 02:51:09,Canal,Mar 13 2016 12:02PM,2016-03-13 12:02:15.963000000
GD7873,8,RNC30,2016-03-08 05:08:22,Delta,Mar 13 2016 12:02PM,2016-03-13 12:02:15.963000000
CD7873,32,BSC59,2016-03-08 05:10:00,Delta,Mar 13 2016 12:02PM,2016-03-13 12:02:15.963000000
D7873,48,BSC59,2016-03-08 05:10:00,Delta,Mar 13 2016 12:02PM,2016-03-13 12:02:15.963000000
1554,2,BSC86,2016-03-08 14:04:56,Cairo,Mar 13 2016 12:02PM,2016-03-13 12:02:15.963000000
0927,2,BSC81,2016-03-08 15:29:53,Cairo,Mar 13 2016 12:02PM,2016-03-13 12:02:15.963000000
GD6855,9,RNC29,2016-03-08 17:56:08,,Mar 13 2016 12:02PM,2016-03-13 12:02:15.963000000
CD6855,12,BSC85,2016-03-08 17:58:00,delta,Mar 13 2016 12:02PM,2016-03-13 12:02:15.963000000
D6855,24,BSC85,2016-03-08 17:58:00,delta,Mar 13 2016 12:02PM,2016-03-13 12:02:15.963000000
G0091,1,RNC32,2016-03-09 01:15:30,Giza,Mar 13 2016 12:02PM,2016-03-13 12:02:15.963000000
R2736,40,BSCH16,2016-03-09 08:08:22,Canal,Mar 13 2016 12:02PM,2016-03-13 12:02:15.963000000
1134,2,BSC58,2016-03-09 11:53:00,Cairo,Mar 13 2016 12:02PM,2016-03-13 12:02:15.963000000
CD6353,16,BSC66,2016-03-09 12:39:00,delta,Mar 13 2016 12:02PM,2016-03-13 12:02:15.963000000
GD3119,8,RNC34,2016-03-09 19:32:55,,Mar 13 2016 12:02PM,2016-03-13 12:02:15.963000000
D3119,38,BSC79,2016-03-09 19:34:37,Delta,Mar 13 2016 12:02PM,2016-03-13 12:02:15.963000000
CD3119,20,BSC79,2016-03-09 19:34:37,Delta,Mar 13 2016 12:02PM,2016-03-13 12:02:15.963000000
G1760,6,RNC42,2016-03-09 20:05:52,,Mar 13 2016 12:02PM,2016-03-13 12:02:15.963000000
GD6353,9,RNC34,2016-03-09 20:07:32,,Mar 13 2016 12:02PM,2016-03-13 12:02:15.963000000
1760,10,BSC81,2016-03-09 20:07:00,Cairo,Mar 13 2016 12:02PM,2016-03-13 12:02:15.963000000
D6353,20,BSC66,2016-03-09 20:09:29,delta,Mar 13 2016 12:02PM,2016-03-13 12:02:15.963000000
D3062,28,BSC70,2016-03-10 03:45:00,Delta,Mar 13 2016 12:02PM,2016-03-13 12:02:15.963000000
GD7563,3,RNCH24-MNS,2016-03-10 06:35:39,Delta,Mar 13 2016 12:02PM,2016-03-13 12:02:15.963000000
D3843,2,BSC58,2016-03-10 08:14:23,Delta,Mar 13 2016 12:02PM,2016-03-13 12:02:15.963000000
CD7087,4,BSC75,2016-03-10 14:19:00,delta,Mar 13 2016 12:02PM,2016-03-13 12:02:15.963000000
GD3895,9,RNCH24-MNS,2016-03-10 15:36:08,Delta,Mar 13 2016 12:02PM,2016-03-13 12:02:15.963000000
0974,2,BSC81,2016-03-10 16:07:00,Cairo,Mar 13 2016 12:02PM,2016-03-13 12:02:15.963000000
CD3895,18,MNS-BSCH-3,2016-03-10 16:01:16,Delta,Mar 13 2016 12:02PM,2016-03-13 12:02:15.963000000
2721,3,BSCH19,2016-03-11 03:04:18,Alexandria,Mar 13 2016 12:02PM,2016-03-13 12:02:15.963000000
G2201,6,RNC37,2016-03-11 04:30:40,Alexandria,Mar 13 2016 12:02PM,2016-03-13 12:02:15.963000000
2905,2,BSC31,2016-03-11 10:43:00,Alexandria,Mar 13 2016 12:02PM,2016-03-13 12:02:15.963000000
G5162,1,RNCH16,2016-03-11 12:56:25,Canal,Mar 13 2016 12:02PM,2016-03-13 12:02:15.963000000
K5814,18,BSCH25,2016-03-11 14:04:22,Giza,Mar 13 2016 12:02PM,2016-03-13 12:02:15.963000000
GK5814,6,RNCH12,2016-03-11 14:03:21,Giza,Mar 13 2016 12:02PM,2016-03-13 12:02:15.963000000
0906,2,BSC81,2016-03-11 19:11:00,Cairo,Mar 13 2016 12:02PM,2016-03-13 12:02:15.963000000
GD3055,6,RNC40,2016-03-12 02:57:00,,Mar 13 2016 12:02PM,2016-03-13 12:02:15.963000000
D3055,24,BSC62,2016-03-12 02:52:00,delta,Mar 13 2016 12:02PM,2016-03-13 12:02:15.963000000
2291,15,BSCH17,2016-03-12 07:51:26,,Mar 13 2016 12:02PM,2016-03-13 12:02:15.963000000
GD3480,6,RNC36,2016-03-12 11:01:58,,Mar 13 2016 12:02PM,2016-03-13 12:02:15.963000000
1107,2,BSC58,2016-03-12 14:08:00,Cairo,Mar 13 2016 12:02PM,2016-03-13 12:02:15.963000000
CD3895,6,MNS-BSCH-3,2016-03-10 16:01:16,Delta,Mar 13 2016 12:02PM,2016-03-13 12:02:15.963000000
3573,13,BSCH13,2016-03-12 17:49:03,Upper Egypt,Mar 13 2016 12:02PM,2016-03-13 12:02:15.963000000
G3573,6,RNCH01,2016-03-12 17:48:06,Upper Egypt,Mar 13 2016 12:02PM,2016-03-13 12:02:15.963000000
1163,2,BSC58,2016-03-12 19:21:00,Cairo,Mar 13 2016 12:02PM,2016-03-13 12:02:15.963000000
GD3739,6,RNC05,2016-03-12 21:32:38,Delta,Mar 13 2016 12:02PM,2016-03-13 12:02:15.963000000
D3739,24,BSC42,2016-03-12 21:30:00,Delta,Mar 13 2016 12:02PM,2016-03-13 12:02:15.963000000
CD3739,16,BSC42,2016-03-12 21:29:00,Delta,Mar 13 2016 12:02PM,2016-03-13 12:02:15.963000000
CD3150,12,BSC67,2016-03-12 23:04:00,Delta,Mar 13 2016 12:02PM,2016-03-13 12:02:15.963000000
D3150,23,BSC67,2016-03-12 23:23:00,Delta,Mar 13 2016 12:02PM,2016-03-13 12:02:15.963000000
GK3652,6,RNC28,2016-03-12 23:36:49,Cairo,Mar 13 2016 12:02PM,2016-03-13 12:02:15.963000000
K3652,8,BSC58,2016-03-12 23:36:00,Cairo,Mar 13 2016 12:02PM,2016-03-13 12:02:15.963000000
GD3150,6,RNC27,2016-03-13 01:16:33,Delta,Mar 13 2016 12:02PM,2016-03-13 12:02:15.963000000
2915,2,BSC36,2016-03-13 01:53:00,Alexandria,Mar 13 2016 12:02PM,2016-03-13 12:02:15.963000000
A6397,4,BSC18,2016-03-13 03:32:00,Alexandria,Mar 13 2016 12:02PM,2016-03-13 12:02:15.963000000
1166,1,BSC58,2016-03-13 06:48:00,Cairo,Mar 13 2016 12:02PM,2016-03-13 12:02:15.963000000
0971,2,BSC82,2016-03-13 07:07:00,Cairo,Mar 13 2016 12:02PM,2016-03-13 12:02:15.963000000
G5693,9,RNC25,2016-03-13 08:12:56,Delta,Mar 13 2016 12:02PM,2016-03-13 12:02:15.963000000
C5693,28,BSC61,2016-03-13 08:14:32,Delta,Mar 13 2016 12:02PM,2016-03-13 12:02:15.963000000
5693,26,BSC61,2016-03-13 08:14:32,Delta,Mar 13 2016 12:02PM,2016-03-13 12:02:15.963000000
C0291,3,BSC86,2016-03-13 08:21:00,Delta,Mar 13 2016 12:02PM,2016-03-13 12:02:15.963000000
GD3271,1,RNC30,2016-03-13 08:58:31,Delta,Mar 13 2016 12:02PM,2016-03-13 12:02:15.963000000
5359,4,BSCH11,2016-03-13 09:00:56,Canal,Mar 13 2016 12:02PM,2016-03-13 12:02:15.963000000
GS2962,3,RNC37,2016-03-13 09:19:51,Alexandria,Mar 13 2016 12:02PM,2016-03-13 12:02:15.963000000
G2962,6,RNC37,2016-03-13 09:20:41,Alexandria,Mar 13 2016 12:02PM,2016-03-13 12:02:15.963000000
G2961,6,RNC37,2016-03-13 09:22:11,Alexandria,Mar 13 2016 12:02PM,2016-03-13 12:02:15.963000000
GS2961,6,RNC37,2016-03-13 09:22:26,Alexandria,Mar 13 2016 12:02PM,2016-03-13 12:02:15.963000000
2014,12,BSC18,2016-03-13 09:37:00,Alexandria,Mar 13 2016 12:02PM,2016-03-13 12:02:15.963000000
2961,4,BSC35,2016-03-13 09:24:36,Alexandria,Mar 13 2016 12:02PM,2016-03-13 12:02:15.963000000
2962,3,BSC35,2016-03-13 09:24:00,Alexandria,Mar 13 2016 12:02PM,2016-03-13 12:02:15.963000000
2563,4,BSCH19,2016-03-13 09:31:05,Alexandria,Mar 13 2016 12:02PM,2016-03-13 12:02:15.963000000
GK2153,9,RNC39,2016-03-13 09:42:24,Cairo,Mar 13 2016 12:02PM,2016-03-13 12:02:15.963000000
G5992,8,RNC38,2016-03-13 09:44:52,Delta,Mar 13 2016 12:02PM,2016-03-13 12:02:15.963000000
GD3568,8,RNC36,2016-03-13 09:48:20,Delta,Mar 13 2016 12:02PM,2016-03-13 12:02:15.963000000
GD7888,6,RNC38,2016-03-13 09:48:34,Delta,Mar 13 2016 12:02PM,2016-03-13 12:02:15.963000000
5992,20,BSC80,2016-03-13 09:47:00,Delta,Mar 13 2016 12:02PM,2016-03-13 12:02:15.963000000
D7888,22,BSC48,2016-03-13 09:49:39,Delta,Mar 13 2016 12:02PM,2016-03-13 12:02:15.963000000
CD7888,12,BSC48,2016-03-13 09:49:39,Delta,Mar 13 2016 12:02PM,2016-03-13 12:02:15.963000000
4866,3,BSC80,2016-03-13 09:53:00,Delta,Mar 13 2016 12:02PM,2016-03-13 12:02:15.963000000
C5897,18,BSC70,2016-03-13 09:58:00,Delta,Mar 13 2016 12:02PM,2016-03-13 12:02:15.963000000
5897,5,BSC70,2016-03-13 09:58:00,Delta,Mar 13 2016 12:02PM,2016-03-13 12:02:15.963000000
D3653,8,BSC65,2016-03-13 09:57:00,Delta,Mar 13 2016 12:02PM,2016-03-13 12:02:15.963000000
K5011,2,BSC72,2016-03-13 10:02:00,Cairo,Mar 13 2016 12:02PM,2016-03-13 12:02:15.963000000
GD7403,6,RNC38,2016-03-13 10:04:43,Delta,Mar 13 2016 12:02PM,2016-03-13 12:02:15.963000000
CD7403,14,BSC73,2016-03-13 10:00:00,Delta,Mar 13 2016 12:02PM,2016-03-13 12:02:15.963000000
D7403,11,BSC73,2016-03-13 10:00:00,Delta,Mar 13 2016 12:02PM,2016-03-13 12:02:15.963000000
5000,14,BSCH28,2016-03-13 10:10:27,Canal,Mar 13 2016 12:02PM,2016-03-13 12:02:15.963000000
G0424,9,RNC28,2016-03-13 10:10:00,Cairo,Mar 13 2016 12:02PM,2016-03-13 12:02:15.963000000
G5000,12,RNCH16,2016-03-13 10:09:25,,Mar 13 2016 12:02PM,2016-03-13 12:02:15.963000000
K2044,7,BSC86,2016-03-13 10:14:46,Giza,Mar 13 2016 12:02PM,2016-03-13 12:02:15.963000000
R3504,4,BSCH01,2016-03-13 10:19:48,Canal,Mar 13 2016 12:02PM,2016-03-13 12:02:15.963000000
6339,11,BSC73,2016-03-13 10:22:00,Delta,Mar 13 2016 12:02PM,2016-03-13 12:02:15.963000000
2298,43,BSCH17,2016-03-13 10:26:49,Alexandria,Mar 13 2016 12:02PM,2016-03-13 12:02:15.963000000
CD2117,12,BSC73,2016-03-13 10:22:00,delta,Mar 13 2016 12:02PM,2016-03-13 12:02:15.963000000
D2117,24,BSC73,2016-03-13 10:22:00,delta,Mar 13 2016 12:02PM,2016-03-13 12:02:15.963000000
G2298,6,RNCH09,2016-03-13 10:25:44,Alexandria,Mar 13 2016 12:02PM,2016-03-13 12:02:15.963000000
GD3224,6,RNC29,2016-03-13 10:31:26,Delta,Mar 13 2016 12:02PM,2016-03-13 12:02:15.963000000
D7623,17,BSC51,2016-03-13 10:30:00,Delta,Mar 13 2016 12:02PM,2016-03-13 12:02:15.963000000
D3224,21,BSC51,2016-03-13 10:30:00,Delta,Mar 13 2016 12:02PM,2016-03-13 12:02:15.963000000
CD7409,6,BSC42,2016-03-13 10:28:00,Delta,Mar 13 2016 12:02PM,2016-03-13 12:02:15.963000000
GD3389,8,RNC29,2016-03-13 10:38:39,Delta,Mar 13 2016 12:02PM,2016-03-13 12:02:15.963000000
6305,26,BSC64,2016-03-13 10:37:00,Delta,Mar 13 2016 12:02PM,2016-03-13 12:02:15.963000000
G4990,9,RNC25,2016-03-13 10:45:39,Delta,Mar 13 2016 12:02PM,2016-03-13 12:02:15.963000000
3724,9,BSCH07,2016-03-13 10:51:23,Upper Egypt,Mar 13 2016 12:02PM,2016-03-13 12:02:15.963000000
GD7014,6,RNC25,2016-03-13 10:50:04,Delta,Mar 13 2016 12:02PM,2016-03-13 12:02:15.963000000
3722,10,BSCH07,2016-03-13 10:51:22,Upper Egypt,Mar 13 2016 12:02PM,2016-03-13 12:02:15.963000000
4807,9,BSC61,2016-03-13 10:39:00,Delta,Mar 13 2016 12:02PM,2016-03-13 12:02:15.963000000
5915,12,BSC59,2016-03-13 10:49:30,Delta,Mar 13 2016 12:02PM,2016-03-13 12:02:15.963000000
4990,28,BSC61,2016-03-13 10:39:00,Delta,Mar 13 2016 12:02PM,2016-03-13 12:02:15.963000000
C4990,16,BSC61,2016-03-13 10:39:00,Delta,Mar 13 2016 12:02PM,2016-03-13 12:02:15.963000000
C6354,8,BSC84,2016-03-13 10:54:42,Delta,Mar 13 2016 12:02PM,2016-03-13 12:02:15.963000000
D7019,8,BSC45,2016-03-13 10:42:00,Delta,Mar 13 2016 12:02PM,2016-03-13 12:02:15.963000000
0953,2,BSC82,2016-03-13 10:54:40,Cairo,Mar 13 2016 12:02PM,2016-03-13 12:02:15.963000000
CD7014,15,BSC69,2016-03-13 10:52:00,Delta,Mar 13 2016 12:02PM,2016-03-13 12:02:15.963000000
5206,12,BSCH16,2016-03-13 11:02:50,Canal,Mar 13 2016 12:02PM,2016-03-13 12:02:15.963000000
G2284,2,RNC17,2016-03-13 11:03:19,Alexandria,Mar 13 2016 12:02PM,2016-03-13 12:02:15.963000000
2920,2,BSC35,2016-03-13 11:04:37,Alexandria,Mar 13 2016 12:02PM,2016-03-13 12:02:15.963000000
M1786,3,RNC24,2016-03-13 11:09:33,Cairo,Mar 13 2016 12:02PM,2016-03-13 12:02:15.963000000
G1786,9,RNC24,2016-03-13 11:09:33,Cairo,Mar 13 2016 12:02PM,2016-03-13 12:02:15.963000000
U4749,4,BSCH05,2016-03-13 11:16:46,Upper Egypt,Mar 13 2016 12:02PM,2016-03-13 12:02:15.963000000
1786,7,BSC81,2016-03-13 11:11:00,Cairo,Mar 13 2016 12:02PM,2016-03-13 12:02:15.963000000
J2654,4,BSC83,2016-03-13 11:09:00,Giza,Mar 13 2016 12:02PM,2016-03-13 12:02:15.963000000
5804,22,BSC85,2016-03-13 11:14:44,Delta,Mar 13 2016 12:02PM,2016-03-13 12:02:15.963000000
GU4749,1,RNCH01,2016-03-13 11:15:33,Upper Egypt,Mar 13 2016 12:02PM,2016-03-13 12:02:15.963000000
4221,4,BSCH17,2016-03-13 11:18:09,,Mar 13 2016 12:02PM,2016-03-13 12:02:15.963000000
G4221,6,RNCH08,2016-03-13 11:17:02,,Mar 13 2016 12:02PM,2016-03-13 12:02:15.963000000
U4913,10,BSCH04,2016-03-13 11:19:38,Upper Egypt,Mar 13 2016 12:02PM,2016-03-13 12:02:15.963000000
5086,4,BSCH28,2016-03-13 11:19:20,Canal,Mar 13 2016 12:02PM,2016-03-13 12:02:15.963000000
G5086,6,RNCH16,2016-03-13 11:18:17,Canal,Mar 13 2016 12:02PM,2016-03-13 12:02:15.963000000
GU4913,8,RNCH01,2016-03-13 11:18:34,Upper Egypt,Mar 13 2016 12:02PM,2016-03-13 12:02:15.963000000
D7014,25,BSC69,2016-03-13 11:21:00,Delta,Mar 13 2016 12:02PM,2016-03-13 12:02:15.963000000
G3958,3,RNCH05,2016-03-13 11:28:04,Canal,Mar 13 2016 12:02PM,2016-03-13 12:02:15.963000000
G3969,6,RNCH05,2016-03-13 11:28:08,Canal,Mar 13 2016 12:02PM,2016-03-13 12:02:15.963000000
GR2689,9,RNCH05,2016-03-13 11:28:04,Canal,Mar 13 2016 12:02PM,2016-03-13 12:02:15.963000000
GR2754,6,RNCH05,2016-03-13 11:28:06,Canal,Mar 13 2016 12:02PM,2016-03-13 12:02:15.963000000
GR2626,12,RNCH05,2016-03-13 11:27:54,Canal,Mar 13 2016 12:02PM,2016-03-13 12:02:15.963000000
G3972,2,RNCH05,2016-03-13 11:28:41,Canal,Mar 13 2016 12:02PM,2016-03-13 12:02:15.963000000
GR2631,12,RNCH05,2016-03-13 11:28:47,Canal,Mar 13 2016 12:02PM,2016-03-13 12:02:15.963000000
GR2752,11,RNCH23-BS,2016-03-13 11:28:47,Canal,Mar 13 2016 12:02PM,2016-03-13 12:02:15.963000000
GR2699,11,RNCH02,2016-03-13 11:29:22,Canal,Mar 13 2016 12:02PM,2016-03-13 12:02:15.963000000
G3116,8,RNCH05,2016-03-13 11:29:11,Canal,Mar 13 2016 12:02PM,2016-03-13 12:02:15.963000000
GR2820,12,RNCH02,2016-03-13 11:29:09,,Mar 13 2016 12:02PM,2016-03-13 12:02:15.963000000
GR2823,12,RNCH02,2016-03-13 11:29:08,Canal,Mar 13 2016 12:02PM,2016-03-13 12:02:15.963000000
G3302,2,RNCH05,2016-03-13 11:29:22,Canal,Mar 13 2016 12:02PM,2016-03-13 12:02:15.963000000
G3324,6,RNCH05,2016-03-13 11:29:07,Canal,Mar 13 2016 12:02PM,2016-03-13 12:02:15.963000000
GR2825,7,RNCH02,2016-03-13 11:29:22,Canal,Mar 13 2016 12:02PM,2016-03-13 12:02:15.963000000
G4326,9,RNCH02,2016-03-13 11:29:21,Canal,Mar 13 2016 12:02PM,2016-03-13 12:02:15.963000000
GR2753,12,RNCH02,2016-03-13 11:29:06,Canal,Mar 13 2016 12:02PM,2016-03-13 12:02:15.963000000
G3321,3,RNCH05,2016-03-13 11:29:07,Canal,Mar 13 2016 12:02PM,2016-03-13 12:02:15.963000000
GR2697,9,RNCH05,2016-03-13 11:29:09,Canal,Mar 13 2016 12:02PM,2016-03-13 12:02:15.963000000
G3019,12,RNCH05,2016-03-13 11:29:06,Canal,Mar 13 2016 12:02PM,2016-03-13 12:02:15.963000000
G3126,3,RNCH05,2016-03-13 11:29:09,Canal,Mar 13 2016 12:02PM,2016-03-13 12:02:15.963000000
GR2734,6,RNCH05,2016-03-13 11:29:07,Canal,Mar 13 2016 12:02PM,2016-03-13 12:02:15.963000000
GR2638,6,RNCH05,2016-03-13 11:29:09,Canal,Mar 13 2016 12:02PM,2016-03-13 12:02:15.963000000
G3122,9,RNCH05,2016-03-13 11:29:08,Canal,Mar 13 2016 12:02PM,2016-03-13 12:02:15.963000000
GR2640,9,RNCH05,2016-03-13 11:29:12,Canal,Mar 13 2016 12:02PM,2016-03-13 12:02:15.963000000
GR2604,6,RNCH05,2016-03-13 11:29:08,Canal,Mar 13 2016 12:02PM,2016-03-13 12:02:15.963000000
GR2602,6,RNCH05,2016-03-13 11:29:08,Canal,Mar 13 2016 12:02PM,2016-03-13 12:02:15.963000000
M3334,2,RNCH06,2016-03-13 11:29:09,Canal,Mar 13 2016 12:02PM,2016-03-13 12:02:15.963000000
G3303,9,RNCH05,2016-03-13 11:29:07,Canal,Mar 13 2016 12:02PM,2016-03-13 12:02:15.963000000
GR5078,2,RNCH02,2016-03-13 11:29:20,,Mar 13 2016 12:02PM,2016-03-13 12:02:15.963000000
G3012,12,RNCH05,2016-03-13 11:29:05,Canal,Mar 13 2016 12:02PM,2016-03-13 12:02:15.963000000
G3322,6,RNCH05,2016-03-13 11:29:10,Canal,Mar 13 2016 12:02PM,2016-03-13 12:02:15.963000000
G3123,6,RNCH05,2016-03-13 11:29:02,Canal,Mar 13 2016 12:02PM,2016-03-13 12:02:15.963000000
GR2894,9,RNCH05,2016-03-13 11:30:05,Canal,Mar 13 2016 12:02PM,2016-03-13 12:02:15.963000000
G3103,2,RNCH05,2016-03-13 11:30:05,Canal,Mar 13 2016 12:02PM,2016-03-13 12:02:15.963000000
G3011,7,RNCH05,2016-03-13 11:30:06,Canal,Mar 13 2016 12:02PM,2016-03-13 12:02:15.963000000
GR2625,3,RNCH05,2016-03-13 11:30:05,Canal,Mar 13 2016 12:02PM,2016-03-13 12:02:15.963000000
G3118,6,RNCH05,2016-03-13 11:30:03,Canal,Mar 13 2016 12:02PM,2016-03-13 12:02:15.963000000
GR2896,8,RNCH05,2016-03-13 11:30:06,Canal,Mar 13 2016 12:02PM,2016-03-13 12:02:15.963000000
G4294,11,RNCH03,2016-03-13 11:29:51,Canal,Mar 13 2016 12:02PM,2016-03-13 12:02:15.963000000
MR2853,2,RNCH04,2016-03-13 11:30:12,Canal,Mar 13 2016 12:02PM,2016-03-13 12:02:15.963000000
G5665,6,RNC38,2016-03-13 11:31:34,Delta,Mar 13 2016 12:02PM,2016-03-13 12:02:15.963000000
C1864,9,BSC80,2016-03-13 11:29:41,Cairo,Mar 13 2016 12:02PM,2016-03-13 12:02:15.963000000
GR5079,1,RNCH02,2016-03-13 11:30:13,,Mar 13 2016 12:02PM,2016-03-13 12:02:15.963000000
G4068,4,RNCH03,2016-03-13 11:30:16,Canal,Mar 13 2016 12:02PM,2016-03-13 12:02:15.963000000
M4255,3,RNCH04,2016-03-13 11:30:14,Canal,Mar 13 2016 12:02PM,2016-03-13 12:02:15.963000000
M4327,1,RNCH02,2016-03-13 11:30:16,Canal,Mar 13 2016 12:02PM,2016-03-13 12:02:15.963000000
GR2587,11,RNCH04,2016-03-13 11:30:15,Canal,Mar 13 2016 12:02PM,2016-03-13 12:02:15.963000000
M4308,1,RNCH05,2016-03-13 11:30:17,Canal,Mar 13 2016 12:02PM,2016-03-13 12:02:15.963000000
G3138,12,RNCH05,2016-03-13 11:30:22,Canal,Mar 13 2016 12:02PM,2016-03-13 12:02:15.963000000
GR2650,3,RNCH06,2016-03-13 11:30:20,Canal,Mar 13 2016 12:02PM,2016-03-13 12:02:15.963000000
G3320,11,RNCH23-BS,2016-03-13 11:30:30,Canal,Mar 13 2016 12:02PM,2016-03-13 12:02:15.963000000
GR2601,9,RNCH05,2016-03-13 11:30:19,Canal,Mar 13 2016 12:02PM,2016-03-13 12:02:15.963000000
GR2897,12,RNCH05,2016-03-13 11:30:22,Canal,Mar 13 2016 12:02PM,2016-03-13 12:02:15.963000000
G3312,3,RNCH05,2016-03-13 11:30:24,Canal,Mar 13 2016 12:02PM,2016-03-13 12:02:15.963000000
GR2658,8,RNCH05,2016-03-13 11:30:23,Canal,Mar 13 2016 12:02PM,2016-03-13 12:02:15.963000000
GR2634,12,RNCH05,2016-03-13 11:30:23,Canal,Mar 13 2016 12:02PM,2016-03-13 12:02:15.963000000
D7087,8,BSC75,2016-03-13 11:34:35,delta,Mar 13 2016 12:02PM,2016-03-13 12:02:15.963000000
D3308,4,BSC85,2016-03-13 11:34:45,Delta,Mar 13 2016 12:02PM,2016-03-13 12:02:15.963000000
CD3308,4,BSC85,2016-03-13 11:34:45,Delta,Mar 13 2016 12:02PM,2016-03-13 12:02:15.963000000
D7114,31,BSC33,2016-03-13 11:34:38,Delta,Mar 13 2016 12:02PM,2016-03-13 12:02:15.963000000
CD7114,4,BSC33,2016-03-13 11:34:38,Delta,Mar 13 2016 12:02PM,2016-03-13 12:02:15.963000000
MR2856,3,RNCH04,2016-03-13 11:30:25,Canal,Mar 13 2016 12:02PM,2016-03-13 12:02:15.963000000
G4034,1,RNCH04,2016-03-13 11:30:24,Canal,Mar 13 2016 12:02PM,2016-03-13 12:02:15.963000000
G3977,4,RNCH05,2016-03-13 11:30:26,Canal,Mar 13 2016 12:02PM,2016-03-13 12:02:15.963000000
GR2627,12,RNCH05,2016-03-13 11:30:25,Canal,Mar 13 2016 12:02PM,2016-03-13 12:02:15.963000000
GR5015,12,RNCH02,2016-03-13 11:30:28,,Mar 13 2016 12:02PM,2016-03-13 12:02:15.963000000
GR2822,2,RNCH02,2016-03-13 11:30:30,Canal,Mar 13 2016 12:02PM,2016-03-13 12:02:15.963000000
GR2554,12,RNCH02,2016-03-13 11:30:28,Canal,Mar 13 2016 12:02PM,2016-03-13 12:02:15.963000000
G4325,7,RNCH02,2016-03-13 11:30:29,Canal,Mar 13 2016 12:02PM,2016-03-13 12:02:15.963000000
G3114,9,RNCH05,2016-03-13 11:30:27,Canal,Mar 13 2016 12:02PM,2016-03-13 12:02:15.963000000
G4069,12,RNCH04,2016-03-13 11:30:28,Canal,Mar 13 2016 12:02PM,2016-03-13 12:02:15.963000000
G4040,12,RNCH04,2016-03-13 11:30:28,Canal,Mar 13 2016 12:02PM,2016-03-13 12:02:15.963000000
GR2553,14,RNCH04,2016-03-13 11:30:28,Canal,Mar 13 2016 12:02PM,2016-03-13 12:02:15.963000000
GR2891,12,RNCH02,2016-03-13 11:30:28,,Mar 13 2016 12:02PM,2016-03-13 12:02:15.963000000
GR2826,9,RNCH02,2016-03-13 11:30:28,,Mar 13 2016 12:02PM,2016-03-13 12:02:15.963000000
GR2878,6,RNCH05,2016-03-13 11:30:29,Canal,Mar 13 2016 12:02PM,2016-03-13 12:02:15.963000000
G4320,4,RNCH04,2016-03-13 11:30:28,Canal,Mar 13 2016 12:02PM,2016-03-13 12:02:15.963000000
GR2824,12,RNCH02,2016-03-13 11:30:29,Canal,Mar 13 2016 12:02PM,2016-03-13 12:02:15.963000000
GR2860,12,RNCH04,2016-03-13 11:30:30,Canal,Mar 13 2016 12:02PM,2016-03-13 12:02:15.963000000
G4256,6,RNCH04,2016-03-13 11:30:26,Canal,Mar 13 2016 12:02PM,2016-03-13 12:02:15.963000000
MR2829,2,RNCH04,2016-03-13 11:30:27,Canal,Mar 13 2016 12:02PM,2016-03-13 12:02:15.963000000
GR2821,12,RNCH02,2016-03-13 11:30:28,,Mar 13 2016 12:02PM,2016-03-13 12:02:15.963000000
GR2748,12,RNCH05,2016-03-13 11:30:28,,Mar 13 2016 12:02PM,2016-03-13 12:02:15.963000000
GD3509,6,RNC29,2016-03-13 11:40:35,,Mar 13 2016 12:02PM,2016-03-13 12:02:15.963000000
C5587,26,BSC22,2016-03-13 11:35:00,Delta,Mar 13 2016 12:02PM,2016-03-13 12:02:15.963000000
D7065,4,BSC24,2016-03-13 11:35:00,Delta,Mar 13 2016 12:02PM,2016-03-13 12:02:15.963000000
0424,18,BSC58,2016-03-13 11:37:00,Cairo,Mar 13 2016 12:02PM,2016-03-13 12:02:15.963000000
G3129,10,RNCH05,2016-03-13 11:30:38,Canal,Mar 13 2016 12:02PM,2016-03-13 12:02:15.963000000
G4305,4,RNCH05,2016-03-13 11:30:38,Canal,Mar 13 2016 12:02PM,2016-03-13 12:02:15.963000000
GR2628,11,RNCH05,2016-03-13 11:30:42,Canal,Mar 13 2016 12:02PM,2016-03-13 12:02:15.963000000
G3976,1,RNCH05,2016-03-13 11:30:48,Canal,Mar 13 2016 12:02PM,2016-03-13 12:02:15.963000000
D3509,36,BSC75,2016-03-13 11:42:00,Delta,Mar 13 2016 12:02PM,2016-03-13 12:02:15.963000000
2606,2,BSC36,2016-03-13 11:44:50,Alexandria,Mar 13 2016 12:02PM,2016-03-13 12:02:15.963000000
G4309,3,RNCH05,2016-03-13 11:31:27,Canal,Mar 13 2016 12:02PM,2016-03-13 12:02:15.963000000
G5663,6,RNC36,2016-03-13 11:51:24,Delta,Mar 13 2016 12:02PM,2016-03-13 12:02:15.963000000
R2510,36,BSCH11,2016-03-13 11:34:15,Canal,Mar 13 2016 12:02PM,2016-03-13 12:02:15.963000000
2718,3,BSCH19,2016-03-13 11:34:45,Alexandria,Mar 13 2016 12:02PM,2016-03-13 12:02:15.963000000
C5744,16,BSC59,2016-03-13 11:45:00,Delta,Mar 13 2016 12:02PM,2016-03-13 12:02:15.963000000
C1298,6,BSC58,2016-03-13 11:47:00,Cairo,Mar 13 2016 12:02PM,2016-03-13 12:02:15.963000000
0067,4,BSC46,2016-03-13 11:47:00,Giza,Mar 13 2016 12:02PM,2016-03-13 12:02:15.963000000
C4709,8,BSC68,2016-03-13 11:44:00,Delta,Mar 13 2016 12:02PM,2016-03-13 12:02:15.963000000
4638,21,BSC73,2016-03-13 11:49:35,Delta,Mar 13 2016 12:02PM,2016-03-13 12:02:15.963000000
5744,23,BSC59,2016-03-13 11:45:00,Delta,Mar 13 2016 12:02PM,2016-03-13 12:02:15.963000000
C4638,14,BSC73,2016-03-13 11:49:35,Delta,Mar 13 2016 12:02PM,2016-03-13 12:02:15.963000000
CD3224,12,BSC51,2016-03-13 11:44:00,Delta,Mar 13 2016 12:02PM,2016-03-13 12:02:15.963000000
D3534,6,BSCH41,2016-03-13 11:40:43,Delta,Mar 13 2016 12:02PM,2016-03-13 12:02:15.963000000
D3532,45,BSCH28,2016-03-13 11:41:01,Delta,Mar 13 2016 12:02PM,2016-03-13 12:02:15.963000000
2457,10,BSCH17,2016-03-13 11:45:40,Alexandria,Mar 13 2016 12:02PM,2016-03-13 12:02:15.963000000
GR2510,8,RNCH16,2016-03-13 11:33:18,Canal,Mar 13 2016 12:02PM,2016-03-13 12:02:15.963000000
D3568,29,BSC74,2016-03-13 11:50:00,Delta,Mar 13 2016 12:02PM,2016-03-13 12:02:15.963000000
1651,6,BSC78,2016-03-13 11:44:00,Giza,Mar 13 2016 12:02PM,2016-03-13 12:02:15.963000000
CD3568,16,BSC74,2016-03-13 11:50:00,Delta,Mar 13 2016 12:02PM,2016-03-13 12:02:15.963000000
G5900,8,RNC37,2016-03-13 11:56:01,,Mar 13 2016 12:02PM,2016-03-13 12:02:15.963000000
CD3764,5,BSC33,2016-03-13 11:46:00,Delta,Mar 13 2016 12:02PM,2016-03-13 12:02:15.963000000
C0640,2,BSC69,2016-03-13 11:52:00,Giza,Mar 13 2016 12:02PM,2016-03-13 12:02:15.963000000
