
___________________________________________________________________________

2/8/2015 7:10:19 AM : Started Cellular Network Status stores : Job-330022

Execute Command Script on Devices
83 devices selected

10th_Ramadan (10.232.15.1):


Packet Service = HSPA (Attached)
Cell ID = 53352
Primary Scrambling Code = 137
Current RSSI = -98 dBm
	Primary Scrambling Code = 0x89
	RSCP = -100 dBm, ECIO = -23 dBm



___________________________________________________________________________
Abbas-AlAkkad.Vodafone.com (10.232.26.1):


Packet Service = EDGE (Attached)
Cell ID = 34400
Primary Scrambling Code = 0
Current RSSI = -69 dBm
	Primary Scrambling Code = 0x1C
	RSCP = -121 dBm, ECIO = -8 dBm



___________________________________________________________________________
Agamy (10.232.8.1):




Packet Service = HSDPA (Attached)
Cell ID = 40490
Primary Scrambling Code = 467
Current RSSI = -61 dBm

___________________________________________________________________________
Ainshams (10.232.13.1):



Packet Service = HSPA (Attached)
Cell ID = 29485
Primary Scrambling Code = 84
Current RSSI = -78 dBm
	Primary Scrambling Code = 0x54
	RSCP = -74 dBm, ECIO = -3 dBm


___________________________________________________________________________
Alex_Downtown (10.232.11.193):


Packet Service = HSPA (Attached)
Cell ID = 31815
Primary Scrambling Code = 374
Current RSSI = -91 dBm
	Primary Scrambling Code = 0x176
	RSCP = -88 dBm, ECIO = -3 dBm



___________________________________________________________________________
Assuit (10.232.5.193):




Packet Service = HSDPA (Attached)
Cell ID = 47813
Primary Scrambling Code = 24
Current RSSI = -57 dBm

___________________________________________________________________________
Aswan2-3G (10.232.10.10):



Packet Service = HSDPA (Attached)
Cell ID = 4187
Primary Scrambling Code = 109
Current RSSI = -86 dBm


___________________________________________________________________________
Banha-RTR2 (10.232.18.140):


Packet Service = HSPA (Attached)
Cell ID = 24993
Primary Scrambling Code = 396
Current RSSI = -79 dBm
	Primary Scrambling Code = 0x10C
	RSCP = -81 dBm, ECIO = -10 dBm



___________________________________________________________________________
Banysweif (10.232.21.65):


Packet Service = HSPA (Attached)
Cell ID = 21333
Primary Scrambling Code = 111
Current RSSI = -92 dBm
	Primary Scrambling Code = 0x6F
	RSCP = -94 dBm, ECIO = -9 dBm



___________________________________________________________________________
Cairo Festival City (10.232.29.65):


Packet Service = HSPA+ (Attached)
Cell ID = 63902
Primary Scrambling Code = 113
Current RSSI = -57 dBm
	Primary Scrambling Code = 0x71
	RSCP = -61 dBm, ECIO = -2 dBm



___________________________________________________________________________
Cairo-University (10.232.25.1):


Packet Service = HSDPA (Attached)
Cell ID = 56620
Primary Scrambling Code = 143
Current RSSI = -69 dBm
	Primary Scrambling Code = 0x8F
	RSCP = -70 dBm, ECIO = -6 dBm



___________________________________________________________________________
CarrefourAlex (10.232.2.65):


Packet Service = HSDPA (Attached)
Cell ID = 54553
Primary Scrambling Code = 112
Current RSSI = -63 dBm



___________________________________________________________________________
Carrefour_Maadi-Raya (10.232.2.135):


Packet Service = HSPA (Attached)
Cell ID = 51443
Primary Scrambling Code = 376
Current RSSI = -68 dBm
	Primary Scrambling Code = 0x178
	RSCP = -72 dBm, ECIO = -5 dBm



___________________________________________________________________________
City Stars - Main (10.232.6.135):


Packet Service = HSPA (Attached)
Cell ID = 48823
Primary Scrambling Code = 115
Current RSSI = -89 dBm
	Primary Scrambling Code = 0x73
	RSCP = -86 dBm, ECIO = -3 dBm



___________________________________________________________________________
Dandy-Raya (10.232.19.70):


Packet Service = HSPA (Attached)
Cell ID = 61351
Primary Scrambling Code = 192
Current RSSI = -83 dBm
	Primary Scrambling Code = 0xC0
	RSCP = -87 dBm, ECIO = -4 dBm



___________________________________________________________________________
Demerdash-3G (10.232.20.140):



Packet Service = HSDPA (Attached)
Cell ID = 64710
Primary Scrambling Code = 201
Current RSSI = -77 dBm


___________________________________________________________________________
DownTown-Raya (10.232.9.195):


Packet Service = HSPA (Attached)
Cell ID = 24976
Primary Scrambling Code = 148
Current RSSI = -47 dBm
	Primary Scrambling Code = 0x94
	RSCP = -32 dBm, ECIO = -1 dBm



___________________________________________________________________________
Dumiat-3G (10.232.18.75):



Packet Service = HSDPA (Attached)
Cell ID = 56170
Primary Scrambling Code = 132
Current RSSI = -47 dBm


___________________________________________________________________________
Dumiat_2 (10.232.22.193):


Packet Service = HSPA (Attached)
Cell ID = 10622
Primary Scrambling Code = 30
Current RSSI = -47 dBm
	Primary Scrambling Code = 0x1E
	RSCP = -22 dBm, ECIO = -0 dBm



___________________________________________________________________________
Embaba (10.232.13.193):


Packet Service = HSPA (Attached)
Cell ID = 27203
Primary Scrambling Code = 301
Current RSSI = -64 dBm
	Primary Scrambling Code = 0x12D
	RSCP = -68 dBm, ECIO = -6 dBm



___________________________________________________________________________
Faisal (10.232.11.65):


Packet Service = HSPA (Attached)
Cell ID = 32955
Primary Scrambling Code = 324
Current RSSI = -47 dBm
	Primary Scrambling Code = 0x144
	RSCP = -36 dBm, ECIO = -13 dBm



___________________________________________________________________________
Geish (10.232.12.193):


Packet Service = HSDPA (Attached)
Cell ID = 52839
Primary Scrambling Code = 84
Current RSSI = -85 dBm



___________________________________________________________________________
Genena-Mall (10.232.2.193):



Packet Service = HSDPA (Attached)
Cell ID = 2559
Primary Scrambling Code = 337
Current RSSI = -81 dBm


___________________________________________________________________________
Gesr_Suez (10.232.22.129):


Packet Service = HSDPA (Attached)
Cell ID = 24230
Primary Scrambling Code = 303
Current RSSI = -47 dBm



___________________________________________________________________________
Haram-Raya (10.232.10.70):


Packet Service = HSPA (Attached)
Cell ID = 55638
Primary Scrambling Code = 175
Current RSSI = -47 dBm
	Primary Scrambling Code = 0xAF
	RSCP = -42 dBm, ECIO = -7 dBm



___________________________________________________________________________
Helwan (10.232.14.1):


Packet Service = HSPA (Attached)
Cell ID = 22012
Primary Scrambling Code = 16
Current RSSI = -62 dBm
	Primary Scrambling Code = 0x10
	RSCP = -67 dBm, ECIO = -3 dBm



___________________________________________________________________________
Hurghada (10.232.20.193):




Packet Service = EDGE (Attached)
Cell ID = 35300
Primary Scrambling Code = 0
Current RSSI = -60 dBm

___________________________________________________________________________
Hurghada_2 (10.232.15.193):


Packet Service = HSPA (Attached)
Cell ID = 43351
Primary Scrambling Code = 461
Current RSSI = -95 dBm
	Primary Scrambling Code = 0x1CD
	RSCP = -94 dBm, ECIO = -23 dBm



___________________________________________________________________________
Ismailia (10.232.6.193):


Packet Service = HSDPA (Attached)
Cell ID = 37224
Primary Scrambling Code = 173
Current RSSI = -96 dBm
	Primary Scrambling Code = 0xAD
	RSCP = -95 dBm, ECIO = -13 dBm



___________________________________________________________________________
Kafr-El-sheikh (10.232.22.1):


Packet Service = HSPA (Attached)
Cell ID = 51997
Primary Scrambling Code = 65
Current RSSI = -47 dBm
	Primary Scrambling Code = 0x41
	RSCP = -43 dBm, ECIO = -1 dBm



___________________________________________________________________________
Kattamya-3G (10.232.5.140):



Packet Service = HSPA (Attached)
Cell ID = 28822
Primary Scrambling Code = 147
Current RSSI = -52 dBm
	Primary Scrambling Code = 0x93
	RSCP = -54 dBm, ECIO = -23 dBm


___________________________________________________________________________
Khalifa-raya (10.232.20.70):


Packet Service = HSPA+ (Attached)
Cell ID = 25272
Primary Scrambling Code = 262
Current RSSI = -47 dBm
	Primary Scrambling Code = 0x106
	RSCP = -31 dBm, ECIO = -4 dBm



___________________________________________________________________________
Korba-Raya (10.232.3.5):


Packet Service = HSDPA (Attached)
Cell ID = 58168
Primary Scrambling Code = 45
Current RSSI = -79 dBm



___________________________________________________________________________
Luxor (10.232.6.1):




Packet Service = HSDPA (Attached)
Cell ID = 48259
Primary Scrambling Code = 352
Current RSSI = -80 dBm

___________________________________________________________________________
Maadi 9 (10.232.11.1):




Packet Service = HSDPA (Attached)
Cell ID = 55260
Primary Scrambling Code = 424
Current RSSI = -69 dBm

___________________________________________________________________________
Maadi-Raya (10.232.20.5):


Packet Service = HSDPA (Attached)
Cell ID = 52211
Primary Scrambling Code = 428
Current RSSI = -65 dBm



___________________________________________________________________________
Mahalla (10.232.12.129):


Packet Service = HSPA (Attached)
Cell ID = 29406
Primary Scrambling Code = 0
Current RSSI = -47 dBm
	Primary Scrambling Code = 0x0
	RSCP = -21 dBm, ECIO = -0 dBm



___________________________________________________________________________
Mall_of_Arabia (10.232.10.193):


Packet Service = HSPA (Attached)
Cell ID = 63832
Primary Scrambling Code = 314
Current RSSI = -63 dBm
	Primary Scrambling Code = 0x13A
	RSCP = -64 dBm, ECIO = -23 dBm



___________________________________________________________________________
Mansoura Mohafza (10.232.11.129):


Packet Service = HSPA (Attached)
Cell ID = 48825
Primary Scrambling Code = 200
Current RSSI = -47 dBm
	Primary Scrambling Code = 0xC8
	RSCP = -37 dBm, ECIO = -5 dBm



___________________________________________________________________________
Mansoura-3-Raya (10.232.28.5):


Packet Service = HSPA+ (Attached)
Cell ID = 24871
Primary Scrambling Code = 366
Current RSSI = -47 dBm
	Primary Scrambling Code = 0x16E
	RSCP = -34 dBm, ECIO = -4 dBm



___________________________________________________________________________
Manyal (10.232.9.129):




Packet Service = HSDPA (Attached)
Cell ID = 56287
Primary Scrambling Code = 390
Current RSSI = -47 dBm

___________________________________________________________________________
Masr_Sudan (10.232.14.129):


Packet Service = HSDPA (Attached)
Cell ID = 52167
Primary Scrambling Code = 429
Current RSSI = -91 dBm
	Primary Scrambling Code = 0x1AD
	RSCP = -92 dBm, ECIO = -14 dBm



___________________________________________________________________________
Matrouh (10.232.15.65):

Packet Service = HSPA (Attached)
Cell ID = 44849
Primary Scrambling Code = 90
Current RSSI = -47 dBm
	Primary Scrambling Code = 0x5A
	RSCP = -39 dBm, ECIO = -2 dBm




___________________________________________________________________________
Menya (10.232.17.129):




Packet Service = HSDPA (Attached)
Cell ID = 43097
Primary Scrambling Code = 374
Current RSSI = -84 dBm

___________________________________________________________________________
Merghany-Raya (10.232.3.195):


Packet Service = HSPA (Attached)
Cell ID = 22007
Primary Scrambling Code = 46
Current RSSI = -102 dBm
	Primary Scrambling Code = 0x2E
	RSCP = -102 dBm, ECIO = -23 dBm



___________________________________________________________________________
Merryland (10.232.19.1):




Packet Service = HSDPA (Attached)
Cell ID = 10801
Primary Scrambling Code = 309
Current RSSI = -47 dBm

___________________________________________________________________________
Messadak-Raya (10.232.16.5):



Packet Service = HSPA+ (Attached)
Cell ID = 25793
Primary Scrambling Code = 146
Current RSSI = -47 dBm
	Primary Scrambling Code = 0x92
	RSCP = -32 dBm, ECIO = -4 dBm


___________________________________________________________________________
Miami (10.232.16.65):



Packet Service = HSDPA (Attached)
Cell ID = 51714
Primary Scrambling Code = 177
Current RSSI = -47 dBm


___________________________________________________________________________
Mokattam (10.232.19.193):




Packet Service = HSDPA (Attached)
Cell ID = 51410
Primary Scrambling Code = 323
Current RSSI = -92 dBm
	Primary Scrambling Code = 0x143
	RSCP = -84 dBm, ECIO = -7 dBm

___________________________________________________________________________
Naga_Hamady (10.232.13.65):


Packet Service = HSPA (Attached)
Cell ID = 25646
Primary Scrambling Code = 39
Current RSSI = -47 dBm
	Primary Scrambling Code = 0x27
	RSCP = -21 dBm, ECIO = -15 dBm



___________________________________________________________________________
Nasr City Raya (10.232.16.135):


Packet Service = HSDPA (Attached)
Cell ID = 55548
Primary Scrambling Code = 281
Current RSSI = -108 dBm



___________________________________________________________________________
Nasr_city2 (10.232.14.193):


Packet Service = HSPA (Attached)
Cell ID = 55442
Primary Scrambling Code = 215
Current RSSI = -77 dBm
	Primary Scrambling Code = 0xD7
	RSCP = -78 dBm, ECIO = -9 dBm



___________________________________________________________________________
Obour (10.232.12.1):


Packet Service = HSPA (Attached)
Cell ID = 14034
Primary Scrambling Code = 137
Current RSSI = -78 dBm
	Primary Scrambling Code = 0x89
	RSCP = -78 dBm, ECIO = -2 dBm



___________________________________________________________________________
October (10.232.9.65):



Packet Service = HSDPA (Attached)
Cell ID = 21809
Primary Scrambling Code = 227
Current RSSI = -86 dBm

Packet Service = HSDPA (Attached)
Cell ID = 33500
Primary Scrambling Code = 227
Current RSSI = -80 dBm

___________________________________________________________________________
PS.RTR-EBN.Vodafone.com (10.232.27.1):


Packet Service = HSPA (Attached)
Cell ID = 53034
Primary Scrambling Code = 409
Current RSSI = -47 dBm
	Primary Scrambling Code = 0x199
	RSCP = -21 dBm, ECIO = -10 dBm



___________________________________________________________________________
Portsaid-Raya (10.232.4.5):




Packet Service = HSDPA (Attached)
Cell ID = 37008
Primary Scrambling Code = 51
Current RSSI = -69 dBm

___________________________________________________________________________
Quena (10.232.22.65):


Packet Service = HSPA (Attached)
Cell ID = 45065
Primary Scrambling Code = 143
Current RSSI = -73 dBm
	Primary Scrambling Code = 0x8F
	RSCP = -76 dBm, ECIO = -8 dBm



___________________________________________________________________________
Rehab-3G (10.232.9.10):


Packet Service = HSDPA (Attached)
Cell ID = 41476
Primary Scrambling Code = 0
Current RSSI = -84 dBm



___________________________________________________________________________
SSF-RTR2 (10.232.2.10):


Packet Service = HSDPA (Attached)
Cell ID = 27975
Primary Scrambling Code = 216
Current RSSI = -79 dBm



___________________________________________________________________________
Safeer (10.232.21.129):


Packet Service = HSPA (Attached)
Cell ID = 60916
Primary Scrambling Code = 189
Current RSSI = -72 dBm
	Primary Scrambling Code = 0xBD
	RSCP = -73 dBm, ECIO = -4 dBm



___________________________________________________________________________
Saudi Router (10.232.26.65):


Packet Service = HSPA (Attached)
Cell ID = 60134
Primary Scrambling Code = 453
Current RSSI = -47 dBm
	Primary Scrambling Code = 0x1C5
	RSCP = -31 dBm, ECIO = -4 dBm



___________________________________________________________________________
Sharm (10.232.18.193):




Packet Service = EDGE (Attached)
Cell ID = 38205
Primary Scrambling Code = 0
Current RSSI = -67 dBm

___________________________________________________________________________
Shehab-Raya (10.232.4.135):


Packet Service = HSPA (Attached)
Cell ID = 26511
Primary Scrambling Code = 78
Current RSSI = -47 dBm
	Primary Scrambling Code = 0x4E
	RSCP = -43 dBm, ECIO = -4 dBm



___________________________________________________________________________
Shehab-Tedata (10.232.4.140):


Packet Service = None
Cell ID = 26231
Primary Scrambling Code = 361
Current RSSI = -101 dBm



___________________________________________________________________________
Shobra (10.232.17.1):


Packet Service = HSPA (Attached)
Cell ID = 61889
Primary Scrambling Code = 166
Current RSSI = -50 dBm
	Primary Scrambling Code = 0xA6
	RSCP = -48 dBm, ECIO = -3 dBm



___________________________________________________________________________
Shoubra_2 (10.232.21.1):


Packet Service = HSPA (Attached)
Cell ID = 61443
Primary Scrambling Code = 211
Current RSSI = -87 dBm
	Primary Scrambling Code = 0xD3
	RSCP = -92 dBm, ECIO = -10 dBm



___________________________________________________________________________
Sky Plaza (10.232.29.129):


Packet Service = HSPA (Attached)
Cell ID = 12824
Primary Scrambling Code = 124
Current RSSI = -52 dBm
	Primary Scrambling Code = 0x7C
	RSCP = -50 dBm, ECIO = -3 dBm



___________________________________________________________________________
Smouha (10.232.13.129):


Packet Service = HSDPA (Attached)
Cell ID = 32094
Primary Scrambling Code = 503
Current RSSI = -47 dBm



___________________________________________________________________________
Sohag (10.232.17.65):




Packet Service = HSDPA (Attached)
Cell ID = 48478
Primary Scrambling Code = 274
Current RSSI = -47 dBm

___________________________________________________________________________
Sphinx-Raya (10.232.0.10):




Packet Service = HSPA (Attached)
Cell ID = 22897
Primary Scrambling Code = 367
Current RSSI = -47 dBm
	Primary Scrambling Code = 0x16F
	RSCP = -43 dBm, ECIO = -1 dBm

___________________________________________________________________________
Sudan (10.232.14.65):


Packet Service = HSDPA (Attached)
Cell ID = 27057
Primary Scrambling Code = 152
Current RSSI = -48 dBm
	Primary Scrambling Code = 0x98
	RSCP = -49 dBm, ECIO = -23 dBm



___________________________________________________________________________
Suez-Raya (10.232.7.5):



Packet Service = HSDPA (Attached)
Cell ID = 37027
Primary Scrambling Code = 132
Current RSSI = -95 dBm


___________________________________________________________________________
Suncity (10.232.12.65):


Packet Service = HSPA (Attached)
Cell ID = 29160
Primary Scrambling Code = 51
Current RSSI = -70 dBm
	Primary Scrambling Code = 0x33
	RSCP = -68 dBm, ECIO = -2 dBm



___________________________________________________________________________
Syria (10.232.15.129):


Packet Service = HSPA (Attached)
Cell ID = 50989
Primary Scrambling Code = 269
Current RSSI = -91 dBm
	Primary Scrambling Code = 0x10D
	RSCP = -97 dBm, ECIO = -11 dBm



___________________________________________________________________________
Tanta-Raya (10.232.7.70):




Packet Service = HSDPA (Attached)
Cell ID = 52215
Primary Scrambling Code = 443
Current RSSI = -84 dBm

___________________________________________________________________________
VISA (10.232.28.65):


Packet Service = HSPA (Attached)
Cell ID = 52881
Primary Scrambling Code = 124
Current RSSI = -85 dBm
	Primary Scrambling Code = 0x7C
	RSCP = -82 dBm, ECIO = -2 dBm



___________________________________________________________________________
Warehouse (10.232.4.193):



Packet Service = HSDPA (Attached)
Cell ID = 43409
Primary Scrambling Code = 78
Current RSSI = -78 dBm


___________________________________________________________________________
Warehouse-2 (10.232.27.65):


Packet Service = HSDPA (Attached)
Cell ID = 54510
Primary Scrambling Code = 78
Current RSSI = -66 dBm



___________________________________________________________________________
Zagazig_2 (10.232.21.193):


Packet Service = HSPA (Attached)
Cell ID = 60547
Primary Scrambling Code = 68
Current RSSI = -82 dBm
	Primary Scrambling Code = 0x44
	RSCP = -78 dBm, ECIO = -11 dBm



___________________________________________________________________________
Zahran-Mall (10.232.5.65):


Packet Service = HSDPA (Attached)
Cell ID = 50978
Primary Scrambling Code = 53
Current RSSI = -77 dBm



___________________________________________________________________________
Zakazik-Raya (10.232.7.135):




Packet Service = HSDPA (Attached)
Cell ID = 24983
Primary Scrambling Code = 326
Current RSSI = -74 dBm

___________________________________________________________________________
Zamalek-Raya (10.232.19.135):


Packet Service = HSPA (Attached)
Cell ID = 65042
Primary Scrambling Code = 72
Current RSSI = -47 dBm
	Primary Scrambling Code = 0x48
	RSCP = -26 dBm, ECIO = -3 dBm



___________________________________________________________________________
Zayton (10.232.10.129):



Packet Service = HSDPA (Attached)
Cell ID = 57939
Primary Scrambling Code = 14
Current RSSI = -82 dBm


___________________________________________________________________________

2/8/2015 7:11:45 AM : Completed Cellular Network Status stores : Job-330022 ; Devices : 83 ; Errors : 0
Execution time : 1 minutes, 27 seconds
___________________________________________________________________________

