
___________________________________________________________________________

Job Engine: EGOCT-WISLR06

4/14/2015 11:00:49 PM : Started WAN Cellular Network Status stores : JobDescription_65a431af-59ac-4045-92d5-92d86d85f24d

Execute Command Script on Devices
81 devices selected

10th_Ramadan (10.232.15.1):


Packet Service = HSPA (Attached)
Location Area Code (LAC) = 41231
Cell ID = 25100
Primary Scrambling Code = 137
Current RSSI = -93 dBm
	Primary Scrambling Code = 0x89
	RSCP = -98 dBm, ECIO = -10 dBm
	Primary Scrambling Code = 0x6A
	RSCP = -106 dBm, ECIO = -23 dBm



___________________________________________________________________________
Abbas-AlAkkad.Vodafone.com (10.232.26.1):


Packet Service = HSDPA (Attached)
Location Area Code (LAC) = 11241
Cell ID = 24520
Primary Scrambling Code = 430
Current RSSI = -47 dBm
	Primary Scrambling Code = 0x1AE
	RSCP = -41 dBm, ECIO = -3 dBm



___________________________________________________________________________
Agamy (10.232.8.1):




Packet Service = HSDPA (Attached)
Location Area Code (LAC) = 2315
Cell ID = 40490
Primary Scrambling Code = 467
Current RSSI = -60 dBm

___________________________________________________________________________
Ainshams (10.232.13.1):



Packet Service = HSPA (Attached)
Location Area Code (LAC) = 11311
Cell ID = 65061
Primary Scrambling Code = 84
Current RSSI = -87 dBm
	Primary Scrambling Code = 0x54
	RSCP = -84 dBm, ECIO = -6 dBm


___________________________________________________________________________
Alex_Downtown (10.232.11.193):


Packet Service = HSPA (Attached)
Location Area Code (LAC) = 2371
Cell ID = 57410
Primary Scrambling Code = 374
Current RSSI = -72 dBm
	Primary Scrambling Code = 0x176
	RSCP = -73 dBm, ECIO = -21 dBm



___________________________________________________________________________
Assuit (10.232.5.193):




Packet Service = HSDPA (Attached)
Location Area Code (LAC) = 3705
Cell ID = 47813
Primary Scrambling Code = 24
Current RSSI = -54 dBm

___________________________________________________________________________
Aswan2-3G (10.232.10.10):



Packet Service = HSDPA (Attached)
Location Area Code (LAC) = 3693
Cell ID = 4187
Primary Scrambling Code = 109
Current RSSI = -79 dBm


___________________________________________________________________________
Banha-RTR2 (10.232.18.140):


Packet Service = HSPA (Attached)
Location Area Code (LAC) = 15232
Cell ID = 54496
Primary Scrambling Code = 268
Current RSSI = -68 dBm
	Primary Scrambling Code = 0x10C
	RSCP = -66 dBm, ECIO = -17 dBm



___________________________________________________________________________
Banysweif (10.232.21.65):


Packet Service = HSPA (Attached)
Location Area Code (LAC) = 33151
Cell ID = 21333
Primary Scrambling Code = 111
Current RSSI = -74 dBm
	Primary Scrambling Code = 0x6F
	RSCP = -72 dBm, ECIO = -8 dBm



___________________________________________________________________________
Cairo Festival City (10.232.29.65):


Packet Service = HSPA+ (Attached)
Location Area Code (LAC) = 31131
Cell ID = 63902
Primary Scrambling Code = 113
Current RSSI = -62 dBm
	Primary Scrambling Code = 0x71
	RSCP = -67 dBm, ECIO = -4 dBm



___________________________________________________________________________
Cairo-University (10.232.25.1):


Packet Service = HSPA (Attached)
Location Area Code (LAC) = 1473
Cell ID = 22889
Primary Scrambling Code = 424
Current RSSI = -65 dBm
	Primary Scrambling Code = 0x1A8
	RSCP = -67 dBm, ECIO = -23 dBm



___________________________________________________________________________
CarrefourAlex (10.232.2.65):


Packet Service = HSDPA (Attached)
Location Area Code (LAC) = 2503
Cell ID = 54553
Primary Scrambling Code = 112
Current RSSI = -66 dBm



___________________________________________________________________________
City Stars - Main (10.232.6.135):


Packet Service = HSPA (Attached)
Location Area Code (LAC) = 11421
Cell ID = 65121
Primary Scrambling Code = 365
Current RSSI = -49 dBm
	Primary Scrambling Code = 0x16D
	RSCP = -49 dBm, ECIO = -4 dBm



___________________________________________________________________________
Dandy-Raya (10.232.19.70):


Packet Service = HSPA (Attached)
Location Area Code (LAC) = 31142
Cell ID = 54470
Primary Scrambling Code = 192
Current RSSI = -77 dBm
	Primary Scrambling Code = 0xC0
	RSCP = -73 dBm, ECIO = -4 dBm



___________________________________________________________________________
Demerdash-3G (10.232.20.140):



Packet Service = HSDPA (Attached)
Location Area Code (LAC) = 11311
Cell ID = 65032
Primary Scrambling Code = 5
Current RSSI = -47 dBm


___________________________________________________________________________
DownTown-Raya (10.232.9.195):


Packet Service = EDGE (Attached)
Location Area Code (LAC) = 52102
Cell ID = 34466
Primary Scrambling Code = 0
Current RSSI = -47 dBm



___________________________________________________________________________
Dumiat-3G (10.232.18.75):



Packet Service = HSDPA (Attached)
Location Area Code (LAC) = 15271
Cell ID = 22147
Primary Scrambling Code = 3
Current RSSI = -47 dBm


___________________________________________________________________________
Dumiat_2 (10.232.22.193):


Packet Service = HSPA (Attached)
Location Area Code (LAC) = 15271
Cell ID = 10622
Primary Scrambling Code = 30
Current RSSI = -47 dBm
	Primary Scrambling Code = 0x1E
	RSCP = -25 dBm, ECIO = -5 dBm



___________________________________________________________________________
Embaba (10.232.13.193):


Packet Service = HSDPA (Attached)
Location Area Code (LAC) = 1471
Cell ID = 62647
Primary Scrambling Code = 329
Current RSSI = -74 dBm
	Primary Scrambling Code = 0x149
	RSCP = -84 dBm, ECIO = -0 dBm



___________________________________________________________________________
Faisal (10.232.11.65):


Packet Service = HSPA (Attached)
Location Area Code (LAC) = 11323
Cell ID = 61587
Primary Scrambling Code = 324
Current RSSI = -77 dBm
	Primary Scrambling Code = 0x144
	RSCP = -72 dBm, ECIO = -16 dBm



___________________________________________________________________________
Fayoum (10.232.16.195):





___________________________________________________________________________
Geish (10.232.12.193):


Packet Service = HSDPA (Attached)
Location Area Code (LAC) = 23103
Cell ID = 52838
Primary Scrambling Code = 80
Current RSSI = -72 dBm



___________________________________________________________________________
Genena-Mall (10.232.2.193):



Packet Service = HSDPA (Attached)
Location Area Code (LAC) = 11351
Cell ID = 55935
Primary Scrambling Code = 337
Current RSSI = -104 dBm


___________________________________________________________________________
Gesr_Suez (10.232.22.129):


Packet Service = HSPA (Attached)
Location Area Code (LAC) = 1531
Cell ID = 24230
Primary Scrambling Code = 303
Current RSSI = -47 dBm
	Primary Scrambling Code = 0x12F
	RSCP = -39 dBm, ECIO = -2 dBm



___________________________________________________________________________
Haram-Raya (10.232.10.70):


Packet Service = HSPA (Attached)
Location Area Code (LAC) = 11323
Cell ID = 55639
Primary Scrambling Code = 176
Current RSSI = -47 dBm
	Primary Scrambling Code = 0xB0
	RSCP = -48 dBm, ECIO = -15 dBm
	Primary Scrambling Code = 0x15F
	RSCP = -50 dBm, ECIO = -18 dBm
	Primary Scrambling Code = 0xAF
	RSCP = -50 dBm, ECIO = -16 dBm



___________________________________________________________________________
Helwan (10.232.14.1):


Packet Service = HSPA (Attached)
Location Area Code (LAC) = 31171
Cell ID = 22012
Primary Scrambling Code = 16
Current RSSI = -47 dBm
	Primary Scrambling Code = 0x10
	RSCP = -29 dBm, ECIO = -7 dBm



___________________________________________________________________________
Hurghada (10.232.20.193):




Packet Service = EDGE (Attached)
Location Area Code (LAC) = 4741
Cell ID = 35300
Primary Scrambling Code = 0
Current RSSI = -53 dBm

___________________________________________________________________________
Hurghada_2 (10.232.15.193):


Packet Service = HSPA (Attached)
Location Area Code (LAC) = 4741
Cell ID = 33699
Primary Scrambling Code = 180
Current RSSI = -92 dBm
	Primary Scrambling Code = 0xB4
	RSCP = -97 dBm, ECIO = -13 dBm



___________________________________________________________________________
Ismailia (10.232.6.193):


Packet Service = HSDPA (Attached)
Location Area Code (LAC) = 53409
Cell ID = 37224
Primary Scrambling Code = 173
Current RSSI = -81 dBm
	Primary Scrambling Code = 0xAD
	RSCP = -79 dBm, ECIO = -17 dBm



___________________________________________________________________________
Kafr-El-sheikh (10.232.22.1):


Packet Service = HSPA (Attached)
Location Area Code (LAC) = 15261
Cell ID = 51997
Primary Scrambling Code = 65
Current RSSI = -50 dBm
	Primary Scrambling Code = 0x41
	RSCP = -49 dBm, ECIO = -6 dBm



___________________________________________________________________________
Kattamya-3G (10.232.5.140):



Packet Service = HSPA (Attached)
Location Area Code (LAC) = 31131
Cell ID = 28822
Primary Scrambling Code = 147
Current RSSI = -53 dBm
	Primary Scrambling Code = 0x93
	RSCP = -57 dBm, ECIO = -5 dBm


___________________________________________________________________________
Khalifa-raya (10.232.20.70):


Packet Service = HSDPA (Attached)
Location Area Code (LAC) = 11421
Cell ID = 21210
Primary Scrambling Code = 273
Current RSSI = -73 dBm
	Primary Scrambling Code = 0x111
	RSCP = -69 dBm, ECIO = -8 dBm



___________________________________________________________________________
Korba-Raya (10.232.3.5):


Packet Service = HSDPA (Attached)
Location Area Code (LAC) = 11421
Cell ID = 26263
Primary Scrambling Code = 497
Current RSSI = -89 dBm



___________________________________________________________________________
Luxor (10.232.6.1):




Packet Service = HSDPA (Attached)
Location Area Code (LAC) = 3688
Cell ID = 44367
Primary Scrambling Code = 352
Current RSSI = -80 dBm

___________________________________________________________________________
Maadi 9 (10.232.11.1):




Packet Service = HSDPA (Attached)
Location Area Code (LAC) = 11341
Cell ID = 55260
Primary Scrambling Code = 424
Current RSSI = -81 dBm

___________________________________________________________________________
Maadi-Raya (10.232.20.5):


Packet Service = HSDPA (Attached)
Location Area Code (LAC) = 11391
Cell ID = 22571
Primary Scrambling Code = 485
Current RSSI = -47 dBm



___________________________________________________________________________
Mahalla (10.232.12.129):


Packet Service = HSPA (Attached)
Location Area Code (LAC) = 31431
Cell ID = 29406
Primary Scrambling Code = 0
Current RSSI = -47 dBm
	Primary Scrambling Code = 0x0
	RSCP = -21 dBm, ECIO = -0 dBm



___________________________________________________________________________
Mall_of_Arabia (10.232.10.193):


Packet Service = HSPA (Attached)
Location Area Code (LAC) = 31141
Cell ID = 40946
Primary Scrambling Code = 314
Current RSSI = -63 dBm
	Primary Scrambling Code = 0x13A
	RSCP = -63 dBm, ECIO = -23 dBm



___________________________________________________________________________
Mansoura Mohafza (10.232.11.129):


Packet Service = HSDPA (Attached)
Location Area Code (LAC) = 23522
Cell ID = 30233
Primary Scrambling Code = 44
Current RSSI = -76 dBm
	Primary Scrambling Code = 0x2C
	RSCP = -78 dBm, ECIO = -2 dBm



___________________________________________________________________________
Mansoura-3-Raya (10.232.28.5):


Packet Service = EDGE (Attached)
Location Area Code (LAC) = 5461
Cell ID = 9185
Primary Scrambling Code = 0
Current RSSI = -81 dBm



___________________________________________________________________________
Manyal (10.232.9.129):




Packet Service = HSDPA (Attached)
Location Area Code (LAC) = 23103
Cell ID = 56287
Primary Scrambling Code = 390
Current RSSI = -47 dBm

___________________________________________________________________________
Masr_Sudan (10.232.14.129):


Packet Service = HSPA (Attached)
Location Area Code (LAC) = 11311
Cell ID = 62868
Primary Scrambling Code = 106
Current RSSI = -96 dBm
	Primary Scrambling Code = 0x6A
	RSCP = -89 dBm, ECIO = -8 dBm



___________________________________________________________________________
Matrouh (10.232.15.65):

Packet Service = HSPA (Attached)
Location Area Code (LAC) = 2811
Cell ID = 44849
Primary Scrambling Code = 90
Current RSSI = -47 dBm
	Primary Scrambling Code = 0x5A
	RSCP = -54 dBm, ECIO = -5 dBm




___________________________________________________________________________
Menya (10.232.17.129):




Packet Service = HSDPA (Attached)
Location Area Code (LAC) = 3782
Cell ID = 43100
Primary Scrambling Code = 374
Current RSSI = -75 dBm

___________________________________________________________________________
Merghany-Raya (10.232.3.195):


Packet Service = HSPA (Attached)
Location Area Code (LAC) = 11421
Cell ID = 22007
Primary Scrambling Code = 46
Current RSSI = -104 dBm
	Primary Scrambling Code = 0x2E
	RSCP = -109 dBm, ECIO = -12 dBm



___________________________________________________________________________
Merryland (10.232.19.1):




Packet Service = HSDPA (Attached)
Location Area Code (LAC) = 11421
Cell ID = 57967
Primary Scrambling Code = 482
Current RSSI = -51 dBm

___________________________________________________________________________
Messadak-Raya (10.232.16.5):



Packet Service = HSPA+ (Attached)
Location Area Code (LAC) = 11331
Cell ID = 25793
Primary Scrambling Code = 146
Current RSSI = -47 dBm
	Primary Scrambling Code = 0x92
	RSCP = -31 dBm, ECIO = -3 dBm


___________________________________________________________________________
Miami (10.232.16.65):



Packet Service = HSDPA (Attached)
Location Area Code (LAC) = 2312
Cell ID = 51714
Primary Scrambling Code = 177
Current RSSI = -47 dBm


___________________________________________________________________________
Mokattam (10.232.19.193):




Packet Service = HSDPA (Attached)
Location Area Code (LAC) = 11351
Cell ID = 51410
Primary Scrambling Code = 323
Current RSSI = -84 dBm
	Primary Scrambling Code = 0x143
	RSCP = -81 dBm, ECIO = -23 dBm

___________________________________________________________________________
Naga_Hamady (10.232.13.65):


Packet Service = HSPA (Attached)
Location Area Code (LAC) = 3686
Cell ID = 25646
Primary Scrambling Code = 39
Current RSSI = -47 dBm
	Primary Scrambling Code = 0x27
	RSCP = -22 dBm, ECIO = -13 dBm



___________________________________________________________________________
Nasr City Raya (10.232.16.135):


Packet Service = HSDPA (Attached)
Location Area Code (LAC) = 11241
Cell ID = 55548
Primary Scrambling Code = 281
Current RSSI = -90 dBm



___________________________________________________________________________
Nasr_city2 (10.232.14.193):


Packet Service = HSPA (Attached)
Location Area Code (LAC) = 11351
Cell ID = 55445
Primary Scrambling Code = 463
Current RSSI = -78 dBm
	Primary Scrambling Code = 0x1CF
	RSCP = -76 dBm, ECIO = -21 dBm



___________________________________________________________________________
Obour (10.232.12.1):


Location Area Code (LAC) = 0
Cell ID = 0
Primary Scrambling Code = 0
Current RSSI = -0 dBm



___________________________________________________________________________
October (10.232.9.65):



Packet Service = HSDPA (Attached)
Location Area Code (LAC) = 31121
Cell ID = 33500
Primary Scrambling Code = 227
Current RSSI = -89 dBm

Packet Service = HSDPA (Attached)
Location Area Code (LAC) = 31121
Cell ID = 29354
Primary Scrambling Code = 455
Current RSSI = -69 dBm

___________________________________________________________________________
PS.RTR-EBN.Vodafone.com (10.232.27.1):


Packet Service = HSPA (Attached)
Location Area Code (LAC) = 11421
Cell ID = 53034
Primary Scrambling Code = 409
Current RSSI = -47 dBm
	Primary Scrambling Code = 0x199
	RSCP = -26 dBm, ECIO = -14 dBm



___________________________________________________________________________
Portsaid-Raya (10.232.4.5):




Packet Service = HSDPA (Attached)
Location Area Code (LAC) = 34101
Cell ID = 37009
Primary Scrambling Code = 49
Current RSSI = -68 dBm

___________________________________________________________________________
Quena (10.232.22.65):


Packet Service = HSPA (Attached)
Location Area Code (LAC) = 3681
Cell ID = 48549
Primary Scrambling Code = 143
Current RSSI = -76 dBm
	Primary Scrambling Code = 0x8F
	RSCP = -78 dBm, ECIO = -5 dBm



___________________________________________________________________________
Rehab-3G (10.232.9.10):


Packet Service = HSDPA (Attached)
Location Area Code (LAC) = 31111
Cell ID = 23362
Primary Scrambling Code = 7
Current RSSI = -76 dBm



___________________________________________________________________________
SSF-RTR2 (10.232.2.10):


Packet Service = HSDPA (Attached)
Location Area Code (LAC) = 2361
Cell ID = 27975
Primary Scrambling Code = 57
Current RSSI = -71 dBm



___________________________________________________________________________
Safeer (10.232.21.129):


Packet Service = HSPA (Attached)
Location Area Code (LAC) = 1531
Cell ID = 57990
Primary Scrambling Code = 189
Current RSSI = -80 dBm
	Primary Scrambling Code = 0xBD
	RSCP = -85 dBm, ECIO = -5 dBm



___________________________________________________________________________
Saudi Router (10.232.26.65):


Packet Service = HSPA (Attached)
Location Area Code (LAC) = 31142
Cell ID = 60134
Primary Scrambling Code = 453
Current RSSI = -47 dBm
	Primary Scrambling Code = 0x1C5
	RSCP = -37 dBm, ECIO = -2 dBm



___________________________________________________________________________
Sharm (10.232.18.193):




Packet Service = EDGE (Attached)
Location Area Code (LAC) = 53404
Cell ID = 38205
Primary Scrambling Code = 0
Current RSSI = -69 dBm

___________________________________________________________________________
Shehab-Raya (10.232.4.135):


Packet Service = HSPA (Attached)
Location Area Code (LAC) = 1471
Cell ID = 26511
Primary Scrambling Code = 219
Current RSSI = -47 dBm
	Primary Scrambling Code = 0xDB
	RSCP = -41 dBm, ECIO = -2 dBm



___________________________________________________________________________
Shobra (10.232.17.1):


Packet Service = HSDPA (Attached)
Location Area Code (LAC) = 11411
Cell ID = 25111
Primary Scrambling Code = 55
Current RSSI = -75 dBm
	Primary Scrambling Code = 0x37
	RSCP = -76 dBm, ECIO = -3 dBm



___________________________________________________________________________
Shoubra_2 (10.232.21.1):


Packet Service = HSPA (Attached)
Location Area Code (LAC) = 11411
Cell ID = 54902
Primary Scrambling Code = 211
Current RSSI = -55 dBm
	Primary Scrambling Code = 0xD3
	RSCP = -54 dBm, ECIO = -9 dBm



___________________________________________________________________________
Sky Plaza (10.232.29.129):


Packet Service = HSPA (Attached)
Location Area Code (LAC) = 31111
Cell ID = 12821
Primary Scrambling Code = 124
Current RSSI = -56 dBm
	Primary Scrambling Code = 0x7C
	RSCP = -56 dBm, ECIO = -2 dBm



___________________________________________________________________________
Smouha (10.232.13.129):


Packet Service = HSDPA (Attached)
Location Area Code (LAC) = 2371
Cell ID = 32094
Primary Scrambling Code = 503
Current RSSI = -47 dBm



___________________________________________________________________________
Sohag (10.232.17.65):




Packet Service = HSDPA (Attached)
Location Area Code (LAC) = 3572
Cell ID = 48478
Primary Scrambling Code = 274
Current RSSI = -47 dBm

___________________________________________________________________________
Sphinx-Raya (10.232.0.10):




Packet Service = HSPA (Attached)
Location Area Code (LAC) = 11331
Cell ID = 22897
Primary Scrambling Code = 367
Current RSSI = -60 dBm
	Primary Scrambling Code = 0x16F
	RSCP = -56 dBm, ECIO = -7 dBm

___________________________________________________________________________
Sudan (10.232.14.65):


Packet Service = HSDPA (Attached)
Location Area Code (LAC) = 11331
Cell ID = 23072
Primary Scrambling Code = 152
Current RSSI = -87 dBm
	Primary Scrambling Code = 0x98
	RSCP = -90 dBm, ECIO = -31 dBm



___________________________________________________________________________
Suez-Raya (10.232.7.5):



Packet Service = HSDPA (Attached)
Location Area Code (LAC) = 53407
Cell ID = 62360
Primary Scrambling Code = 132
Current RSSI = -87 dBm


___________________________________________________________________________
Suncity (10.232.12.65):


Packet Service = HSPA (Attached)
Location Area Code (LAC) = 11421
Cell ID = 29160
Primary Scrambling Code = 51
Current RSSI = -65 dBm
	Primary Scrambling Code = 0x33
	RSCP = -64 dBm, ECIO = -6 dBm



___________________________________________________________________________
Syria (10.232.15.129):


Packet Service = HSDPA (Attached)
Location Area Code (LAC) = 2361
Cell ID = 22586
Primary Scrambling Code = 269
Current RSSI = -101 dBm
	Primary Scrambling Code = 0x10D
	RSCP = -100 dBm, ECIO = -7 dBm



___________________________________________________________________________
Tanta-Raya (10.232.7.70):




Packet Service = HSDPA (Attached)
Location Area Code (LAC) = 15381
Cell ID = 0
Primary Scrambling Code = 443
Current RSSI = -109 dBm

___________________________________________________________________________
VISA (10.232.28.65):


Packet Service = HSPA (Attached)
Location Area Code (LAC) = 11331
Cell ID = 52881
Primary Scrambling Code = 124
Current RSSI = -81 dBm
	Primary Scrambling Code = 0x7C
	RSCP = -82 dBm, ECIO = -4 dBm



___________________________________________________________________________
Warehouse (10.232.4.193):



Packet Service = HSDPA (Attached)
Location Area Code (LAC) = 31142
Cell ID = 24380
Primary Scrambling Code = 109
Current RSSI = -81 dBm


___________________________________________________________________________
Warehouse-2 (10.232.27.65):


Packet Service = HSDPA (Attached)
Location Area Code (LAC) = 31142
Cell ID = 43409
Primary Scrambling Code = 78
Current RSSI = -60 dBm



___________________________________________________________________________
Zagazig_2 (10.232.21.193):


Packet Service = HSDPA (Attached)
Location Area Code (LAC) = 15231
Cell ID = 53549
Primary Scrambling Code = 68
Current RSSI = -65 dBm
	Primary Scrambling Code = 0x44
	RSCP = -76 dBm, ECIO = -31 dBm



___________________________________________________________________________
Zahran-Mall (10.232.5.65):


Packet Service = HSDPA (Attached)
Location Area Code (LAC) = 2371
Cell ID = 51280
Primary Scrambling Code = 9
Current RSSI = -47 dBm



___________________________________________________________________________
Zakazik-Raya (10.232.7.135):




Packet Service = HSDPA (Attached)
Location Area Code (LAC) = 15231
Cell ID = 64015
Primary Scrambling Code = 326
Current RSSI = -73 dBm

___________________________________________________________________________
Zayton (10.232.10.129):



Packet Service = HSDPA (Attached)
Location Area Code (LAC) = 1531
Cell ID = 57946
Primary Scrambling Code = 14
Current RSSI = -81 dBm


___________________________________________________________________________

4/14/2015 11:01:51 PM : Completed WAN Cellular Network Status stores : JobDescription_65a431af-59ac-4045-92d5-92d86d85f24d ; Devices : 81 ; Errors : 0
Execution time : 1 minutes, 2 seconds
___________________________________________________________________________

