Remedy Hub ID,Hub name,Code
AlArayes,AlArayes,ARYS
Beverly Hills,Beverly Hills,BVRH
El Gamil,El Gamil,GMIL
H1001,Abbassia,ABBS
H1002,Abo Rawash,RWSH
H1003,Almaza,ALMZ
H1004,5th Gathering,5GTH
H1005,Bab Al Louk,BALK
H1006,Bigam,BIGM
H1007,Manshiet Dahshour,DAHS
H1009,Dokki,DOKI
H1010,Ain Shams,ANSH
H1011,El Barageel,BRGL
H1012,El Haram,HARM
H1013,El Kalaa,KALA
H1014,Kattamia,KATT
H1015,El Marg,MARG
H1016,Mohandessin,MOHN
H1017,El Nahda,NAHD
H1018,El Obour,OBOR
H1019,El Obour2,OBO2
H1021,El Omranya,OMRN
H1022,El Opera,OPRA
H1023,El Remaya,REMY
H1024,Madinat El Salam,MSLM
H1026,El Khanka,KHNK
H1027,Fawala,FWLA
H1028,Giza,GIZA
H1029,Hadayek Helwan,HDHL
H1030,Heliopolis,HHEL
H1031,Helwan,HELW
H1032,Imbaba,IMBA
H1033,El Kalag,KLAG
H1034,Qualiub,KALY
H1035,Qanater Khiriya,QANR
H1036,Kerdassa,KERD
H1037,Koubba,KOBA
H1038,Maadi 1,MAD1
H1039,Maadi 2,MAD2
H1040,Maadi 3,MAD3
H1042,Tura,TURA
H1043,Managem,MAGM
H1044,Manshiet Nasser,MNNS
H1045,Mariotia,MRIO
H1046,El Materya,MATR
H1047,Mokattam,MOKK
H1048,Nasr City 1,NRC1
H1049,Nasr City 2,NRC2
H1050,Nasr City 3,NRC3
H1051,El Nozha,NOZH
H1052,El Nozha 2,NOZ2
H1053,El Nozha 3,NOZ3
H1054,Ramses,RMSI
H1055,Ramses 2,RMS2
H1056,Roda,RODA
H1057,Nile City,NRCT
H1058,Sharabia,SHAR
H1059,Sheraton,SHRT
H1060,Shorouk,SHRK
H1061,Shoubra,SHOB
H1062,Shoubra El Kheima,SHKH
H1063,El Tebeen,TBEN
H1064,Zamalek,ZMLK
H1065,15th May,15MY
H1066,Ramadan,RAMA
H1067,6th October,6OC1
H1068,6th October 2,6OC2
H1069,Boulaq El Dakrour,BLDK
H1070,El Warrak,WRAK
H1071,Rod El Farag,RDFG
H1072,Aussem,AUSM
H1073,Ameriya,AMRY
H1074,Saft Elaban,STLN
H1078,6th Octber (Al Shyakh Zayed),ZAYD
H1082,Smart Village C2 SB Ring,SVSB
H1083,Zahraa MTX,ZHRX
H1084,Mokattam TX Repeater,MKTM
H1084,Mokattam MTX,MKMX
H1087,Dallah Tower,DALL
H1088,Ganoub Elmostasmereen,GNMS
H1089,Smart Village,SMVL
H1090,3rd District MTX,3RDX
H1094,Shoubra El Kheima 3,SHB3
H1098,Nasr City 4,NRC4
H1100,El-Zohour 6 October,ZEHR
H1101,Bahareya,BHRY
H1103,Zayed2,ZYD2
H1104,Shobramant,SHBR
H1108,Masaakn abo Zabaal,ZABL
H1111,Laqana,LQAN
H2001,Abo Keer,ABKR
H2002,El Alamein,ALMN
H2003,Auto,AUTO
H2004,El Awayed,AWYD
H2005,Borg Alarab,BRAR
H2006,Ibrahimia,IBRH
H2007,Agami Bitash,AGBT
H2008,Agami Bitach 2,AGB2
H2009,Agami Hanovil 1,AGH1
H2010,Agami Hanoville 2,AGH2
H2011,El Ameria (Alex),AMRX
H2012,Daba,DABA
H2013,Hammam,HAMM
H2015,Minshia,MNSH
H2016,El Max,EMAX
H2018,Tabia,TBIA
H2019,Gleem,GLEM
H2020,Maamoura,MAAM
H2021,Marabella,MRBL
H2022,Marakia,MARK
H2023,Marina,MRNA
H2024,Matrouh,MTRH
H2025,Matrouh 2,MAT2
H2026,Sidi Bisher,SDBS
H2027,Mustafa Kamel,MUKM
H2029,Saloum,SLUM
H2031,San Stephano,SNST
H2033,Shobaikat,SHBA
H2034,Sidi Abd El Rahaman,SARH
H2035,Sidi Barany,SBRY
H2036,Sidi Gaber,SGBR
H2037,Sidi Haneish,SHNS
H2038,Sidi Kreer,SKRR
H2039,Siwa,SIWA
H2040,6 October Resort,6OCR
H2041,Smouha,SMHA
H2042,El Hadra,HDRA
H2043,El Haramain,HRMN
H2044,Dekhela,DEKH
H2048,El Fath,FATH
H2049,El Awayed 2,AWY2
H2051,Karmouz,KRMZ
H2055,Gofyrah,GOFR
H2056,El Asafra,ASFR
H2057,El Naser,NASR
H2058,Sidi Bisher 2,SDB2
H3003,Abo Tesht,TSHT
H3004,Abo Tig,ABTG
H3005,Akhmim,AKMI
H3006,Armant,ARMT
H3007,Aswan,ASWN
H3008,Saad El Ali,SDAL
H3009,Asyout East,AYTE
H3010,Asyout West,ASTW
H3011,Asyout Airport,ASTA
H3012,Beni Mazar,BNMZ
H3013,Beni Suef,BNSF
H3014,Biba,BIBA
H3015,Dakhla,DKHL
H3016,Dairut,DIRT
H3017,Deshna,DSHN
H3018,Dier Mawas,DRMS
H3019,Edfo,EDFO
H3020,El Balyana,BLYN
H3022,El Kharga,KRGA
H3024,El Minya,MNYA
H3025,Isna,ISNA
H3026,Farafra,FRFR
H3027,Farshout,FRSH
H3028,Kom Oshim,KMOS
H3029,Fayoum,FYM1
H3030,Fayoum 2,FYM2
H3032,Girga,GRGA
H3033,Keft,KEFT
H3034,Qena (New),QNAN
H3035,Qena East,QNAE
H3036,Kom Ombo,OMBA
H3037,Luxor,LXOR
H3038,Mallawi,MLWI
H3039,Manfalut,MFLT
H3040,Nag Hammad,NGHD
H3042,Baris Oasis,BRIS
H3043,Qus,QUUS
H3044,Samalut,SMLT
H3045,Saqolta,SQLT
H3046,Sohag,SHG1
H3048,Tahta,THAT
H3049,Tima,TIMA
H3050,Toshka,TSHK
H3052,Sanhour,SNHR
H3053,Sinaures,SNRS
H3054,Ashmoun,ASHM
H3056,El Ayat,AYAT
H3057,Aswan East,ASWE
H3060,Abu Simbel 2,SMBL
H3061,Abo Qurqas,QRQS
H3062,Beni Mohamadiat,BNMD
H3063,Draw,DRAW
H3064,El Eqal,EQAL
H3066,Etsa,ETSA
H3067,Ihnasia,IHNS
H3068,New Luxor,LXRN
H3069,El Maabda,MBDA
H3072,Sheikh Haroun,HRUN
H3073,Dar El Salam (Upper),DRSU
H3082,Mashta,MSHT
H3084,El Deka,DEKA
H3085,Balana,BLNA
H3091,El Maragha,MRGA
H3092,Beni Suef MTX,BNSX
H3093,El Kawsar,KWSR
H3095,Owaynat East,OWYE
H3100,Abu Munkar,MNKR
H3106,Boulaq elkharga,BKHG
H4001,Abo El Matamir,MTMR
H4003,Abo Kebir,KBIR
H4006,Baltim,BLTM
H4007,Banha,BNHA
H4009,Basyoun,BSYN
H4010,Bilbeis,BLBS
H4011,Berket El Sabaa,BRSB
H4012,Bilqas,BLQS
H4014,El Borolos,BRLS
H4016,Damas(Delta),DMAS
H4017,El Dilingat,DLGT
H4018,Dikirnis,DKRS
H4019,Disuq,DISQ
H4020,Damietta,DMTA
H4021,Damietta Port,DMTP
H4022,Edfina,EDFN
H4023,El Hamul,HAML
H4024,Mansoura West,MNSW
H4025,Mansoura,MNSR
H4026,Manzalah,MNZL
H4027,El Moqataa (Delta),MOQT
H4028,El Shohada,SHOH
H4029,El Tal El Kebir,TLKB
H4030,Faraskur,FRSR
H4032,Gamasa,GMSA
H4036,Ikhiwa,IKWA
H4037,Itay El Baroud,BRUD
H4039,Kafr El Dawar,KFRD
H4040,Kafr El Sheikh,KFSH
H4042,Kafr Saad,KFRS
H4043,Kafr Saqr,KFRQ
H4044,Kom Hamada,KMHM
H4046,"El Materiya, Delta",MTRY
H4047,El Mahalla,MHLA
H4049,Minya El Qamh,MNQM
H4050,Minyet El Nasr,MINS
H4052,Mit Ghamr,MTGM
H4055,Qutor,QUTR
H4056,Ras El Bar,RSBR
H4057,Rasheed,RSHD
H4058,Sadat City,SADC
H4060,El Santa,SNTA
H4061,ShubraKhit,KHIT
H4062,Shirbin West,SHBW
H4063,Shibin El Kom,SHIB
H4065,Simbillawen,SMBI
H4067,Tala,TALA
H4070,Tanta 1,TNT1
H4071,Tanta 2,TNT2
H4072,Zagazig,ZAZG
H4073,Zifta,ZFTA
H4075,El Todd,TODD
H4076,El Hussanya,HSNY
H4082,Damietta 2,DMT2
H4085,Burg Rasheed,BRGR
H4086,Damanhour,DMNR
H4087,El Hag Gebeel,HGBL
H4093,Shaboor,SHAB
H4094,El Mahalla 2,MHL2
H4095,Faqus,FQUS
H4097,Abu Deshisha,DESH
H4099,Mit Assas,MTAS
H4100,Wadi El Natron,WDNT
H4101,Mit Ghamr 2,MTG2
H4102,Sidi Ghazi,SDGZ
H4105,El Reyad,RYAD
H4108,Shubraqas,RQAS
H4109,Sabk El Dahhak,SBDK
H4119,Edko,EDKO
H4120,New Salhiya,SHYN
H4122,Damanhour West,DMNW
H4123,El Mahalla 3,MHL3
H4128,New Dumyat,DMYN
H4137,Al Qurein,QURN
H4138,Hamoul(Monofya),HMUL
H4145,Taha Shobra,THAS
H4147,Shubra Bakhom,SHBK
H4149,Manshet Moubark,MMBR
H4150,Sabk El Ahd,SBKA
H5001,Abo Sultan,SLTN
H5003,Ataqa 2,ATQA
H5004,El Zehour-Port Said,ZHPS
H5005,Ismailia,ISML
H5006,Port said,PRSD
H5008,Ain Sukhna,ANSK
H5009,El Galala,GLLA
H5010,Suez,SUEZ
H5011,Hurghada,HRGA
H5012,El Gouna,GONA
H5013,Qussair,QSIR
H5014,Zafarana,ZAFR
H5015,Halayeb,HLYB
H5017,Marsa Alam,MRLM
H5019,Ras Ghareb,RSGR
H5020,Ras Shukhair,RSSH
H5021,Port Safaga,PRSF
H5022,Shallatin,SHLT
H5023,Abo Rudeis,RDIS
H5024,Abo Zenima,ZNIM
H5025,Ber El Abd,BRAB
H5026,Bir Hasana,BRHS
H5028,Dahab,DHAB
H5029,El Arish,ARSH
H5031,El Tur,ETUR
H5033,Nekhel,NKEL
H5034,Nuweiba,NUWI
H5036,Qusayema,QUSM
H5037,Rafah,RFAH
H5038,Ras El Naqab,RSNQ
H5041,Ras Sedr,RSSD
H5043,Sharm El Sheikh 1,SHR1
H5044,Sharm El Sheikh 2 (Nama Bay),SHR2
H5045,St. Catherines,STCT
H5046,Taba,TABA
H5049,Soco,SOCO
H5055,Kontala,KNTL
H5056,Sheikh Zayed- Ismaillya,ZASM
H5057,El Salam - Suez,SLSU
H5059,Mubarak,MBRK
H5060,Port Fouad,PTFD
H5065,Port Tawfeek,TWFK
H5066,Fayed,FYED
H5068,Faisal Elsuez,FYSS
H5069,Gineve,GNIV
H5071,Fanarah,FNAR
Headquarters MTX,Headquarters MTX,HQMX
Markaz el Madina,Markaz el Madina,MRKZ
Ramadan MTX,Ramadan MTX,RMDX
Smouha MTX,Smouha MTX,SMHX
SUPER_HUB (0015),SUPER_HUB (0015),SU15
SUPER_HUB (0345),SUPER_HUB (0345),S345
SUPER_HUB (0622),SUPER_HUB (0622),S622
SUPER_HUB (4194),SUPER_HUB (4194),S419
