DATE_ID,NETWORK,Region,Sub_region,BSC_RNC,CELLs,CELLs%,MSCs,BSC_RNC_Switch_Location,MSC_Switch_Location  2015-07-27,2G,Delta,Damietta_Rural,BSC16,8,1 8200001,{MSCS26-MSCS27-MSCS38-MSCS39-MSCS40},,{CAI5}
2016-02-17,2G,Delta,Dakahleyya_Rural,BSC17,85,4.8200002,{MSCS11-MSCS12-MSCS13-MSCS24-MSCS33-MSCS34},{10th Ramadan},{10th Ramadan},,,
2016-02-17,2G,Delta,Gharbiya_Rural,BSC17,7,0.79000002,{MSCS11-MSCS12-MSCS13-MSCS24-MSCS33-MSCS34},{10th Ramadan},{10th Ramadan},,,
2016-02-17,2G,Delta,Mansoura,BSC17,22,5.3800001,{MSCS11-MSCS12-MSCS13-MSCS24-MSCS33-MSCS34},{10th Ramadan},{10th Ramadan},,,
2016-02-17,2G,Delta,Sharkeyya_Rural,BSC17,14,0.70999998,{MSCS11-MSCS12-MSCS13-MSCS24-MSCS33-MSCS34},{10th Ramadan},{10th Ramadan},,,
2016-02-17,2G,Delta,Kafr El Sheikh_Rural,BSC18,14,1.34,{MSCS14-MSCS15-MSCS28-MSCS42-MSCS59-MSCS9},{Alex},{Alex},,,
2016-02-17,2G,Alexandria,Alex Desert Road,BSC18,7,1.85,{MSCS14-MSCS15-MSCS28-MSCS42-MSCS59-MSCS9},{Alex},{Alex},,,
2016-02-17,2G,Alexandria,Alex_1,BSC18,83,14.38,{MSCS14-MSCS15-MSCS28-MSCS42-MSCS59-MSCS9},{Alex},{Alex},,,
2016-02-17,2G,Alexandria,Alex_2,BSC18,20,4.2600002,{MSCS14-MSCS15-MSCS28-MSCS42-MSCS59-MSCS9},{Alex},{Alex},,,
2016-02-17,2G,Alexandria,Alex_3,BSC18,2,0.52999997,{MSCS14-MSCS15-MSCS28-MSCS42-MSCS59-MSCS9},{Alex},{Alex},,,
2016-02-17,2G,Delta,Mansoura,BSC19,152,37.16,{MSCS11-MSCS12-MSCS13-MSCS24-MSCS33-MSCS34},{10th Ramadan},{10th Ramadan},,,
2016-02-17,2G,Delta,Sharkeyya_Rural,BSC21,183,9.2600002,{MSCS11-MSCS12-MSCS13-MSCS24-MSCS33-MSCS34},{10th Ramadan},{10th Ramadan},,,
2016-02-17,2G,Delta,Sharkeyya_Rural,BSC22,71,3.5899999,{MSCBC2},{10th Ramadan},{10th Ramadan},,,
2016-02-17,2G,Delta,Dakahleyya_Rural,BSC22,72,4.0799999,{MSCBC2},{10th Ramadan},{10th Ramadan},,,
2016-02-17,2G,Delta,Dakahleyya_Rural,BSC24,14,0.79000002,{MSCS35-MSCS36-MSCS46-MSCS47-MSCS48-MSCS49-MSCS56},{HQ},{Beni Suef},,,
2016-02-17,2G,Delta,Kafr El Sheikh_Rural,BSC24,53,5.0900002,{MSCS35-MSCS36-MSCS46-MSCS47-MSCS48-MSCS49-MSCS56},{HQ},{Beni Suef},,,
2016-02-17,2G,Delta,Gharbiya_Rural,BSC24,92,10.4,{MSCS35-MSCS36-MSCS46-MSCS47-MSCS48-MSCS49-MSCS56},{HQ},{Beni Suef},,,
2016-02-17,2G,Delta,Sharkeyya_Rural,BSC24,7,0.34999999,{MSCS35-MSCS36-MSCS46-MSCS47-MSCS48-MSCS49-MSCS56},{HQ},{Beni Suef},,,
2016-02-17,2G,Delta,Damanhour,BSC25,72,46.75,{MSCS35-MSCS36-MSCS46-MSCS47-MSCS48-MSCS49-MSCS56},{HQ},{Beni Suef},,,
2016-02-17,2G,Delta,Beheira_Rural,BSC25,6,0.40000001,{MSCS35-MSCS36-MSCS46-MSCS47-MSCS48-MSCS49-MSCS56},{HQ},{Beni Suef},,,
2016-02-17,2G,Alexandria,Alex_1,BSC31,340,58.93,{MSCS14-MSCS15-MSCS28-MSCS42-MSCS59-MSCS9},{Alex},{Alex},,,
2016-02-17,2G,Delta,Banha,BSC33,133,95.68,{MSCS11-MSCS12-MSCS13-MSCS24-MSCS33-MSCS34},{10th Ramadan},{10th Ramadan},,,
2016-02-17,2G,Delta,Dakahleyya_Rural,BSC33,50,2.8299999,{MSCS11-MSCS12-MSCS13-MSCS24-MSCS33-MSCS34},{10th Ramadan},{10th Ramadan},,,
2016-02-17,2G,Delta,Qalyubiya_Rural,BSC33,22,2.6900001,{MSCS11-MSCS12-MSCS13-MSCS24-MSCS33-MSCS34},{10th Ramadan},{10th Ramadan},,,
2016-02-17,2G,Delta,Sharkeyya_Rural,BSC33,118,5.9699998,{MSCS11-MSCS12-MSCS13-MSCS24-MSCS33-MSCS34},{10th Ramadan},{10th Ramadan},,,
2016-02-17,2G,Delta,Gharbiya_Rural,BSC34,13,1.47,{MSCS11-MSCS12-MSCS13-MSCS24-MSCS33-MSCS34},{10th Ramadan},{10th Ramadan},,,
2016-02-17,2G,Delta,Dakahleyya_Rural,BSC34,121,6.8600001,{MSCS11-MSCS12-MSCS13-MSCS24-MSCS33-MSCS34},{10th Ramadan},{10th Ramadan},,,
2016-02-17,2G,Delta,Kafr El Sheikh_Rural,BSC35,6,0.57999998,{MSCS14-MSCS15-MSCS28-MSCS42-MSCS59-MSCS9},{Alex},{Alex},,,
2016-02-17,2G,Alexandria,Alex_1,BSC35,139,24.09,{MSCS14-MSCS15-MSCS28-MSCS42-MSCS59-MSCS9},{Alex},{Alex},,,
2016-02-17,2G,Alexandria,Alex_2,BSC35,166,35.389999,{MSCS14-MSCS15-MSCS28-MSCS42-MSCS59-MSCS9},{Alex},{Alex},,,
2016-02-17,2G,Alexandria,Alex Desert Road,BSC35,3,0.79000002,{MSCS14-MSCS15-MSCS28-MSCS42-MSCS59-MSCS9},{Alex},{Alex},,,
2016-02-17,2G,Alexandria,Alex_2,BSC36,175,37.310001,{MSCS14-MSCS15-MSCS28-MSCS42-MSCS59-MSCS9},{Alex},{Alex},,,
2016-02-17,2G,Alexandria,Alex_1,BSC36,9,1.5599999,{MSCS14-MSCS15-MSCS28-MSCS42-MSCS59-MSCS9},{Alex},{Alex},,,
2016-02-17,2G,Alexandria,North Coast East,BSC36,1,0.23,{MSCS14-MSCS15-MSCS28-MSCS42-MSCS59-MSCS9},{Alex},{Alex},,,
2016-02-17,2G,Alexandria,Alex_3,BSC36,177,46.950001,{MSCS14-MSCS15-MSCS28-MSCS42-MSCS59-MSCS9},{Alex},{Alex},,,
2016-02-17,2G,Delta,Gharbiya_Rural,BSC39,176,19.889999,{MSCS18},{Zahraa},{Zahraa},,,
2016-02-17,2G,Delta,Monufeyya_Rural,BSC39,17,1.85,{MSCS18},{Zahraa},{Zahraa},,,
2016-02-17,2G,Cairo,Matarya,BSC40,21,3.8399999,{MSCS19},{Zahraa},{Zahraa},,,
2016-02-17,2G,Cairo,Shubra El-Khima,BSC40,86,18.299999,{MSCS19},{Zahraa},{Zahraa},,,
2016-02-17,2G,Cairo,Zaitoun and Qubba,BSC40,43,22.870001,{MSCS19},{Zahraa},{Zahraa},,,
2016-02-17,2G,Delta,Sharkeyya_Rural,BSC40,33,1.67,{MSCS19},{Zahraa},{Zahraa},,,
2016-02-17,2G,Cairo,Shubra El-Khima,BSC41,1,0.20999999,{MSCS35-MSCS36-MSCS46-MSCS47-MSCS48-MSCS49-MSCS56},{HQ},{Beni Suef},,,
2016-02-17,2G,Delta,Qalyubiya_Rural,BSC41,6,0.73000002,{MSCS35-MSCS36-MSCS46-MSCS47-MSCS48-MSCS49-MSCS56},{HQ},{Beni Suef},,,
2016-02-17,2G,Delta,Gharbiya_Rural,BSC41,111,12.54,{MSCS35-MSCS36-MSCS46-MSCS47-MSCS48-MSCS49-MSCS56},{HQ},{Beni Suef},,,
2016-02-17,2G,Delta,Beheira_Rural,BSC41,32,2.1500001,{MSCS35-MSCS36-MSCS46-MSCS47-MSCS48-MSCS49-MSCS56},{HQ},{Beni Suef},,,
2016-02-17,2G,Delta,Damanhour,BSC41,6,3.9000001,{MSCS35-MSCS36-MSCS46-MSCS47-MSCS48-MSCS49-MSCS56},{HQ},{Beni Suef},,,
2016-02-17,2G,Delta,Dakahleyya_Rural,BSC42,10,0.56999999,{MSCS35-MSCS36-MSCS46-MSCS47-MSCS48-MSCS49-MSCS56},{HQ},{Beni Suef},,,
2016-02-17,2G,Delta,Beheira_Rural,BSC42,6,0.40000001,{MSCS35-MSCS36-MSCS46-MSCS47-MSCS48-MSCS49-MSCS56},{HQ},{Beni Suef},,,
2016-02-17,2G,Delta,Gharbiya_Rural,BSC42,62,7.0100002,{MSCS35-MSCS36-MSCS46-MSCS47-MSCS48-MSCS49-MSCS56},{HQ},{Beni Suef},,,
2016-02-17,2G,Delta,Monufeyya_Rural,BSC42,6,0.64999998,{MSCS35-MSCS36-MSCS46-MSCS47-MSCS48-MSCS49-MSCS56},{HQ},{Beni Suef},,,
2016-02-17,2G,Delta,Mahala,BSC42,169,81.639999,{MSCS35-MSCS36-MSCS46-MSCS47-MSCS48-MSCS49-MSCS56},{HQ},{Beni Suef},,,
2016-02-17,2G,Delta,Kafr El Sheikh_Rural,BSC44,11,1.0599999,{MSCS22-MSCS23-MSCS25-MSCS57-MSCS58},{CAI5},{CAI5},,,
2016-02-17,2G,Delta,Dakahleyya_Rural,BSC44,97,5.5,{MSCS22-MSCS23-MSCS25-MSCS57-MSCS58},{CAI5},{CAI5},,,
2016-02-17,2G,Giza,Imbaba,BSC44,106,32.82,{MSCS22-MSCS23-MSCS25-MSCS57-MSCS58},{CAI5},{CAI5},,,
2016-02-17,2G,Giza,Mouhandseen,BSC44,3,0.62,{MSCS22-MSCS23-MSCS25-MSCS57-MSCS58},{CAI5},{CAI5},,,
2016-02-17,2G,Giza,Shubra and Imbaba Outskirts,BSC44,8,11.94,{MSCS22-MSCS23-MSCS25-MSCS57-MSCS58},{CAI5},{CAI5},,,
2016-02-17,2G,Delta,Mansoura,BSC45,170,41.560001,{MSCS11-MSCS12-MSCS13-MSCS24-MSCS33-MSCS34},{10th Ramadan},{10th Ramadan},,,
2016-02-17,2G,Delta,Dakahleyya_Rural,BSC46,8,0.44999999,{MSCS22-MSCS23-MSCS25-MSCS57-MSCS58},{CAI5},{CAI5},,,
2016-02-17,2G,Delta,Damietta_Rural,BSC46,105,21,{MSCS22-MSCS23-MSCS25-MSCS57-MSCS58},{CAI5},{CAI5},,,
2016-02-17,2G,Giza,October,BSC46,3,0.54000002,{MSCS22-MSCS23-MSCS25-MSCS57-MSCS58},{CAI5},{CAI5},,,
2016-02-17,2G,Giza,Imbaba,BSC46,18,5.5700002,{MSCS22-MSCS23-MSCS25-MSCS57-MSCS58},{CAI5},{CAI5},,,
2016-02-17,2G,Giza,Mouhandseen,BSC46,71,14.7,{MSCS22-MSCS23-MSCS25-MSCS57-MSCS58},{CAI5},{CAI5},,,
2016-02-17,2G,Delta,Kafr El Sheikh_Rural,BSC47,36,3.46,{MSCS14-MSCS15-MSCS28-MSCS42-MSCS59-MSCS9},{Alex},{Alex},,,
2016-02-17,2G,Alexandria,Alex_1,BSC47,6,1.04,{MSCS14-MSCS15-MSCS28-MSCS42-MSCS59-MSCS9},{Alex},{Alex},,,
2016-02-17,2G,Alexandria,Alex_3,BSC47,176,46.68,{MSCS14-MSCS15-MSCS28-MSCS42-MSCS59-MSCS9},{Alex},{Alex},,,
2016-02-17,2G,Alexandria,Alex_2,BSC47,108,23.030001,{MSCS14-MSCS15-MSCS28-MSCS42-MSCS59-MSCS9},{Alex},{Alex},,,
2016-02-17,2G,Alexandria,Alex Desert Road,BSC47,12,3.1700001,{MSCS14-MSCS15-MSCS28-MSCS42-MSCS59-MSCS9},{Alex},{Alex},,,
2016-02-17,2G,Delta,Gharbiya_Rural,BSC48,6,0.68000001,{MSCS35-MSCS36-MSCS46-MSCS47-MSCS48-MSCS49-MSCS56},{HQ},{Beni Suef},,,
2016-02-17,2G,Delta,Monufeyya_Rural,BSC48,30,3.26,{MSCS35-MSCS36-MSCS46-MSCS47-MSCS48-MSCS49-MSCS56},{HQ},{Beni Suef},,,
2016-02-17,2G,Delta,Qalyubiya_Rural,BSC48,86,10.53,{MSCS35-MSCS36-MSCS46-MSCS47-MSCS48-MSCS49-MSCS56},{HQ},{Beni Suef},,,
2016-02-17,2G,Delta,Beheira_Rural,BSC48,6,0.40000001,{MSCS35-MSCS36-MSCS46-MSCS47-MSCS48-MSCS49-MSCS56},{HQ},{Beni Suef},,,
2016-02-17,2G,Delta,Sharkeyya_Rural,BSC48,66,3.3399999,{MSCS35-MSCS36-MSCS46-MSCS47-MSCS48-MSCS49-MSCS56},{HQ},{Beni Suef},,,
2016-02-17,2G,Delta,Qalyubiya_Rural,BSC49,224,27.42,{MSCS35-MSCS36-MSCS46-MSCS47-MSCS48-MSCS49-MSCS56},{HQ},{Beni Suef},,,
2016-02-17,2G,Delta,Monufeyya_Rural,BSC49,97,10.54,{MSCS35-MSCS36-MSCS46-MSCS47-MSCS48-MSCS49-MSCS56},{HQ},{Beni Suef},,,
2016-02-17,2G,Delta,Gharbiya_Rural,BSC51,30,3.3900001,{MSCS11-MSCS12-MSCS13-MSCS24-MSCS33-MSCS34},{10th Ramadan},{10th Ramadan},,,
2016-02-17,2G,Delta,Dakahleyya_Rural,BSC51,43,2.4400001,{MSCS11-MSCS12-MSCS13-MSCS24-MSCS33-MSCS34},{10th Ramadan},{10th Ramadan},,,
2016-02-17,2G,Delta,Sharkeyya_Rural,BSC51,182,9.21,{MSCS11-MSCS12-MSCS13-MSCS24-MSCS33-MSCS34},{10th Ramadan},{10th Ramadan},,,
2016-02-17,2G,Delta,Gharbiya_Rural,BSC52,14,1.58,{MSCS11-MSCS12-MSCS13-MSCS24-MSCS33-MSCS34},{10th Ramadan},{10th Ramadan},,,
2016-02-17,2G,Delta,Kafr El Sheikh_Rural,BSC52,137,13.16,{MSCS11-MSCS12-MSCS13-MSCS24-MSCS33-MSCS34},{10th Ramadan},{10th Ramadan},,,
2016-02-17,2G,Delta,Kafr El Sheikh_Rural,BSC53,35,3.3599999,{MSCS35-MSCS36-MSCS46-MSCS47-MSCS48-MSCS49-MSCS56},{HQ},{Beni Suef},,,
2016-02-17,2G,Delta,Gharbiya_Rural,BSC53,12,1.36,{MSCS35-MSCS36-MSCS46-MSCS47-MSCS48-MSCS49-MSCS56},{HQ},{Beni Suef},,,
2016-02-17,2G,Delta,Beheira_Rural,BSC53,49,3.29,{MSCS35-MSCS36-MSCS46-MSCS47-MSCS48-MSCS49-MSCS56},{HQ},{Beni Suef},,,
2016-02-17,2G,Delta,Dakahleyya_Rural,BSC53,117,6.6300001,{MSCS35-MSCS36-MSCS46-MSCS47-MSCS48-MSCS49-MSCS56},{HQ},{Beni Suef},,,
2016-02-17,2G,Delta,Sharkeyya_Rural,BSC53,11,0.56,{MSCS35-MSCS36-MSCS46-MSCS47-MSCS48-MSCS49-MSCS56},{HQ},{Beni Suef},,,
2016-02-17,2G,Delta,Sharkeyya_Rural,BSC56,6,0.30000001,{MSCS22-MSCS23-MSCS25-MSCS57-MSCS58},{CAI5},{CAI5},,,
2016-02-17,2G,Delta,Dakahleyya_Rural,BSC56,42,2.3800001,{MSCS22-MSCS23-MSCS25-MSCS57-MSCS58},{CAI5},{CAI5},,,
2016-02-17,2G,Delta,Kafr El Sheikh_Rural,BSC56,109,10.47,{MSCS22-MSCS23-MSCS25-MSCS57-MSCS58},{CAI5},{CAI5},,,
2016-02-17,2G,Delta,Kafr El Sheikh_Rural,BSC57,27,2.5899999,{MSCBC1-MSCBC2-MSCBC3-MSCBC4-MSCBC5-MSCBC6},{CAI5},{10th Ramadan,Beni Suef,CAI5,Zahraa},,,
2016-02-17,2G,Delta,Qalyubiya_Rural,BSC57,88,10.77,{MSCBC1-MSCBC2-MSCBC3-MSCBC4-MSCBC5-MSCBC6},{CAI5},{10th Ramadan,Beni Suef,CAI5,Zahraa},,,
2016-02-17,2G,Cairo,Airport,BSC57,6,10.53,{MSCBC1-MSCBC2-MSCBC3-MSCBC4-MSCBC5-MSCBC6},{CAI5},{10th Ramadan,Beni Suef,CAI5,Zahraa},,,
2016-02-17,2G,Cairo,Alsalam,BSC57,119,45.080002,{MSCBC1-MSCBC2-MSCBC3-MSCBC4-MSCBC5-MSCBC6},{CAI5},{10th Ramadan,Beni Suef,CAI5,Zahraa},,,
2016-02-17,2G,Cairo,Matarya,BSC57,54,9.8699999,{MSCBC1-MSCBC2-MSCBC3-MSCBC4-MSCBC5-MSCBC6},{CAI5},{10th Ramadan,Beni Suef,CAI5,Zahraa},,,
2016-02-17,2G,Cairo,Nasr City,BSC57,4,0.56,{MSCBC1-MSCBC2-MSCBC3-MSCBC4-MSCBC5-MSCBC6},{CAI5},{10th Ramadan,Beni Suef,CAI5,Zahraa},,,
2016-02-17,2G,Cairo,Moukattam,BSC58,30,11.36,{MSCBC1-MSCBC2-MSCBC3-MSCBC4-MSCBC5-MSCBC6},{Zahraa},{10th Ramadan,Beni Suef,CAI5,Zahraa},,,
2016-02-17,2G,Cairo,Shubra El-Khima,BSC58,1,0.20999999,{MSCBC1-MSCBC2-MSCBC3-MSCBC4-MSCBC5-MSCBC6},{Zahraa},{10th Ramadan,Beni Suef,CAI5,Zahraa},,,
2016-02-17,2G,Cairo,Shubra,BSC58,4,2.23,{MSCBC1-MSCBC2-MSCBC3-MSCBC4-MSCBC5-MSCBC6},{Zahraa},{10th Ramadan,Beni Suef,CAI5,Zahraa},,,
2016-02-17,2G,Cairo,Zamalek,BSC58,23,24.209999,{MSCBC1-MSCBC2-MSCBC3-MSCBC4-MSCBC5-MSCBC6},{Zahraa},{10th Ramadan,Beni Suef,CAI5,Zahraa},,,
2016-02-17,2G,Cairo,Abbassyia,BSC58,19,13.57,{MSCBC1-MSCBC2-MSCBC3-MSCBC4-MSCBC5-MSCBC6},{Zahraa},{10th Ramadan,Beni Suef,CAI5,Zahraa},,,
2016-02-17,2G,Cairo,Down Town and Manyal,BSC58,431,66.410004,{MSCBC1-MSCBC2-MSCBC3-MSCBC4-MSCBC5-MSCBC6},{Zahraa},{10th Ramadan,Beni Suef,CAI5,Zahraa},,,
2016-02-17,2G,Delta,Monufeyya_Rural,BSC58,112,12.17,{MSCBC1-MSCBC2-MSCBC3-MSCBC4-MSCBC5-MSCBC6},{Zahraa},{10th Ramadan,Beni Suef,CAI5,Zahraa},,,
2016-02-17,2G,Delta,Gharbiya_Rural,BSC58,26,2.9400001,{MSCBC1-MSCBC2-MSCBC3-MSCBC4-MSCBC5-MSCBC6},{Zahraa},{10th Ramadan,Beni Suef,CAI5,Zahraa},,,
2016-02-17,2G,Giza,Mouhandseen,BSC58,4,0.82999998,{MSCBC1-MSCBC2-MSCBC3-MSCBC4-MSCBC5-MSCBC6},{Zahraa},{10th Ramadan,Beni Suef,CAI5,Zahraa},,,
2016-02-17,2G,Giza,Imbaba,BSC59,15,4.6399999,{MSCBC1-MSCBC2-MSCBC3-MSCBC4-MSCBC5-MSCBC6},{Zahraa},{10th Ramadan,Beni Suef,CAI5,Zahraa},,,
2016-02-17,2G,Delta,Beheira_Rural,BSC59,157,10.54,{MSCBC1-MSCBC2-MSCBC3-MSCBC4-MSCBC5-MSCBC6},{Zahraa},{10th Ramadan,Beni Suef,CAI5,Zahraa},,,
2016-02-17,2G,Cairo,Down Town and Manyal,BSC59,105,16.18,{MSCBC1-MSCBC2-MSCBC3-MSCBC4-MSCBC5-MSCBC6},{Zahraa},{10th Ramadan,Beni Suef,CAI5,Zahraa},,,
2016-02-17,2G,Cairo,Helwan,BSC59,6,1.45,{MSCBC1-MSCBC2-MSCBC3-MSCBC4-MSCBC5-MSCBC6},{Zahraa},{10th Ramadan,Beni Suef,CAI5,Zahraa},,,
2016-02-17,2G,Cairo,Abbassyia,BSC59,1,0.70999998,{MSCBC1-MSCBC2-MSCBC3-MSCBC4-MSCBC5-MSCBC6},{Zahraa},{10th Ramadan,Beni Suef,CAI5,Zahraa},,,
2016-02-17,2G,Cairo,Zamalek,BSC59,72,75.790001,{MSCBC1-MSCBC2-MSCBC3-MSCBC4-MSCBC5-MSCBC6},{Zahraa},{10th Ramadan,Beni Suef,CAI5,Zahraa},,,
2016-02-17,2G,Cairo,Shubra,BSC59,132,73.739998,{MSCBC1-MSCBC2-MSCBC3-MSCBC4-MSCBC5-MSCBC6},{Zahraa},{10th Ramadan,Beni Suef,CAI5,Zahraa},,,
2016-02-17,2G,Cairo,Shubra El-Khima,BSC59,18,3.8299999,{MSCBC1-MSCBC2-MSCBC3-MSCBC4-MSCBC5-MSCBC6},{Zahraa},{10th Ramadan,Beni Suef,CAI5,Zahraa},,,
2016-02-17,2G,Cairo,Matarya,BSC60,148,27.059999,{MSCBC1-MSCBC2-MSCBC3-MSCBC4-MSCBC5-MSCBC6},{Zahraa},{10th Ramadan,Beni Suef,CAI5,Zahraa},,,
2016-02-17,2G,Cairo,Ain Shams,BSC60,64,33.509998,{MSCBC1-MSCBC2-MSCBC3-MSCBC4-MSCBC5-MSCBC6},{Zahraa},{10th Ramadan,Beni Suef,CAI5,Zahraa},,,
2016-02-17,2G,Cairo,Down Town and Manyal,BSC60,110,16.950001,{MSCBC1-MSCBC2-MSCBC3-MSCBC4-MSCBC5-MSCBC6},{Zahraa},{10th Ramadan,Beni Suef,CAI5,Zahraa},,,
2016-02-17,2G,Delta,Gharbiya_Rural,BSC60,33,3.73,{MSCBC1-MSCBC2-MSCBC3-MSCBC4-MSCBC5-MSCBC6},{Zahraa},{10th Ramadan,Beni Suef,CAI5,Zahraa},,,
2016-02-17,2G,Delta,Dakahleyya_Rural,BSC60,79,4.48,{MSCBC1-MSCBC2-MSCBC3-MSCBC4-MSCBC5-MSCBC6},{Zahraa},{10th Ramadan,Beni Suef,CAI5,Zahraa},,,
2016-02-17,2G,Delta,Damietta_Rural,BSC61,143,28.6,{MSCBC1-MSCBC2-MSCBC3-MSCBC4-MSCBC5-MSCBC6},{CAI5},{10th Ramadan,Beni Suef,CAI5,Zahraa},,,
2016-02-17,2G,Delta,Damyata,BSC61,149,100,{MSCBC1-MSCBC2-MSCBC3-MSCBC4-MSCBC5-MSCBC6},{CAI5},{10th Ramadan,Beni Suef,CAI5,Zahraa},,,
2016-02-17,2G,Delta,Kafr El Sheikh_Rural,BSC61,8,0.76999998,{MSCBC1-MSCBC2-MSCBC3-MSCBC4-MSCBC5-MSCBC6},{CAI5},{10th Ramadan,Beni Suef,CAI5,Zahraa},,,
2016-02-17,2G,Giza,Boulaq,BSC61,4,1.3200001,{MSCBC1-MSCBC2-MSCBC3-MSCBC4-MSCBC5-MSCBC6},{CAI5},{10th Ramadan,Beni Suef,CAI5,Zahraa},,,
2016-02-17,2G,Giza,Kerdasa and Mansoraya,BSC61,22,12.79,{MSCBC1-MSCBC2-MSCBC3-MSCBC4-MSCBC5-MSCBC6},{CAI5},{10th Ramadan,Beni Suef,CAI5,Zahraa},,,
2016-02-17,2G,Upper Egypt,New Valley_Rural,BSC61,1,0.60000002,{MSCBC1-MSCBC2-MSCBC3-MSCBC4-MSCBC5-MSCBC6},{CAI5},{10th Ramadan,Beni Suef,CAI5,Zahraa},,,
2016-02-17,2G,Delta,Dakahleyya_Rural,BSC62,169,9.5799999,{MSCBC1-MSCBC2-MSCBC3-MSCBC4-MSCBC5-MSCBC6},{CAI5},{10th Ramadan,Beni Suef,CAI5,Zahraa},,,
2016-02-17,2G,Delta,Kafr El Sheikh_Rural,BSC63,29,2.79,{MSCBC1-MSCBC2-MSCBC3-MSCBC4-MSCBC5-MSCBC6},{Mokattam},{10th Ramadan,Beni Suef,CAI5,Zahraa},,,
2016-02-17,2G,Delta,Gharbiya_Rural,BSC63,15,1.6900001,{MSCBC1-MSCBC2-MSCBC3-MSCBC4-MSCBC5-MSCBC6},{Mokattam},{10th Ramadan,Beni Suef,CAI5,Zahraa},,,
2016-02-17,2G,Delta,Qalyubiya_Rural,BSC63,9,1.1,{MSCBC1-MSCBC2-MSCBC3-MSCBC4-MSCBC5-MSCBC6},{Mokattam},{10th Ramadan,Beni Suef,CAI5,Zahraa},,,
2016-02-17,2G,Cairo,Dar El Salam,BSC63,30,14.08,{MSCBC1-MSCBC2-MSCBC3-MSCBC4-MSCBC5-MSCBC6},{Mokattam},{10th Ramadan,Beni Suef,CAI5,Zahraa},,,
2016-02-17,2G,Cairo,Hadabah Wostah,BSC63,114,86.360001,{MSCBC1-MSCBC2-MSCBC3-MSCBC4-MSCBC5-MSCBC6},{Mokattam},{10th Ramadan,Beni Suef,CAI5,Zahraa},,,
2016-02-17,2G,Cairo,Maadi,BSC63,15,4.1900001,{MSCBC1-MSCBC2-MSCBC3-MSCBC4-MSCBC5-MSCBC6},{Mokattam},{10th Ramadan,Beni Suef,CAI5,Zahraa},,,
2016-02-17,2G,Cairo,Moukattam,BSC63,191,72.349998,{MSCBC1-MSCBC2-MSCBC3-MSCBC4-MSCBC5-MSCBC6},{Mokattam},{10th Ramadan,Beni Suef,CAI5,Zahraa},,,
2016-02-17,2G,Cairo,Nasr City,BSC63,279,38.970001,{MSCBC1-MSCBC2-MSCBC3-MSCBC4-MSCBC5-MSCBC6},{Mokattam},{10th Ramadan,Beni Suef,CAI5,Zahraa},,,
2016-02-17,2G,Cairo,Zaitoun and Qubba,BSC64,55,29.26,{MSCBC1-MSCBC2-MSCBC3-MSCBC4-MSCBC5-MSCBC6},{Zahraa},{10th Ramadan,Beni Suef,CAI5,Zahraa},,,
2016-02-17,2G,Cairo,Shubra El-Khima,BSC64,12,2.55,{MSCBC1-MSCBC2-MSCBC3-MSCBC4-MSCBC5-MSCBC6},{Zahraa},{10th Ramadan,Beni Suef,CAI5,Zahraa},,,
2016-02-17,2G,Cairo,Shubra,BSC64,24,13.41,{MSCBC1-MSCBC2-MSCBC3-MSCBC4-MSCBC5-MSCBC6},{Zahraa},{10th Ramadan,Beni Suef,CAI5,Zahraa},,,
2016-02-17,2G,Cairo,Matarya,BSC64,24,4.3899999,{MSCBC1-MSCBC2-MSCBC3-MSCBC4-MSCBC5-MSCBC6},{Zahraa},{10th Ramadan,Beni Suef,CAI5,Zahraa},,,
2016-02-17,2G,Cairo,Ain Shams,BSC64,15,7.8499999,{MSCBC1-MSCBC2-MSCBC3-MSCBC4-MSCBC5-MSCBC6},{Zahraa},{10th Ramadan,Beni Suef,CAI5,Zahraa},,,
2016-02-17,2G,Cairo,Abbassyia,BSC64,7,5,{MSCBC1-MSCBC2-MSCBC3-MSCBC4-MSCBC5-MSCBC6},{Zahraa},{10th Ramadan,Beni Suef,CAI5,Zahraa},,,
2016-02-17,2G,Cairo,Alsalam,BSC64,6,2.27,{MSCBC1-MSCBC2-MSCBC3-MSCBC4-MSCBC5-MSCBC6},{Zahraa},{10th Ramadan,Beni Suef,CAI5,Zahraa},,,
2016-02-17,2G,Delta,Gharbiya_Rural,BSC64,67,7.5700002,{MSCBC1-MSCBC2-MSCBC3-MSCBC4-MSCBC5-MSCBC6},{Zahraa},{10th Ramadan,Beni Suef,CAI5,Zahraa},,,
2016-02-17,2G,Delta,Beheira_Rural,BSC64,51,3.4200001,{MSCBC1-MSCBC2-MSCBC3-MSCBC4-MSCBC5-MSCBC6},{Zahraa},{10th Ramadan,Beni Suef,CAI5,Zahraa},,,
2016-02-17,2G,Delta,Dakahleyya_Rural,BSC65,4,0.23,{MSCBC1-MSCBC2-MSCBC3-MSCBC4-MSCBC5-MSCBC6},{Zahraa},{10th Ramadan,Beni Suef,CAI5,Zahraa},,,
2016-02-17,2G,Cairo,Abbassyia,BSC65,10,7.1399999,{MSCBC1-MSCBC2-MSCBC3-MSCBC4-MSCBC5-MSCBC6},{Zahraa},{10th Ramadan,Beni Suef,CAI5,Zahraa},,,
2016-02-17,2G,Delta,Sharkeyya_Rural,BSC65,362,18.32,{MSCBC1-MSCBC2-MSCBC3-MSCBC4-MSCBC5-MSCBC6},{Zahraa},{10th Ramadan,Beni Suef,CAI5,Zahraa},,,
2016-02-17,2G,Delta,Shibin,BSC66,153,100,{MSCBC1-MSCBC2-MSCBC3-MSCBC4-MSCBC5-MSCBC6},{Zahraa},{10th Ramadan,Beni Suef,CAI5,Zahraa},,,
2016-02-17,2G,Delta,Monufeyya_Rural,BSC66,196,21.299999,{MSCBC1-MSCBC2-MSCBC3-MSCBC4-MSCBC5-MSCBC6},{Zahraa},{10th Ramadan,Beni Suef,CAI5,Zahraa},,,
2016-02-17,2G,Delta,Kafr El Sheikh_Rural,BSC67,212,20.370001,{MSCBC1-MSCBC2-MSCBC3-MSCBC4-MSCBC5-MSCBC6},{CAI5},{10th Ramadan,Beni Suef,CAI5,Zahraa},,,
2016-02-17,2G,Delta,Dakahleyya_Rural,BSC67,64,3.6300001,{MSCBC1-MSCBC2-MSCBC3-MSCBC4-MSCBC5-MSCBC6},{CAI5},{10th Ramadan,Beni Suef,CAI5,Zahraa},,,
2016-02-17,2G,Delta,Damietta_Rural,BSC67,41,8.1999998,{MSCBC1-MSCBC2-MSCBC3-MSCBC4-MSCBC5-MSCBC6},{CAI5},{10th Ramadan,Beni Suef,CAI5,Zahraa},,,
2016-02-17,2G,Giza,Imbaba,BSC67,72,22.290001,{MSCBC1-MSCBC2-MSCBC3-MSCBC4-MSCBC5-MSCBC6},{CAI5},{10th Ramadan,Beni Suef,CAI5,Zahraa},,,
2016-02-17,2G,Delta,Beheira_Rural,BSC68,4,0.27000001,{MSCBC1-MSCBC2-MSCBC3-MSCBC4-MSCBC5-MSCBC6},{HQ},{10th Ramadan,Beni Suef,CAI5,Zahraa},,,
2016-02-17,2G,Delta,Kafr El-Shikh,BSC68,115,100,{MSCBC1-MSCBC2-MSCBC3-MSCBC4-MSCBC5-MSCBC6},{HQ},{10th Ramadan,Beni Suef,CAI5,Zahraa},,,
2016-02-17,2G,Delta,Gharbiya_Rural,BSC68,22,2.49,{MSCBC1-MSCBC2-MSCBC3-MSCBC4-MSCBC5-MSCBC6},{HQ},{10th Ramadan,Beni Suef,CAI5,Zahraa},,,
2016-02-17,2G,Delta,Qalyubiya_Rural,BSC68,26,3.1800001,{MSCBC1-MSCBC2-MSCBC3-MSCBC4-MSCBC5-MSCBC6},{HQ},{10th Ramadan,Beni Suef,CAI5,Zahraa},,,
2016-02-17,2G,Delta,Monufeyya_Rural,BSC68,59,6.4099998,{MSCBC1-MSCBC2-MSCBC3-MSCBC4-MSCBC5-MSCBC6},{HQ},{10th Ramadan,Beni Suef,CAI5,Zahraa},,,
2016-02-17,2G,Delta,Kafr El Sheikh_Rural,BSC68,96,9.2200003,{MSCBC1-MSCBC2-MSCBC3-MSCBC4-MSCBC5-MSCBC6},{HQ},{10th Ramadan,Beni Suef,CAI5,Zahraa},,,
2016-02-17,2G,Delta,Damietta_Rural,BSC69,15,3,{MSCBC1-MSCBC2-MSCBC3-MSCBC4-MSCBC5-MSCBC6},{CAI5},{10th Ramadan,Beni Suef,CAI5,Zahraa},,,
2016-02-17,2G,Delta,Dakahleyya_Rural,BSC69,199,11.27,{MSCBC1-MSCBC2-MSCBC3-MSCBC4-MSCBC5-MSCBC6},{CAI5},{10th Ramadan,Beni Suef,CAI5,Zahraa},,,
2016-02-17,2G,Cairo,5Th Gathering and Kattamya,BSC69,1,0.25,{MSCBC1-MSCBC2-MSCBC3-MSCBC4-MSCBC5-MSCBC6},{CAI5},{10th Ramadan,Beni Suef,CAI5,Zahraa},,,
2016-02-17,2G,Giza,Imbaba,BSC69,64,19.809999,{MSCBC1-MSCBC2-MSCBC3-MSCBC4-MSCBC5-MSCBC6},{CAI5},{10th Ramadan,Beni Suef,CAI5,Zahraa},,,
2016-02-17,2G,Delta,Sharkeyya_Rural,BSC70,30,1.52,{MSCBC1-MSCBC2-MSCBC3-MSCBC4-MSCBC5-MSCBC6},{CAI5},{10th Ramadan,Beni Suef,CAI5,Zahraa},,,
2016-02-17,2G,Delta,Damietta_Rural,BSC70,10,2,{MSCBC1-MSCBC2-MSCBC3-MSCBC4-MSCBC5-MSCBC6},{CAI5},{10th Ramadan,Beni Suef,CAI5,Zahraa},,,
2016-02-17,2G,Delta,Dakahleyya_Rural,BSC70,82,4.6500001,{MSCBC1-MSCBC2-MSCBC3-MSCBC4-MSCBC5-MSCBC6},{CAI5},{10th Ramadan,Beni Suef,CAI5,Zahraa},,,
2016-02-17,2G,Delta,Monufeyya_Rural,BSC70,6,0.64999998,{MSCBC1-MSCBC2-MSCBC3-MSCBC4-MSCBC5-MSCBC6},{CAI5},{10th Ramadan,Beni Suef,CAI5,Zahraa},,,
2016-02-17,2G,Delta,Kafr El Sheikh_Rural,BSC70,105,10.09,{MSCBC1-MSCBC2-MSCBC3-MSCBC4-MSCBC5-MSCBC6},{CAI5},{10th Ramadan,Beni Suef,CAI5,Zahraa},,,
2016-02-17,2G,Delta,Kafr El Sheikh_Rural,BSC71,68,6.5300002,{MSCBC1-MSCBC2-MSCBC3-MSCBC4-MSCBC5-MSCBC6},{CAI5},{10th Ramadan,Beni Suef,CAI5,Zahraa},,,
2016-02-17,2G,Delta,Beheira_Rural,BSC71,27,1.8099999,{MSCBC1-MSCBC2-MSCBC3-MSCBC4-MSCBC5-MSCBC6},{CAI5},{10th Ramadan,Beni Suef,CAI5,Zahraa},,,
2016-02-17,2G,Delta,Beheira_Rural,BSC72,33,2.21,{MSCBC1-MSCBC2-MSCBC3-MSCBC4-MSCBC5-MSCBC6},{Mokattam},{10th Ramadan,Beni Suef,CAI5,Zahraa},,,
2016-02-17,2G,Delta,Gharbiya_Rural,BSC72,22,2.49,{MSCBC1-MSCBC2-MSCBC3-MSCBC4-MSCBC5-MSCBC6},{Mokattam},{10th Ramadan,Beni Suef,CAI5,Zahraa},,,
2016-02-17,2G,Cairo,Ain Shams,BSC72,111,58.119999,{MSCBC1-MSCBC2-MSCBC3-MSCBC4-MSCBC5-MSCBC6},{Mokattam},{10th Ramadan,Beni Suef,CAI5,Zahraa},,,
2016-02-17,2G,Cairo,Alsalam,BSC72,139,52.650002,{MSCBC1-MSCBC2-MSCBC3-MSCBC4-MSCBC5-MSCBC6},{Mokattam},{10th Ramadan,Beni Suef,CAI5,Zahraa},,,
2016-02-17,2G,Cairo,Heliopolis and Nozha,BSC72,82,17.120001,{MSCBC1-MSCBC2-MSCBC3-MSCBC4-MSCBC5-MSCBC6},{Mokattam},{10th Ramadan,Beni Suef,CAI5,Zahraa},,,
2016-02-17,2G,Cairo,Matarya,BSC72,35,6.4000001,{MSCBC1-MSCBC2-MSCBC3-MSCBC4-MSCBC5-MSCBC6},{Mokattam},{10th Ramadan,Beni Suef,CAI5,Zahraa},,,
2016-02-17,2G,Delta,Gharbiya_Rural,BSC73,55,6.21,{MSCBC1-MSCBC2-MSCBC3-MSCBC4-MSCBC5-MSCBC6},{HQ},{10th Ramadan,Beni Suef,CAI5,Zahraa},,,
2016-02-17,2G,Delta,Monufeyya_Rural,BSC73,165,17.93,{MSCBC1-MSCBC2-MSCBC3-MSCBC4-MSCBC5-MSCBC6},{HQ},{10th Ramadan,Beni Suef,CAI5,Zahraa},,,
2016-02-17,2G,Delta,Qalyubiya_Rural,BSC73,32,3.9200001,{MSCBC1-MSCBC2-MSCBC3-MSCBC4-MSCBC5-MSCBC6},{HQ},{10th Ramadan,Beni Suef,CAI5,Zahraa},,,
2016-02-17,2G,Delta,Mahala,BSC73,6,2.9000001,{MSCBC1-MSCBC2-MSCBC3-MSCBC4-MSCBC5-MSCBC6},{HQ},{10th Ramadan,Beni Suef,CAI5,Zahraa},,,
2016-02-17,2G,Delta,Beheira_Rural,BSC73,72,4.8299999,{MSCBC1-MSCBC2-MSCBC3-MSCBC4-MSCBC5-MSCBC6},{HQ},{10th Ramadan,Beni Suef,CAI5,Zahraa},,,
2016-02-17,2G,Delta,Dakahleyya_Rural,BSC73,37,2.0999999,{MSCBC1-MSCBC2-MSCBC3-MSCBC4-MSCBC5-MSCBC6},{HQ},{10th Ramadan,Beni Suef,CAI5,Zahraa},,,
2016-02-17,2G,Delta,Sharkeyya_Rural,BSC73,79,4,{MSCBC1-MSCBC2-MSCBC3-MSCBC4-MSCBC5-MSCBC6},{HQ},{10th Ramadan,Beni Suef,CAI5,Zahraa},,,
2016-02-17,2G,Delta,Sharkeyya_Rural,BSC74,114,5.77,{MSCBC1-MSCBC2-MSCBC3-MSCBC4-MSCBC5-MSCBC6},{10th Ramadan},{10th Ramadan,Beni Suef,CAI5,Zahraa},,,
2016-02-17,2G,Delta,Dakahleyya_Rural,BSC74,192,10.88,{MSCBC1-MSCBC2-MSCBC3-MSCBC4-MSCBC5-MSCBC6},{10th Ramadan},{10th Ramadan,Beni Suef,CAI5,Zahraa},,,
2016-02-17,2G,Delta,Mansoura,BSC74,14,3.4200001,{MSCBC1-MSCBC2-MSCBC3-MSCBC4-MSCBC5-MSCBC6},{10th Ramadan},{10th Ramadan,Beni Suef,CAI5,Zahraa},,,
2016-02-17,2G,Delta,Qalyubiya_Rural,BSC74,6,0.73000002,{MSCBC1-MSCBC2-MSCBC3-MSCBC4-MSCBC5-MSCBC6},{10th Ramadan},{10th Ramadan,Beni Suef,CAI5,Zahraa},,,
2016-02-17,2G,Delta,Gharbiya_Rural,BSC74,6,0.68000001,{MSCBC1-MSCBC2-MSCBC3-MSCBC4-MSCBC5-MSCBC6},{10th Ramadan},{10th Ramadan,Beni Suef,CAI5,Zahraa},,,
2016-02-17,2G,Delta,Kafr El Sheikh_Rural,BSC74,53,5.0900002,{MSCBC1-MSCBC2-MSCBC3-MSCBC4-MSCBC5-MSCBC6},{10th Ramadan},{10th Ramadan,Beni Suef,CAI5,Zahraa},,,
2016-02-17,2G,Delta,Qalyubiya_Rural,BSC75,12,1.47,{MSCBC1-MSCBC2-MSCBC3-MSCBC4-MSCBC5-MSCBC6},{10th Ramadan},{10th Ramadan,Beni Suef,CAI5,Zahraa},,,
2016-02-17,2G,Delta,Monufeyya_Rural,BSC75,6,0.64999998,{MSCBC1-MSCBC2-MSCBC3-MSCBC4-MSCBC5-MSCBC6},{10th Ramadan},{10th Ramadan,Beni Suef,CAI5,Zahraa},,,
2016-02-17,2G,Delta,Mansoura,BSC75,27,6.5999999,{MSCBC1-MSCBC2-MSCBC3-MSCBC4-MSCBC5-MSCBC6},{10th Ramadan},{10th Ramadan,Beni Suef,CAI5,Zahraa},,,
2016-02-17,2G,Delta,Dakahleyya_Rural,BSC75,161,9.1199999,{MSCBC1-MSCBC2-MSCBC3-MSCBC4-MSCBC5-MSCBC6},{10th Ramadan},{10th Ramadan,Beni Suef,CAI5,Zahraa},,,
2016-02-17,2G,Delta,Sharkeyya_Rural,BSC75,226,11.44,{MSCBC1-MSCBC2-MSCBC3-MSCBC4-MSCBC5-MSCBC6},{10th Ramadan},{10th Ramadan,Beni Suef,CAI5,Zahraa},,,
2016-02-17,2G,Cairo,Moukattam,BSC76,3,1.14,{MSCBC1-MSCBC2-MSCBC3-MSCBC4-MSCBC5-MSCBC6},{Mokattam},{10th Ramadan,Beni Suef,CAI5,Zahraa},,,
2016-02-17,2G,Cairo,Nasr City,BSC76,2,0.28,{MSCBC1-MSCBC2-MSCBC3-MSCBC4-MSCBC5-MSCBC6},{Mokattam},{10th Ramadan,Beni Suef,CAI5,Zahraa},,,
2016-02-17,2G,Cairo,Matarya,BSC76,9,1.65,{MSCBC1-MSCBC2-MSCBC3-MSCBC4-MSCBC5-MSCBC6},{Mokattam},{10th Ramadan,Beni Suef,CAI5,Zahraa},,,
2016-02-17,2G,Cairo,Zaitoun and Qubba,BSC76,14,7.4499998,{MSCBC1-MSCBC2-MSCBC3-MSCBC4-MSCBC5-MSCBC6},{Mokattam},{10th Ramadan,Beni Suef,CAI5,Zahraa},,,
2016-02-17,2G,Cairo,Abbassyia,BSC76,80,57.139999,{MSCBC1-MSCBC2-MSCBC3-MSCBC4-MSCBC5-MSCBC6},{Mokattam},{10th Ramadan,Beni Suef,CAI5,Zahraa},,,
2016-02-17,2G,Cairo,Matarya,BSC77,108,19.74,{MSCBC1-MSCBC2-MSCBC3-MSCBC4-MSCBC5-MSCBC6},{Mokattam},{10th Ramadan,Beni Suef,CAI5,Zahraa},,,
2016-02-17,2G,Cairo,Shubra El-Khima,BSC77,73,15.53,{MSCBC1-MSCBC2-MSCBC3-MSCBC4-MSCBC5-MSCBC6},{Mokattam},{10th Ramadan,Beni Suef,CAI5,Zahraa},,,
2016-02-17,2G,Delta,Dakahleyya_Rural,BSC78,41,2.3199999,{MSCBC1-MSCBC2-MSCBC3-MSCBC4-MSCBC5-MSCBC6},{CAI5},{10th Ramadan,Beni Suef,CAI5,Zahraa},,,
2016-02-17,2G,Delta,Damietta_Rural,BSC78,52,10.4,{MSCBC1-MSCBC2-MSCBC3-MSCBC4-MSCBC5-MSCBC6},{CAI5},{10th Ramadan,Beni Suef,CAI5,Zahraa},,,
2016-02-17,2G,Giza,Boulaq,BSC78,277,91.720001,{MSCBC1-MSCBC2-MSCBC3-MSCBC4-MSCBC5-MSCBC6},{CAI5},{10th Ramadan,Beni Suef,CAI5,Zahraa},,,
2016-02-17,2G,Giza,Mouhandseen,BSC78,390,80.75,{MSCBC1-MSCBC2-MSCBC3-MSCBC4-MSCBC5-MSCBC6},{CAI5},{10th Ramadan,Beni Suef,CAI5,Zahraa},,,
2016-02-17,2G,Delta,Beheira_Rural,BSC79,122,8.1899996,{MSCBC1-MSCBC2-MSCBC3-MSCBC4-MSCBC5-MSCBC6},{HQ},{10th Ramadan,Beni Suef,CAI5,Zahraa},,,
2016-02-17,2G,Delta,Monufeyya_Rural,BSC79,92,10,{MSCBC1-MSCBC2-MSCBC3-MSCBC4-MSCBC5-MSCBC6},{HQ},{10th Ramadan,Beni Suef,CAI5,Zahraa},,,
2016-02-17,2G,Delta,Qalyubiya_Rural,BSC79,111,13.59,{MSCBC1-MSCBC2-MSCBC3-MSCBC4-MSCBC5-MSCBC6},{HQ},{10th Ramadan,Beni Suef,CAI5,Zahraa},,,
2016-02-17,2G,Delta,Monufeyya_Rural,BSC80,20,2.1700001,{MSCBC1-MSCBC2-MSCBC3-MSCBC4-MSCBC5-MSCBC6},{Zahraa},{10th Ramadan,Beni Suef,CAI5,Zahraa},,,
2016-02-17,2G,Delta,Gharbiya_Rural,BSC80,116,13.11,{MSCBC1-MSCBC2-MSCBC3-MSCBC4-MSCBC5-MSCBC6},{Zahraa},{10th Ramadan,Beni Suef,CAI5,Zahraa},,,
2016-02-17,2G,Cairo,Shubra El-Khima,BSC80,171,36.380001,{MSCBC1-MSCBC2-MSCBC3-MSCBC4-MSCBC5-MSCBC6},{Zahraa},{10th Ramadan,Beni Suef,CAI5,Zahraa},,,
2016-02-17,2G,Cairo,Shubra,BSC80,16,8.9399996,{MSCBC1-MSCBC2-MSCBC3-MSCBC4-MSCBC5-MSCBC6},{Zahraa},{10th Ramadan,Beni Suef,CAI5,Zahraa},,,
2016-02-17,2G,Delta,Tanta,BSC80,185,100,{MSCBC1-MSCBC2-MSCBC3-MSCBC4-MSCBC5-MSCBC6},{Zahraa},{10th Ramadan,Beni Suef,CAI5,Zahraa},,,
2016-02-17,2G,Cairo,Nasr City,BSC81,277,38.689999,{MSCBC1-MSCBC2-MSCBC3-MSCBC4-MSCBC5-MSCBC6},{Mokattam},{10th Ramadan,Beni Suef,CAI5,Zahraa},,,
2016-02-17,2G,Cairo,Zaitoun and Qubba,BSC81,54,28.719999,{MSCBC1-MSCBC2-MSCBC3-MSCBC4-MSCBC5-MSCBC6},{Mokattam},{10th Ramadan,Beni Suef,CAI5,Zahraa},,,
2016-02-17,2G,Cairo,Heliopolis and Nozha,BSC81,356,74.32,{MSCBC1-MSCBC2-MSCBC3-MSCBC4-MSCBC5-MSCBC6},{Mokattam},{10th Ramadan,Beni Suef,CAI5,Zahraa},,,
2016-02-17,2G,Cairo,Airport,BSC81,51,89.470001,{MSCBC1-MSCBC2-MSCBC3-MSCBC4-MSCBC5-MSCBC6},{Mokattam},{10th Ramadan,Beni Suef,CAI5,Zahraa},,,
2016-02-17,2G,Cairo,Ain Shams,BSC81,1,0.51999998,{MSCBC1-MSCBC2-MSCBC3-MSCBC4-MSCBC5-MSCBC6},{Mokattam},{10th Ramadan,Beni Suef,CAI5,Zahraa},,,
2016-02-17,2G,Cairo,Abbassyia,BSC82,23,16.43,{MSCBC1-MSCBC2-MSCBC3-MSCBC4-MSCBC5-MSCBC6},{Zahraa},{10th Ramadan,Beni Suef,CAI5,Zahraa},,,
2016-02-17,2G,Cairo,Heliopolis and Nozha,BSC82,41,8.5600004,{MSCBC1-MSCBC2-MSCBC3-MSCBC4-MSCBC5-MSCBC6},{Zahraa},{10th Ramadan,Beni Suef,CAI5,Zahraa},,,
2016-02-17,2G,Cairo,Hadabah Wostah,BSC82,18,13.64,{MSCBC1-MSCBC2-MSCBC3-MSCBC4-MSCBC5-MSCBC6},{Zahraa},{10th Ramadan,Beni Suef,CAI5,Zahraa},,,
2016-02-17,2G,Cairo,Dar El Salam,BSC82,183,85.919998,{MSCBC1-MSCBC2-MSCBC3-MSCBC4-MSCBC5-MSCBC6},{Zahraa},{10th Ramadan,Beni Suef,CAI5,Zahraa},,,
2016-02-17,2G,Cairo,Down Town and Manyal,BSC82,3,0.46000001,{MSCBC1-MSCBC2-MSCBC3-MSCBC4-MSCBC5-MSCBC6},{Zahraa},{10th Ramadan,Beni Suef,CAI5,Zahraa},,,
2016-02-17,2G,Cairo,Nasr City,BSC82,120,16.76,{MSCBC1-MSCBC2-MSCBC3-MSCBC4-MSCBC5-MSCBC6},{Zahraa},{10th Ramadan,Beni Suef,CAI5,Zahraa},,,
2016-02-17,2G,Cairo,Moukattam,BSC82,40,15.15,{MSCBC1-MSCBC2-MSCBC3-MSCBC4-MSCBC5-MSCBC6},{Zahraa},{10th Ramadan,Beni Suef,CAI5,Zahraa},,,
2016-02-17,2G,Cairo,Maadi,BSC82,232,64.800003,{MSCBC1-MSCBC2-MSCBC3-MSCBC4-MSCBC5-MSCBC6},{Zahraa},{10th Ramadan,Beni Suef,CAI5,Zahraa},,,
2016-02-17,2G,Cairo,Zaitoun and Qubba,BSC82,22,11.7,{MSCBC1-MSCBC2-MSCBC3-MSCBC4-MSCBC5-MSCBC6},{Zahraa},{10th Ramadan,Beni Suef,CAI5,Zahraa},,,
2016-02-17,2G,Giza,Giza Outskirts,BSC82,62,17.459999,{MSCBC1-MSCBC2-MSCBC3-MSCBC4-MSCBC5-MSCBC6},{Zahraa},{10th Ramadan,Beni Suef,CAI5,Zahraa},,,
2016-02-17,2G,Giza,Haram,BSC82,94,10.11,{MSCBC1-MSCBC2-MSCBC3-MSCBC4-MSCBC5-MSCBC6},{Zahraa},{10th Ramadan,Beni Suef,CAI5,Zahraa},,,
2016-02-17,2G,Giza,Haram,BSC83,836,89.889999,{MSCBC1-MSCBC2-MSCBC3-MSCBC4-MSCBC5-MSCBC6},{CAI5},{10th Ramadan,Beni Suef,CAI5,Zahraa},,,
2016-02-17,2G,Giza,Giza Outskirts,BSC83,19,5.3499999,{MSCBC1-MSCBC2-MSCBC3-MSCBC4-MSCBC5-MSCBC6},{CAI5},{10th Ramadan,Beni Suef,CAI5,Zahraa},,,
2016-02-17,2G,Giza,Kerdasa and Mansoraya,BSC83,22,12.79,{MSCBC1-MSCBC2-MSCBC3-MSCBC4-MSCBC5-MSCBC6},{CAI5},{10th Ramadan,Beni Suef,CAI5,Zahraa},,,
2016-02-17,2G,Alexandria,Alex Desert Road,BSC84,3,0.79000002,{MSCBC1-MSCBC2-MSCBC3-MSCBC4-MSCBC5-MSCBC6},{10th Ramadan},{10th Ramadan,Beni Suef,CAI5,Zahraa},,,
2016-02-17,2G,Delta,Kafr El Sheikh_Rural,BSC84,30,2.8800001,{MSCBC1-MSCBC2-MSCBC3-MSCBC4-MSCBC5-MSCBC6},{10th Ramadan},{10th Ramadan,Beni Suef,CAI5,Zahraa},,,
2016-02-17,2G,Delta,Monufeyya_Rural,BSC84,108,11.74,{MSCBC1-MSCBC2-MSCBC3-MSCBC4-MSCBC5-MSCBC6},{10th Ramadan},{10th Ramadan,Beni Suef,CAI5,Zahraa},,,
2016-02-17,2G,Delta,Qalyubiya_Rural,BSC84,18,2.2,{MSCBC1-MSCBC2-MSCBC3-MSCBC4-MSCBC5-MSCBC6},{10th Ramadan},{10th Ramadan,Beni Suef,CAI5,Zahraa},,,
2016-02-17,2G,Delta,Beheira_Rural,BSC84,3,0.2,{MSCBC1-MSCBC2-MSCBC3-MSCBC4-MSCBC5-MSCBC6},{10th Ramadan},{10th Ramadan,Beni Suef,CAI5,Zahraa},,,
2016-02-17,2G,Delta,Banha,BSC84,6,4.3200002,{MSCBC1-MSCBC2-MSCBC3-MSCBC4-MSCBC5-MSCBC6},{10th Ramadan},{10th Ramadan,Beni Suef,CAI5,Zahraa},,,
2016-02-17,2G,Delta,Mansoura,BSC85,24,5.8699999,{MSCBC1-MSCBC2-MSCBC3-MSCBC4-MSCBC5-MSCBC6},{10th Ramadan},{10th Ramadan,Beni Suef,CAI5,Zahraa},,,
2016-02-17,2G,Delta,Sharkeyya_Rural,BSC85,474,23.99,{MSCBC1-MSCBC2-MSCBC3-MSCBC4-MSCBC5-MSCBC6},{10th Ramadan},{10th Ramadan,Beni Suef,CAI5,Zahraa},,,
2016-02-17,2G,Delta,Zagazig,BSC85,215,100,{MSCBC1-MSCBC2-MSCBC3-MSCBC4-MSCBC5-MSCBC6},{10th Ramadan},{10th Ramadan,Beni Suef,CAI5,Zahraa},,,
2016-02-17,2G,Giza,Shubra and Imbaba Outskirts,BSC86,59,88.059998,{MSCBC1-MSCBC2-MSCBC3-MSCBC4-MSCBC5-MSCBC6},{HQ},{10th Ramadan,Beni Suef,CAI5,Zahraa},,,
2016-02-17,2G,Delta,Qalyubiya_Rural,BSC86,177,21.66,{MSCBC1-MSCBC2-MSCBC3-MSCBC4-MSCBC5-MSCBC6},{HQ},{10th Ramadan,Beni Suef,CAI5,Zahraa},,,
2016-02-17,2G,Delta,Mahala,BSC86,32,15.46,{MSCBC1-MSCBC2-MSCBC3-MSCBC4-MSCBC5-MSCBC6},{HQ},{10th Ramadan,Beni Suef,CAI5,Zahraa},,,
2016-02-17,2G,Cairo,Shubra,BSC86,3,1.6799999,{MSCBC1-MSCBC2-MSCBC3-MSCBC4-MSCBC5-MSCBC6},{HQ},{10th Ramadan,Beni Suef,CAI5,Zahraa},,,
2016-02-17,2G,Cairo,Shubra El-Khima,BSC86,108,22.98,{MSCBC1-MSCBC2-MSCBC3-MSCBC4-MSCBC5-MSCBC6},{HQ},{10th Ramadan,Beni Suef,CAI5,Zahraa},,,
2016-02-17,2G,Cairo,Matarya,BSC86,148,27.059999,{MSCBC1-MSCBC2-MSCBC3-MSCBC4-MSCBC5-MSCBC6},{HQ},{10th Ramadan,Beni Suef,CAI5,Zahraa},,,
2016-02-17,2G,Delta,Damietta_Rural,BSC87,134,26.799999,{MSCBC1-MSCBC2-MSCBC3-MSCBC4-MSCBC5-MSCBC6},{CAI5},{10th Ramadan,Beni Suef,CAI5,Zahraa},,,
2016-02-17,2G,Delta,Dakahleyya_Rural,BSC87,78,4.4200001,{MSCBC1-MSCBC2-MSCBC3-MSCBC4-MSCBC5-MSCBC6},{CAI5},{10th Ramadan,Beni Suef,CAI5,Zahraa},,,
2016-02-17,2G,Giza,Kerdasa and Mansoraya,BSC87,3,1.74,{MSCBC1-MSCBC2-MSCBC3-MSCBC4-MSCBC5-MSCBC6},{CAI5},{10th Ramadan,Beni Suef,CAI5,Zahraa},,,
2016-02-17,2G,Giza,Mouhandseen,BSC87,12,2.48,{MSCBC1-MSCBC2-MSCBC3-MSCBC4-MSCBC5-MSCBC6},{CAI5},{10th Ramadan,Beni Suef,CAI5,Zahraa},,,
2016-02-17,2G,Giza,Boulaq,BSC87,21,6.9499998,{MSCBC1-MSCBC2-MSCBC3-MSCBC4-MSCBC5-MSCBC6},{CAI5},{10th Ramadan,Beni Suef,CAI5,Zahraa},,,
2016-02-17,2G,Giza,Imbaba,BSC87,48,14.86,{MSCBC1-MSCBC2-MSCBC3-MSCBC4-MSCBC5-MSCBC6},{CAI5},{10th Ramadan,Beni Suef,CAI5,Zahraa},,,
2016-02-17,2G,Upper Egypt,Aswan_Rural,BSCH01,10,2.8199999,{MSCBC1-MSCBC2-MSCBC3-MSCBC4-MSCBC5-MSCBC6},{Beni Suef},{10th Ramadan,Beni Suef,CAI5,Zahraa},,,
2016-02-17,2G,Upper Egypt,Asyut_Rural,BSCH01,40,9.0500002,{MSCBC1-MSCBC2-MSCBC3-MSCBC4-MSCBC5-MSCBC6},{Beni Suef},{10th Ramadan,Beni Suef,CAI5,Zahraa},,,
2016-02-17,2G,Upper Egypt,Sohag,BSCH01,72,100,{MSCBC1-MSCBC2-MSCBC3-MSCBC4-MSCBC5-MSCBC6},{Beni Suef},{10th Ramadan,Beni Suef,CAI5,Zahraa},,,
2016-02-17,2G,Upper Egypt,Souhag_Rural,BSCH01,118,25.82,{MSCBC1-MSCBC2-MSCBC3-MSCBC4-MSCBC5-MSCBC6},{Beni Suef},{10th Ramadan,Beni Suef,CAI5,Zahraa},,,
2016-02-17,2G,Canal,Red Sea North_Rural,BSCH01,15,16.299999,{MSCBC1-MSCBC2-MSCBC3-MSCBC4-MSCBC5-MSCBC6},{Beni Suef},{10th Ramadan,Beni Suef,CAI5,Zahraa},,,
2016-02-17,2G,Canal,El-Sukhna,BSCH01,100,68.489998,{MSCBC1-MSCBC2-MSCBC3-MSCBC4-MSCBC5-MSCBC6},{Beni Suef},{10th Ramadan,Beni Suef,CAI5,Zahraa},,,
2016-02-17,2G,Canal,Red Sea South_Rural,BSCH01,16,10.88,{MSCBC1-MSCBC2-MSCBC3-MSCBC4-MSCBC5-MSCBC6},{Beni Suef},{10th Ramadan,Beni Suef,CAI5,Zahraa},,,
2016-02-17,2G,Canal,Red Sea North_Rural,BSCH02,2,2.1700001,{MSCBC1-MSCBC2-MSCBC3-MSCBC4-MSCBC5-MSCBC6},{Beni Suef},{10th Ramadan,Beni Suef,CAI5,Zahraa},,,
2016-02-17,2G,Canal,Red Sea South_Rural,BSCH02,9,6.1199999,{MSCBC1-MSCBC2-MSCBC3-MSCBC4-MSCBC5-MSCBC6},{Beni Suef},{10th Ramadan,Beni Suef,CAI5,Zahraa},,,
2016-02-17,2G,Upper Egypt,Souhag_Rural,BSCH02,42,9.1899996,{MSCBC1-MSCBC2-MSCBC3-MSCBC4-MSCBC5-MSCBC6},{Beni Suef},{10th Ramadan,Beni Suef,CAI5,Zahraa},,,
2016-02-17,2G,Upper Egypt,New Valley_Rural,BSCH02,97,57.740002,{MSCBC1-MSCBC2-MSCBC3-MSCBC4-MSCBC5-MSCBC6},{Beni Suef},{10th Ramadan,Beni Suef,CAI5,Zahraa},,,
2016-02-17,2G,Upper Egypt,Qena_Rural,BSCH02,37,7.6900001,{MSCBC1-MSCBC2-MSCBC3-MSCBC4-MSCBC5-MSCBC6},{Beni Suef},{10th Ramadan,Beni Suef,CAI5,Zahraa},,,
2016-02-17,2G,Upper Egypt,New Valley,BSCH02,17,100,{MSCBC1-MSCBC2-MSCBC3-MSCBC4-MSCBC5-MSCBC6},{Beni Suef},{10th Ramadan,Beni Suef,CAI5,Zahraa},,,
2016-02-17,2G,Upper Egypt,Asyut_Rural,BSCH02,126,28.51,{MSCBC1-MSCBC2-MSCBC3-MSCBC4-MSCBC5-MSCBC6},{Beni Suef},{10th Ramadan,Beni Suef,CAI5,Zahraa},,,
2016-02-17,2G,Upper Egypt,Aswan_Rural,BSCH02,64,18.030001,{MSCBC1-MSCBC2-MSCBC3-MSCBC4-MSCBC5-MSCBC6},{Beni Suef},{10th Ramadan,Beni Suef,CAI5,Zahraa},,,
2016-02-17,2G,Upper Egypt,Aswan_Rural,BSCH03,71,20,{MSCBC1-MSCBC2-MSCBC3-MSCBC4-MSCBC5-MSCBC6},{Beni Suef},{10th Ramadan,Beni Suef,CAI5,Zahraa},,,
2016-02-17,2G,Upper Egypt,Asyut_Rural,BSCH03,31,7.0100002,{MSCBC1-MSCBC2-MSCBC3-MSCBC4-MSCBC5-MSCBC6},{Beni Suef},{10th Ramadan,Beni Suef,CAI5,Zahraa},,,
2016-02-17,2G,Upper Egypt,Qena_Rural,BSCH03,63,13.1,{MSCBC1-MSCBC2-MSCBC3-MSCBC4-MSCBC5-MSCBC6},{Beni Suef},{10th Ramadan,Beni Suef,CAI5,Zahraa},,,
2016-02-17,2G,Upper Egypt,Quina,BSCH03,69,100,{MSCBC1-MSCBC2-MSCBC3-MSCBC4-MSCBC5-MSCBC6},{Beni Suef},{10th Ramadan,Beni Suef,CAI5,Zahraa},,,
2016-02-17,2G,Upper Egypt,Minia_Rural,BSCH03,10,2.1800001,{MSCBC1-MSCBC2-MSCBC3-MSCBC4-MSCBC5-MSCBC6},{Beni Suef},{10th Ramadan,Beni Suef,CAI5,Zahraa},,,
2016-02-17,2G,Upper Egypt,Luxor_Rural,BSCH04,71,36.599998,{MSCBC1-MSCBC2-MSCBC3-MSCBC4-MSCBC5-MSCBC6},{Beni Suef},{10th Ramadan,Beni Suef,CAI5,Zahraa},,,
2016-02-17,2G,Upper Egypt,Souhag_Rural,BSCH04,18,3.9400001,{MSCBC1-MSCBC2-MSCBC3-MSCBC4-MSCBC5-MSCBC6},{Beni Suef},{10th Ramadan,Beni Suef,CAI5,Zahraa},,,
2016-02-17,2G,Upper Egypt,Asyut_Rural,BSCH04,97,21.950001,{MSCBC1-MSCBC2-MSCBC3-MSCBC4-MSCBC5-MSCBC6},{Beni Suef},{10th Ramadan,Beni Suef,CAI5,Zahraa},,,
2016-02-17,2G,Upper Egypt,Aswan,BSCH04,102,100,{MSCBC1-MSCBC2-MSCBC3-MSCBC4-MSCBC5-MSCBC6},{Beni Suef},{10th Ramadan,Beni Suef,CAI5,Zahraa},,,
2016-02-17,2G,Upper Egypt,Aswan_Rural,BSCH04,210,59.150002,{MSCBC1-MSCBC2-MSCBC3-MSCBC4-MSCBC5-MSCBC6},{Beni Suef},{10th Ramadan,Beni Suef,CAI5,Zahraa},,,
2016-02-17,2G,Upper Egypt,Asyut,BSCH05,122,100,{MSCBC1-MSCBC2-MSCBC3-MSCBC4-MSCBC5-MSCBC6},{Beni Suef},{10th Ramadan,Beni Suef,CAI5,Zahraa},,,
2016-02-17,2G,Upper Egypt,Asyut_Rural,BSCH05,4,0.89999998,{MSCBC1-MSCBC2-MSCBC3-MSCBC4-MSCBC5-MSCBC6},{Beni Suef},{10th Ramadan,Beni Suef,CAI5,Zahraa},,,
2016-02-17,2G,Upper Egypt,Minia_Rural,BSCH06,213,46.41,{MSCBC1-MSCBC2-MSCBC3-MSCBC4-MSCBC5-MSCBC6},{Beni Suef},{10th Ramadan,Beni Suef,CAI5,Zahraa},,,
2016-02-17,2G,Canal,Red Sea North_Rural,BSCH06,16,17.389999,{MSCBC1-MSCBC2-MSCBC3-MSCBC4-MSCBC5-MSCBC6},{Beni Suef},{10th Ramadan,Beni Suef,CAI5,Zahraa},,,
2016-02-17,2G,Canal,Red Sea South_Rural,BSCH06,33,22.450001,{MSCBC1-MSCBC2-MSCBC3-MSCBC4-MSCBC5-MSCBC6},{Beni Suef},{10th Ramadan,Beni Suef,CAI5,Zahraa},,,
2016-02-17,2G,Canal,Ras Ghareb,BSCH06,18,47.369999,{MSCBC1-MSCBC2-MSCBC3-MSCBC4-MSCBC5-MSCBC6},{Beni Suef},{10th Ramadan,Beni Suef,CAI5,Zahraa},,,
2016-02-17,2G,Canal,El-Qosseir,BSCH06,18,100,{MSCBC1-MSCBC2-MSCBC3-MSCBC4-MSCBC5-MSCBC6},{Beni Suef},{10th Ramadan,Beni Suef,CAI5,Zahraa},,,
2016-02-17,2G,Canal,Ras Ghareb,BSCH07,20,52.630001,{MSCBC1-MSCBC2-MSCBC3-MSCBC4-MSCBC5-MSCBC6},{Beni Suef},{10th Ramadan,Beni Suef,CAI5,Zahraa},,,
2016-02-17,2G,Canal,Red Sea North_Rural,BSCH07,16,17.389999,{MSCBC1-MSCBC2-MSCBC3-MSCBC4-MSCBC5-MSCBC6},{Beni Suef},{10th Ramadan,Beni Suef,CAI5,Zahraa},,,
2016-02-17,2G,Upper Egypt,Bani Sweif_Rural,BSCH07,290,87.089996,{MSCBC1-MSCBC2-MSCBC3-MSCBC4-MSCBC5-MSCBC6},{Beni Suef},{10th Ramadan,Beni Suef,CAI5,Zahraa},,,
2016-02-17,2G,Upper Egypt,Bani_Suef,BSCH07,98,100,{MSCBC1-MSCBC2-MSCBC3-MSCBC4-MSCBC5-MSCBC6},{Beni Suef},{10th Ramadan,Beni Suef,CAI5,Zahraa},,,
2016-02-17,2G,Upper Egypt,Fayoum_Rural,BSCH07,7,1.58,{MSCBC1-MSCBC2-MSCBC3-MSCBC4-MSCBC5-MSCBC6},{Beni Suef},{10th Ramadan,Beni Suef,CAI5,Zahraa},,,
2016-02-17,2G,Upper Egypt,Qena_Rural,BSCH07,3,0.62,{MSCBC1-MSCBC2-MSCBC3-MSCBC4-MSCBC5-MSCBC6},{Beni Suef},{10th Ramadan,Beni Suef,CAI5,Zahraa},,,
2016-02-17,2G,Upper Egypt,Minia_Rural,BSCH07,41,8.9300003,{MSCBC1-MSCBC2-MSCBC3-MSCBC4-MSCBC5-MSCBC6},{Beni Suef},{10th Ramadan,Beni Suef,CAI5,Zahraa},,,
2016-02-17,2G,Upper Egypt,Qena_Rural,BSCH08,4,0.82999998,{MSCBC1-MSCBC2-MSCBC3-MSCBC4-MSCBC5-MSCBC6},{Beni Suef},{10th Ramadan,Beni Suef,CAI5,Zahraa},,,
2016-02-17,2G,Upper Egypt,New Valley_Rural,BSCH08,40,23.809999,{MSCBC1-MSCBC2-MSCBC3-MSCBC4-MSCBC5-MSCBC6},{Beni Suef},{10th Ramadan,Beni Suef,CAI5,Zahraa},,,
2016-02-17,2G,Upper Egypt,Fayoum_Rural,BSCH08,64,14.45,{MSCBC1-MSCBC2-MSCBC3-MSCBC4-MSCBC5-MSCBC6},{Beni Suef},{10th Ramadan,Beni Suef,CAI5,Zahraa},,,
2016-02-17,2G,Upper Egypt,Fayoum,BSCH08,117,100,{MSCBC1-MSCBC2-MSCBC3-MSCBC4-MSCBC5-MSCBC6},{Beni Suef},{10th Ramadan,Beni Suef,CAI5,Zahraa},,,
2016-02-17,2G,Upper Egypt,Bani Sweif_Rural,BSCH08,3,0.89999998,{MSCBC1-MSCBC2-MSCBC3-MSCBC4-MSCBC5-MSCBC6},{Beni Suef},{10th Ramadan,Beni Suef,CAI5,Zahraa},,,
2016-02-17,2G,Upper Egypt,Fayoum_Rural,BSCH09,145,32.73,{MSCBC1-MSCBC2-MSCBC3-MSCBC4-MSCBC5-MSCBC6},{Beni Suef},{10th Ramadan,Beni Suef,CAI5,Zahraa},,,
2016-02-17,2G,Canal,Red Sea North_Rural,BSCH09,2,2.1700001,{MSCBC1-MSCBC2-MSCBC3-MSCBC4-MSCBC5-MSCBC6},{Beni Suef},{10th Ramadan,Beni Suef,CAI5,Zahraa},,,
2016-02-17,2G,Canal,Red Sea South_Rural,BSCH09,24,16.33,{MSCBC1-MSCBC2-MSCBC3-MSCBC4-MSCBC5-MSCBC6},{Beni Suef},{10th Ramadan,Beni Suef,CAI5,Zahraa},,,
2016-02-17,2G,Canal,El-Gouna,BSCH09,21,100,{MSCBC1-MSCBC2-MSCBC3-MSCBC4-MSCBC5-MSCBC6},{Beni Suef},{10th Ramadan,Beni Suef,CAI5,Zahraa},,,
2016-02-17,2G,Canal,Hurghada,BSCH09,277,100,{MSCBC1-MSCBC2-MSCBC3-MSCBC4-MSCBC5-MSCBC6},{Beni Suef},{10th Ramadan,Beni Suef,CAI5,Zahraa},,,
2016-02-17,2G,Canal,Safaga,BSCH09,18,100,{MSCBC1-MSCBC2-MSCBC3-MSCBC4-MSCBC5-MSCBC6},{Beni Suef},{10th Ramadan,Beni Suef,CAI5,Zahraa},,,
2016-02-17,2G,Canal,Red Sea North_Rural,BSCH10,8,8.6999998,{MSCS50-MSCS51-MSCS52-MSCS53-MSCS54-MSCS55},{10th Ramadan},{10th Ramadan,Beni Suef},,,
2016-02-17,2G,Canal,Sinai South_Rural,BSCH10,54,27.27,{MSCS50-MSCS51-MSCS52-MSCS53-MSCS54-MSCS55},{10th Ramadan},{10th Ramadan,Beni Suef},,,
2016-02-17,2G,Canal,Suez,BSCH10,163,100,{MSCS50-MSCS51-MSCS52-MSCS53-MSCS54-MSCS55},{10th Ramadan},{10th Ramadan,Beni Suef},,,
2016-02-17,2G,Canal,Suez Rural,BSCH10,13,100,{MSCS50-MSCS51-MSCS52-MSCS53-MSCS54-MSCS55},{10th Ramadan},{10th Ramadan,Beni Suef},,,
2016-02-17,2G,Canal,Taba,BSCH10,19,100,{MSCS50-MSCS51-MSCS52-MSCS53-MSCS54-MSCS55},{10th Ramadan},{10th Ramadan,Beni Suef},,,
2016-02-17,2G,Canal,Ismailia Rural,BSCH10,19,16.809999,{MSCS50-MSCS51-MSCS52-MSCS53-MSCS54-MSCS55},{10th Ramadan},{10th Ramadan,Beni Suef},,,
2016-02-17,2G,Canal,Nuweiba,BSCH10,10,100,{MSCS50-MSCS51-MSCS52-MSCS53-MSCS54-MSCS55},{10th Ramadan},{10th Ramadan,Beni Suef},,,
2016-02-17,2G,Canal,Portsaid Rural,BSCH11,38,88.370003,{MSCS50-MSCS51-MSCS52-MSCS53-MSCS54-MSCS55},{10th Ramadan},{10th Ramadan,Beni Suef},,,
2016-02-17,2G,Canal,Red Sea North_Rural,BSCH11,19,20.65,{MSCS50-MSCS51-MSCS52-MSCS53-MSCS54-MSCS55},{10th Ramadan},{10th Ramadan,Beni Suef},,,
2016-02-17,2G,Canal,Ismailia Rural,BSCH11,14,12.39,{MSCS50-MSCS51-MSCS52-MSCS53-MSCS54-MSCS55},{10th Ramadan},{10th Ramadan,Beni Suef},,,
2016-02-17,2G,Canal,El-Sukhna,BSCH11,46,31.51,{MSCS50-MSCS51-MSCS52-MSCS53-MSCS54-MSCS55},{10th Ramadan},{10th Ramadan,Beni Suef},,,
2016-02-17,2G,Canal,Dahab,BSCH11,22,100,{MSCS50-MSCS51-MSCS52-MSCS53-MSCS54-MSCS55},{10th Ramadan},{10th Ramadan,Beni Suef},,,
2016-02-17,2G,Canal,Sinai South_Rural,BSCH11,99,50,{MSCS50-MSCS51-MSCS52-MSCS53-MSCS54-MSCS55},{10th Ramadan},{10th Ramadan,Beni Suef},,,
2016-02-17,2G,Canal,Sinai North_Rural,BSCH11,10,9.0100002,{MSCS50-MSCS51-MSCS52-MSCS53-MSCS54-MSCS55},{10th Ramadan},{10th Ramadan,Beni Suef},,,
2016-02-17,2G,Canal,Sinai South_Rural,BSCH12,11,5.5599999,{MSCS50-MSCS51-MSCS52-MSCS53-MSCS54-MSCS55},{10th Ramadan},{10th Ramadan,Beni Suef},,,
2016-02-17,2G,Canal,Sharm El-Shiekh,BSCH12,219,100,{MSCS50-MSCS51-MSCS52-MSCS53-MSCS54-MSCS55},{10th Ramadan},{10th Ramadan,Beni Suef},,,
2016-02-17,2G,Canal,Ismailia,BSCH12,104,100,{MSCS50-MSCS51-MSCS52-MSCS53-MSCS54-MSCS55},{10th Ramadan},{10th Ramadan,Beni Suef},,,
2016-02-17,2G,Canal,Marsa Allam,BSCH13,18,100,{MSCBC1-MSCBC2-MSCBC3-MSCBC4-MSCBC5-MSCBC6},{Beni Suef},{10th Ramadan,Beni Suef,CAI5,Zahraa},,,
2016-02-17,2G,Canal,Red Sea South_Rural,BSCH13,65,44.220001,{MSCBC1-MSCBC2-MSCBC3-MSCBC4-MSCBC5-MSCBC6},{Beni Suef},{10th Ramadan,Beni Suef,CAI5,Zahraa},,,
2016-02-17,2G,Upper Egypt,Minia_Rural,BSCH13,9,1.96,{MSCBC1-MSCBC2-MSCBC3-MSCBC4-MSCBC5-MSCBC6},{Beni Suef},{10th Ramadan,Beni Suef,CAI5,Zahraa},,,
2016-02-17,2G,Upper Egypt,Minya,BSCH13,92,100,{MSCBC1-MSCBC2-MSCBC3-MSCBC4-MSCBC5-MSCBC6},{Beni Suef},{10th Ramadan,Beni Suef,CAI5,Zahraa},,,
2016-02-17,2G,Upper Egypt,Asyut_Rural,BSCH13,99,22.4,{MSCBC1-MSCBC2-MSCBC3-MSCBC4-MSCBC5-MSCBC6},{Beni Suef},{10th Ramadan,Beni Suef,CAI5,Zahraa},,,
2016-02-17,2G,Upper Egypt,Bani Sweif_Rural,BSCH14,40,12.01,{MSCBC1-MSCBC2-MSCBC3-MSCBC4-MSCBC5-MSCBC6},{Beni Suef},{10th Ramadan,Beni Suef,CAI5,Zahraa},,,
2016-02-17,2G,Giza,Giza Outskirts,BSCH14,3,0.85000002,{MSCBC1-MSCBC2-MSCBC3-MSCBC4-MSCBC5-MSCBC6},{Beni Suef},{10th Ramadan,Beni Suef,CAI5,Zahraa},,,
2016-02-17,2G,Upper Egypt,Qena_Rural,BSCH14,92,19.129999,{MSCBC1-MSCBC2-MSCBC3-MSCBC4-MSCBC5-MSCBC6},{Beni Suef},{10th Ramadan,Beni Suef,CAI5,Zahraa},,,
2016-02-17,2G,Upper Egypt,Minia_Rural,BSCH14,67,14.6,{MSCBC1-MSCBC2-MSCBC3-MSCBC4-MSCBC5-MSCBC6},{Beni Suef},{10th Ramadan,Beni Suef,CAI5,Zahraa},,,
2016-02-17,2G,Upper Egypt,Fayoum_Rural,BSCH14,124,27.99,{MSCBC1-MSCBC2-MSCBC3-MSCBC4-MSCBC5-MSCBC6},{Beni Suef},{10th Ramadan,Beni Suef,CAI5,Zahraa},,,
2016-02-17,2G,Upper Egypt,Souhag_Rural,BSCH14,15,3.28,{MSCBC1-MSCBC2-MSCBC3-MSCBC4-MSCBC5-MSCBC6},{Beni Suef},{10th Ramadan,Beni Suef,CAI5,Zahraa},,,
2016-02-17,2G,Upper Egypt,Luxor,BSCH15,132,100,{MSCBC1-MSCBC2-MSCBC3-MSCBC4-MSCBC5-MSCBC6},{Beni Suef},{10th Ramadan,Beni Suef,CAI5,Zahraa},,,
2016-02-17,2G,Upper Egypt,Luxor_Rural,BSCH15,123,63.400002,{MSCBC1-MSCBC2-MSCBC3-MSCBC4-MSCBC5-MSCBC6},{Beni Suef},{10th Ramadan,Beni Suef,CAI5,Zahraa},,,
2016-02-17,2G,Upper Egypt,Qena_Rural,BSCH15,25,5.1999998,{MSCBC1-MSCBC2-MSCBC3-MSCBC4-MSCBC5-MSCBC6},{Beni Suef},{10th Ramadan,Beni Suef,CAI5,Zahraa},,,
2016-02-17,2G,Canal,Arish,BSCH16,52,100,{MSCS50-MSCS51-MSCS52-MSCS53-MSCS54-MSCS55},{10th Ramadan},{10th Ramadan,Beni Suef},,,
2016-02-17,2G,Canal,Sinai North_Rural,BSCH16,93,83.779999,{MSCS50-MSCS51-MSCS52-MSCS53-MSCS54-MSCS55},{10th Ramadan},{10th Ramadan,Beni Suef},,,
2016-02-17,2G,Alexandria,Alex Desert Road,BSCH17,54,14.29,{MSCBC1-MSCBC2-MSCBC3-MSCBC4-MSCBC5-MSCBC6},{Alex},{10th Ramadan,Beni Suef,CAI5,Zahraa},,,
2016-02-17,2G,Alexandria,North Coast East,BSCH17,206,48.240002,{MSCBC1-MSCBC2-MSCBC3-MSCBC4-MSCBC5-MSCBC6},{Alex},{10th Ramadan,Beni Suef,CAI5,Zahraa},,,
2016-02-17,2G,Alexandria,North Coast West,BSCH17,289,74.480003,{MSCBC1-MSCBC2-MSCBC3-MSCBC4-MSCBC5-MSCBC6},{Alex},{10th Ramadan,Beni Suef,CAI5,Zahraa},,,
2016-02-17,2G,Alexandria,North Coast East,BSCH18,2,0.47,{MSCS14-MSCS15-MSCS28-MSCS42-MSCS59-MSCS9},,{Alex},,,
2016-02-17,2G,Alexandria,North Coast East,BSCH19,199,46.599998,{MSCS14-MSCS15-MSCS28-MSCS42-MSCS59-MSCS9},{Alex},{Alex},,,
2016-02-17,2G,Alexandria,Alex_4,BSCH19,200,100,{MSCS14-MSCS15-MSCS28-MSCS42-MSCS59-MSCS9},{Alex},{Alex},,,
2016-02-17,2G,Alexandria,Alex Desert Road,BSCH19,117,30.950001,{MSCS14-MSCS15-MSCS28-MSCS42-MSCS59-MSCS9},{Alex},{Alex},,,
2016-02-17,2G,Alexandria,Alex_3,BSCH19,22,5.8400002,{MSCS14-MSCS15-MSCS28-MSCS42-MSCS59-MSCS9},{Alex},{Alex},,,
2016-02-17,2G,Alexandria,Alex Desert Road,BSCH20,179,47.349998,{MSCBC1-MSCBC2-MSCBC3-MSCBC4-MSCBC5-MSCBC6},{Alex},{10th Ramadan,Beni Suef,CAI5,Zahraa},,,
2016-02-17,2G,Alexandria,North Coast East,BSCH20,19,4.4499998,{MSCBC1-MSCBC2-MSCBC3-MSCBC4-MSCBC5-MSCBC6},{Alex},{10th Ramadan,Beni Suef,CAI5,Zahraa},,,
2016-02-17,2G,Alexandria,North Coast West,BSCH20,99,25.52,{MSCBC1-MSCBC2-MSCBC3-MSCBC4-MSCBC5-MSCBC6},{Alex},{10th Ramadan,Beni Suef,CAI5,Zahraa},,,
2016-02-17,2G,Delta,Beheira_Rural,BSCH20,3,0.2,{MSCBC1-MSCBC2-MSCBC3-MSCBC4-MSCBC5-MSCBC6},{Alex},{10th Ramadan,Beni Suef,CAI5,Zahraa},,,
2016-02-17,2G,Giza,Alex Desert Road (Giza),BSCH20,3,4.6900001,{MSCBC1-MSCBC2-MSCBC3-MSCBC4-MSCBC5-MSCBC6},{Alex},{10th Ramadan,Beni Suef,CAI5,Zahraa},,,
2016-02-17,2G,Upper Egypt,Qena_Rural,BSCH21,24,4.9899998,{MSCBC1-MSCBC2-MSCBC3-MSCBC4-MSCBC5-MSCBC6},{Beni Suef},{10th Ramadan,Beni Suef,CAI5,Zahraa},,,
2016-02-17,2G,Upper Egypt,Fayoum_Rural,BSCH21,28,6.3200002,{MSCBC1-MSCBC2-MSCBC3-MSCBC4-MSCBC5-MSCBC6},{Beni Suef},{10th Ramadan,Beni Suef,CAI5,Zahraa},,,
2016-02-17,2G,Upper Egypt,Souhag_Rural,BSCH21,261,57.110001,{MSCBC1-MSCBC2-MSCBC3-MSCBC4-MSCBC5-MSCBC6},{Beni Suef},{10th Ramadan,Beni Suef,CAI5,Zahraa},,,
2016-02-17,2G,Upper Egypt,Fayoum_Rural,BSCH22,72,16.25,{MSCBC1-MSCBC2-MSCBC3-MSCBC4-MSCBC5-MSCBC6},{Beni Suef},{10th Ramadan,Beni Suef,CAI5,Zahraa},,,
2016-02-17,2G,Upper Egypt,Minia_Rural,BSCH22,119,25.93,{MSCBC1-MSCBC2-MSCBC3-MSCBC4-MSCBC5-MSCBC6},{Beni Suef},{10th Ramadan,Beni Suef,CAI5,Zahraa},,,
2016-02-17,2G,Upper Egypt,Qena_Rural,BSCH22,60,12.47,{MSCBC1-MSCBC2-MSCBC3-MSCBC4-MSCBC5-MSCBC6},{Beni Suef},{10th Ramadan,Beni Suef,CAI5,Zahraa},,,
2016-02-17,2G,Upper Egypt,Asyut_Rural,BSCH22,45,10.18,{MSCBC1-MSCBC2-MSCBC3-MSCBC4-MSCBC5-MSCBC6},{Beni Suef},{10th Ramadan,Beni Suef,CAI5,Zahraa},,,
2016-02-17,2G,Canal,Sinai North_Rural,BSCH23,1,0.89999998,{MSCBC1-MSCBC2-MSCBC3-MSCBC4-MSCBC5-MSCBC6},{10th Ramadan},{10th Ramadan,Beni Suef,CAI5,Zahraa},,,
2016-02-17,2G,Cairo,10Th Of Ramadan,BSCH23,317,94.629997,{MSCBC1-MSCBC2-MSCBC3-MSCBC4-MSCBC5-MSCBC6},{10th Ramadan},{10th Ramadan,Beni Suef,CAI5,Zahraa},,,
2016-02-17,2G,Canal,Ismailia Rural,BSCH23,20,17.700001,{MSCBC1-MSCBC2-MSCBC3-MSCBC4-MSCBC5-MSCBC6},{10th Ramadan},{10th Ramadan,Beni Suef,CAI5,Zahraa},,,
2016-02-17,2G,Canal,Portsaid,BSCH23,129,100,{MSCBC1-MSCBC2-MSCBC3-MSCBC4-MSCBC5-MSCBC6},{10th Ramadan},{10th Ramadan,Beni Suef,CAI5,Zahraa},,,
2016-02-17,2G,Canal,Portsaid Rural,BSCH23,5,11.63,{MSCBC1-MSCBC2-MSCBC3-MSCBC4-MSCBC5-MSCBC6},{10th Ramadan},{10th Ramadan,Beni Suef,CAI5,Zahraa},,,
2016-02-17,2G,Canal,Red Sea North_Rural,BSCH24,14,15.22,{MSCBC1-MSCBC2-MSCBC3-MSCBC4-MSCBC5-MSCBC6},{CAI5},{10th Ramadan,Beni Suef,CAI5,Zahraa},,,
2016-02-17,2G,Cairo,Obour,BSCH24,6,2.4200001,{MSCBC1-MSCBC2-MSCBC3-MSCBC4-MSCBC5-MSCBC6},{CAI5},{10th Ramadan,Beni Suef,CAI5,Zahraa},,,
2016-02-17,2G,Cairo,1St Gathering,BSCH24,326,61.98,{MSCBC1-MSCBC2-MSCBC3-MSCBC4-MSCBC5-MSCBC6},{CAI5},{10th Ramadan,Beni Suef,CAI5,Zahraa},,,
2016-02-17,2G,Cairo,5Th Gathering and Kattamya,BSCH24,174,43.389999,{MSCBC1-MSCBC2-MSCBC3-MSCBC4-MSCBC5-MSCBC6},{CAI5},{10th Ramadan,Beni Suef,CAI5,Zahraa},,,
2016-02-17,2G,Giza,Sahary Alahram,BSCH24,95,32.869999,{MSCBC1-MSCBC2-MSCBC3-MSCBC4-MSCBC5-MSCBC6},{CAI5},{10th Ramadan,Beni Suef,CAI5,Zahraa},,,
2016-02-17,2G,Giza,Sahary Alahram,BSCH25,122,42.209999,{MSCBC1-MSCBC2-MSCBC3-MSCBC4-MSCBC5-MSCBC6},{HQ},{10th Ramadan,Beni Suef,CAI5,Zahraa},,,
2016-02-17,2G,Giza,October,BSCH25,471,84.860001,{MSCBC1-MSCBC2-MSCBC3-MSCBC4-MSCBC5-MSCBC6},{HQ},{10th Ramadan,Beni Suef,CAI5,Zahraa},,,
2016-02-17,2G,Giza,Mouhandseen,BSCH25,3,0.62,{MSCBC1-MSCBC2-MSCBC3-MSCBC4-MSCBC5-MSCBC6},{HQ},{10th Ramadan,Beni Suef,CAI5,Zahraa},,,
2016-02-17,2G,Upper Egypt,New Valley_Rural,BSCH25,30,17.860001,{MSCBC1-MSCBC2-MSCBC3-MSCBC4-MSCBC5-MSCBC6},{HQ},{10th Ramadan,Beni Suef,CAI5,Zahraa},,,
2016-02-17,2G,Upper Egypt,Fayoum_Rural,BSCH25,3,0.68000001,{MSCBC1-MSCBC2-MSCBC3-MSCBC4-MSCBC5-MSCBC6},{HQ},{10th Ramadan,Beni Suef,CAI5,Zahraa},,,
2016-02-17,2G,Delta,Beheira_Rural,BSCH25,45,3.02,{MSCBC1-MSCBC2-MSCBC3-MSCBC4-MSCBC5-MSCBC6},{HQ},{10th Ramadan,Beni Suef,CAI5,Zahraa},,,
2016-02-17,2G,Delta,Damanhour,BSCH25,12,7.79,{MSCBC1-MSCBC2-MSCBC3-MSCBC4-MSCBC5-MSCBC6},{HQ},{10th Ramadan,Beni Suef,CAI5,Zahraa},,,
2016-02-17,2G,Delta,Monufeyya_Rural,BSCH25,6,0.64999998,{MSCBC1-MSCBC2-MSCBC3-MSCBC4-MSCBC5-MSCBC6},{HQ},{10th Ramadan,Beni Suef,CAI5,Zahraa},,,
2016-02-17,2G,Cairo,1St Gathering,BSCH26,96,18.25,{MSCBC1-MSCBC2-MSCBC3-MSCBC4-MSCBC5-MSCBC6},{CAI5},{10th Ramadan,Beni Suef,CAI5,Zahraa},,,
2016-02-17,2G,Cairo,5Th Gathering and Kattamya,BSCH26,226,56.360001,{MSCBC1-MSCBC2-MSCBC3-MSCBC4-MSCBC5-MSCBC6},{CAI5},{10th Ramadan,Beni Suef,CAI5,Zahraa},,,
2016-02-17,2G,Cairo,Nasr City,BSCH26,34,4.75,{MSCBC1-MSCBC2-MSCBC3-MSCBC4-MSCBC5-MSCBC6},{CAI5},{10th Ramadan,Beni Suef,CAI5,Zahraa},,,
2016-02-17,2G,Alexandria,Alex Desert Road,BSCH27,3,0.79000002,{MSCBC1-MSCBC2-MSCBC3-MSCBC4-MSCBC5-MSCBC6},{HQ},{10th Ramadan,Beni Suef,CAI5,Zahraa},,,
2016-02-17,2G,Giza,Kerdasa and Mansoraya,BSCH27,122,70.93,{MSCBC1-MSCBC2-MSCBC3-MSCBC4-MSCBC5-MSCBC6},{HQ},{10th Ramadan,Beni Suef,CAI5,Zahraa},,,
2016-02-17,2G,Giza,October,BSCH27,81,14.59,{MSCBC1-MSCBC2-MSCBC3-MSCBC4-MSCBC5-MSCBC6},{HQ},{10th Ramadan,Beni Suef,CAI5,Zahraa},,,
2016-02-17,2G,Giza,Sahary Alahram,BSCH27,72,24.91,{MSCBC1-MSCBC2-MSCBC3-MSCBC4-MSCBC5-MSCBC6},{HQ},{10th Ramadan,Beni Suef,CAI5,Zahraa},,,
2016-02-17,2G,Giza,Zayed,BSCH27,259,100,{MSCBC1-MSCBC2-MSCBC3-MSCBC4-MSCBC5-MSCBC6},{HQ},{10th Ramadan,Beni Suef,CAI5,Zahraa},,,
2016-02-17,2G,Giza,Alex Desert Road (Giza),BSCH27,61,95.309998,{MSCBC1-MSCBC2-MSCBC3-MSCBC4-MSCBC5-MSCBC6},{HQ},{10th Ramadan,Beni Suef,CAI5,Zahraa},,,
2016-02-17,2G,Cairo,Shorouk and Badr,BSCH28,70,30.17,{MSCBC1-MSCBC2-MSCBC3-MSCBC4-MSCBC5-MSCBC6},{10th Ramadan},{10th Ramadan,Beni Suef,CAI5,Zahraa},,,
2016-02-17,2G,Canal,Ras Sidr,BSCH28,32,100,{MSCBC1-MSCBC2-MSCBC3-MSCBC4-MSCBC5-MSCBC6},{10th Ramadan},{10th Ramadan,Beni Suef,CAI5,Zahraa},,,
2016-02-17,2G,Canal,Ismailia Rural,BSCH28,60,53.099998,{MSCBC1-MSCBC2-MSCBC3-MSCBC4-MSCBC5-MSCBC6},{10th Ramadan},{10th Ramadan,Beni Suef,CAI5,Zahraa},,,
2016-02-17,2G,Delta,Beheira_Rural,BSCH28,59,3.96,{MSCBC1-MSCBC2-MSCBC3-MSCBC4-MSCBC5-MSCBC6},{10th Ramadan},{10th Ramadan,Beni Suef,CAI5,Zahraa},,,
2016-02-17,2G,Canal,Sinai North_Rural,BSCH28,7,6.3099999,{MSCBC1-MSCBC2-MSCBC3-MSCBC4-MSCBC5-MSCBC6},{10th Ramadan},{10th Ramadan,Beni Suef,CAI5,Zahraa},,,
2016-02-17,2G,Canal,Sinai South_Rural,BSCH28,34,17.17,{MSCBC1-MSCBC2-MSCBC3-MSCBC4-MSCBC5-MSCBC6},{10th Ramadan},{10th Ramadan,Beni Suef,CAI5,Zahraa},,,
2016-02-17,2G,Cairo,Helwan,BSCH32,285,68.669998,{MSCBC1-MSCBC2-MSCBC3-MSCBC4-MSCBC5-MSCBC6},{Zahraa},{10th Ramadan,Beni Suef,CAI5,Zahraa},,,
2016-02-17,2G,Cairo,Maadi,BSCH32,111,31.01,{MSCBC1-MSCBC2-MSCBC3-MSCBC4-MSCBC5-MSCBC6},{Zahraa},{10th Ramadan,Beni Suef,CAI5,Zahraa},,,
2016-02-17,2G,Giza,Giza Outskirts,BSCH32,217,61.130001,{MSCBC1-MSCBC2-MSCBC3-MSCBC4-MSCBC5-MSCBC6},{Zahraa},{10th Ramadan,Beni Suef,CAI5,Zahraa},,,
2016-02-17,2G,Giza,Kerdasa and Mansoraya,BSCH32,3,1.74,{MSCBC1-MSCBC2-MSCBC3-MSCBC4-MSCBC5-MSCBC6},{Zahraa},{10th Ramadan,Beni Suef,CAI5,Zahraa},,,
2016-02-17,2G,Giza,Giza Outskirts,BSCH33,54,15.21,{MSCBC1-MSCBC2-MSCBC3-MSCBC4-MSCBC5-MSCBC6},{Mokattam},{10th Ramadan,Beni Suef,CAI5,Zahraa},,,
2016-02-17,2G,Cairo,Helwan,BSCH33,124,29.879999,{MSCBC1-MSCBC2-MSCBC3-MSCBC4-MSCBC5-MSCBC6},{Mokattam},{10th Ramadan,Beni Suef,CAI5,Zahraa},,,
2016-02-17,2G,Cairo,10Th Of Ramadan,BSCH34,18,5.3699999,{MSCBC1-MSCBC2-MSCBC3-MSCBC4-MSCBC5-MSCBC6},{CAI5},{10th Ramadan,Beni Suef,CAI5,Zahraa},,,
2016-02-17,2G,Cairo,1St Gathering,BSCH34,104,19.77,{MSCBC1-MSCBC2-MSCBC3-MSCBC4-MSCBC5-MSCBC6},{CAI5},{10th Ramadan,Beni Suef,CAI5,Zahraa},,,
2016-02-17,2G,Cairo,Shorouk and Badr,BSCH34,162,69.830002,{MSCBC1-MSCBC2-MSCBC3-MSCBC4-MSCBC5-MSCBC6},{CAI5},{10th Ramadan,Beni Suef,CAI5,Zahraa},,,
2016-02-17,2G,Cairo,Obour,BSCH34,242,97.580002,{MSCBC1-MSCBC2-MSCBC3-MSCBC4-MSCBC5-MSCBC6},{CAI5},{10th Ramadan,Beni Suef,CAI5,Zahraa},,,
2016-02-17,2G,Upper Egypt,Qena_Rural,BSCH35,173,35.970001,,,,,,
2016-02-17,2G,Upper Egypt,Souhag_Rural,BSCH35,3,0.66000003,,,,,,
2016-02-17,2G,Delta,Beheira_Rural,BSCH41,729,48.93,,,,,,
2016-02-17,2G,Delta,Kafr El Sheikh_Rural,BSCH41,12,1.15,,,,,,
2016-02-17,2G,Delta,Beheira_Rural,MNS-BSCH-39,86,5.77,,,,,,
2016-02-17,2G,Delta,Damanhour,MNS-BSCH-39,64,41.560001,,,,,,
2016-02-17,3G,Alexandria,Alex Desert Road,RNC03,1,0.14,{MSCS14-MSCS15-MSCS28-MSCS42-MSCS59-MSCS9},{Alex},{Alex},,,
2016-02-17,3G,Alexandria,Alex_2,RNC03,23,3.8599999,{MSCS14-MSCS15-MSCS28-MSCS42-MSCS59-MSCS9},{Alex},{Alex},,,
2016-02-17,3G,Alexandria,Alex_3,RNC03,42,10.34,{MSCS14-MSCS15-MSCS28-MSCS42-MSCS59-MSCS9},{Alex},{Alex},,,
2016-02-17,3G,Delta,Monufeyya_Rural,RNC03,21,2.03,{MSCS14-MSCS15-MSCS28-MSCS42-MSCS59-MSCS9},{Alex},{Alex},,,
2016-02-17,3G,Delta,Mahala,RNC05,252,97.669998,{MSCS35-MSCS36-MSCS46-MSCS47-MSCS48-MSCS49-MSCS56},{HQ},{Beni Suef},,,
2016-02-17,3G,Delta,Banha,RNC05,6,3.77,{MSCS35-MSCS36-MSCS46-MSCS47-MSCS48-MSCS49-MSCS56},{HQ},{Beni Suef},,,
2016-02-17,3G,Delta,Gharbiya_Rural,RNC05,12,1.22,{MSCS35-MSCS36-MSCS46-MSCS47-MSCS48-MSCS49-MSCS56},{HQ},{Beni Suef},,,
2016-02-17,3G,Alexandria,Alex_2,RNC06,98,16.440001,{MSCS14-MSCS15-MSCS28-MSCS42-MSCS59-MSCS9},{Alex},{Alex},,,
2016-02-17,3G,Delta,Kafr El Sheikh_Rural,RNC07,9,0.80000001,{MSCS22-MSCS23-MSCS25-MSCS57-MSCS58},,{CAI5},,,
2016-02-17,3G,Giza,Haram,RNC08,12,0.75,{MSCS22-MSCS23-MSCS25-MSCS57-MSCS58},,{CAI5},,,
2016-02-17,3G,Delta,Mansoura,RNC12,65,10.62,{MSCS11-MSCS12-MSCS13-MSCS24-MSCS33-MSCS34},{10th Ramadan},{10th Ramadan},,,
2016-02-17,3G,Delta,Gharbiya_Rural,RNC12,12,1.22,{MSCS11-MSCS12-MSCS13-MSCS24-MSCS33-MSCS34},{10th Ramadan},{10th Ramadan},,,
2016-02-17,3G,Delta,Dakahleyya_Rural,RNC12,6,0.30000001,{MSCS11-MSCS12-MSCS13-MSCS24-MSCS33-MSCS34},{10th Ramadan},{10th Ramadan},,,
2016-02-17,3G,Delta,Kafr El Sheikh_Rural,RNC15,52,4.6300001,{MSCS26-MSCS27-MSCS38-MSCS39-MSCS40},{CAI5},{CAI5},,,
2016-02-17,3G,Delta,Qalyubiya_Rural,RNC15,57,5.0300002,{MSCS26-MSCS27-MSCS38-MSCS39-MSCS40},{CAI5},{CAI5},,,
2016-02-17,3G,Alexandria,Alex_3,RNC17,157,38.669998,{MSCS14-MSCS15-MSCS28-MSCS42-MSCS59-MSCS9},{Alex},{Alex},,,
2016-02-17,3G,Alexandria,Alex_2,RNC20,108,18.120001,{MSCS14-MSCS15-MSCS28-MSCS42-MSCS59-MSCS9},{Alex},{Alex},,,
2016-02-17,3G,Alexandria,Alex_1,RNC20,9,1.3,{MSCS14-MSCS15-MSCS28-MSCS42-MSCS59-MSCS9},{Alex},{Alex},,,
2016-02-17,3G,Delta,Kafr El Sheikh_Rural,RNC21,73,6.4899998,{MSCS26-MSCS27-MSCS38-MSCS39-MSCS40},{CAI5},{CAI5},,,
2016-02-17,3G,Delta,Damietta_Rural,RNC21,60,10.68,{MSCS26-MSCS27-MSCS38-MSCS39-MSCS40},{CAI5},{CAI5},,,
2016-02-17,3G,Delta,Dakahleyya_Rural,RNC21,143,7.21,{MSCS26-MSCS27-MSCS38-MSCS39-MSCS40},{CAI5},{CAI5},,,
2016-02-17,3G,Delta,Kafr El Sheikh_Rural,RNC22,8,0.70999998,{MSCS35-MSCS36-MSCS46-MSCS47-MSCS48-MSCS49-MSCS56},,{Beni Suef},,,
2016-02-17,3G,Delta,Qalyubiya_Rural,RNC22,231,20.370001,{MSCS35-MSCS36-MSCS46-MSCS47-MSCS48-MSCS49-MSCS56},,{Beni Suef},,,
2016-02-17,3G,Delta,Monufeyya_Rural,RNC22,6,0.57999998,{MSCS35-MSCS36-MSCS46-MSCS47-MSCS48-MSCS49-MSCS56},,{Beni Suef},,,
2016-02-17,3G,Delta,Sharkeyya_Rural,RNC22,43,2.04,{MSCS35-MSCS36-MSCS46-MSCS47-MSCS48-MSCS49-MSCS56},,{Beni Suef},,,
2016-02-17,3G,Delta,Sharkeyya_Rural,RNC23,210,9.9399996,{MSCS11-MSCS12-MSCS13-MSCS24-MSCS33-MSCS34},{10th Ramadan},{10th Ramadan},,,
2016-02-17,3G,Delta,Monufeyya_Rural,RNC23,97,9.3900003,{MSCS11-MSCS12-MSCS13-MSCS24-MSCS33-MSCS34},{10th Ramadan},{10th Ramadan},,,
2016-02-17,3G,Delta,Mansoura,RNC23,143,23.370001,{MSCS11-MSCS12-MSCS13-MSCS24-MSCS33-MSCS34},{10th Ramadan},{10th Ramadan},,,
2016-02-17,3G,Delta,Qalyubiya_Rural,RNC23,38,3.3499999,{MSCS11-MSCS12-MSCS13-MSCS24-MSCS33-MSCS34},{10th Ramadan},{10th Ramadan},,,
2016-02-17,3G,Delta,Banha,RNC23,153,96.230003,{MSCS11-MSCS12-MSCS13-MSCS24-MSCS33-MSCS34},{10th Ramadan},{10th Ramadan},,,
2016-02-17,3G,Cairo,Nasr City,RNC24,414,31.459999,{MSCBC1-MSCBC2-MSCBC3-MSCBC4-MSCBC5-MSCBC6},{Mokattam},{10th Ramadan,Beni Suef,CAI5,Zahraa},,,
2016-02-17,3G,Cairo,Alsalam,RNC25,65,17.76,{MSCBC1-MSCBC2-MSCBC3-MSCBC4-MSCBC5-MSCBC6},{CAI5},{10th Ramadan,Beni Suef,CAI5,Zahraa},,,
2016-02-17,3G,Cairo,Heliopolis and Nozha,RNC25,20,2.29,{MSCBC1-MSCBC2-MSCBC3-MSCBC4-MSCBC5-MSCBC6},{CAI5},{10th Ramadan,Beni Suef,CAI5,Zahraa},,,
2016-02-17,3G,Cairo,Matarya,RNC25,77,9.0799999,{MSCBC1-MSCBC2-MSCBC3-MSCBC4-MSCBC5-MSCBC6},{CAI5},{10th Ramadan,Beni Suef,CAI5,Zahraa},,,
2016-02-17,3G,Delta,Damietta_Rural,RNC25,145,25.799999,{MSCBC1-MSCBC2-MSCBC3-MSCBC4-MSCBC5-MSCBC6},{CAI5},{10th Ramadan,Beni Suef,CAI5,Zahraa},,,
2016-02-17,3G,Delta,Dakahleyya_Rural,RNC25,149,7.5100002,{MSCBC1-MSCBC2-MSCBC3-MSCBC4-MSCBC5-MSCBC6},{CAI5},{10th Ramadan,Beni Suef,CAI5,Zahraa},,,
2016-02-17,3G,Giza,Boulaq,RNC25,6,1.23,{MSCBC1-MSCBC2-MSCBC3-MSCBC4-MSCBC5-MSCBC6},{CAI5},{10th Ramadan,Beni Suef,CAI5,Zahraa},,,
2016-02-17,3G,Giza,Imbaba,RNC25,172,32.150002,{MSCBC1-MSCBC2-MSCBC3-MSCBC4-MSCBC5-MSCBC6},{CAI5},{10th Ramadan,Beni Suef,CAI5,Zahraa},,,
2016-02-17,3G,Giza,Shubra and Imbaba Outskirts,RNC25,12,11.21,{MSCBC1-MSCBC2-MSCBC3-MSCBC4-MSCBC5-MSCBC6},{CAI5},{10th Ramadan,Beni Suef,CAI5,Zahraa},,,
2016-02-17,3G,Delta,Kafr El-Shikh,RNC26,149,100,{MSCBC1-MSCBC2-MSCBC3-MSCBC4-MSCBC5-MSCBC6},{HQ},{10th Ramadan,Beni Suef,CAI5,Zahraa},,,
2016-02-17,3G,Delta,Damanhour,RNC26,76,40.639999,{MSCBC1-MSCBC2-MSCBC3-MSCBC4-MSCBC5-MSCBC6},{HQ},{10th Ramadan,Beni Suef,CAI5,Zahraa},,,
2016-02-17,3G,Delta,Kafr El Sheikh_Rural,RNC26,94,8.3599997,{MSCBC1-MSCBC2-MSCBC3-MSCBC4-MSCBC5-MSCBC6},{HQ},{10th Ramadan,Beni Suef,CAI5,Zahraa},,,
2016-02-17,3G,Delta,Gharbiya_Rural,RNC26,6,0.61000001,{MSCBC1-MSCBC2-MSCBC3-MSCBC4-MSCBC5-MSCBC6},{HQ},{10th Ramadan,Beni Suef,CAI5,Zahraa},,,
2016-02-17,3G,Delta,Beheira_Rural,RNC26,24,1.58,{MSCBC1-MSCBC2-MSCBC3-MSCBC4-MSCBC5-MSCBC6},{HQ},{10th Ramadan,Beni Suef,CAI5,Zahraa},,,
2016-02-17,3G,Delta,Damyata,RNC27,177,100,{MSCS26-MSCS27-MSCS38-MSCS39-MSCS40},{CAI5},{CAI5},,,
2016-02-17,3G,Delta,Damietta_Rural,RNC27,350,62.279999,{MSCS26-MSCS27-MSCS38-MSCS39-MSCS40},{CAI5},{CAI5},,,
2016-02-17,3G,Delta,Dakahleyya_Rural,RNC27,104,5.2399998,{MSCS26-MSCS27-MSCS38-MSCS39-MSCS40},{CAI5},{CAI5},,,
2016-02-17,3G,Cairo,Matarya,RNC27,59,6.96,{MSCS26-MSCS27-MSCS38-MSCS39-MSCS40},{CAI5},{CAI5},,,
2016-02-17,3G,Cairo,5Th Gathering and Kattamya,RNC27,6,0.68000001,{MSCS26-MSCS27-MSCS38-MSCS39-MSCS40},{CAI5},{CAI5},,,
2016-02-17,3G,Cairo,Alsalam,RNC27,106,28.959999,{MSCS26-MSCS27-MSCS38-MSCS39-MSCS40},{CAI5},{CAI5},,,
2016-02-17,3G,Cairo,Nasr City,RNC27,8,0.61000001,{MSCS26-MSCS27-MSCS38-MSCS39-MSCS40},{CAI5},{CAI5},,,
2016-02-17,3G,Cairo,Moukattam,RNC28,45,11.69,{MSCBC1-MSCBC2-MSCBC3-MSCBC4-MSCBC5-MSCBC6},{Zahraa},{10th Ramadan,Beni Suef,CAI5,Zahraa},,,
2016-02-17,3G,Cairo,Shubra El-Khima,RNC28,6,0.82999998,{MSCBC1-MSCBC2-MSCBC3-MSCBC4-MSCBC5-MSCBC6},{Zahraa},{10th Ramadan,Beni Suef,CAI5,Zahraa},,,
2016-02-17,3G,Cairo,Abbassyia,RNC28,24,11.54,{MSCBC1-MSCBC2-MSCBC3-MSCBC4-MSCBC5-MSCBC6},{Zahraa},{10th Ramadan,Beni Suef,CAI5,Zahraa},,,
2016-02-17,3G,Cairo,Dar El Salam,RNC28,43,13.56,{MSCBC1-MSCBC2-MSCBC3-MSCBC4-MSCBC5-MSCBC6},{Zahraa},{10th Ramadan,Beni Suef,CAI5,Zahraa},,,
2016-02-17,3G,Cairo,Down Town and Manyal,RNC28,487,54.720001,{MSCBC1-MSCBC2-MSCBC3-MSCBC4-MSCBC5-MSCBC6},{Zahraa},{10th Ramadan,Beni Suef,CAI5,Zahraa},,,
2016-02-17,3G,Cairo,Maadi,RNC28,41,5.7399998,{MSCBC1-MSCBC2-MSCBC3-MSCBC4-MSCBC5-MSCBC6},{Zahraa},{10th Ramadan,Beni Suef,CAI5,Zahraa},,,
2016-02-17,3G,Giza,Haram,RNC28,197,12.32,{MSCBC1-MSCBC2-MSCBC3-MSCBC4-MSCBC5-MSCBC6},{Zahraa},{10th Ramadan,Beni Suef,CAI5,Zahraa},,,
2016-02-17,3G,Giza,Giza Outskirts,RNC28,6,1.08,{MSCBC1-MSCBC2-MSCBC3-MSCBC4-MSCBC5-MSCBC6},{Zahraa},{10th Ramadan,Beni Suef,CAI5,Zahraa},,,
2016-02-17,3G,Delta,Zagazig,RNC29,276,100,{MSCBC1-MSCBC2-MSCBC3-MSCBC4-MSCBC5-MSCBC6},{10th Ramadan},{10th Ramadan,Beni Suef,CAI5,Zahraa},,,
2016-02-17,3G,Delta,Mansoura,RNC29,9,1.47,{MSCBC1-MSCBC2-MSCBC3-MSCBC4-MSCBC5-MSCBC6},{10th Ramadan},{10th Ramadan,Beni Suef,CAI5,Zahraa},,,
2016-02-17,3G,Delta,Monufeyya_Rural,RNC29,6,0.57999998,{MSCBC1-MSCBC2-MSCBC3-MSCBC4-MSCBC5-MSCBC6},{10th Ramadan},{10th Ramadan,Beni Suef,CAI5,Zahraa},,,
2016-02-17,3G,Delta,Sharkeyya_Rural,RNC29,1287,60.91,{MSCBC1-MSCBC2-MSCBC3-MSCBC4-MSCBC5-MSCBC6},{10th Ramadan},{10th Ramadan,Beni Suef,CAI5,Zahraa},,,
2016-02-17,3G,Delta,Dakahleyya_Rural,RNC29,219,11.04,{MSCBC1-MSCBC2-MSCBC3-MSCBC4-MSCBC5-MSCBC6},{10th Ramadan},{10th Ramadan,Beni Suef,CAI5,Zahraa},,,
2016-02-17,3G,Delta,Damietta_Rural,RNC29,7,1.25,{MSCBC1-MSCBC2-MSCBC3-MSCBC4-MSCBC5-MSCBC6},{10th Ramadan},{10th Ramadan,Beni Suef,CAI5,Zahraa},,,
2016-02-17,3G,Delta,Gharbiya_Rural,RNC29,18,1.83,{MSCBC1-MSCBC2-MSCBC3-MSCBC4-MSCBC5-MSCBC6},{10th Ramadan},{10th Ramadan,Beni Suef,CAI5,Zahraa},,,
2016-02-17,3G,Delta,Gharbiya_Rural,RNC30,245,24.85,{MSCBC1-MSCBC2-MSCBC3-MSCBC4-MSCBC5-MSCBC6},{HQ},{10th Ramadan,Beni Suef,CAI5,Zahraa},,,
2016-02-17,3G,Delta,Kafr El Sheikh_Rural,RNC30,276,24.559999,{MSCBC1-MSCBC2-MSCBC3-MSCBC4-MSCBC5-MSCBC6},{HQ},{10th Ramadan,Beni Suef,CAI5,Zahraa},,,
2016-02-17,3G,Delta,Dakahleyya_Rural,RNC30,180,9.0799999,{MSCBC1-MSCBC2-MSCBC3-MSCBC4-MSCBC5-MSCBC6},{HQ},{10th Ramadan,Beni Suef,CAI5,Zahraa},,,
2016-02-17,3G,Delta,Beheira_Rural,RNC30,208,13.71,{MSCBC1-MSCBC2-MSCBC3-MSCBC4-MSCBC5-MSCBC6},{HQ},{10th Ramadan,Beni Suef,CAI5,Zahraa},,,
2016-02-17,3G,Delta,Sharkeyya_Rural,RNC30,80,3.79,{MSCBC1-MSCBC2-MSCBC3-MSCBC4-MSCBC5-MSCBC6},{HQ},{10th Ramadan,Beni Suef,CAI5,Zahraa},,,
2016-02-17,3G,Delta,Qalyubiya_Rural,RNC30,44,3.8800001,{MSCBC1-MSCBC2-MSCBC3-MSCBC4-MSCBC5-MSCBC6},{HQ},{10th Ramadan,Beni Suef,CAI5,Zahraa},,,
2016-02-17,3G,Delta,Monufeyya_Rural,RNC30,81,7.8400002,{MSCBC1-MSCBC2-MSCBC3-MSCBC4-MSCBC5-MSCBC6},{HQ},{10th Ramadan,Beni Suef,CAI5,Zahraa},,,
2016-02-17,3G,Cairo,Abbassyia,RNC31,184,88.459999,{MSCBC1-MSCBC2-MSCBC3-MSCBC4-MSCBC5-MSCBC6},{Mokattam},{10th Ramadan,Beni Suef,CAI5,Zahraa},,,
2016-02-17,3G,Cairo,Shubra,RNC31,27,10.51,{MSCBC1-MSCBC2-MSCBC3-MSCBC4-MSCBC5-MSCBC6},{Mokattam},{10th Ramadan,Beni Suef,CAI5,Zahraa},,,
2016-02-17,3G,Cairo,Nasr City,RNC31,137,10.41,{MSCBC1-MSCBC2-MSCBC3-MSCBC4-MSCBC5-MSCBC6},{Mokattam},{10th Ramadan,Beni Suef,CAI5,Zahraa},,,
2016-02-17,3G,Cairo,Matarya,RNC31,151,17.809999,{MSCBC1-MSCBC2-MSCBC3-MSCBC4-MSCBC5-MSCBC6},{Mokattam},{10th Ramadan,Beni Suef,CAI5,Zahraa},,,
2016-02-17,3G,Cairo,Moukattam,RNC31,43,11.17,{MSCBC1-MSCBC2-MSCBC3-MSCBC4-MSCBC5-MSCBC6},{Mokattam},{10th Ramadan,Beni Suef,CAI5,Zahraa},,,
2016-02-17,3G,Cairo,Shubra El-Khima,RNC31,257,35.549999,{MSCBC1-MSCBC2-MSCBC3-MSCBC4-MSCBC5-MSCBC6},{Mokattam},{10th Ramadan,Beni Suef,CAI5,Zahraa},,,
2016-02-17,3G,Cairo,Zaitoun and Qubba,RNC31,111,41.889999,{MSCBC1-MSCBC2-MSCBC3-MSCBC4-MSCBC5-MSCBC6},{Mokattam},{10th Ramadan,Beni Suef,CAI5,Zahraa},,,
2016-02-17,3G,Cairo,Alsalam,RNC32,9,2.46,{MSCBC1-MSCBC2-MSCBC3-MSCBC4-MSCBC5-MSCBC6},{CAI5},{10th Ramadan,Beni Suef,CAI5,Zahraa},,,
2016-02-17,3G,Delta,Qalyubiya_Rural,RNC32,7,0.62,{MSCBC1-MSCBC2-MSCBC3-MSCBC4-MSCBC5-MSCBC6},{CAI5},{10th Ramadan,Beni Suef,CAI5,Zahraa},,,
2016-02-17,3G,Delta,Sharkeyya_Rural,RNC32,8,0.38,{MSCBC1-MSCBC2-MSCBC3-MSCBC4-MSCBC5-MSCBC6},{CAI5},{10th Ramadan,Beni Suef,CAI5,Zahraa},,,
2016-02-17,3G,Giza,Haram,RNC32,641,40.09,{MSCBC1-MSCBC2-MSCBC3-MSCBC4-MSCBC5-MSCBC6},{CAI5},{10th Ramadan,Beni Suef,CAI5,Zahraa},,,
2016-02-17,3G,Giza,Kerdasa and Mansoraya,RNC32,6,1.75,{MSCBC1-MSCBC2-MSCBC3-MSCBC4-MSCBC5-MSCBC6},{CAI5},{10th Ramadan,Beni Suef,CAI5,Zahraa},,,
2016-02-17,3G,Giza,Kerdasa and Mansoraya,RNC33,57,16.620001,{MSCBC1-MSCBC2-MSCBC3-MSCBC4-MSCBC5-MSCBC6},{CAI5},{10th Ramadan,Beni Suef,CAI5,Zahraa},,,
2016-02-17,3G,Giza,Mouhandseen,RNC33,735,98,{MSCBC1-MSCBC2-MSCBC3-MSCBC4-MSCBC5-MSCBC6},{CAI5},{10th Ramadan,Beni Suef,CAI5,Zahraa},,,
2016-02-17,3G,Giza,October,RNC33,11,0.89999998,{MSCBC1-MSCBC2-MSCBC3-MSCBC4-MSCBC5-MSCBC6},{CAI5},{10th Ramadan,Beni Suef,CAI5,Zahraa},,,
2016-02-17,3G,Giza,Haram,RNC33,9,0.56,{MSCBC1-MSCBC2-MSCBC3-MSCBC4-MSCBC5-MSCBC6},{CAI5},{10th Ramadan,Beni Suef,CAI5,Zahraa},,,
2016-02-17,3G,Giza,Boulaq,RNC33,481,98.769997,{MSCBC1-MSCBC2-MSCBC3-MSCBC4-MSCBC5-MSCBC6},{CAI5},{10th Ramadan,Beni Suef,CAI5,Zahraa},,,
2016-02-17,3G,Delta,Qalyubiya_Rural,RNC33,18,1.59,{MSCBC1-MSCBC2-MSCBC3-MSCBC4-MSCBC5-MSCBC6},{CAI5},{10th Ramadan,Beni Suef,CAI5,Zahraa},,,
2016-02-17,3G,Giza,Imbaba,RNC33,339,63.360001,{MSCBC1-MSCBC2-MSCBC3-MSCBC4-MSCBC5-MSCBC6},{CAI5},{10th Ramadan,Beni Suef,CAI5,Zahraa},,,
2016-02-17,3G,Cairo,Alsalam,RNC33,138,37.700001,{MSCBC1-MSCBC2-MSCBC3-MSCBC4-MSCBC5-MSCBC6},{CAI5},{10th Ramadan,Beni Suef,CAI5,Zahraa},,,
2016-02-17,3G,Cairo,Airport,RNC33,9,9.1800003,{MSCBC1-MSCBC2-MSCBC3-MSCBC4-MSCBC5-MSCBC6},{CAI5},{10th Ramadan,Beni Suef,CAI5,Zahraa},,,
2016-02-17,3G,Cairo,Matarya,RNC33,30,3.54,{MSCBC1-MSCBC2-MSCBC3-MSCBC4-MSCBC5-MSCBC6},{CAI5},{10th Ramadan,Beni Suef,CAI5,Zahraa},,,
2016-02-17,3G,Cairo,Matarya,RNC34,198,23.35,{MSCBC1-MSCBC2-MSCBC3-MSCBC4-MSCBC5-MSCBC6},{Zahraa},{10th Ramadan,Beni Suef,CAI5,Zahraa},,,
2016-02-17,3G,Cairo,Shubra El-Khima,RNC34,69,9.54,{MSCBC1-MSCBC2-MSCBC3-MSCBC4-MSCBC5-MSCBC6},{Zahraa},{10th Ramadan,Beni Suef,CAI5,Zahraa},,,
2016-02-17,3G,Giza,Shubra and Imbaba Outskirts,RNC34,95,88.790001,{MSCBC1-MSCBC2-MSCBC3-MSCBC4-MSCBC5-MSCBC6},{Zahraa},{10th Ramadan,Beni Suef,CAI5,Zahraa},,,
2016-02-17,3G,Delta,Qalyubiya_Rural,RNC34,234,20.629999,{MSCBC1-MSCBC2-MSCBC3-MSCBC4-MSCBC5-MSCBC6},{Zahraa},{10th Ramadan,Beni Suef,CAI5,Zahraa},,,
2016-02-17,3G,Delta,Monufeyya_Rural,RNC34,111,10.75,{MSCBC1-MSCBC2-MSCBC3-MSCBC4-MSCBC5-MSCBC6},{Zahraa},{10th Ramadan,Beni Suef,CAI5,Zahraa},,,
2016-02-17,3G,Delta,Shibin,RNC34,206,100,{MSCBC1-MSCBC2-MSCBC3-MSCBC4-MSCBC5-MSCBC6},{Zahraa},{10th Ramadan,Beni Suef,CAI5,Zahraa},,,
2016-02-17,3G,Cairo,Nasr City,RNC35,187,14.21,{MSCBC1-MSCBC2-MSCBC3-MSCBC4-MSCBC5-MSCBC6},{Mokattam},{10th Ramadan,Beni Suef,CAI5,Zahraa},,,
2016-02-17,3G,Cairo,Moukattam,RNC35,297,77.139999,{MSCBC1-MSCBC2-MSCBC3-MSCBC4-MSCBC5-MSCBC6},{Mokattam},{10th Ramadan,Beni Suef,CAI5,Zahraa},,,
2016-02-17,3G,Cairo,Maadi,RNC35,33,4.6199999,{MSCBC1-MSCBC2-MSCBC3-MSCBC4-MSCBC5-MSCBC6},{Mokattam},{10th Ramadan,Beni Suef,CAI5,Zahraa},,,
2016-02-17,3G,Cairo,Hadabah Wostah,RNC35,210,86.419998,{MSCBC1-MSCBC2-MSCBC3-MSCBC4-MSCBC5-MSCBC6},{Mokattam},{10th Ramadan,Beni Suef,CAI5,Zahraa},,,
2016-02-17,3G,Cairo,Dar El Salam,RNC35,57,17.98,{MSCBC1-MSCBC2-MSCBC3-MSCBC4-MSCBC5-MSCBC6},{Mokattam},{10th Ramadan,Beni Suef,CAI5,Zahraa},,,
2016-02-17,3G,Delta,Dakahleyya_Rural,RNC36,514,25.92,{MSCBC1-MSCBC2-MSCBC3-MSCBC4-MSCBC5-MSCBC6},{10th Ramadan},{10th Ramadan,Beni Suef,CAI5,Zahraa},,,
2016-02-17,3G,Delta,Sharkeyya_Rural,RNC36,462,21.860001,{MSCBC1-MSCBC2-MSCBC3-MSCBC4-MSCBC5-MSCBC6},{10th Ramadan},{10th Ramadan,Beni Suef,CAI5,Zahraa},,,
2016-02-17,3G,Delta,Mansoura,RNC36,10,1.63,{MSCBC1-MSCBC2-MSCBC3-MSCBC4-MSCBC5-MSCBC6},{10th Ramadan},{10th Ramadan,Beni Suef,CAI5,Zahraa},,,
2016-02-17,3G,Delta,Monufeyya_Rural,RNC36,9,0.87,{MSCBC1-MSCBC2-MSCBC3-MSCBC4-MSCBC5-MSCBC6},{10th Ramadan},{10th Ramadan,Beni Suef,CAI5,Zahraa},,,
2016-02-17,3G,Delta,Qalyubiya_Rural,RNC36,18,1.59,{MSCBC1-MSCBC2-MSCBC3-MSCBC4-MSCBC5-MSCBC6},{10th Ramadan},{10th Ramadan,Beni Suef,CAI5,Zahraa},,,
2016-02-17,3G,Delta,Kafr El Sheikh_Rural,RNC37,47,4.1799998,{MSCS14-MSCS15-MSCS28-MSCS42-MSCS59-MSCS9},{Alex},{Alex},,,
2016-02-17,3G,Alexandria,Alex_2,RNC37,367,61.580002,{MSCS14-MSCS15-MSCS28-MSCS42-MSCS59-MSCS9},{Alex},{Alex},,,
2016-02-17,3G,Alexandria,Alex_1,RNC37,681,98.699997,{MSCS14-MSCS15-MSCS28-MSCS42-MSCS59-MSCS9},{Alex},{Alex},,,
2016-02-17,3G,Alexandria,Alex Desert Road,RNC37,23,3.3299999,{MSCS14-MSCS15-MSCS28-MSCS42-MSCS59-MSCS9},{Alex},{Alex},,,
2016-02-17,3G,Alexandria,Alex_3,RNC37,167,41.130001,{MSCS14-MSCS15-MSCS28-MSCS42-MSCS59-MSCS9},{Alex},{Alex},,,
2016-02-17,3G,Alexandria,North Coast East,RNC37,1,9.0000004E-2,{MSCS14-MSCS15-MSCS28-MSCS42-MSCS59-MSCS9},{Alex},{Alex},,,
2016-02-17,3G,Delta,Kafr El Sheikh_Rural,RNC38,48,4.27,{MSCBC1-MSCBC2-MSCBC3-MSCBC4-MSCBC5-MSCBC6},{HQ},{10th Ramadan,Beni Suef,CAI5,Zahraa},,,
2016-02-17,3G,Delta,Dakahleyya_Rural,RNC38,9,0.44999999,{MSCBC1-MSCBC2-MSCBC3-MSCBC4-MSCBC5-MSCBC6},{HQ},{10th Ramadan,Beni Suef,CAI5,Zahraa},,,
2016-02-17,3G,Delta,Beheira_Rural,RNC38,164,10.81,{MSCBC1-MSCBC2-MSCBC3-MSCBC4-MSCBC5-MSCBC6},{HQ},{10th Ramadan,Beni Suef,CAI5,Zahraa},,,
2016-02-17,3G,Delta,Qalyubiya_Rural,RNC38,181,15.96,{MSCBC1-MSCBC2-MSCBC3-MSCBC4-MSCBC5-MSCBC6},{HQ},{10th Ramadan,Beni Suef,CAI5,Zahraa},,,
2016-02-17,3G,Delta,Gharbiya_Rural,RNC38,651,66.019997,{MSCBC1-MSCBC2-MSCBC3-MSCBC4-MSCBC5-MSCBC6},{HQ},{10th Ramadan,Beni Suef,CAI5,Zahraa},,,
2016-02-17,3G,Delta,Mahala,RNC38,6,2.3299999,{MSCBC1-MSCBC2-MSCBC3-MSCBC4-MSCBC5-MSCBC6},{HQ},{10th Ramadan,Beni Suef,CAI5,Zahraa},,,
2016-02-17,3G,Delta,Monufeyya_Rural,RNC38,593,57.41,{MSCBC1-MSCBC2-MSCBC3-MSCBC4-MSCBC5-MSCBC6},{HQ},{10th Ramadan,Beni Suef,CAI5,Zahraa},,,
2016-02-17,3G,Delta,Tanta,RNC38,241,100,{MSCBC1-MSCBC2-MSCBC3-MSCBC4-MSCBC5-MSCBC6},{HQ},{10th Ramadan,Beni Suef,CAI5,Zahraa},,,
2016-02-17,3G,Giza,Haram,RNC39,6,0.38,{MSCBC1-MSCBC2-MSCBC3-MSCBC4-MSCBC5-MSCBC6},{Zahraa},{10th Ramadan,Beni Suef,CAI5,Zahraa},,,
2016-02-17,3G,Giza,Giza Outskirts,RNC39,89,16.040001,{MSCBC1-MSCBC2-MSCBC3-MSCBC4-MSCBC5-MSCBC6},{Zahraa},{10th Ramadan,Beni Suef,CAI5,Zahraa},,,
2016-02-17,3G,Cairo,Dar El Salam,RNC39,217,68.449997,{MSCBC1-MSCBC2-MSCBC3-MSCBC4-MSCBC5-MSCBC6},{Zahraa},{10th Ramadan,Beni Suef,CAI5,Zahraa},,,
2016-02-17,3G,Cairo,Hadabah Wostah,RNC39,33,13.58,{MSCBC1-MSCBC2-MSCBC3-MSCBC4-MSCBC5-MSCBC6},{Zahraa},{10th Ramadan,Beni Suef,CAI5,Zahraa},,,
2016-02-17,3G,Cairo,Maadi,RNC39,400,56.02,{MSCBC1-MSCBC2-MSCBC3-MSCBC4-MSCBC5-MSCBC6},{Zahraa},{10th Ramadan,Beni Suef,CAI5,Zahraa},,,
2016-02-17,3G,Delta,Dakahleyya_Rural,RNC40,583,29.4,,,,,,
2016-02-17,3G,Delta,Kafr El Sheikh_Rural,RNC40,311,27.67,,,,,,
2016-02-17,3G,Delta,Gharbiya_Rural,RNC40,42,4.2600002,,,,,,
2016-02-17,3G,Alexandria,Alex Desert Road,RNC40,12,1.74,,,,,,
2016-02-17,3G,Delta,Mansoura,RNC40,385,62.91,,,,,,
2016-02-17,3G,Delta,Qalyubiya_Rural,RNC41,18,1.59,{MSCBC1-MSCBC2-MSCBC3-MSCBC4-MSCBC5-MSCBC6},{Zahraa},{10th Ramadan,Beni Suef,CAI5,Zahraa},,,
2016-02-17,3G,Giza,Imbaba,RNC41,24,4.4899998,{MSCBC1-MSCBC2-MSCBC3-MSCBC4-MSCBC5-MSCBC6},{Zahraa},{10th Ramadan,Beni Suef,CAI5,Zahraa},,,
2016-02-17,3G,Giza,Mouhandseen,RNC41,9,1.2,{MSCBC1-MSCBC2-MSCBC3-MSCBC4-MSCBC5-MSCBC6},{Zahraa},{10th Ramadan,Beni Suef,CAI5,Zahraa},,,
2016-02-17,3G,Cairo,Matarya,RNC41,240,28.299999,{MSCBC1-MSCBC2-MSCBC3-MSCBC4-MSCBC5-MSCBC6},{Zahraa},{10th Ramadan,Beni Suef,CAI5,Zahraa},,,
2016-02-17,3G,Cairo,Down Town and Manyal,RNC41,402,45.169998,{MSCBC1-MSCBC2-MSCBC3-MSCBC4-MSCBC5-MSCBC6},{Zahraa},{10th Ramadan,Beni Suef,CAI5,Zahraa},,,
2016-02-17,3G,Cairo,Alsalam,RNC41,15,4.0999999,{MSCBC1-MSCBC2-MSCBC3-MSCBC4-MSCBC5-MSCBC6},{Zahraa},{10th Ramadan,Beni Suef,CAI5,Zahraa},,,
2016-02-17,3G,Cairo,Ain Shams,RNC41,82,31.66,{MSCBC1-MSCBC2-MSCBC3-MSCBC4-MSCBC5-MSCBC6},{Zahraa},{10th Ramadan,Beni Suef,CAI5,Zahraa},,,
2016-02-17,3G,Cairo,Shubra,RNC41,230,89.489998,{MSCBC1-MSCBC2-MSCBC3-MSCBC4-MSCBC5-MSCBC6},{Zahraa},{10th Ramadan,Beni Suef,CAI5,Zahraa},,,
2016-02-17,3G,Cairo,Shubra El-Khima,RNC41,382,52.84,{MSCBC1-MSCBC2-MSCBC3-MSCBC4-MSCBC5-MSCBC6},{Zahraa},{10th Ramadan,Beni Suef,CAI5,Zahraa},,,
2016-02-17,3G,Cairo,Zamalek,RNC41,142,100,{MSCBC1-MSCBC2-MSCBC3-MSCBC4-MSCBC5-MSCBC6},{Zahraa},{10th Ramadan,Beni Suef,CAI5,Zahraa},,,
2016-02-17,3G,Cairo,Zaitoun and Qubba,RNC42,154,58.110001,{MSCBC1-MSCBC2-MSCBC3-MSCBC4-MSCBC5-MSCBC6},{Mokattam},{10th Ramadan,Beni Suef,CAI5,Zahraa},,,
2016-02-17,3G,Cairo,Shubra El-Khima,RNC42,9,1.24,{MSCBC1-MSCBC2-MSCBC3-MSCBC4-MSCBC5-MSCBC6},{Mokattam},{10th Ramadan,Beni Suef,CAI5,Zahraa},,,
2016-02-17,3G,Cairo,Nasr City,RNC42,498,37.84,{MSCBC1-MSCBC2-MSCBC3-MSCBC4-MSCBC5-MSCBC6},{Mokattam},{10th Ramadan,Beni Suef,CAI5,Zahraa},,,
2016-02-17,3G,Cairo,Ain Shams,RNC42,24,9.2700005,{MSCBC1-MSCBC2-MSCBC3-MSCBC4-MSCBC5-MSCBC6},{Mokattam},{10th Ramadan,Beni Suef,CAI5,Zahraa},,,
2016-02-17,3G,Cairo,Airport,RNC42,89,90.82,{MSCBC1-MSCBC2-MSCBC3-MSCBC4-MSCBC5-MSCBC6},{Mokattam},{10th Ramadan,Beni Suef,CAI5,Zahraa},,,
2016-02-17,3G,Cairo,Alsalam,RNC42,33,9.0200005,{MSCBC1-MSCBC2-MSCBC3-MSCBC4-MSCBC5-MSCBC6},{Mokattam},{10th Ramadan,Beni Suef,CAI5,Zahraa},,,
2016-02-17,3G,Cairo,Heliopolis and Nozha,RNC42,627,71.900002,{MSCBC1-MSCBC2-MSCBC3-MSCBC4-MSCBC5-MSCBC6},{Mokattam},{10th Ramadan,Beni Suef,CAI5,Zahraa},,,
2016-02-17,3G,Delta,Kafr El Sheikh_Rural,RNC43,188,16.73,,,,,,
2016-02-17,3G,Delta,Dakahleyya_Rural,RNC43,58,2.9200001,,,,,,
2016-02-17,3G,Giza,Haram,RNC43,734,45.900002,,,,,,
2016-02-17,3G,Giza,Giza Outskirts,RNC43,24,4.3200002,,,,,,
2016-02-17,3G,Giza,Kerdasa and Mansoraya,RNC43,48,13.99,,,,,,
2016-02-17,3G,Cairo,Heliopolis and Nozha,RNC44,225,25.799999,,,,,,
2016-02-17,3G,Cairo,Matarya,RNC44,93,10.97,,,,,,
2016-02-17,3G,Cairo,Ain Shams,RNC44,153,59.07,,,,,,
2016-02-17,3G,Delta,Dakahleyya_Rural,RNC45,18,0.91000003,,,,,,
2016-02-17,3G,Delta,Qalyubiya_Rural,RNC46,7,0.62,,,,,,
2016-02-17,3G,Delta,Qalyubiya_Rural,RNC48,281,24.780001,,,,,,
2016-02-17,3G,Delta,Monufeyya_Rural,RNC48,103,9.9700003,,,,,,
2016-02-17,3G,Delta,Sharkeyya_Rural,RNC48,23,1.09,,,,,,
2016-02-17,3G,Upper Egypt,Aswan,RNCH01,199,100,{MSCBC1-MSCBC2-MSCBC3-MSCBC4-MSCBC5-MSCBC6},{Beni Suef},{10th Ramadan,Beni Suef,CAI5,Zahraa},,,
2016-02-17,3G,Upper Egypt,Aswan_Rural,RNCH01,63,25.299999,{MSCBC1-MSCBC2-MSCBC3-MSCBC4-MSCBC5-MSCBC6},{Beni Suef},{10th Ramadan,Beni Suef,CAI5,Zahraa},,,
2016-02-17,3G,Upper Egypt,Asyut,RNCH01,287,100,{MSCBC1-MSCBC2-MSCBC3-MSCBC4-MSCBC5-MSCBC6},{Beni Suef},{10th Ramadan,Beni Suef,CAI5,Zahraa},,,
2016-02-17,3G,Upper Egypt,Asyut_Rural,RNCH01,383,95.510002,{MSCBC1-MSCBC2-MSCBC3-MSCBC4-MSCBC5-MSCBC6},{Beni Suef},{10th Ramadan,Beni Suef,CAI5,Zahraa},,,
2016-02-17,3G,Upper Egypt,Bani Sweif_Rural,RNCH01,3,1.0700001,{MSCBC1-MSCBC2-MSCBC3-MSCBC4-MSCBC5-MSCBC6},{Beni Suef},{10th Ramadan,Beni Suef,CAI5,Zahraa},,,
2016-02-17,3G,Upper Egypt,Fayoum_Rural,RNCH01,116,25.110001,{MSCBC1-MSCBC2-MSCBC3-MSCBC4-MSCBC5-MSCBC6},{Beni Suef},{10th Ramadan,Beni Suef,CAI5,Zahraa},,,
2016-02-17,3G,Upper Egypt,Minia_Rural,RNCH01,27,6.2800002,{MSCBC1-MSCBC2-MSCBC3-MSCBC4-MSCBC5-MSCBC6},{Beni Suef},{10th Ramadan,Beni Suef,CAI5,Zahraa},,,
2016-02-17,3G,Upper Egypt,New Valley_Rural,RNCH01,7,14,{MSCBC1-MSCBC2-MSCBC3-MSCBC4-MSCBC5-MSCBC6},{Beni Suef},{10th Ramadan,Beni Suef,CAI5,Zahraa},,,
2016-02-17,3G,Upper Egypt,Souhag_Rural,RNCH01,21,7.27,{MSCBC1-MSCBC2-MSCBC3-MSCBC4-MSCBC5-MSCBC6},{Beni Suef},{10th Ramadan,Beni Suef,CAI5,Zahraa},,,
2016-02-17,3G,Upper Egypt,Qena_Rural,RNCH02,101,27.6,{MSCS1-MSCS2-MSCS3-MSCS20-MSCS21-MSCS29-MSCS30},{Beni Suef},{HQ},,,
2016-02-17,3G,Upper Egypt,Luxor,RNCH02,249,100,{MSCS1-MSCS2-MSCS3-MSCS20-MSCS21-MSCS29-MSCS30},{Beni Suef},{HQ},,,
2016-02-17,3G,Upper Egypt,Luxor_Rural,RNCH02,163,100,{MSCS1-MSCS2-MSCS3-MSCS20-MSCS21-MSCS29-MSCS30},{Beni Suef},{HQ},,,
2016-02-17,3G,Upper Egypt,Minia_Rural,RNCH02,6,1.4,{MSCS1-MSCS2-MSCS3-MSCS20-MSCS21-MSCS29-MSCS30},{Beni Suef},{HQ},,,
2016-02-17,3G,Upper Egypt,Minya,RNCH02,185,100,{MSCS1-MSCS2-MSCS3-MSCS20-MSCS21-MSCS29-MSCS30},{Beni Suef},{HQ},,,
2016-02-17,3G,Upper Egypt,New Valley,RNCH02,24,100,{MSCS1-MSCS2-MSCS3-MSCS20-MSCS21-MSCS29-MSCS30},{Beni Suef},{HQ},,,
2016-02-17,3G,Upper Egypt,New Valley_Rural,RNCH02,14,28,{MSCS1-MSCS2-MSCS3-MSCS20-MSCS21-MSCS29-MSCS30},{Beni Suef},{HQ},,,
2016-02-17,3G,Upper Egypt,Aswan_Rural,RNCH02,186,74.699997,{MSCS1-MSCS2-MSCS3-MSCS20-MSCS21-MSCS29-MSCS30},{Beni Suef},{HQ},,,
2016-02-17,3G,Canal,Red Sea North_Rural,RNCH02,24,20.51,{MSCS1-MSCS2-MSCS3-MSCS20-MSCS21-MSCS29-MSCS30},{Beni Suef},{HQ},,,
2016-02-17,3G,Canal,Ras Ghareb,RNCH02,51,50,{MSCS1-MSCS2-MSCS3-MSCS20-MSCS21-MSCS29-MSCS30},{Beni Suef},{HQ},,,
2016-02-17,3G,Canal,El-Sukhna,RNCH02,366,68.669998,{MSCS1-MSCS2-MSCS3-MSCS20-MSCS21-MSCS29-MSCS30},{Beni Suef},{HQ},,,
2016-02-17,3G,Canal,Ismailia,RNCH03,295,100,{MSCS50-MSCS51-MSCS52-MSCS53-MSCS54-MSCS55},{10th Ramadan},{10th Ramadan,Beni Suef},,,
2016-02-17,3G,Canal,Ismailia Rural,RNCH03,92,60.529999,{MSCS50-MSCS51-MSCS52-MSCS53-MSCS54-MSCS55},{10th Ramadan},{10th Ramadan,Beni Suef},,,
2016-02-17,3G,Canal,Dahab,RNCH03,39,100,{MSCS50-MSCS51-MSCS52-MSCS53-MSCS54-MSCS55},{10th Ramadan},{10th Ramadan,Beni Suef},,,
2016-02-17,3G,Canal,Red Sea North_Rural,RNCH03,19,16.24,{MSCS50-MSCS51-MSCS52-MSCS53-MSCS54-MSCS55},{10th Ramadan},{10th Ramadan,Beni Suef},,,
2016-02-17,3G,Canal,Nuweiba,RNCH03,23,100,{MSCS50-MSCS51-MSCS52-MSCS53-MSCS54-MSCS55},{10th Ramadan},{10th Ramadan,Beni Suef},,,
2016-02-17,3G,Canal,Portsaid Rural,RNCH03,9,11.54,{MSCS50-MSCS51-MSCS52-MSCS53-MSCS54-MSCS55},{10th Ramadan},{10th Ramadan,Beni Suef},,,
2016-02-17,3G,Canal,Sinai South_Rural,RNCH03,14,9.3999996,{MSCS50-MSCS51-MSCS52-MSCS53-MSCS54-MSCS55},{10th Ramadan},{10th Ramadan,Beni Suef},,,
2016-02-17,3G,Canal,Suez,RNCH03,490,100,{MSCS50-MSCS51-MSCS52-MSCS53-MSCS54-MSCS55},{10th Ramadan},{10th Ramadan,Beni Suef},,,
2016-02-17,3G,Canal,Suez Rural,RNCH03,10,100,{MSCS50-MSCS51-MSCS52-MSCS53-MSCS54-MSCS55},{10th Ramadan},{10th Ramadan,Beni Suef},,,
2016-02-17,3G,Canal,Taba,RNCH03,18,75,{MSCS50-MSCS51-MSCS52-MSCS53-MSCS54-MSCS55},{10th Ramadan},{10th Ramadan,Beni Suef},,,
2016-02-17,3G,Upper Egypt,New Valley_Rural,RNCH03,3,6,{MSCS50-MSCS51-MSCS52-MSCS53-MSCS54-MSCS55},{10th Ramadan},{10th Ramadan,Beni Suef},,,
2016-02-17,3G,Canal,Taba,RNCH04,6,25,{MSCS50-MSCS51-MSCS52-MSCS53-MSCS54-MSCS55},{10th Ramadan},{10th Ramadan,Beni Suef},,,
2016-02-17,3G,Canal,Sinai South_Rural,RNCH04,18,12.08,{MSCS50-MSCS51-MSCS52-MSCS53-MSCS54-MSCS55},{10th Ramadan},{10th Ramadan,Beni Suef},,,
2016-02-17,3G,Canal,Red Sea North_Rural,RNCH04,33,28.209999,{MSCS50-MSCS51-MSCS52-MSCS53-MSCS54-MSCS55},{10th Ramadan},{10th Ramadan,Beni Suef},,,
2016-02-17,3G,Canal,Sharm El-Shiekh,RNCH04,649,100,{MSCS50-MSCS51-MSCS52-MSCS53-MSCS54-MSCS55},{10th Ramadan},{10th Ramadan,Beni Suef},,,
2016-02-17,3G,Canal,Sinai North_Rural,RNCH04,18,22.5,{MSCS50-MSCS51-MSCS52-MSCS53-MSCS54-MSCS55},{10th Ramadan},{10th Ramadan,Beni Suef},,,
2016-02-17,3G,Canal,El-Sukhna,RNCH04,167,31.33,{MSCS50-MSCS51-MSCS52-MSCS53-MSCS54-MSCS55},{10th Ramadan},{10th Ramadan,Beni Suef},,,
2016-02-17,3G,Canal,Hurghada,RNCH05,887,100,{MSCBC1-MSCBC2-MSCBC3-MSCBC4-MSCBC5-MSCBC6},{Beni Suef},{10th Ramadan,Beni Suef,CAI5,Zahraa},,,
2016-02-17,3G,Canal,El-Gouna,RNCH05,80,100,{MSCBC1-MSCBC2-MSCBC3-MSCBC4-MSCBC5-MSCBC6},{Beni Suef},{10th Ramadan,Beni Suef,CAI5,Zahraa},,,
2016-02-17,3G,Canal,Red Sea South_Rural,RNCH05,50,21.83,{MSCBC1-MSCBC2-MSCBC3-MSCBC4-MSCBC5-MSCBC6},{Beni Suef},{10th Ramadan,Beni Suef,CAI5,Zahraa},,,
2016-02-17,3G,Canal,Ras Ghareb,RNCH05,51,50,{MSCBC1-MSCBC2-MSCBC3-MSCBC4-MSCBC5-MSCBC6},{Beni Suef},{10th Ramadan,Beni Suef,CAI5,Zahraa},,,
2016-02-17,3G,Canal,Red Sea North_Rural,RNCH05,23,19.66,{MSCBC1-MSCBC2-MSCBC3-MSCBC4-MSCBC5-MSCBC6},{Beni Suef},{10th Ramadan,Beni Suef,CAI5,Zahraa},,,
2016-02-17,3G,Canal,Safaga,RNCH05,39,100,{MSCBC1-MSCBC2-MSCBC3-MSCBC4-MSCBC5-MSCBC6},{Beni Suef},{10th Ramadan,Beni Suef,CAI5,Zahraa},,,
2016-02-17,3G,Upper Egypt,Fayoum_Rural,RNCH05,102,22.08,{MSCBC1-MSCBC2-MSCBC3-MSCBC4-MSCBC5-MSCBC6},{Beni Suef},{10th Ramadan,Beni Suef,CAI5,Zahraa},,,
2016-02-17,3G,Upper Egypt,Minia_Rural,RNCH06,263,61.16,{MSCBC1-MSCBC2-MSCBC3-MSCBC4-MSCBC5-MSCBC6},{Beni Suef},{10th Ramadan,Beni Suef,CAI5,Zahraa},,,
2016-02-17,3G,Upper Egypt,Qena_Rural,RNCH06,265,72.400002,{MSCBC1-MSCBC2-MSCBC3-MSCBC4-MSCBC5-MSCBC6},{Beni Suef},{10th Ramadan,Beni Suef,CAI5,Zahraa},,,
2016-02-17,3G,Upper Egypt,Quina,RNCH06,135,100,{MSCBC1-MSCBC2-MSCBC3-MSCBC4-MSCBC5-MSCBC6},{Beni Suef},{10th Ramadan,Beni Suef,CAI5,Zahraa},,,
2016-02-17,3G,Upper Egypt,Sohag,RNCH06,154,100,{MSCBC1-MSCBC2-MSCBC3-MSCBC4-MSCBC5-MSCBC6},{Beni Suef},{10th Ramadan,Beni Suef,CAI5,Zahraa},,,
2016-02-17,3G,Upper Egypt,Souhag_Rural,RNCH06,268,92.730003,{MSCBC1-MSCBC2-MSCBC3-MSCBC4-MSCBC5-MSCBC6},{Beni Suef},{10th Ramadan,Beni Suef,CAI5,Zahraa},,,
2016-02-17,3G,Canal,Red Sea North_Rural,RNCH06,2,1.71,{MSCBC1-MSCBC2-MSCBC3-MSCBC4-MSCBC5-MSCBC6},{Beni Suef},{10th Ramadan,Beni Suef,CAI5,Zahraa},,,
2016-02-17,3G,Canal,Red Sea South_Rural,RNCH06,179,78.169998,{MSCBC1-MSCBC2-MSCBC3-MSCBC4-MSCBC5-MSCBC6},{Beni Suef},{10th Ramadan,Beni Suef,CAI5,Zahraa},,,
2016-02-17,3G,Canal,El-Qosseir,RNCH06,36,100,{MSCBC1-MSCBC2-MSCBC3-MSCBC4-MSCBC5-MSCBC6},{Beni Suef},{10th Ramadan,Beni Suef,CAI5,Zahraa},,,
2016-02-17,3G,Canal,Marsa Allam,RNCH06,45,100,{MSCBC1-MSCBC2-MSCBC3-MSCBC4-MSCBC5-MSCBC6},{Beni Suef},{10th Ramadan,Beni Suef,CAI5,Zahraa},,,
2016-02-17,3G,Alexandria,North Coast East,RNCH08,615,52.880001,{MSCS14-MSCS15-MSCS28-MSCS42-MSCS59-MSCS9},{Alex},{Alex},,,
2016-02-17,3G,Alexandria,North Coast West,RNCH08,663,89.959999,{MSCS14-MSCS15-MSCS28-MSCS42-MSCS59-MSCS9},{Alex},{Alex},,,
2016-02-17,3G,Cairo,10Th Of Ramadan,RNCH08,2,0.33000001,{MSCS14-MSCS15-MSCS28-MSCS42-MSCS59-MSCS9},{Alex},{Alex},,,
2016-02-17,3G,Alexandria,Alex_3,RNCH08,30,7.3899999,{MSCS14-MSCS15-MSCS28-MSCS42-MSCS59-MSCS9},{Alex},{Alex},,,
2016-02-17,3G,Alexandria,Alex_4,RNCH08,353,93.629997,{MSCS14-MSCS15-MSCS28-MSCS42-MSCS59-MSCS9},{Alex},{Alex},,,
2016-02-17,3G,Alexandria,Alex_4,RNCH09,24,6.3699999,{MSCS14-MSCS15-MSCS28-MSCS42-MSCS59-MSCS9},{Alex},{Alex},,,
2016-02-17,3G,Alexandria,North Coast East,RNCH09,547,47.029999,{MSCS14-MSCS15-MSCS28-MSCS42-MSCS59-MSCS9},{Alex},{Alex},,,
2016-02-17,3G,Alexandria,Alex_3,RNCH09,10,2.46,{MSCS14-MSCS15-MSCS28-MSCS42-MSCS59-MSCS9},{Alex},{Alex},,,
2016-02-17,3G,Alexandria,North Coast West,RNCH09,74,10.04,{MSCS14-MSCS15-MSCS28-MSCS42-MSCS59-MSCS9},{Alex},{Alex},,,
2016-02-17,3G,Alexandria,Alex Desert Road,RNCH09,649,93.919998,{MSCS14-MSCS15-MSCS28-MSCS42-MSCS59-MSCS9},{Alex},{Alex},,,
2016-02-17,3G,Cairo,Down Town and Manyal,RNCH09,1,0.11,{MSCS14-MSCS15-MSCS28-MSCS42-MSCS59-MSCS9},{Alex},{Alex},,,
2016-02-17,3G,Delta,Beheira_Rural,RNCH09,6,0.40000001,{MSCS14-MSCS15-MSCS28-MSCS42-MSCS59-MSCS9},{Alex},{Alex},,,
2016-02-17,3G,Giza,Alex Desert Road (Giza),RNCH09,7,6.0300002,{MSCS14-MSCS15-MSCS28-MSCS42-MSCS59-MSCS9},{Alex},{Alex},,,
2016-02-17,3G,Canal,Portsaid,RNCH10,319,100,{MSCBC1-MSCBC2-MSCBC3-MSCBC4-MSCBC5-MSCBC6},{10th Ramadan},{10th Ramadan,Beni Suef,CAI5,Zahraa},,,
2016-02-17,3G,Canal,Portsaid Rural,RNCH10,30,38.459999,{MSCBC1-MSCBC2-MSCBC3-MSCBC4-MSCBC5-MSCBC6},{10th Ramadan},{10th Ramadan,Beni Suef,CAI5,Zahraa},,,
2016-02-17,3G,Cairo,10Th Of Ramadan,RNCH10,573,94.870003,{MSCBC1-MSCBC2-MSCBC3-MSCBC4-MSCBC5-MSCBC6},{10th Ramadan},{10th Ramadan,Beni Suef,CAI5,Zahraa},,,
2016-02-17,3G,Cairo,1St Gathering,RNCH11,637,61.02,{MSCBC1-MSCBC2-MSCBC3-MSCBC4-MSCBC5-MSCBC6},{CAI5},{10th Ramadan,Beni Suef,CAI5,Zahraa},,,
2016-02-17,3G,Canal,Red Sea North_Rural,RNCH11,16,13.68,{MSCBC1-MSCBC2-MSCBC3-MSCBC4-MSCBC5-MSCBC6},{CAI5},{10th Ramadan,Beni Suef,CAI5,Zahraa},,,
2016-02-17,3G,Cairo,5Th Gathering and Kattamya,RNCH11,392,44.189999,{MSCBC1-MSCBC2-MSCBC3-MSCBC4-MSCBC5-MSCBC6},{CAI5},{10th Ramadan,Beni Suef,CAI5,Zahraa},,,
2016-02-17,3G,Giza,Sahary Alahram,RNCH11,229,34.18,{MSCBC1-MSCBC2-MSCBC3-MSCBC4-MSCBC5-MSCBC6},{CAI5},{10th Ramadan,Beni Suef,CAI5,Zahraa},,,
2016-02-17,3G,Upper Egypt,New Valley_Rural,RNCH12,12,24,{MSCBC1-MSCBC2-MSCBC3-MSCBC4-MSCBC5-MSCBC6},{HQ},{10th Ramadan,Beni Suef,CAI5,Zahraa},,,
2016-02-17,3G,Giza,Alex Desert Road (Giza),RNCH12,8,6.9000001,{MSCBC1-MSCBC2-MSCBC3-MSCBC4-MSCBC5-MSCBC6},{HQ},{10th Ramadan,Beni Suef,CAI5,Zahraa},,,
2016-02-17,3G,Giza,Mouhandseen,RNCH12,6,0.80000001,{MSCBC1-MSCBC2-MSCBC3-MSCBC4-MSCBC5-MSCBC6},{HQ},{10th Ramadan,Beni Suef,CAI5,Zahraa},,,
2016-02-17,3G,Giza,October,RNCH12,970,79.120003,{MSCBC1-MSCBC2-MSCBC3-MSCBC4-MSCBC5-MSCBC6},{HQ},{10th Ramadan,Beni Suef,CAI5,Zahraa},,,
2016-02-17,3G,Giza,Sahary Alahram,RNCH12,136,20.299999,{MSCBC1-MSCBC2-MSCBC3-MSCBC4-MSCBC5-MSCBC6},{HQ},{10th Ramadan,Beni Suef,CAI5,Zahraa},,,
2016-02-17,3G,Cairo,Nasr City,RNCH13,72,5.4699998,{MSCBC1-MSCBC2-MSCBC3-MSCBC4-MSCBC5-MSCBC6},{CAI5},{10th Ramadan,Beni Suef,CAI5,Zahraa},,,
2016-02-17,3G,Cairo,1St Gathering,RNCH13,221,21.17,{MSCBC1-MSCBC2-MSCBC3-MSCBC4-MSCBC5-MSCBC6},{CAI5},{10th Ramadan,Beni Suef,CAI5,Zahraa},,,
2016-02-17,3G,Cairo,5Th Gathering and Kattamya,RNCH13,489,55.130001,{MSCBC1-MSCBC2-MSCBC3-MSCBC4-MSCBC5-MSCBC6},{CAI5},{10th Ramadan,Beni Suef,CAI5,Zahraa},,,
2016-02-17,3G,Alexandria,Alex Desert Road,RNCH14,6,0.87,{MSCBC1-MSCBC2-MSCBC3-MSCBC4-MSCBC5-MSCBC6},{HQ},{10th Ramadan,Beni Suef,CAI5,Zahraa},,,
2016-02-17,3G,Delta,Beheira_Rural,RNCH14,30,1.98,{MSCBC1-MSCBC2-MSCBC3-MSCBC4-MSCBC5-MSCBC6},{HQ},{10th Ramadan,Beni Suef,CAI5,Zahraa},,,
2016-02-17,3G,Delta,Damanhour,RNCH14,15,8.0200005,{MSCBC1-MSCBC2-MSCBC3-MSCBC4-MSCBC5-MSCBC6},{HQ},{10th Ramadan,Beni Suef,CAI5,Zahraa},,,
2016-02-17,3G,Giza,Sahary Alahram,RNCH14,305,45.52,{MSCBC1-MSCBC2-MSCBC3-MSCBC4-MSCBC5-MSCBC6},{HQ},{10th Ramadan,Beni Suef,CAI5,Zahraa},,,
2016-02-17,3G,Giza,October,RNCH14,245,19.98,{MSCBC1-MSCBC2-MSCBC3-MSCBC4-MSCBC5-MSCBC6},{HQ},{10th Ramadan,Beni Suef,CAI5,Zahraa},,,
2016-02-17,3G,Giza,Alex Desert Road (Giza),RNCH14,101,87.07,{MSCBC1-MSCBC2-MSCBC3-MSCBC4-MSCBC5-MSCBC6},{HQ},{10th Ramadan,Beni Suef,CAI5,Zahraa},,,
2016-02-17,3G,Delta,Monufeyya_Rural,RNCH14,6,0.57999998,{MSCBC1-MSCBC2-MSCBC3-MSCBC4-MSCBC5-MSCBC6},{HQ},{10th Ramadan,Beni Suef,CAI5,Zahraa},,,
2016-02-17,3G,Giza,Kerdasa and Mansoraya,RNCH14,226,65.889999,{MSCBC1-MSCBC2-MSCBC3-MSCBC4-MSCBC5-MSCBC6},{HQ},{10th Ramadan,Beni Suef,CAI5,Zahraa},,,
2016-02-17,3G,Giza,Zayed,RNCH14,600,100,{MSCBC1-MSCBC2-MSCBC3-MSCBC4-MSCBC5-MSCBC6},{HQ},{10th Ramadan,Beni Suef,CAI5,Zahraa},,,
2016-02-17,3G,Upper Egypt,Fayoum_Rural,RNCH15,244,52.810001,{MSCBC1-MSCBC2-MSCBC3-MSCBC4-MSCBC5-MSCBC6},{Beni Suef},{10th Ramadan,Beni Suef,CAI5,Zahraa},,,
2016-02-17,3G,Upper Egypt,Bani_Suef,RNCH15,196,100,{MSCBC1-MSCBC2-MSCBC3-MSCBC4-MSCBC5-MSCBC6},{Beni Suef},{10th Ramadan,Beni Suef,CAI5,Zahraa},,,
2016-02-17,3G,Upper Egypt,Fayoum,RNCH15,343,100,{MSCBC1-MSCBC2-MSCBC3-MSCBC4-MSCBC5-MSCBC6},{Beni Suef},{10th Ramadan,Beni Suef,CAI5,Zahraa},,,
2016-02-17,3G,Upper Egypt,Bani Sweif_Rural,RNCH15,277,98.93,{MSCBC1-MSCBC2-MSCBC3-MSCBC4-MSCBC5-MSCBC6},{Beni Suef},{10th Ramadan,Beni Suef,CAI5,Zahraa},,,
2016-02-17,3G,Upper Egypt,Asyut_Rural,RNCH15,18,4.4899998,{MSCBC1-MSCBC2-MSCBC3-MSCBC4-MSCBC5-MSCBC6},{Beni Suef},{10th Ramadan,Beni Suef,CAI5,Zahraa},,,
2016-02-17,3G,Upper Egypt,Minia_Rural,RNCH15,134,31.16,{MSCBC1-MSCBC2-MSCBC3-MSCBC4-MSCBC5-MSCBC6},{Beni Suef},{10th Ramadan,Beni Suef,CAI5,Zahraa},,,
2016-02-17,3G,Upper Egypt,New Valley_Rural,RNCH15,14,28,{MSCBC1-MSCBC2-MSCBC3-MSCBC4-MSCBC5-MSCBC6},{Beni Suef},{10th Ramadan,Beni Suef,CAI5,Zahraa},,,
2016-02-17,3G,Giza,Giza Outskirts,RNCH15,6,1.08,{MSCBC1-MSCBC2-MSCBC3-MSCBC4-MSCBC5-MSCBC6},{Beni Suef},{10th Ramadan,Beni Suef,CAI5,Zahraa},,,
2016-02-17,3G,Delta,Beheira_Rural,RNCH16,60,3.96,{MSCBC1-MSCBC2-MSCBC3-MSCBC4-MSCBC5-MSCBC6},{10th Ramadan},{10th Ramadan,Beni Suef,CAI5,Zahraa},,,
2016-02-17,3G,Canal,Sinai South_Rural,RNCH16,117,78.519997,{MSCBC1-MSCBC2-MSCBC3-MSCBC4-MSCBC5-MSCBC6},{10th Ramadan},{10th Ramadan,Beni Suef,CAI5,Zahraa},,,
2016-02-17,3G,Canal,Portsaid Rural,RNCH16,39,50,{MSCBC1-MSCBC2-MSCBC3-MSCBC4-MSCBC5-MSCBC6},{10th Ramadan},{10th Ramadan,Beni Suef,CAI5,Zahraa},,,
2016-02-17,3G,Canal,Sinai North_Rural,RNCH16,62,77.5,{MSCBC1-MSCBC2-MSCBC3-MSCBC4-MSCBC5-MSCBC6},{10th Ramadan},{10th Ramadan,Beni Suef,CAI5,Zahraa},,,
2016-02-17,3G,Canal,Ras Sidr,RNCH16,106,100,{MSCBC1-MSCBC2-MSCBC3-MSCBC4-MSCBC5-MSCBC6},{10th Ramadan},{10th Ramadan,Beni Suef,CAI5,Zahraa},,,
2016-02-17,3G,Cairo,Shorouk and Badr,RNCH16,119,28.879999,{MSCBC1-MSCBC2-MSCBC3-MSCBC4-MSCBC5-MSCBC6},{10th Ramadan},{10th Ramadan,Beni Suef,CAI5,Zahraa},,,
2016-02-17,3G,Canal,Ismailia Rural,RNCH16,48,31.58,{MSCBC1-MSCBC2-MSCBC3-MSCBC4-MSCBC5-MSCBC6},{10th Ramadan},{10th Ramadan,Beni Suef,CAI5,Zahraa},,,
2016-02-17,3G,Canal,Arish,RNCH16,69,100,{MSCBC1-MSCBC2-MSCBC3-MSCBC4-MSCBC5-MSCBC6},{10th Ramadan},{10th Ramadan,Beni Suef,CAI5,Zahraa},,,
2016-02-17,3G,Cairo,Helwan,RNCH17,516,67.010002,{MSCBC1-MSCBC2-MSCBC3-MSCBC4-MSCBC5-MSCBC6},{Zahraa},{10th Ramadan,Beni Suef,CAI5,Zahraa},,,
2016-02-17,3G,Cairo,Maadi,RNCH17,240,33.610001,{MSCBC1-MSCBC2-MSCBC3-MSCBC4-MSCBC5-MSCBC6},{Zahraa},{10th Ramadan,Beni Suef,CAI5,Zahraa},,,
2016-02-17,3G,Giza,Giza Outskirts,RNCH17,329,59.279999,{MSCBC1-MSCBC2-MSCBC3-MSCBC4-MSCBC5-MSCBC6},{Zahraa},{10th Ramadan,Beni Suef,CAI5,Zahraa},,,
2016-02-17,3G,Giza,Kerdasa and Mansoraya,RNCH17,6,1.75,{MSCBC1-MSCBC2-MSCBC3-MSCBC4-MSCBC5-MSCBC6},{Zahraa},{10th Ramadan,Beni Suef,CAI5,Zahraa},,,
2016-02-17,3G,Giza,Giza Outskirts,RNCH18,101,18.200001,{MSCBC1-MSCBC2-MSCBC3-MSCBC4-MSCBC5-MSCBC6},{Mokattam},{10th Ramadan,Beni Suef,CAI5,Zahraa},,,
2016-02-17,3G,Cairo,Helwan,RNCH18,254,32.990002,{MSCBC1-MSCBC2-MSCBC3-MSCBC4-MSCBC5-MSCBC6},{Mokattam},{10th Ramadan,Beni Suef,CAI5,Zahraa},,,
2016-02-17,3G,Cairo,Shorouk and Badr,RNCH20,293,71.120003,,,,,,
2016-02-17,3G,Cairo,Obour,RNCH20,508,100,,,,,,
2016-02-17,3G,Cairo,1St Gathering,RNCH20,186,17.82,,,,,,
2016-02-17,3G,Cairo,10Th Of Ramadan,RNCH20,29,4.8000002,,,,,,
2016-02-17,3G,Delta,Beheira_Rural,RNCH24-MNS,117,7.71,,,,,,
2016-02-17,3G,Delta,Damanhour,RNCH24-MNS,96,51.34,,,,,,
2016-02-17,3G,Delta,Kafr El Sheikh_Rural,RNCH26,18,1.6,,,,,,
2016-02-17,3G,Delta,Beheira_Rural,RNCH26,908,59.849998,,,,,,
2016-02-17,3G,Canal,Ismailia Rural,RNCH26,12,7.8899999,,,,,,
