DATE_ID,NETWORK,Region,Sub_region,BSC_RNC,CELLs,CELLs%,MSCs,BSC_RNC_Switch_Location,MSC_Switch_Location  2015-07-27,2G,Delta,Damietta_Rural,BSC16,8,1 8200001,{MSCS26-MSCS27-MSCS38-MSCS39-MSCS40},,{CAI5}
2015-12-16,2G,Delta,Dakahleyya_Rural,BSC17,77,4.52,{MSCS11-MSCS12-MSCS13-MSCS24-MSCS33-MSCS34},{10th Ramadan},{10th Ramadan},,,
2015-12-16,2G,Delta,Gharbiya_Rural,BSC17,7,0.81999999,{MSCS11-MSCS12-MSCS13-MSCS24-MSCS33-MSCS34},{10th Ramadan},{10th Ramadan},,,
2015-12-16,2G,Delta,Mansoura,BSC17,22,5.46,{MSCS11-MSCS12-MSCS13-MSCS24-MSCS33-MSCS34},{10th Ramadan},{10th Ramadan},,,
2015-12-16,2G,Delta,Sharkeyya_Rural,BSC17,14,0.73000002,{MSCS11-MSCS12-MSCS13-MSCS24-MSCS33-MSCS34},{10th Ramadan},{10th Ramadan},,,
2015-12-16,2G,Delta,Kafr El Sheikh_Rural,BSC18,20,1.97,{MSCS14-MSCS15-MSCS28-MSCS42-MSCS59-MSCS9},{Alex},{Alex},,,
2015-12-16,2G,Delta,Beheira_Rural,BSC18,48,3.49,{MSCS14-MSCS15-MSCS28-MSCS42-MSCS59-MSCS9},{Alex},{Alex},,,
2015-12-16,2G,Alexandria,Alex_1,BSC18,35,6.27,{MSCS14-MSCS15-MSCS28-MSCS42-MSCS59-MSCS9},{Alex},{Alex},,,
2015-12-16,2G,Alexandria,Alex_3,BSC18,8,2.23,{MSCS14-MSCS15-MSCS28-MSCS42-MSCS59-MSCS9},{Alex},{Alex},,,
2015-12-16,2G,Delta,Dakahleyya_Rural,BSC19,6,0.34999999,{MSCS11-MSCS12-MSCS13-MSCS24-MSCS33-MSCS34},{10th Ramadan},{10th Ramadan},,,
2015-12-16,2G,Delta,Mansoura,BSC19,146,36.23,{MSCS11-MSCS12-MSCS13-MSCS24-MSCS33-MSCS34},{10th Ramadan},{10th Ramadan},,,
2015-12-16,2G,Delta,Sharkeyya_Rural,BSC21,175,9.1599998,{MSCS11-MSCS12-MSCS13-MSCS24-MSCS33-MSCS34},{10th Ramadan},{10th Ramadan},,,
2015-12-16,2G,Delta,Sharkeyya_Rural,BSC22,71,3.72,{MSCBC2},{10th Ramadan},{10th Ramadan},,,
2015-12-16,2G,Delta,Dakahleyya_Rural,BSC22,64,3.75,{MSCBC2},{10th Ramadan},{10th Ramadan},,,
2015-12-16,2G,Delta,Kafr El Sheikh_Rural,BSC24,52,5.1199999,{MSCS35-MSCS36-MSCS46-MSCS47-MSCS48-MSCS49-MSCS56},{HQ},{Beni Suef},,,
2015-12-16,2G,Delta,Gharbiya_Rural,BSC24,82,9.5699997,{MSCS35-MSCS36-MSCS46-MSCS47-MSCS48-MSCS49-MSCS56},{HQ},{Beni Suef},,,
2015-12-16,2G,Delta,Sharkeyya_Rural,BSC24,7,0.37,{MSCS35-MSCS36-MSCS46-MSCS47-MSCS48-MSCS49-MSCS56},{HQ},{Beni Suef},,,
2015-12-16,2G,Delta,Damanhour,BSC25,123,82.550003,{MSCS35-MSCS36-MSCS46-MSCS47-MSCS48-MSCS49-MSCS56},{HQ},{Beni Suef},,,
2015-12-16,2G,Delta,Beheira_Rural,BSC25,6,0.44,{MSCS35-MSCS36-MSCS46-MSCS47-MSCS48-MSCS49-MSCS56},{HQ},{Beni Suef},,,
2015-12-16,2G,Delta,Kafr El Sheikh_Rural,BSC31,8,0.79000002,{MSCS14-MSCS15-MSCS28-MSCS42-MSCS59-MSCS9},{Alex},{Alex},,,
2015-12-16,2G,Alexandria,Alex_1,BSC31,333,59.68,{MSCS14-MSCS15-MSCS28-MSCS42-MSCS59-MSCS9},{Alex},{Alex},,,
2015-12-16,2G,Delta,Monufeyya_Rural,BSC33,8,0.89999998,{MSCS11-MSCS12-MSCS13-MSCS24-MSCS33-MSCS34},{10th Ramadan},{10th Ramadan},,,
2015-12-16,2G,Delta,Qalyubiya_Rural,BSC33,23,2.9000001,{MSCS11-MSCS12-MSCS13-MSCS24-MSCS33-MSCS34},{10th Ramadan},{10th Ramadan},,,
2015-12-16,2G,Delta,Banha,BSC33,127,97.690002,{MSCS11-MSCS12-MSCS13-MSCS24-MSCS33-MSCS34},{10th Ramadan},{10th Ramadan},,,
2015-12-16,2G,Delta,Dakahleyya_Rural,BSC33,49,2.8699999,{MSCS11-MSCS12-MSCS13-MSCS24-MSCS33-MSCS34},{10th Ramadan},{10th Ramadan},,,
2015-12-16,2G,Delta,Sharkeyya_Rural,BSC33,118,6.1700001,{MSCS11-MSCS12-MSCS13-MSCS24-MSCS33-MSCS34},{10th Ramadan},{10th Ramadan},,,
2015-12-16,2G,Delta,Dakahleyya_Rural,BSC34,123,7.21,{MSCS11-MSCS12-MSCS13-MSCS24-MSCS33-MSCS34},{10th Ramadan},{10th Ramadan},,,
2015-12-16,2G,Delta,Gharbiya_Rural,BSC34,17,1.98,{MSCS11-MSCS12-MSCS13-MSCS24-MSCS33-MSCS34},{10th Ramadan},{10th Ramadan},,,
2015-12-16,2G,Delta,Kafr El Sheikh_Rural,BSC35,6,0.58999997,{MSCS14-MSCS15-MSCS28-MSCS42-MSCS59-MSCS9},{Alex},{Alex},,,
2015-12-16,2G,Alexandria,Alex_2,BSC35,180,39.049999,{MSCS14-MSCS15-MSCS28-MSCS42-MSCS59-MSCS9},{Alex},{Alex},,,
2015-12-16,2G,Alexandria,Alex_1,BSC35,175,31.360001,{MSCS14-MSCS15-MSCS28-MSCS42-MSCS59-MSCS9},{Alex},{Alex},,,
2015-12-16,2G,Alexandria,Alex Desert Road,BSC35,10,2.6600001,{MSCS14-MSCS15-MSCS28-MSCS42-MSCS59-MSCS9},{Alex},{Alex},,,
2015-12-16,2G,Alexandria,Alex_2,BSC36,173,37.529999,{MSCS14-MSCS15-MSCS28-MSCS42-MSCS59-MSCS9},{Alex},{Alex},,,
2015-12-16,2G,Alexandria,Alex_1,BSC36,9,1.61,{MSCS14-MSCS15-MSCS28-MSCS42-MSCS59-MSCS9},{Alex},{Alex},,,
2015-12-16,2G,Alexandria,Alex_3,BSC36,165,45.959999,{MSCS14-MSCS15-MSCS28-MSCS42-MSCS59-MSCS9},{Alex},{Alex},,,
2015-12-16,2G,Alexandria,North Coast East,BSC36,1,0.23999999,{MSCS14-MSCS15-MSCS28-MSCS42-MSCS59-MSCS9},{Alex},{Alex},,,
2015-12-16,2G,Delta,Gharbiya_Rural,BSC39,176,20.540001,{MSCS18},{Zahraa},{Zahraa},,,
2015-12-16,2G,Delta,Monufeyya_Rural,BSC39,17,1.91,{MSCS18},{Zahraa},{Zahraa},,,
2015-12-16,2G,Cairo,Matarya,BSC40,22,4.04,{MSCS19},{Zahraa},{Zahraa},,,
2015-12-16,2G,Cairo,Shubra El-Khima,BSC40,86,18.379999,{MSCS19},{Zahraa},{Zahraa},,,
2015-12-16,2G,Cairo,Zaitoun and Qubba,BSC40,49,26.49,{MSCS19},{Zahraa},{Zahraa},,,
2015-12-16,2G,Delta,Sharkeyya_Rural,BSC40,33,1.73,{MSCS19},{Zahraa},{Zahraa},,,
2015-12-16,2G,Cairo,Shubra El-Khima,BSC41,4,0.85000002,{MSCS35-MSCS36-MSCS46-MSCS47-MSCS48-MSCS49-MSCS56},{HQ},{Beni Suef},,,
2015-12-16,2G,Delta,Qalyubiya_Rural,BSC41,6,0.75999999,{MSCS35-MSCS36-MSCS46-MSCS47-MSCS48-MSCS49-MSCS56},{HQ},{Beni Suef},,,
2015-12-16,2G,Delta,Gharbiya_Rural,BSC41,103,12.02,{MSCS35-MSCS36-MSCS46-MSCS47-MSCS48-MSCS49-MSCS56},{HQ},{Beni Suef},,,
2015-12-16,2G,Delta,Damanhour,BSC41,6,4.0300002,{MSCS35-MSCS36-MSCS46-MSCS47-MSCS48-MSCS49-MSCS56},{HQ},{Beni Suef},,,
2015-12-16,2G,Delta,Beheira_Rural,BSC41,55,4,{MSCS35-MSCS36-MSCS46-MSCS47-MSCS48-MSCS49-MSCS56},{HQ},{Beni Suef},,,
2015-12-16,2G,Delta,Beheira_Rural,BSC42,6,0.44,{MSCS35-MSCS36-MSCS46-MSCS47-MSCS48-MSCS49-MSCS56},{HQ},{Beni Suef},,,
2015-12-16,2G,Delta,Dakahleyya_Rural,BSC42,10,0.58999997,{MSCS35-MSCS36-MSCS46-MSCS47-MSCS48-MSCS49-MSCS56},{HQ},{Beni Suef},,,
2015-12-16,2G,Delta,Gharbiya_Rural,BSC42,56,6.5300002,{MSCS35-MSCS36-MSCS46-MSCS47-MSCS48-MSCS49-MSCS56},{HQ},{Beni Suef},,,
2015-12-16,2G,Delta,Monufeyya_Rural,BSC42,6,0.67000002,{MSCS35-MSCS36-MSCS46-MSCS47-MSCS48-MSCS49-MSCS56},{HQ},{Beni Suef},,,
2015-12-16,2G,Delta,Mahala,BSC42,151,82.510002,{MSCS35-MSCS36-MSCS46-MSCS47-MSCS48-MSCS49-MSCS56},{HQ},{Beni Suef},,,
2015-12-16,2G,Delta,Kafr El Sheikh_Rural,BSC43,49,4.8200002,{MSCS22-MSCS23-MSCS25-MSCS57-MSCS58},{CAI5},{CAI5},,,
2015-12-16,2G,Delta,Kafr El Sheikh_Rural,BSC44,11,1.08,{MSCS22-MSCS23-MSCS25-MSCS57-MSCS58},{CAI5},{CAI5},,,
2015-12-16,2G,Delta,Dakahleyya_Rural,BSC44,97,5.6900001,{MSCS22-MSCS23-MSCS25-MSCS57-MSCS58},{CAI5},{CAI5},,,
2015-12-16,2G,Giza,Imbaba,BSC44,171,53.77,{MSCS22-MSCS23-MSCS25-MSCS57-MSCS58},{CAI5},{CAI5},,,
2015-12-16,2G,Giza,Mouhandseen,BSC44,3,0.63999999,{MSCS22-MSCS23-MSCS25-MSCS57-MSCS58},{CAI5},{CAI5},,,
2015-12-16,2G,Giza,Shubra and Imbaba Outskirts,BSC44,8,11.94,{MSCS22-MSCS23-MSCS25-MSCS57-MSCS58},{CAI5},{CAI5},,,
2015-12-16,2G,Delta,Mansoura,BSC45,170,42.18,{MSCS11-MSCS12-MSCS13-MSCS24-MSCS33-MSCS34},{10th Ramadan},{10th Ramadan},,,
2015-12-16,2G,Delta,Damietta_Rural,BSC46,99,21.200001,{MSCS22-MSCS23-MSCS25-MSCS57-MSCS58},{CAI5},{CAI5},,,
2015-12-16,2G,Delta,Dakahleyya_Rural,BSC46,8,0.47,{MSCS22-MSCS23-MSCS25-MSCS57-MSCS58},{CAI5},{CAI5},,,
2015-12-16,2G,Giza,October,BSC46,3,0.55000001,{MSCS22-MSCS23-MSCS25-MSCS57-MSCS58},{CAI5},{CAI5},,,
2015-12-16,2G,Giza,Imbaba,BSC46,18,5.6599998,{MSCS22-MSCS23-MSCS25-MSCS57-MSCS58},{CAI5},{CAI5},,,
2015-12-16,2G,Giza,Mouhandseen,BSC46,67,14.35,{MSCS22-MSCS23-MSCS25-MSCS57-MSCS58},{CAI5},{CAI5},,,
2015-12-16,2G,Delta,Beheira_Rural,BSC47,26,1.89,{MSCS14-MSCS15-MSCS28-MSCS42-MSCS59-MSCS9},{Alex},{Alex},,,
2015-12-16,2G,Delta,Kafr El Sheikh_Rural,BSC47,34,3.3499999,{MSCS14-MSCS15-MSCS28-MSCS42-MSCS59-MSCS9},{Alex},{Alex},,,
2015-12-16,2G,Alexandria,Alex_1,BSC47,6,1.08,{MSCS14-MSCS15-MSCS28-MSCS42-MSCS59-MSCS9},{Alex},{Alex},,,
2015-12-16,2G,Alexandria,Alex_2,BSC47,108,23.43,{MSCS14-MSCS15-MSCS28-MSCS42-MSCS59-MSCS9},{Alex},{Alex},,,
2015-12-16,2G,Alexandria,Alex_3,BSC47,164,45.68,{MSCS14-MSCS15-MSCS28-MSCS42-MSCS59-MSCS9},{Alex},{Alex},,,
2015-12-16,2G,Alexandria,Alex Desert Road,BSC47,12,3.1900001,{MSCS14-MSCS15-MSCS28-MSCS42-MSCS59-MSCS9},{Alex},{Alex},,,
2015-12-16,2G,Delta,Gharbiya_Rural,BSC48,6,0.69999999,{MSCS35-MSCS36-MSCS46-MSCS47-MSCS48-MSCS49-MSCS56},{HQ},{Beni Suef},,,
2015-12-16,2G,Delta,Monufeyya_Rural,BSC48,30,3.3599999,{MSCS35-MSCS36-MSCS46-MSCS47-MSCS48-MSCS49-MSCS56},{HQ},{Beni Suef},,,
2015-12-16,2G,Delta,Qalyubiya_Rural,BSC48,84,10.61,{MSCS35-MSCS36-MSCS46-MSCS47-MSCS48-MSCS49-MSCS56},{HQ},{Beni Suef},,,
2015-12-16,2G,Delta,Beheira_Rural,BSC48,6,0.44,{MSCS35-MSCS36-MSCS46-MSCS47-MSCS48-MSCS49-MSCS56},{HQ},{Beni Suef},,,
2015-12-16,2G,Delta,Sharkeyya_Rural,BSC48,74,3.8699999,{MSCS35-MSCS36-MSCS46-MSCS47-MSCS48-MSCS49-MSCS56},{HQ},{Beni Suef},,,
2015-12-16,2G,Delta,Qalyubiya_Rural,BSC49,212,26.77,{MSCS35-MSCS36-MSCS46-MSCS47-MSCS48-MSCS49-MSCS56},{HQ},{Beni Suef},,,
2015-12-16,2G,Delta,Monufeyya_Rural,BSC49,97,10.87,{MSCS35-MSCS36-MSCS46-MSCS47-MSCS48-MSCS49-MSCS56},{HQ},{Beni Suef},,,
2015-12-16,2G,Delta,Gharbiya_Rural,BSC51,30,3.5,{MSCS11-MSCS12-MSCS13-MSCS24-MSCS33-MSCS34},{10th Ramadan},{10th Ramadan},,,
2015-12-16,2G,Delta,Dakahleyya_Rural,BSC51,43,2.52,{MSCS11-MSCS12-MSCS13-MSCS24-MSCS33-MSCS34},{10th Ramadan},{10th Ramadan},,,
2015-12-16,2G,Delta,Sharkeyya_Rural,BSC51,169,8.8400002,{MSCS11-MSCS12-MSCS13-MSCS24-MSCS33-MSCS34},{10th Ramadan},{10th Ramadan},,,
2015-12-16,2G,Delta,Gharbiya_Rural,BSC52,14,1.63,{MSCS11-MSCS12-MSCS13-MSCS24-MSCS33-MSCS34},{10th Ramadan},{10th Ramadan},,,
2015-12-16,2G,Delta,Kafr El Sheikh_Rural,BSC52,131,12.89,{MSCS11-MSCS12-MSCS13-MSCS24-MSCS33-MSCS34},{10th Ramadan},{10th Ramadan},,,
2015-12-16,2G,Delta,Gharbiya_Rural,BSC53,12,1.4,{MSCS35-MSCS36-MSCS46-MSCS47-MSCS48-MSCS49-MSCS56},{HQ},{Beni Suef},,,
2015-12-16,2G,Delta,Kafr El Sheikh_Rural,BSC53,35,3.4400001,{MSCS35-MSCS36-MSCS46-MSCS47-MSCS48-MSCS49-MSCS56},{HQ},{Beni Suef},,,
2015-12-16,2G,Delta,Dakahleyya_Rural,BSC53,105,6.1599998,{MSCS35-MSCS36-MSCS46-MSCS47-MSCS48-MSCS49-MSCS56},{HQ},{Beni Suef},,,
2015-12-16,2G,Delta,Beheira_Rural,BSC53,48,3.49,{MSCS35-MSCS36-MSCS46-MSCS47-MSCS48-MSCS49-MSCS56},{HQ},{Beni Suef},,,
2015-12-16,2G,Delta,Sharkeyya_Rural,BSC53,11,0.57999998,{MSCS35-MSCS36-MSCS46-MSCS47-MSCS48-MSCS49-MSCS56},{HQ},{Beni Suef},,,
2015-12-16,2G,Delta,Sharkeyya_Rural,BSC56,6,0.31,{MSCS22-MSCS23-MSCS25-MSCS57-MSCS58},{CAI5},{CAI5},,,
2015-12-16,2G,Delta,Dakahleyya_Rural,BSC56,42,2.46,{MSCS22-MSCS23-MSCS25-MSCS57-MSCS58},{CAI5},{CAI5},,,
2015-12-16,2G,Delta,Kafr El Sheikh_Rural,BSC56,109,10.73,{MSCS22-MSCS23-MSCS25-MSCS57-MSCS58},{CAI5},{CAI5},,,
2015-12-16,2G,Delta,Kafr El Sheikh_Rural,BSC57,27,2.6600001,{MSCBC1-MSCBC2-MSCBC3-MSCBC4-MSCBC5-MSCBC6},{CAI5},{10th Ramadan,Beni Suef,CAI5,Zahraa},,,
2015-12-16,2G,Cairo,Airport,BSC57,6,10.34,{MSCBC1-MSCBC2-MSCBC3-MSCBC4-MSCBC5-MSCBC6},{CAI5},{10th Ramadan,Beni Suef,CAI5,Zahraa},,,
2015-12-16,2G,Cairo,Alsalam,BSC57,113,43.299999,{MSCBC1-MSCBC2-MSCBC3-MSCBC4-MSCBC5-MSCBC6},{CAI5},{10th Ramadan,Beni Suef,CAI5,Zahraa},,,
2015-12-16,2G,Cairo,Matarya,BSC57,54,9.9099998,{MSCBC1-MSCBC2-MSCBC3-MSCBC4-MSCBC5-MSCBC6},{CAI5},{10th Ramadan,Beni Suef,CAI5,Zahraa},,,
2015-12-16,2G,Cairo,Nasr City,BSC57,4,0.55000001,{MSCBC1-MSCBC2-MSCBC3-MSCBC4-MSCBC5-MSCBC6},{CAI5},{10th Ramadan,Beni Suef,CAI5,Zahraa},,,
2015-12-16,2G,Delta,Qalyubiya_Rural,BSC57,88,11.11,{MSCBC1-MSCBC2-MSCBC3-MSCBC4-MSCBC5-MSCBC6},{CAI5},{10th Ramadan,Beni Suef,CAI5,Zahraa},,,
2015-12-16,2G,Giza,Mouhandseen,BSC58,4,0.86000001,{MSCBC1-MSCBC2-MSCBC3-MSCBC4-MSCBC5-MSCBC6},{Zahraa},{10th Ramadan,Beni Suef,CAI5,Zahraa},,,
2015-12-16,2G,Cairo,Moukattam,BSC58,30,11.49,{MSCBC1-MSCBC2-MSCBC3-MSCBC4-MSCBC5-MSCBC6},{Zahraa},{10th Ramadan,Beni Suef,CAI5,Zahraa},,,
2015-12-16,2G,Cairo,Shubra El-Khima,BSC58,1,0.20999999,{MSCBC1-MSCBC2-MSCBC3-MSCBC4-MSCBC5-MSCBC6},{Zahraa},{10th Ramadan,Beni Suef,CAI5,Zahraa},,,
2015-12-16,2G,Cairo,Shubra,BSC58,4,2.22,{MSCBC1-MSCBC2-MSCBC3-MSCBC4-MSCBC5-MSCBC6},{Zahraa},{10th Ramadan,Beni Suef,CAI5,Zahraa},,,
2015-12-16,2G,Cairo,Zamalek,BSC58,23,24.209999,{MSCBC1-MSCBC2-MSCBC3-MSCBC4-MSCBC5-MSCBC6},{Zahraa},{10th Ramadan,Beni Suef,CAI5,Zahraa},,,
2015-12-16,2G,Cairo,Abbassyia,BSC58,17,12.41,{MSCBC1-MSCBC2-MSCBC3-MSCBC4-MSCBC5-MSCBC6},{Zahraa},{10th Ramadan,Beni Suef,CAI5,Zahraa},,,
2015-12-16,2G,Cairo,Down Town and Manyal,BSC58,426,66.360001,{MSCBC1-MSCBC2-MSCBC3-MSCBC4-MSCBC5-MSCBC6},{Zahraa},{10th Ramadan,Beni Suef,CAI5,Zahraa},,,
2015-12-16,2G,Delta,Monufeyya_Rural,BSC58,106,11.88,{MSCBC1-MSCBC2-MSCBC3-MSCBC4-MSCBC5-MSCBC6},{Zahraa},{10th Ramadan,Beni Suef,CAI5,Zahraa},,,
2015-12-16,2G,Delta,Gharbiya_Rural,BSC58,24,2.8,{MSCBC1-MSCBC2-MSCBC3-MSCBC4-MSCBC5-MSCBC6},{Zahraa},{10th Ramadan,Beni Suef,CAI5,Zahraa},,,
2015-12-16,2G,Delta,Beheira_Rural,BSC59,157,11.41,{MSCBC1-MSCBC2-MSCBC3-MSCBC4-MSCBC5-MSCBC6},{Zahraa},{10th Ramadan,Beni Suef,CAI5,Zahraa},,,
2015-12-16,2G,Cairo,Down Town and Manyal,BSC59,106,16.51,{MSCBC1-MSCBC2-MSCBC3-MSCBC4-MSCBC5-MSCBC6},{Zahraa},{10th Ramadan,Beni Suef,CAI5,Zahraa},,,
2015-12-16,2G,Cairo,Helwan,BSC59,6,1.45,{MSCBC1-MSCBC2-MSCBC3-MSCBC4-MSCBC5-MSCBC6},{Zahraa},{10th Ramadan,Beni Suef,CAI5,Zahraa},,,
2015-12-16,2G,Cairo,Abbassyia,BSC59,1,0.73000002,{MSCBC1-MSCBC2-MSCBC3-MSCBC4-MSCBC5-MSCBC6},{Zahraa},{10th Ramadan,Beni Suef,CAI5,Zahraa},,,
2015-12-16,2G,Cairo,Zamalek,BSC59,72,75.790001,{MSCBC1-MSCBC2-MSCBC3-MSCBC4-MSCBC5-MSCBC6},{Zahraa},{10th Ramadan,Beni Suef,CAI5,Zahraa},,,
2015-12-16,2G,Cairo,Shubra,BSC59,132,73.330002,{MSCBC1-MSCBC2-MSCBC3-MSCBC4-MSCBC5-MSCBC6},{Zahraa},{10th Ramadan,Beni Suef,CAI5,Zahraa},,,
2015-12-16,2G,Cairo,Shubra El-Khima,BSC59,18,3.8499999,{MSCBC1-MSCBC2-MSCBC3-MSCBC4-MSCBC5-MSCBC6},{Zahraa},{10th Ramadan,Beni Suef,CAI5,Zahraa},,,
2015-12-16,2G,Giza,Imbaba,BSC59,12,3.77,{MSCBC1-MSCBC2-MSCBC3-MSCBC4-MSCBC5-MSCBC6},{Zahraa},{10th Ramadan,Beni Suef,CAI5,Zahraa},,,
2015-12-16,2G,Cairo,Matarya,BSC60,148,27.16,{MSCBC1-MSCBC2-MSCBC3-MSCBC4-MSCBC5-MSCBC6},{Zahraa},{10th Ramadan,Beni Suef,CAI5,Zahraa},,,
2015-12-16,2G,Cairo,Ain Shams,BSC60,64,34.59,{MSCBC1-MSCBC2-MSCBC3-MSCBC4-MSCBC5-MSCBC6},{Zahraa},{10th Ramadan,Beni Suef,CAI5,Zahraa},,,
2015-12-16,2G,Cairo,Down Town and Manyal,BSC60,110,17.129999,{MSCBC1-MSCBC2-MSCBC3-MSCBC4-MSCBC5-MSCBC6},{Zahraa},{10th Ramadan,Beni Suef,CAI5,Zahraa},,,
2015-12-16,2G,Delta,Dakahleyya_Rural,BSC60,76,4.46,{MSCBC1-MSCBC2-MSCBC3-MSCBC4-MSCBC5-MSCBC6},{Zahraa},{10th Ramadan,Beni Suef,CAI5,Zahraa},,,
2015-12-16,2G,Delta,Gharbiya_Rural,BSC60,33,3.8499999,{MSCBC1-MSCBC2-MSCBC3-MSCBC4-MSCBC5-MSCBC6},{Zahraa},{10th Ramadan,Beni Suef,CAI5,Zahraa},,,
2015-12-16,2G,Delta,Kafr El Sheikh_Rural,BSC61,8,0.79000002,{MSCBC1-MSCBC2-MSCBC3-MSCBC4-MSCBC5-MSCBC6},{CAI5},{10th Ramadan,Beni Suef,CAI5,Zahraa},,,
2015-12-16,2G,Delta,Damyata,BSC61,149,100,{MSCBC1-MSCBC2-MSCBC3-MSCBC4-MSCBC5-MSCBC6},{CAI5},{10th Ramadan,Beni Suef,CAI5,Zahraa},,,
2015-12-16,2G,Delta,Damietta_Rural,BSC61,137,29.34,{MSCBC1-MSCBC2-MSCBC3-MSCBC4-MSCBC5-MSCBC6},{CAI5},{10th Ramadan,Beni Suef,CAI5,Zahraa},,,
2015-12-16,2G,Giza,Boulaq,BSC61,4,1.38,{MSCBC1-MSCBC2-MSCBC3-MSCBC4-MSCBC5-MSCBC6},{CAI5},{10th Ramadan,Beni Suef,CAI5,Zahraa},,,
2015-12-16,2G,Giza,Kerdasa and Mansoraya,BSC61,22,13.02,{MSCBC1-MSCBC2-MSCBC3-MSCBC4-MSCBC5-MSCBC6},{CAI5},{10th Ramadan,Beni Suef,CAI5,Zahraa},,,
2015-12-16,2G,Upper Egypt,New Valley_Rural,BSC61,1,0.60000002,{MSCBC1-MSCBC2-MSCBC3-MSCBC4-MSCBC5-MSCBC6},{CAI5},{10th Ramadan,Beni Suef,CAI5,Zahraa},,,
2015-12-16,2G,Delta,Dakahleyya_Rural,BSC62,160,9.3800001,{MSCBC1-MSCBC2-MSCBC3-MSCBC4-MSCBC5-MSCBC6},{CAI5},{10th Ramadan,Beni Suef,CAI5,Zahraa},,,
2015-12-16,2G,Delta,Gharbiya_Rural,BSC63,15,1.75,{MSCBC1-MSCBC2-MSCBC3-MSCBC4-MSCBC5-MSCBC6},{Mokattam},{10th Ramadan,Beni Suef,CAI5,Zahraa},,,
2015-12-16,2G,Delta,Kafr El Sheikh_Rural,BSC63,29,2.8499999,{MSCBC1-MSCBC2-MSCBC3-MSCBC4-MSCBC5-MSCBC6},{Mokattam},{10th Ramadan,Beni Suef,CAI5,Zahraa},,,
2015-12-16,2G,Delta,Qalyubiya_Rural,BSC63,9,1.14,{MSCBC1-MSCBC2-MSCBC3-MSCBC4-MSCBC5-MSCBC6},{Mokattam},{10th Ramadan,Beni Suef,CAI5,Zahraa},,,
2015-12-16,2G,Cairo,Dar El Salam,BSC63,39,18.48,{MSCBC1-MSCBC2-MSCBC3-MSCBC4-MSCBC5-MSCBC6},{Mokattam},{10th Ramadan,Beni Suef,CAI5,Zahraa},,,
2015-12-16,2G,Cairo,Hadabah Wostah,BSC63,113,86.260002,{MSCBC1-MSCBC2-MSCBC3-MSCBC4-MSCBC5-MSCBC6},{Mokattam},{10th Ramadan,Beni Suef,CAI5,Zahraa},,,
2015-12-16,2G,Cairo,Maadi,BSC63,15,4.2600002,{MSCBC1-MSCBC2-MSCBC3-MSCBC4-MSCBC5-MSCBC6},{Mokattam},{10th Ramadan,Beni Suef,CAI5,Zahraa},,,
2015-12-16,2G,Cairo,Moukattam,BSC63,191,73.18,{MSCBC1-MSCBC2-MSCBC3-MSCBC4-MSCBC5-MSCBC6},{Mokattam},{10th Ramadan,Beni Suef,CAI5,Zahraa},,,
2015-12-16,2G,Cairo,Nasr City,BSC63,280,38.830002,{MSCBC1-MSCBC2-MSCBC3-MSCBC4-MSCBC5-MSCBC6},{Mokattam},{10th Ramadan,Beni Suef,CAI5,Zahraa},,,
2015-12-16,2G,Cairo,Matarya,BSC64,24,4.4000001,{MSCBC1-MSCBC2-MSCBC3-MSCBC4-MSCBC5-MSCBC6},{Zahraa},{10th Ramadan,Beni Suef,CAI5,Zahraa},,,
2015-12-16,2G,Cairo,Shubra El-Khima,BSC64,12,2.5599999,{MSCBC1-MSCBC2-MSCBC3-MSCBC4-MSCBC5-MSCBC6},{Zahraa},{10th Ramadan,Beni Suef,CAI5,Zahraa},,,
2015-12-16,2G,Cairo,Shubra,BSC64,24,13.33,{MSCBC1-MSCBC2-MSCBC3-MSCBC4-MSCBC5-MSCBC6},{Zahraa},{10th Ramadan,Beni Suef,CAI5,Zahraa},,,
2015-12-16,2G,Cairo,Zaitoun and Qubba,BSC64,55,29.73,{MSCBC1-MSCBC2-MSCBC3-MSCBC4-MSCBC5-MSCBC6},{Zahraa},{10th Ramadan,Beni Suef,CAI5,Zahraa},,,
2015-12-16,2G,Cairo,Alsalam,BSC64,6,2.3,{MSCBC1-MSCBC2-MSCBC3-MSCBC4-MSCBC5-MSCBC6},{Zahraa},{10th Ramadan,Beni Suef,CAI5,Zahraa},,,
2015-12-16,2G,Cairo,Ain Shams,BSC64,12,6.4899998,{MSCBC1-MSCBC2-MSCBC3-MSCBC4-MSCBC5-MSCBC6},{Zahraa},{10th Ramadan,Beni Suef,CAI5,Zahraa},,,
2015-12-16,2G,Cairo,Abbassyia,BSC64,7,5.1100001,{MSCBC1-MSCBC2-MSCBC3-MSCBC4-MSCBC5-MSCBC6},{Zahraa},{10th Ramadan,Beni Suef,CAI5,Zahraa},,,
2015-12-16,2G,Delta,Gharbiya_Rural,BSC64,61,7.1199999,{MSCBC1-MSCBC2-MSCBC3-MSCBC4-MSCBC5-MSCBC6},{Zahraa},{10th Ramadan,Beni Suef,CAI5,Zahraa},,,
2015-12-16,2G,Delta,Beheira_Rural,BSC64,51,3.71,{MSCBC1-MSCBC2-MSCBC3-MSCBC4-MSCBC5-MSCBC6},{Zahraa},{10th Ramadan,Beni Suef,CAI5,Zahraa},,,
2015-12-16,2G,Delta,Dakahleyya_Rural,BSC65,4,0.23,{MSCBC1-MSCBC2-MSCBC3-MSCBC4-MSCBC5-MSCBC6},{Zahraa},{10th Ramadan,Beni Suef,CAI5,Zahraa},,,
2015-12-16,2G,Cairo,Abbassyia,BSC65,10,7.3000002,{MSCBC1-MSCBC2-MSCBC3-MSCBC4-MSCBC5-MSCBC6},{Zahraa},{10th Ramadan,Beni Suef,CAI5,Zahraa},,,
2015-12-16,2G,Delta,Sharkeyya_Rural,BSC65,362,18.940001,{MSCBC1-MSCBC2-MSCBC3-MSCBC4-MSCBC5-MSCBC6},{Zahraa},{10th Ramadan,Beni Suef,CAI5,Zahraa},,,
2015-12-16,2G,Delta,Shibin,BSC66,142,100,{MSCBC1-MSCBC2-MSCBC3-MSCBC4-MSCBC5-MSCBC6},{Zahraa},{10th Ramadan,Beni Suef,CAI5,Zahraa},,,
2015-12-16,2G,Delta,Monufeyya_Rural,BSC66,180,20.18,{MSCBC1-MSCBC2-MSCBC3-MSCBC4-MSCBC5-MSCBC6},{Zahraa},{10th Ramadan,Beni Suef,CAI5,Zahraa},,,
2015-12-16,2G,Delta,Kafr El Sheikh_Rural,BSC67,171,16.83,{MSCBC1-MSCBC2-MSCBC3-MSCBC4-MSCBC5-MSCBC6},{CAI5},{10th Ramadan,Beni Suef,CAI5,Zahraa},,,
2015-12-16,2G,Delta,Damietta_Rural,BSC67,35,7.4899998,{MSCBC1-MSCBC2-MSCBC3-MSCBC4-MSCBC5-MSCBC6},{CAI5},{10th Ramadan,Beni Suef,CAI5,Zahraa},,,
2015-12-16,2G,Delta,Dakahleyya_Rural,BSC67,64,3.75,{MSCBC1-MSCBC2-MSCBC3-MSCBC4-MSCBC5-MSCBC6},{CAI5},{10th Ramadan,Beni Suef,CAI5,Zahraa},,,
2015-12-16,2G,Giza,Imbaba,BSC67,72,22.639999,{MSCBC1-MSCBC2-MSCBC3-MSCBC4-MSCBC5-MSCBC6},{CAI5},{10th Ramadan,Beni Suef,CAI5,Zahraa},,,
2015-12-16,2G,Delta,Beheira_Rural,BSC68,4,0.28999999,{MSCBC1-MSCBC2-MSCBC3-MSCBC4-MSCBC5-MSCBC6},{HQ},{10th Ramadan,Beni Suef,CAI5,Zahraa},,,
2015-12-16,2G,Delta,Gharbiya_Rural,BSC68,22,2.5699999,{MSCBC1-MSCBC2-MSCBC3-MSCBC4-MSCBC5-MSCBC6},{HQ},{10th Ramadan,Beni Suef,CAI5,Zahraa},,,
2015-12-16,2G,Delta,Kafr El Sheikh_Rural,BSC68,88,8.6599998,{MSCBC1-MSCBC2-MSCBC3-MSCBC4-MSCBC5-MSCBC6},{HQ},{10th Ramadan,Beni Suef,CAI5,Zahraa},,,
2015-12-16,2G,Delta,Kafr El-Shikh,BSC68,103,100,{MSCBC1-MSCBC2-MSCBC3-MSCBC4-MSCBC5-MSCBC6},{HQ},{10th Ramadan,Beni Suef,CAI5,Zahraa},,,
2015-12-16,2G,Delta,Monufeyya_Rural,BSC68,59,6.6100001,{MSCBC1-MSCBC2-MSCBC3-MSCBC4-MSCBC5-MSCBC6},{HQ},{10th Ramadan,Beni Suef,CAI5,Zahraa},,,
2015-12-16,2G,Delta,Qalyubiya_Rural,BSC68,26,3.28,{MSCBC1-MSCBC2-MSCBC3-MSCBC4-MSCBC5-MSCBC6},{HQ},{10th Ramadan,Beni Suef,CAI5,Zahraa},,,
2015-12-16,2G,Delta,Dakahleyya_Rural,BSC69,198,11.61,{MSCBC1-MSCBC2-MSCBC3-MSCBC4-MSCBC5-MSCBC6},{CAI5},{10th Ramadan,Beni Suef,CAI5,Zahraa},,,
2015-12-16,2G,Delta,Damietta_Rural,BSC69,15,3.21,{MSCBC1-MSCBC2-MSCBC3-MSCBC4-MSCBC5-MSCBC6},{CAI5},{10th Ramadan,Beni Suef,CAI5,Zahraa},,,
2015-12-16,2G,Cairo,5Th Gathering and Kattamya,BSC69,1,0.30000001,{MSCBC1-MSCBC2-MSCBC3-MSCBC4-MSCBC5-MSCBC6},{CAI5},{10th Ramadan,Beni Suef,CAI5,Zahraa},,,
2015-12-16,2G,Delta,Dakahleyya_Rural,BSC70,76,4.46,{MSCBC1-MSCBC2-MSCBC3-MSCBC4-MSCBC5-MSCBC6},{CAI5},{10th Ramadan,Beni Suef,CAI5,Zahraa},,,
2015-12-16,2G,Delta,Monufeyya_Rural,BSC70,6,0.67000002,{MSCBC1-MSCBC2-MSCBC3-MSCBC4-MSCBC5-MSCBC6},{CAI5},{10th Ramadan,Beni Suef,CAI5,Zahraa},,,
2015-12-16,2G,Delta,Kafr El Sheikh_Rural,BSC70,97,9.5500002,{MSCBC1-MSCBC2-MSCBC3-MSCBC4-MSCBC5-MSCBC6},{CAI5},{10th Ramadan,Beni Suef,CAI5,Zahraa},,,
2015-12-16,2G,Delta,Damietta_Rural,BSC70,10,2.1400001,{MSCBC1-MSCBC2-MSCBC3-MSCBC4-MSCBC5-MSCBC6},{CAI5},{10th Ramadan,Beni Suef,CAI5,Zahraa},,,
2015-12-16,2G,Delta,Sharkeyya_Rural,BSC70,34,1.78,{MSCBC1-MSCBC2-MSCBC3-MSCBC4-MSCBC5-MSCBC6},{CAI5},{10th Ramadan,Beni Suef,CAI5,Zahraa},,,
2015-12-16,2G,Delta,Kafr El Sheikh_Rural,BSC71,64,6.3000002,{MSCBC1-MSCBC2-MSCBC3-MSCBC4-MSCBC5-MSCBC6},{CAI5},{10th Ramadan,Beni Suef,CAI5,Zahraa},,,
2015-12-16,2G,Delta,Beheira_Rural,BSC71,187,13.59,{MSCBC1-MSCBC2-MSCBC3-MSCBC4-MSCBC5-MSCBC6},{CAI5},{10th Ramadan,Beni Suef,CAI5,Zahraa},,,
2015-12-16,2G,Delta,Beheira_Rural,BSC72,33,2.4000001,{MSCBC1-MSCBC2-MSCBC3-MSCBC4-MSCBC5-MSCBC6},{Mokattam},{10th Ramadan,Beni Suef,CAI5,Zahraa},,,
2015-12-16,2G,Delta,Gharbiya_Rural,BSC72,22,2.5699999,{MSCBC1-MSCBC2-MSCBC3-MSCBC4-MSCBC5-MSCBC6},{Mokattam},{10th Ramadan,Beni Suef,CAI5,Zahraa},,,
2015-12-16,2G,Cairo,Ain Shams,BSC72,108,58.380001,{MSCBC1-MSCBC2-MSCBC3-MSCBC4-MSCBC5-MSCBC6},{Mokattam},{10th Ramadan,Beni Suef,CAI5,Zahraa},,,
2015-12-16,2G,Cairo,Alsalam,BSC72,142,54.41,{MSCBC1-MSCBC2-MSCBC3-MSCBC4-MSCBC5-MSCBC6},{Mokattam},{10th Ramadan,Beni Suef,CAI5,Zahraa},,,
2015-12-16,2G,Cairo,Heliopolis and Nozha,BSC72,85,17.75,{MSCBC1-MSCBC2-MSCBC3-MSCBC4-MSCBC5-MSCBC6},{Mokattam},{10th Ramadan,Beni Suef,CAI5,Zahraa},,,
2015-12-16,2G,Cairo,Matarya,BSC72,35,6.4200001,{MSCBC1-MSCBC2-MSCBC3-MSCBC4-MSCBC5-MSCBC6},{Mokattam},{10th Ramadan,Beni Suef,CAI5,Zahraa},,,
2015-12-16,2G,Delta,Gharbiya_Rural,BSC73,55,6.4200001,{MSCBC1-MSCBC2-MSCBC3-MSCBC4-MSCBC5-MSCBC6},{HQ},{10th Ramadan,Beni Suef,CAI5,Zahraa},,,
2015-12-16,2G,Delta,Monufeyya_Rural,BSC73,163,18.27,{MSCBC1-MSCBC2-MSCBC3-MSCBC4-MSCBC5-MSCBC6},{HQ},{10th Ramadan,Beni Suef,CAI5,Zahraa},,,
2015-12-16,2G,Delta,Qalyubiya_Rural,BSC73,32,4.04,{MSCBC1-MSCBC2-MSCBC3-MSCBC4-MSCBC5-MSCBC6},{HQ},{10th Ramadan,Beni Suef,CAI5,Zahraa},,,
2015-12-16,2G,Delta,Beheira_Rural,BSC73,72,5.23,{MSCBC1-MSCBC2-MSCBC3-MSCBC4-MSCBC5-MSCBC6},{HQ},{10th Ramadan,Beni Suef,CAI5,Zahraa},,,
2015-12-16,2G,Delta,Dakahleyya_Rural,BSC73,37,2.1700001,{MSCBC1-MSCBC2-MSCBC3-MSCBC4-MSCBC5-MSCBC6},{HQ},{10th Ramadan,Beni Suef,CAI5,Zahraa},,,
2015-12-16,2G,Delta,Sharkeyya_Rural,BSC73,73,3.8199999,{MSCBC1-MSCBC2-MSCBC3-MSCBC4-MSCBC5-MSCBC6},{HQ},{10th Ramadan,Beni Suef,CAI5,Zahraa},,,
2015-12-16,2G,Delta,Qalyubiya_Rural,BSC74,6,0.75999999,{MSCBC1-MSCBC2-MSCBC3-MSCBC4-MSCBC5-MSCBC6},{10th Ramadan},{10th Ramadan,Beni Suef,CAI5,Zahraa},,,
2015-12-16,2G,Delta,Sharkeyya_Rural,BSC74,108,5.6500001,{MSCBC1-MSCBC2-MSCBC3-MSCBC4-MSCBC5-MSCBC6},{10th Ramadan},{10th Ramadan,Beni Suef,CAI5,Zahraa},,,
2015-12-16,2G,Delta,Dakahleyya_Rural,BSC74,192,11.26,{MSCBC1-MSCBC2-MSCBC3-MSCBC4-MSCBC5-MSCBC6},{10th Ramadan},{10th Ramadan,Beni Suef,CAI5,Zahraa},,,
2015-12-16,2G,Delta,Mansoura,BSC74,14,3.47,{MSCBC1-MSCBC2-MSCBC3-MSCBC4-MSCBC5-MSCBC6},{10th Ramadan},{10th Ramadan,Beni Suef,CAI5,Zahraa},,,
2015-12-16,2G,Delta,Gharbiya_Rural,BSC74,6,0.69999999,{MSCBC1-MSCBC2-MSCBC3-MSCBC4-MSCBC5-MSCBC6},{10th Ramadan},{10th Ramadan,Beni Suef,CAI5,Zahraa},,,
2015-12-16,2G,Delta,Kafr El Sheikh_Rural,BSC74,53,5.2199998,{MSCBC1-MSCBC2-MSCBC3-MSCBC4-MSCBC5-MSCBC6},{10th Ramadan},{10th Ramadan,Beni Suef,CAI5,Zahraa},,,
2015-12-16,2G,Delta,Mansoura,BSC75,27,6.6999998,{MSCBC1-MSCBC2-MSCBC3-MSCBC4-MSCBC5-MSCBC6},{10th Ramadan},{10th Ramadan,Beni Suef,CAI5,Zahraa},,,
2015-12-16,2G,Delta,Qalyubiya_Rural,BSC75,12,1.52,{MSCBC1-MSCBC2-MSCBC3-MSCBC4-MSCBC5-MSCBC6},{10th Ramadan},{10th Ramadan,Beni Suef,CAI5,Zahraa},,,
2015-12-16,2G,Delta,Monufeyya_Rural,BSC75,6,0.67000002,{MSCBC1-MSCBC2-MSCBC3-MSCBC4-MSCBC5-MSCBC6},{10th Ramadan},{10th Ramadan,Beni Suef,CAI5,Zahraa},,,
2015-12-16,2G,Delta,Dakahleyya_Rural,BSC75,155,9.0900002,{MSCBC1-MSCBC2-MSCBC3-MSCBC4-MSCBC5-MSCBC6},{10th Ramadan},{10th Ramadan,Beni Suef,CAI5,Zahraa},,,
2015-12-16,2G,Delta,Sharkeyya_Rural,BSC75,216,11.3,{MSCBC1-MSCBC2-MSCBC3-MSCBC4-MSCBC5-MSCBC6},{10th Ramadan},{10th Ramadan,Beni Suef,CAI5,Zahraa},,,
2015-12-16,2G,Cairo,Moukattam,BSC76,40,15.33,{MSCBC1-MSCBC2-MSCBC3-MSCBC4-MSCBC5-MSCBC6},{Mokattam},{10th Ramadan,Beni Suef,CAI5,Zahraa},,,
2015-12-16,2G,Cairo,Nasr City,BSC76,97,13.45,{MSCBC1-MSCBC2-MSCBC3-MSCBC4-MSCBC5-MSCBC6},{Mokattam},{10th Ramadan,Beni Suef,CAI5,Zahraa},,,
2015-12-16,2G,Cairo,Zaitoun and Qubba,BSC76,14,7.5700002,{MSCBC1-MSCBC2-MSCBC3-MSCBC4-MSCBC5-MSCBC6},{Mokattam},{10th Ramadan,Beni Suef,CAI5,Zahraa},,,
2015-12-16,2G,Cairo,Matarya,BSC76,9,1.65,{MSCBC1-MSCBC2-MSCBC3-MSCBC4-MSCBC5-MSCBC6},{Mokattam},{10th Ramadan,Beni Suef,CAI5,Zahraa},,,
2015-12-16,2G,Cairo,Abbassyia,BSC76,93,67.879997,{MSCBC1-MSCBC2-MSCBC3-MSCBC4-MSCBC5-MSCBC6},{Mokattam},{10th Ramadan,Beni Suef,CAI5,Zahraa},,,
2015-12-16,2G,Cairo,Matarya,BSC77,99,18.17,{MSCBC1-MSCBC2-MSCBC3-MSCBC4-MSCBC5-MSCBC6},{Mokattam},{10th Ramadan,Beni Suef,CAI5,Zahraa},,,
2015-12-16,2G,Cairo,Shubra El-Khima,BSC77,73,15.6,{MSCBC1-MSCBC2-MSCBC3-MSCBC4-MSCBC5-MSCBC6},{Mokattam},{10th Ramadan,Beni Suef,CAI5,Zahraa},,,
2015-12-16,2G,Delta,Dakahleyya_Rural,BSC78,41,2.4000001,{MSCBC1-MSCBC2-MSCBC3-MSCBC4-MSCBC5-MSCBC6},{CAI5},{10th Ramadan,Beni Suef,CAI5,Zahraa},,,
2015-12-16,2G,Delta,Damietta_Rural,BSC78,52,11.13,{MSCBC1-MSCBC2-MSCBC3-MSCBC4-MSCBC5-MSCBC6},{CAI5},{10th Ramadan,Beni Suef,CAI5,Zahraa},,,
2015-12-16,2G,Giza,Boulaq,BSC78,265,91.379997,{MSCBC1-MSCBC2-MSCBC3-MSCBC4-MSCBC5-MSCBC6},{CAI5},{10th Ramadan,Beni Suef,CAI5,Zahraa},,,
2015-12-16,2G,Giza,Mouhandseen,BSC78,378,80.940002,{MSCBC1-MSCBC2-MSCBC3-MSCBC4-MSCBC5-MSCBC6},{CAI5},{10th Ramadan,Beni Suef,CAI5,Zahraa},,,
2015-12-16,2G,Delta,Qalyubiya_Rural,BSC79,111,14.02,{MSCBC1-MSCBC2-MSCBC3-MSCBC4-MSCBC5-MSCBC6},{HQ},{10th Ramadan,Beni Suef,CAI5,Zahraa},,,
2015-12-16,2G,Delta,Monufeyya_Rural,BSC79,86,9.6400003,{MSCBC1-MSCBC2-MSCBC3-MSCBC4-MSCBC5-MSCBC6},{HQ},{10th Ramadan,Beni Suef,CAI5,Zahraa},,,
2015-12-16,2G,Delta,Damanhour,BSC79,8,5.3699999,{MSCBC1-MSCBC2-MSCBC3-MSCBC4-MSCBC5-MSCBC6},{HQ},{10th Ramadan,Beni Suef,CAI5,Zahraa},,,
2015-12-16,2G,Delta,Beheira_Rural,BSC79,135,9.8100004,{MSCBC1-MSCBC2-MSCBC3-MSCBC4-MSCBC5-MSCBC6},{HQ},{10th Ramadan,Beni Suef,CAI5,Zahraa},,,
2015-12-16,2G,Delta,Monufeyya_Rural,BSC80,20,2.24,{MSCBC1-MSCBC2-MSCBC3-MSCBC4-MSCBC5-MSCBC6},{Zahraa},{10th Ramadan,Beni Suef,CAI5,Zahraa},,,
2015-12-16,2G,Delta,Gharbiya_Rural,BSC80,116,13.54,{MSCBC1-MSCBC2-MSCBC3-MSCBC4-MSCBC5-MSCBC6},{Zahraa},{10th Ramadan,Beni Suef,CAI5,Zahraa},,,
2015-12-16,2G,Cairo,Shubra,BSC80,17,9.4399996,{MSCBC1-MSCBC2-MSCBC3-MSCBC4-MSCBC5-MSCBC6},{Zahraa},{10th Ramadan,Beni Suef,CAI5,Zahraa},,,
2015-12-16,2G,Cairo,Shubra El-Khima,BSC80,169,36.110001,{MSCBC1-MSCBC2-MSCBC3-MSCBC4-MSCBC5-MSCBC6},{Zahraa},{10th Ramadan,Beni Suef,CAI5,Zahraa},,,
2015-12-16,2G,Delta,Tanta,BSC80,179,100,{MSCBC1-MSCBC2-MSCBC3-MSCBC4-MSCBC5-MSCBC6},{Zahraa},{10th Ramadan,Beni Suef,CAI5,Zahraa},,,
2015-12-16,2G,Cairo,Zaitoun and Qubba,BSC81,45,24.32,{MSCBC1-MSCBC2-MSCBC3-MSCBC4-MSCBC5-MSCBC6},{Mokattam},{10th Ramadan,Beni Suef,CAI5,Zahraa},,,
2015-12-16,2G,Cairo,Nasr City,BSC81,275,38.139999,{MSCBC1-MSCBC2-MSCBC3-MSCBC4-MSCBC5-MSCBC6},{Mokattam},{10th Ramadan,Beni Suef,CAI5,Zahraa},,,
2015-12-16,2G,Cairo,Ain Shams,BSC81,1,0.54000002,{MSCBC1-MSCBC2-MSCBC3-MSCBC4-MSCBC5-MSCBC6},{Mokattam},{10th Ramadan,Beni Suef,CAI5,Zahraa},,,
2015-12-16,2G,Cairo,Airport,BSC81,52,89.660004,{MSCBC1-MSCBC2-MSCBC3-MSCBC4-MSCBC5-MSCBC6},{Mokattam},{10th Ramadan,Beni Suef,CAI5,Zahraa},,,
2015-12-16,2G,Cairo,Heliopolis and Nozha,BSC81,353,73.699997,{MSCBC1-MSCBC2-MSCBC3-MSCBC4-MSCBC5-MSCBC6},{Mokattam},{10th Ramadan,Beni Suef,CAI5,Zahraa},,,
2015-12-16,2G,Cairo,Heliopolis and Nozha,BSC82,41,8.5600004,{MSCBC1-MSCBC2-MSCBC3-MSCBC4-MSCBC5-MSCBC6},{Zahraa},{10th Ramadan,Beni Suef,CAI5,Zahraa},,,
2015-12-16,2G,Cairo,Hadabah Wostah,BSC82,18,13.74,{MSCBC1-MSCBC2-MSCBC3-MSCBC4-MSCBC5-MSCBC6},{Zahraa},{10th Ramadan,Beni Suef,CAI5,Zahraa},,,
2015-12-16,2G,Cairo,Maadi,BSC82,232,65.910004,{MSCBC1-MSCBC2-MSCBC3-MSCBC4-MSCBC5-MSCBC6},{Zahraa},{10th Ramadan,Beni Suef,CAI5,Zahraa},,,
2015-12-16,2G,Cairo,Dar El Salam,BSC82,172,81.519997,{MSCBC1-MSCBC2-MSCBC3-MSCBC4-MSCBC5-MSCBC6},{Zahraa},{10th Ramadan,Beni Suef,CAI5,Zahraa},,,
2015-12-16,2G,Cairo,Abbassyia,BSC82,9,6.5700002,{MSCBC1-MSCBC2-MSCBC3-MSCBC4-MSCBC5-MSCBC6},{Zahraa},{10th Ramadan,Beni Suef,CAI5,Zahraa},,,
2015-12-16,2G,Cairo,Nasr City,BSC82,31,4.3000002,{MSCBC1-MSCBC2-MSCBC3-MSCBC4-MSCBC5-MSCBC6},{Zahraa},{10th Ramadan,Beni Suef,CAI5,Zahraa},,,
2015-12-16,2G,Cairo,Matarya,BSC82,6,1.1,{MSCBC1-MSCBC2-MSCBC3-MSCBC4-MSCBC5-MSCBC6},{Zahraa},{10th Ramadan,Beni Suef,CAI5,Zahraa},,,
2015-12-16,2G,Cairo,Zaitoun and Qubba,BSC82,22,11.89,{MSCBC1-MSCBC2-MSCBC3-MSCBC4-MSCBC5-MSCBC6},{Zahraa},{10th Ramadan,Beni Suef,CAI5,Zahraa},,,
2015-12-16,2G,Delta,Beheira_Rural,BSC82,1,0.07,{MSCBC1-MSCBC2-MSCBC3-MSCBC4-MSCBC5-MSCBC6},{Zahraa},{10th Ramadan,Beni Suef,CAI5,Zahraa},,,
2015-12-16,2G,Giza,Giza Outskirts,BSC82,62,17.610001,{MSCBC1-MSCBC2-MSCBC3-MSCBC4-MSCBC5-MSCBC6},{Zahraa},{10th Ramadan,Beni Suef,CAI5,Zahraa},,,
2015-12-16,2G,Giza,Haram,BSC82,88,9.6599998,{MSCBC1-MSCBC2-MSCBC3-MSCBC4-MSCBC5-MSCBC6},{Zahraa},{10th Ramadan,Beni Suef,CAI5,Zahraa},,,
2015-12-16,2G,Giza,Haram,BSC83,823,90.339996,{MSCBC1-MSCBC2-MSCBC3-MSCBC4-MSCBC5-MSCBC6},{CAI5},{10th Ramadan,Beni Suef,CAI5,Zahraa},,,
2015-12-16,2G,Giza,Giza Outskirts,BSC83,19,5.4000001,{MSCBC1-MSCBC2-MSCBC3-MSCBC4-MSCBC5-MSCBC6},{CAI5},{10th Ramadan,Beni Suef,CAI5,Zahraa},,,
2015-12-16,2G,Giza,Kerdasa and Mansoraya,BSC83,22,13.02,{MSCBC1-MSCBC2-MSCBC3-MSCBC4-MSCBC5-MSCBC6},{CAI5},{10th Ramadan,Beni Suef,CAI5,Zahraa},,,
2015-12-16,2G,Delta,Qalyubiya_Rural,BSC84,12,1.52,{MSCBC1-MSCBC2-MSCBC3-MSCBC4-MSCBC5-MSCBC6},{10th Ramadan},{10th Ramadan,Beni Suef,CAI5,Zahraa},,,
2015-12-16,2G,Delta,Beheira_Rural,BSC84,27,1.96,{MSCBC1-MSCBC2-MSCBC3-MSCBC4-MSCBC5-MSCBC6},{10th Ramadan},{10th Ramadan,Beni Suef,CAI5,Zahraa},,,
2015-12-16,2G,Delta,Banha,BSC84,3,2.3099999,{MSCBC1-MSCBC2-MSCBC3-MSCBC4-MSCBC5-MSCBC6},{10th Ramadan},{10th Ramadan,Beni Suef,CAI5,Zahraa},,,
2015-12-16,2G,Delta,Kafr El Sheikh_Rural,BSC84,24,2.3599999,{MSCBC1-MSCBC2-MSCBC3-MSCBC4-MSCBC5-MSCBC6},{10th Ramadan},{10th Ramadan,Beni Suef,CAI5,Zahraa},,,
2015-12-16,2G,Delta,Monufeyya_Rural,BSC84,108,12.11,{MSCBC1-MSCBC2-MSCBC3-MSCBC4-MSCBC5-MSCBC6},{10th Ramadan},{10th Ramadan,Beni Suef,CAI5,Zahraa},,,
2015-12-16,2G,Alexandria,Alex Desert Road,BSC84,3,0.80000001,{MSCBC1-MSCBC2-MSCBC3-MSCBC4-MSCBC5-MSCBC6},{10th Ramadan},{10th Ramadan,Beni Suef,CAI5,Zahraa},,,
2015-12-16,2G,Delta,Mansoura,BSC85,24,5.96,{MSCBC1-MSCBC2-MSCBC3-MSCBC4-MSCBC5-MSCBC6},{10th Ramadan},{10th Ramadan,Beni Suef,CAI5,Zahraa},,,
2015-12-16,2G,Delta,Sharkeyya_Rural,BSC85,440,23.02,{MSCBC1-MSCBC2-MSCBC3-MSCBC4-MSCBC5-MSCBC6},{10th Ramadan},{10th Ramadan,Beni Suef,CAI5,Zahraa},,,
2015-12-16,2G,Delta,Zagazig,BSC85,197,100,{MSCBC1-MSCBC2-MSCBC3-MSCBC4-MSCBC5-MSCBC6},{10th Ramadan},{10th Ramadan,Beni Suef,CAI5,Zahraa},,,
2015-12-16,2G,Giza,Shubra and Imbaba Outskirts,BSC86,59,88.059998,{MSCBC1-MSCBC2-MSCBC3-MSCBC4-MSCBC5-MSCBC6},{HQ},{10th Ramadan,Beni Suef,CAI5,Zahraa},,,
2015-12-16,2G,Delta,Mahala,BSC86,32,17.49,{MSCBC1-MSCBC2-MSCBC3-MSCBC4-MSCBC5-MSCBC6},{HQ},{10th Ramadan,Beni Suef,CAI5,Zahraa},,,
2015-12-16,2G,Delta,Qalyubiya_Rural,BSC86,171,21.59,{MSCBC1-MSCBC2-MSCBC3-MSCBC4-MSCBC5-MSCBC6},{HQ},{10th Ramadan,Beni Suef,CAI5,Zahraa},,,
2015-12-16,2G,Cairo,Matarya,BSC86,148,27.16,{MSCBC1-MSCBC2-MSCBC3-MSCBC4-MSCBC5-MSCBC6},{HQ},{10th Ramadan,Beni Suef,CAI5,Zahraa},,,
2015-12-16,2G,Cairo,Shubra El-Khima,BSC86,105,22.440001,{MSCBC1-MSCBC2-MSCBC3-MSCBC4-MSCBC5-MSCBC6},{HQ},{10th Ramadan,Beni Suef,CAI5,Zahraa},,,
2015-12-16,2G,Cairo,Shubra,BSC86,3,1.67,{MSCBC1-MSCBC2-MSCBC3-MSCBC4-MSCBC5-MSCBC6},{HQ},{10th Ramadan,Beni Suef,CAI5,Zahraa},,,
2015-12-16,2G,Delta,Damietta_Rural,BSC87,119,25.48,{MSCBC1-MSCBC2-MSCBC3-MSCBC4-MSCBC5-MSCBC6},{CAI5},{10th Ramadan,Beni Suef,CAI5,Zahraa},,,
2015-12-16,2G,Delta,Dakahleyya_Rural,BSC87,78,4.5700002,{MSCBC1-MSCBC2-MSCBC3-MSCBC4-MSCBC5-MSCBC6},{CAI5},{10th Ramadan,Beni Suef,CAI5,Zahraa},,,
2015-12-16,2G,Giza,Kerdasa and Mansoraya,BSC87,3,1.78,{MSCBC1-MSCBC2-MSCBC3-MSCBC4-MSCBC5-MSCBC6},{CAI5},{10th Ramadan,Beni Suef,CAI5,Zahraa},,,
2015-12-16,2G,Giza,Mouhandseen,BSC87,12,2.5699999,{MSCBC1-MSCBC2-MSCBC3-MSCBC4-MSCBC5-MSCBC6},{CAI5},{10th Ramadan,Beni Suef,CAI5,Zahraa},,,
2015-12-16,2G,Giza,Imbaba,BSC87,45,14.15,{MSCBC1-MSCBC2-MSCBC3-MSCBC4-MSCBC5-MSCBC6},{CAI5},{10th Ramadan,Beni Suef,CAI5,Zahraa},,,
2015-12-16,2G,Giza,Boulaq,BSC87,21,7.2399998,{MSCBC1-MSCBC2-MSCBC3-MSCBC4-MSCBC5-MSCBC6},{CAI5},{10th Ramadan,Beni Suef,CAI5,Zahraa},,,
2015-12-16,2G,Upper Egypt,Aswan_Rural,BSCH01,10,2.8199999,{MSCS1-MSCS2-MSCS3-MSCS20-MSCS21-MSCS29-MSCS30},{Beni Suef},{HQ},,,
2015-12-16,2G,Upper Egypt,Asyut_Rural,BSCH01,40,9.1999998,{MSCS1-MSCS2-MSCS3-MSCS20-MSCS21-MSCS29-MSCS30},{Beni Suef},{HQ},,,
2015-12-16,2G,Upper Egypt,Souhag_Rural,BSCH01,112,25.23,{MSCS1-MSCS2-MSCS3-MSCS20-MSCS21-MSCS29-MSCS30},{Beni Suef},{HQ},,,
2015-12-16,2G,Upper Egypt,Sohag,BSCH01,72,100,{MSCS1-MSCS2-MSCS3-MSCS20-MSCS21-MSCS29-MSCS30},{Beni Suef},{HQ},,,
2015-12-16,2G,Canal,Red Sea South_Rural,BSCH01,16,11.19,{MSCS1-MSCS2-MSCS3-MSCS20-MSCS21-MSCS29-MSCS30},{Beni Suef},{HQ},,,
2015-12-16,2G,Canal,El-Sukhna,BSCH01,98,68.059998,{MSCS1-MSCS2-MSCS3-MSCS20-MSCS21-MSCS29-MSCS30},{Beni Suef},{HQ},,,
2015-12-16,2G,Canal,Red Sea North_Rural,BSCH01,23,29.49,{MSCS1-MSCS2-MSCS3-MSCS20-MSCS21-MSCS29-MSCS30},{Beni Suef},{HQ},,,
2015-12-16,2G,Canal,Red Sea North_Rural,BSCH02,2,2.5599999,{MSCS1-MSCS2-MSCS3-MSCS20-MSCS21-MSCS29-MSCS30},{Beni Suef},{HQ},,,
2015-12-16,2G,Canal,Red Sea South_Rural,BSCH02,9,6.29,{MSCS1-MSCS2-MSCS3-MSCS20-MSCS21-MSCS29-MSCS30},{Beni Suef},{HQ},,,
2015-12-16,2G,Upper Egypt,Souhag_Rural,BSCH02,39,8.7799997,{MSCS1-MSCS2-MSCS3-MSCS20-MSCS21-MSCS29-MSCS30},{Beni Suef},{HQ},,,
2015-12-16,2G,Upper Egypt,New Valley_Rural,BSCH02,97,57.740002,{MSCS1-MSCS2-MSCS3-MSCS20-MSCS21-MSCS29-MSCS30},{Beni Suef},{HQ},,,
2015-12-16,2G,Upper Egypt,New Valley,BSCH02,17,100,{MSCS1-MSCS2-MSCS3-MSCS20-MSCS21-MSCS29-MSCS30},{Beni Suef},{HQ},,,
2015-12-16,2G,Upper Egypt,Qena_Rural,BSCH02,39,8.21,{MSCS1-MSCS2-MSCS3-MSCS20-MSCS21-MSCS29-MSCS30},{Beni Suef},{HQ},,,
2015-12-16,2G,Upper Egypt,Asyut_Rural,BSCH02,126,28.969999,{MSCS1-MSCS2-MSCS3-MSCS20-MSCS21-MSCS29-MSCS30},{Beni Suef},{HQ},,,
2015-12-16,2G,Upper Egypt,Aswan_Rural,BSCH02,64,18.030001,{MSCS1-MSCS2-MSCS3-MSCS20-MSCS21-MSCS29-MSCS30},{Beni Suef},{HQ},,,
2015-12-16,2G,Upper Egypt,Asyut_Rural,BSCH03,31,7.1300001,{MSCS1-MSCS2-MSCS3-MSCS20-MSCS21-MSCS29-MSCS30},{Beni Suef},{HQ},,,
2015-12-16,2G,Upper Egypt,Aswan_Rural,BSCH03,71,20,{MSCS1-MSCS2-MSCS3-MSCS20-MSCS21-MSCS29-MSCS30},{Beni Suef},{HQ},,,
2015-12-16,2G,Upper Egypt,Minia_Rural,BSCH03,10,2.25,{MSCS1-MSCS2-MSCS3-MSCS20-MSCS21-MSCS29-MSCS30},{Beni Suef},{HQ},,,
2015-12-16,2G,Upper Egypt,Qena_Rural,BSCH03,67,14.11,{MSCS1-MSCS2-MSCS3-MSCS20-MSCS21-MSCS29-MSCS30},{Beni Suef},{HQ},,,
2015-12-16,2G,Upper Egypt,Quina,BSCH03,69,100,{MSCS1-MSCS2-MSCS3-MSCS20-MSCS21-MSCS29-MSCS30},{Beni Suef},{HQ},,,
2015-12-16,2G,Upper Egypt,Luxor_Rural,BSCH04,71,36.599998,{MSCS1-MSCS2-MSCS3-MSCS20-MSCS21-MSCS29-MSCS30},{Beni Suef},{HQ},,,
2015-12-16,2G,Upper Egypt,Souhag_Rural,BSCH04,18,4.0500002,{MSCS1-MSCS2-MSCS3-MSCS20-MSCS21-MSCS29-MSCS30},{Beni Suef},{HQ},,,
2015-12-16,2G,Upper Egypt,Asyut_Rural,BSCH04,97,22.299999,{MSCS1-MSCS2-MSCS3-MSCS20-MSCS21-MSCS29-MSCS30},{Beni Suef},{HQ},,,
2015-12-16,2G,Upper Egypt,Aswan_Rural,BSCH04,210,59.150002,{MSCS1-MSCS2-MSCS3-MSCS20-MSCS21-MSCS29-MSCS30},{Beni Suef},{HQ},,,
2015-12-16,2G,Upper Egypt,Aswan,BSCH04,98,100,{MSCS1-MSCS2-MSCS3-MSCS20-MSCS21-MSCS29-MSCS30},{Beni Suef},{HQ},,,
2015-12-16,2G,Upper Egypt,Asyut,BSCH05,122,100,{MSCBC1-MSCBC2-MSCBC3-MSCBC4-MSCBC5-MSCBC6},{Beni Suef},{10th Ramadan,Beni Suef,CAI5,Zahraa},,,
2015-12-16,2G,Upper Egypt,Asyut_Rural,BSCH05,4,0.92000002,{MSCBC1-MSCBC2-MSCBC3-MSCBC4-MSCBC5-MSCBC6},{Beni Suef},{10th Ramadan,Beni Suef,CAI5,Zahraa},,,
2015-12-16,2G,Upper Egypt,Minia_Rural,BSCH06,209,46.970001,{MSCS1-MSCS2-MSCS3-MSCS20-MSCS21-MSCS29-MSCS30},{Beni Suef},{HQ},,,
2015-12-16,2G,Canal,Red Sea South_Rural,BSCH06,33,23.08,{MSCS1-MSCS2-MSCS3-MSCS20-MSCS21-MSCS29-MSCS30},{Beni Suef},{HQ},,,
2015-12-16,2G,Canal,Red Sea North_Rural,BSCH06,16,20.51,{MSCS1-MSCS2-MSCS3-MSCS20-MSCS21-MSCS29-MSCS30},{Beni Suef},{HQ},,,
2015-12-16,2G,Canal,Ras Ghareb,BSCH06,18,47.369999,{MSCS1-MSCS2-MSCS3-MSCS20-MSCS21-MSCS29-MSCS30},{Beni Suef},{HQ},,,
2015-12-16,2G,Canal,El-Qosseir,BSCH06,14,100,{MSCS1-MSCS2-MSCS3-MSCS20-MSCS21-MSCS29-MSCS30},{Beni Suef},{HQ},,,
2015-12-16,2G,Canal,Ras Ghareb,BSCH07,20,52.630001,{MSCBC1-MSCBC2-MSCBC3-MSCBC4-MSCBC5-MSCBC6},{Beni Suef},{10th Ramadan,Beni Suef,CAI5,Zahraa},,,
2015-12-16,2G,Canal,Red Sea North_Rural,BSCH07,16,20.51,{MSCBC1-MSCBC2-MSCBC3-MSCBC4-MSCBC5-MSCBC6},{Beni Suef},{10th Ramadan,Beni Suef,CAI5,Zahraa},,,
2015-12-16,2G,Upper Egypt,Qena_Rural,BSCH07,73,15.37,{MSCBC1-MSCBC2-MSCBC3-MSCBC4-MSCBC5-MSCBC6},{Beni Suef},{10th Ramadan,Beni Suef,CAI5,Zahraa},,,
2015-12-16,2G,Upper Egypt,Minia_Rural,BSCH07,41,9.21,{MSCBC1-MSCBC2-MSCBC3-MSCBC4-MSCBC5-MSCBC6},{Beni Suef},{10th Ramadan,Beni Suef,CAI5,Zahraa},,,
2015-12-16,2G,Upper Egypt,Fayoum_Rural,BSCH07,7,1.58,{MSCBC1-MSCBC2-MSCBC3-MSCBC4-MSCBC5-MSCBC6},{Beni Suef},{10th Ramadan,Beni Suef,CAI5,Zahraa},,,
2015-12-16,2G,Upper Egypt,Bani_Suef,BSCH07,92,100,{MSCBC1-MSCBC2-MSCBC3-MSCBC4-MSCBC5-MSCBC6},{Beni Suef},{10th Ramadan,Beni Suef,CAI5,Zahraa},,,
2015-12-16,2G,Upper Egypt,Bani Sweif_Rural,BSCH07,276,86.519997,{MSCBC1-MSCBC2-MSCBC3-MSCBC4-MSCBC5-MSCBC6},{Beni Suef},{10th Ramadan,Beni Suef,CAI5,Zahraa},,,
2015-12-16,2G,Upper Egypt,Bani Sweif_Rural,BSCH08,3,0.94,{MSCBC1-MSCBC2-MSCBC3-MSCBC4-MSCBC5-MSCBC6},{Beni Suef},{10th Ramadan,Beni Suef,CAI5,Zahraa},,,
2015-12-16,2G,Upper Egypt,Fayoum,BSCH08,117,100,{MSCBC1-MSCBC2-MSCBC3-MSCBC4-MSCBC5-MSCBC6},{Beni Suef},{10th Ramadan,Beni Suef,CAI5,Zahraa},,,
2015-12-16,2G,Upper Egypt,Fayoum_Rural,BSCH08,64,14.45,{MSCBC1-MSCBC2-MSCBC3-MSCBC4-MSCBC5-MSCBC6},{Beni Suef},{10th Ramadan,Beni Suef,CAI5,Zahraa},,,
2015-12-16,2G,Upper Egypt,Qena_Rural,BSCH08,63,13.26,{MSCBC1-MSCBC2-MSCBC3-MSCBC4-MSCBC5-MSCBC6},{Beni Suef},{10th Ramadan,Beni Suef,CAI5,Zahraa},,,
2015-12-16,2G,Upper Egypt,New Valley_Rural,BSCH08,40,23.809999,{MSCBC1-MSCBC2-MSCBC3-MSCBC4-MSCBC5-MSCBC6},{Beni Suef},{10th Ramadan,Beni Suef,CAI5,Zahraa},,,
2015-12-16,2G,Upper Egypt,Souhag_Rural,BSCH08,3,0.68000001,{MSCBC1-MSCBC2-MSCBC3-MSCBC4-MSCBC5-MSCBC6},{Beni Suef},{10th Ramadan,Beni Suef,CAI5,Zahraa},,,
2015-12-16,2G,Upper Egypt,Fayoum_Rural,BSCH09,145,32.73,{MSCBC1-MSCBC2-MSCBC3-MSCBC4-MSCBC5-MSCBC6},{Beni Suef},{10th Ramadan,Beni Suef,CAI5,Zahraa},,,
2015-12-16,2G,Canal,Red Sea North_Rural,BSCH09,2,2.5599999,{MSCBC1-MSCBC2-MSCBC3-MSCBC4-MSCBC5-MSCBC6},{Beni Suef},{10th Ramadan,Beni Suef,CAI5,Zahraa},,,
2015-12-16,2G,Canal,Hurghada,BSCH09,274,100,{MSCBC1-MSCBC2-MSCBC3-MSCBC4-MSCBC5-MSCBC6},{Beni Suef},{10th Ramadan,Beni Suef,CAI5,Zahraa},,,
2015-12-16,2G,Canal,El-Gouna,BSCH09,21,100,{MSCBC1-MSCBC2-MSCBC3-MSCBC4-MSCBC5-MSCBC6},{Beni Suef},{10th Ramadan,Beni Suef,CAI5,Zahraa},,,
2015-12-16,2G,Canal,Red Sea South_Rural,BSCH09,24,16.780001,{MSCBC1-MSCBC2-MSCBC3-MSCBC4-MSCBC5-MSCBC6},{Beni Suef},{10th Ramadan,Beni Suef,CAI5,Zahraa},,,
2015-12-16,2G,Canal,Safaga,BSCH09,18,100,{MSCBC1-MSCBC2-MSCBC3-MSCBC4-MSCBC5-MSCBC6},{Beni Suef},{10th Ramadan,Beni Suef,CAI5,Zahraa},,,
2015-12-16,2G,Canal,Sinai South_Rural,BSCH10,54,27.27,{MSCS50-MSCS51-MSCS52-MSCS53-MSCS54-MSCS55},{10th Ramadan},{10th Ramadan,Beni Suef},,,
2015-12-16,2G,Canal,Suez,BSCH10,160,100,{MSCS50-MSCS51-MSCS52-MSCS53-MSCS54-MSCS55},{10th Ramadan},{10th Ramadan,Beni Suef},,,
2015-12-16,2G,Canal,Suez Rural,BSCH10,13,100,{MSCS50-MSCS51-MSCS52-MSCS53-MSCS54-MSCS55},{10th Ramadan},{10th Ramadan,Beni Suef},,,
2015-12-16,2G,Canal,Taba,BSCH10,22,100,{MSCS50-MSCS51-MSCS52-MSCS53-MSCS54-MSCS55},{10th Ramadan},{10th Ramadan,Beni Suef},,,
2015-12-16,2G,Canal,Ismailia Rural,BSCH10,19,16.809999,{MSCS50-MSCS51-MSCS52-MSCS53-MSCS54-MSCS55},{10th Ramadan},{10th Ramadan,Beni Suef},,,
2015-12-16,2G,Canal,Nuweiba,BSCH10,10,100,{MSCS50-MSCS51-MSCS52-MSCS53-MSCS54-MSCS55},{10th Ramadan},{10th Ramadan,Beni Suef},,,
2015-12-16,2G,Canal,Portsaid Rural,BSCH11,38,88.370003,{MSCS50-MSCS51-MSCS52-MSCS53-MSCS54-MSCS55},{10th Ramadan},{10th Ramadan,Beni Suef},,,
2015-12-16,2G,Canal,Red Sea North_Rural,BSCH11,19,24.360001,{MSCS50-MSCS51-MSCS52-MSCS53-MSCS54-MSCS55},{10th Ramadan},{10th Ramadan,Beni Suef},,,
2015-12-16,2G,Canal,Dahab,BSCH11,22,100,{MSCS50-MSCS51-MSCS52-MSCS53-MSCS54-MSCS55},{10th Ramadan},{10th Ramadan,Beni Suef},,,
2015-12-16,2G,Canal,El-Sukhna,BSCH11,46,31.940001,{MSCS50-MSCS51-MSCS52-MSCS53-MSCS54-MSCS55},{10th Ramadan},{10th Ramadan,Beni Suef},,,
2015-12-16,2G,Canal,Ismailia Rural,BSCH11,14,12.39,{MSCS50-MSCS51-MSCS52-MSCS53-MSCS54-MSCS55},{10th Ramadan},{10th Ramadan,Beni Suef},,,
2015-12-16,2G,Canal,Sinai North_Rural,BSCH11,10,9.0100002,{MSCS50-MSCS51-MSCS52-MSCS53-MSCS54-MSCS55},{10th Ramadan},{10th Ramadan,Beni Suef},,,
2015-12-16,2G,Canal,Sinai South_Rural,BSCH11,99,50,{MSCS50-MSCS51-MSCS52-MSCS53-MSCS54-MSCS55},{10th Ramadan},{10th Ramadan,Beni Suef},,,
2015-12-16,2G,Canal,Sinai South_Rural,BSCH12,11,5.5599999,{MSCS50-MSCS51-MSCS52-MSCS53-MSCS54-MSCS55},{10th Ramadan},{10th Ramadan,Beni Suef},,,
2015-12-16,2G,Canal,Sharm El-Shiekh,BSCH12,216,100,{MSCS50-MSCS51-MSCS52-MSCS53-MSCS54-MSCS55},{10th Ramadan},{10th Ramadan,Beni Suef},,,
2015-12-16,2G,Canal,Ismailia,BSCH12,104,100,{MSCS50-MSCS51-MSCS52-MSCS53-MSCS54-MSCS55},{10th Ramadan},{10th Ramadan,Beni Suef},,,
2015-12-16,2G,Canal,Marsa Allam,BSCH13,16,100,{MSCS1-MSCS2-MSCS3-MSCS20-MSCS21-MSCS29-MSCS30},{Beni Suef},{HQ},,,
2015-12-16,2G,Canal,Red Sea South_Rural,BSCH13,61,42.66,{MSCS1-MSCS2-MSCS3-MSCS20-MSCS21-MSCS29-MSCS30},{Beni Suef},{HQ},,,
2015-12-16,2G,Upper Egypt,Asyut_Rural,BSCH13,92,21.15,{MSCS1-MSCS2-MSCS3-MSCS20-MSCS21-MSCS29-MSCS30},{Beni Suef},{HQ},,,
2015-12-16,2G,Upper Egypt,Minia_Rural,BSCH13,9,2.02,{MSCS1-MSCS2-MSCS3-MSCS20-MSCS21-MSCS29-MSCS30},{Beni Suef},{HQ},,,
2015-12-16,2G,Upper Egypt,Minya,BSCH13,93,100,{MSCS1-MSCS2-MSCS3-MSCS20-MSCS21-MSCS29-MSCS30},{Beni Suef},{HQ},,,
2015-12-16,2G,Upper Egypt,Qena_Rural,BSCH14,92,19.370001,{MSCBC1-MSCBC2-MSCBC3-MSCBC4-MSCBC5-MSCBC6},{Beni Suef},{10th Ramadan,Beni Suef,CAI5,Zahraa},,,
2015-12-16,2G,Upper Egypt,Minia_Rural,BSCH14,60,13.48,{MSCBC1-MSCBC2-MSCBC3-MSCBC4-MSCBC5-MSCBC6},{Beni Suef},{10th Ramadan,Beni Suef,CAI5,Zahraa},,,
2015-12-16,2G,Upper Egypt,Fayoum_Rural,BSCH14,124,27.99,{MSCBC1-MSCBC2-MSCBC3-MSCBC4-MSCBC5-MSCBC6},{Beni Suef},{10th Ramadan,Beni Suef,CAI5,Zahraa},,,
2015-12-16,2G,Upper Egypt,Souhag_Rural,BSCH14,15,3.3800001,{MSCBC1-MSCBC2-MSCBC3-MSCBC4-MSCBC5-MSCBC6},{Beni Suef},{10th Ramadan,Beni Suef,CAI5,Zahraa},,,
2015-12-16,2G,Upper Egypt,Bani Sweif_Rural,BSCH14,40,12.54,{MSCBC1-MSCBC2-MSCBC3-MSCBC4-MSCBC5-MSCBC6},{Beni Suef},{10th Ramadan,Beni Suef,CAI5,Zahraa},,,
2015-12-16,2G,Giza,Giza Outskirts,BSCH14,3,0.85000002,{MSCBC1-MSCBC2-MSCBC3-MSCBC4-MSCBC5-MSCBC6},{Beni Suef},{10th Ramadan,Beni Suef,CAI5,Zahraa},,,
2015-12-16,2G,Upper Egypt,Luxor,BSCH15,132,100,{MSCS1-MSCS2-MSCS3-MSCS20-MSCS21-MSCS29-MSCS30},{Beni Suef},{HQ},,,
2015-12-16,2G,Upper Egypt,Luxor_Rural,BSCH15,123,63.400002,{MSCS1-MSCS2-MSCS3-MSCS20-MSCS21-MSCS29-MSCS30},{Beni Suef},{HQ},,,
2015-12-16,2G,Upper Egypt,Qena_Rural,BSCH15,25,5.2600002,{MSCS1-MSCS2-MSCS3-MSCS20-MSCS21-MSCS29-MSCS30},{Beni Suef},{HQ},,,
2015-12-16,2G,Canal,Sinai North_Rural,BSCH16,93,83.779999,{MSCS50-MSCS51-MSCS52-MSCS53-MSCS54-MSCS55},{10th Ramadan},{10th Ramadan,Beni Suef},,,
2015-12-16,2G,Canal,Arish,BSCH16,52,100,{MSCS50-MSCS51-MSCS52-MSCS53-MSCS54-MSCS55},{10th Ramadan},{10th Ramadan,Beni Suef},,,
2015-12-16,2G,Alexandria,Alex Desert Road,BSCH17,48,12.77,{MSCS14-MSCS15-MSCS28-MSCS42-MSCS59-MSCS9},{Alex},{Alex},,,
2015-12-16,2G,Alexandria,North Coast East,BSCH17,202,48.439999,{MSCS14-MSCS15-MSCS28-MSCS42-MSCS59-MSCS9},{Alex},{Alex},,,
2015-12-16,2G,Alexandria,North Coast West,BSCH17,287,73.779999,{MSCS14-MSCS15-MSCS28-MSCS42-MSCS59-MSCS9},{Alex},{Alex},,,
2015-12-16,2G,Alexandria,North Coast East,BSCH18,1,0.23999999,{MSCS14-MSCS15-MSCS28-MSCS42-MSCS59-MSCS9},,{Alex},,,
2015-12-16,2G,Alexandria,Alex_3,BSCH19,22,6.1300001,{MSCS14-MSCS15-MSCS28-MSCS42-MSCS59-MSCS9},{Alex},{Alex},,,
2015-12-16,2G,Alexandria,Alex_4,BSCH19,200,100,{MSCS14-MSCS15-MSCS28-MSCS42-MSCS59-MSCS9},{Alex},{Alex},,,
2015-12-16,2G,Alexandria,North Coast East,BSCH19,194,46.52,{MSCS14-MSCS15-MSCS28-MSCS42-MSCS59-MSCS9},{Alex},{Alex},,,
2015-12-16,2G,Alexandria,Alex Desert Road,BSCH19,117,31.120001,{MSCS14-MSCS15-MSCS28-MSCS42-MSCS59-MSCS9},{Alex},{Alex},,,
2015-12-16,2G,Alexandria,Alex Desert Road,BSCH20,179,47.610001,{MSCS14-MSCS15-MSCS28-MSCS42-MSCS59-MSCS9},{Alex},{Alex},,,
2015-12-16,2G,Alexandria,North Coast West,BSCH20,102,26.219999,{MSCS14-MSCS15-MSCS28-MSCS42-MSCS59-MSCS9},{Alex},{Alex},,,
2015-12-16,2G,Alexandria,North Coast East,BSCH20,19,4.5599999,{MSCS14-MSCS15-MSCS28-MSCS42-MSCS59-MSCS9},{Alex},{Alex},,,
2015-12-16,2G,Delta,Beheira_Rural,BSCH20,3,0.22,{MSCS14-MSCS15-MSCS28-MSCS42-MSCS59-MSCS9},{Alex},{Alex},,,
2015-12-16,2G,Giza,Alex Desert Road (Giza),BSCH20,3,5,{MSCS14-MSCS15-MSCS28-MSCS42-MSCS59-MSCS9},{Alex},{Alex},,,
2015-12-16,2G,Upper Egypt,Qena_Rural,BSCH21,24,5.0500002,{MSCBC1-MSCBC2-MSCBC3-MSCBC4-MSCBC5-MSCBC6},{Beni Suef},{10th Ramadan,Beni Suef,CAI5,Zahraa},,,
2015-12-16,2G,Upper Egypt,Fayoum_Rural,BSCH21,28,6.3200002,{MSCBC1-MSCBC2-MSCBC3-MSCBC4-MSCBC5-MSCBC6},{Beni Suef},{10th Ramadan,Beni Suef,CAI5,Zahraa},,,
2015-12-16,2G,Upper Egypt,Souhag_Rural,BSCH21,257,57.880001,{MSCBC1-MSCBC2-MSCBC3-MSCBC4-MSCBC5-MSCBC6},{Beni Suef},{10th Ramadan,Beni Suef,CAI5,Zahraa},,,
2015-12-16,2G,Upper Egypt,Minia_Rural,BSCH22,116,26.07,{MSCBC1-MSCBC2-MSCBC3-MSCBC4-MSCBC5-MSCBC6},{Beni Suef},{10th Ramadan,Beni Suef,CAI5,Zahraa},,,
2015-12-16,2G,Upper Egypt,Fayoum_Rural,BSCH22,72,16.25,{MSCBC1-MSCBC2-MSCBC3-MSCBC4-MSCBC5-MSCBC6},{Beni Suef},{10th Ramadan,Beni Suef,CAI5,Zahraa},,,
2015-12-16,2G,Upper Egypt,Qena_Rural,BSCH22,60,12.63,{MSCBC1-MSCBC2-MSCBC3-MSCBC4-MSCBC5-MSCBC6},{Beni Suef},{10th Ramadan,Beni Suef,CAI5,Zahraa},,,
2015-12-16,2G,Upper Egypt,Asyut_Rural,BSCH22,45,10.34,{MSCBC1-MSCBC2-MSCBC3-MSCBC4-MSCBC5-MSCBC6},{Beni Suef},{10th Ramadan,Beni Suef,CAI5,Zahraa},,,
2015-12-16,2G,Canal,Sinai North_Rural,BSCH23,1,0.89999998,{MSCBC1-MSCBC2-MSCBC3-MSCBC4-MSCBC5-MSCBC6},{10th Ramadan},{10th Ramadan,Beni Suef,CAI5,Zahraa},,,
2015-12-16,2G,Cairo,10Th Of Ramadan,BSCH23,314,94.580002,{MSCBC1-MSCBC2-MSCBC3-MSCBC4-MSCBC5-MSCBC6},{10th Ramadan},{10th Ramadan,Beni Suef,CAI5,Zahraa},,,
2015-12-16,2G,Canal,Ismailia Rural,BSCH23,20,17.700001,{MSCBC1-MSCBC2-MSCBC3-MSCBC4-MSCBC5-MSCBC6},{10th Ramadan},{10th Ramadan,Beni Suef,CAI5,Zahraa},,,
2015-12-16,2G,Canal,Portsaid,BSCH23,123,100,{MSCBC1-MSCBC2-MSCBC3-MSCBC4-MSCBC5-MSCBC6},{10th Ramadan},{10th Ramadan,Beni Suef,CAI5,Zahraa},,,
2015-12-16,2G,Canal,Portsaid Rural,BSCH23,5,11.63,{MSCBC1-MSCBC2-MSCBC3-MSCBC4-MSCBC5-MSCBC6},{10th Ramadan},{10th Ramadan,Beni Suef,CAI5,Zahraa},,,
2015-12-16,2G,Cairo,Obour,BSCH24,6,2.45,{MSCBC1-MSCBC2-MSCBC3-MSCBC4-MSCBC5-MSCBC6},{CAI5},{10th Ramadan,Beni Suef,CAI5,Zahraa},,,
2015-12-16,2G,Cairo,1St Gathering,BSCH24,316,62.080002,{MSCBC1-MSCBC2-MSCBC3-MSCBC4-MSCBC5-MSCBC6},{CAI5},{10th Ramadan,Beni Suef,CAI5,Zahraa},,,
2015-12-16,2G,Cairo,5Th Gathering and Kattamya,BSCH24,109,32.439999,{MSCBC1-MSCBC2-MSCBC3-MSCBC4-MSCBC5-MSCBC6},{CAI5},{10th Ramadan,Beni Suef,CAI5,Zahraa},,,
2015-12-16,2G,Giza,Sahary Alahram,BSCH24,95,32.419998,{MSCBC1-MSCBC2-MSCBC3-MSCBC4-MSCBC5-MSCBC6},{CAI5},{10th Ramadan,Beni Suef,CAI5,Zahraa},,,
2015-12-16,2G,Giza,Sahary Alahram,BSCH25,126,43,{MSCBC1-MSCBC2-MSCBC3-MSCBC4-MSCBC5-MSCBC6},{HQ},{10th Ramadan,Beni Suef,CAI5,Zahraa},,,
2015-12-16,2G,Giza,October,BSCH25,455,83.949997,{MSCBC1-MSCBC2-MSCBC3-MSCBC4-MSCBC5-MSCBC6},{HQ},{10th Ramadan,Beni Suef,CAI5,Zahraa},,,
2015-12-16,2G,Giza,Mouhandseen,BSCH25,3,0.63999999,{MSCBC1-MSCBC2-MSCBC3-MSCBC4-MSCBC5-MSCBC6},{HQ},{10th Ramadan,Beni Suef,CAI5,Zahraa},,,
2015-12-16,2G,Upper Egypt,New Valley_Rural,BSCH25,30,17.860001,{MSCBC1-MSCBC2-MSCBC3-MSCBC4-MSCBC5-MSCBC6},{HQ},{10th Ramadan,Beni Suef,CAI5,Zahraa},,,
2015-12-16,2G,Upper Egypt,Fayoum_Rural,BSCH25,3,0.68000001,{MSCBC1-MSCBC2-MSCBC3-MSCBC4-MSCBC5-MSCBC6},{HQ},{10th Ramadan,Beni Suef,CAI5,Zahraa},,,
2015-12-16,2G,Alexandria,Alex Desert Road,BSCH25,4,1.0599999,{MSCBC1-MSCBC2-MSCBC3-MSCBC4-MSCBC5-MSCBC6},{HQ},{10th Ramadan,Beni Suef,CAI5,Zahraa},,,
2015-12-16,2G,Delta,Beheira_Rural,BSCH25,39,2.8299999,{MSCBC1-MSCBC2-MSCBC3-MSCBC4-MSCBC5-MSCBC6},{HQ},{10th Ramadan,Beni Suef,CAI5,Zahraa},,,
2015-12-16,2G,Delta,Damanhour,BSCH25,12,8.0500002,{MSCBC1-MSCBC2-MSCBC3-MSCBC4-MSCBC5-MSCBC6},{HQ},{10th Ramadan,Beni Suef,CAI5,Zahraa},,,
2015-12-16,2G,Cairo,1St Gathering,BSCH26,96,18.860001,{MSCBC1-MSCBC2-MSCBC3-MSCBC4-MSCBC5-MSCBC6},{CAI5},{10th Ramadan,Beni Suef,CAI5,Zahraa},,,
2015-12-16,2G,Cairo,5Th Gathering and Kattamya,BSCH26,226,67.260002,{MSCBC1-MSCBC2-MSCBC3-MSCBC4-MSCBC5-MSCBC6},{CAI5},{10th Ramadan,Beni Suef,CAI5,Zahraa},,,
2015-12-16,2G,Cairo,Nasr City,BSCH26,34,4.7199998,{MSCBC1-MSCBC2-MSCBC3-MSCBC4-MSCBC5-MSCBC6},{CAI5},{10th Ramadan,Beni Suef,CAI5,Zahraa},,,
2015-12-16,2G,Alexandria,Alex Desert Road,BSCH27,3,0.80000001,{MSCBC1-MSCBC2-MSCBC3-MSCBC4-MSCBC5-MSCBC6},{HQ},{10th Ramadan,Beni Suef,CAI5,Zahraa},,,
2015-12-16,2G,Giza,Kerdasa and Mansoraya,BSCH27,119,70.410004,{MSCBC1-MSCBC2-MSCBC3-