DATE_ID,NETWORK,Region,Sub_region,BSC_RNC,CELLs,CELLs%,MSCs,BSC_RNC_Switch_Location,MSC_Switch_Location  2015-07-27,2G,Delta,Damietta_Rural,BSC16,8,1 8200001,{MSCS26-MSCS27-MSCS38-MSCS39-MSCS40},,{CAI5}
2016-01-18,2G,Delta,Dakahleyya_Rural,BSC17,77,4.4299998,{MSCS11-MSCS12-MSCS13-MSCS24-MSCS33-MSCS34},{10th Ramadan},{10th Ramadan},,,
2016-01-18,2G,Delta,Gharbiya_Rural,BSC17,7,0.81,{MSCS11-MSCS12-MSCS13-MSCS24-MSCS33-MSCS34},{10th Ramadan},{10th Ramadan},,,
2016-01-18,2G,Delta,Mansoura,BSC17,22,5.3800001,{MSCS11-MSCS12-MSCS13-MSCS24-MSCS33-MSCS34},{10th Ramadan},{10th Ramadan},,,
2016-01-18,2G,Delta,Sharkeyya_Rural,BSC17,14,0.72000003,{MSCS11-MSCS12-MSCS13-MSCS24-MSCS33-MSCS34},{10th Ramadan},{10th Ramadan},,,
2016-01-18,2G,Delta,Kafr El Sheikh_Rural,BSC18,20,1.9400001,{MSCS14-MSCS15-MSCS28-MSCS42-MSCS59-MSCS9},{Alex},{Alex},,,
2016-01-18,2G,Delta,Beheira_Rural,BSC18,6,0.41,{MSCS14-MSCS15-MSCS28-MSCS42-MSCS59-MSCS9},{Alex},{Alex},,,
2016-01-18,2G,Alexandria,Alex_3,BSC18,2,0.54000002,{MSCS14-MSCS15-MSCS28-MSCS42-MSCS59-MSCS9},{Alex},{Alex},,,
2016-01-18,2G,Alexandria,Alex_1,BSC18,35,6.0999999,{MSCS14-MSCS15-MSCS28-MSCS42-MSCS59-MSCS9},{Alex},{Alex},,,
2016-01-18,2G,Delta,Mansoura,BSC19,152,37.16,{MSCS11-MSCS12-MSCS13-MSCS24-MSCS33-MSCS34},{10th Ramadan},{10th Ramadan},,,
2016-01-18,2G,Delta,Sharkeyya_Rural,BSC21,175,8.9700003,{MSCS11-MSCS12-MSCS13-MSCS24-MSCS33-MSCS34},{10th Ramadan},{10th Ramadan},,,
2016-01-18,2G,Delta,Dakahleyya_Rural,BSC22,64,3.6800001,{MSCBC2},{10th Ramadan},{10th Ramadan},,,
2016-01-18,2G,Delta,Sharkeyya_Rural,BSC22,71,3.6400001,{MSCBC2},{10th Ramadan},{10th Ramadan},,,
2016-01-18,2G,Delta,Sharkeyya_Rural,BSC24,7,0.36000001,{MSCS35-MSCS36-MSCS46-MSCS47-MSCS48-MSCS49-MSCS56},{HQ},{Beni Suef},,,
2016-01-18,2G,Delta,Dakahleyya_Rural,BSC24,14,0.81,{MSCS35-MSCS36-MSCS46-MSCS47-MSCS48-MSCS49-MSCS56},{HQ},{Beni Suef},,,
2016-01-18,2G,Delta,Gharbiya_Rural,BSC24,92,10.59,{MSCS35-MSCS36-MSCS46-MSCS47-MSCS48-MSCS49-MSCS56},{HQ},{Beni Suef},,,
2016-01-18,2G,Delta,Kafr El Sheikh_Rural,BSC24,53,5.1500001,{MSCS35-MSCS36-MSCS46-MSCS47-MSCS48-MSCS49-MSCS56},{HQ},{Beni Suef},,,
2016-01-18,2G,Delta,Damanhour,BSC25,123,82.550003,{MSCS35-MSCS36-MSCS46-MSCS47-MSCS48-MSCS49-MSCS56},{HQ},{Beni Suef},,,
2016-01-18,2G,Delta,Beheira_Rural,BSC25,6,0.41,{MSCS35-MSCS36-MSCS46-MSCS47-MSCS48-MSCS49-MSCS56},{HQ},{Beni Suef},,,
2016-01-18,2G,Alexandria,Alex_1,BSC31,340,59.23,{MSCS14-MSCS15-MSCS28-MSCS42-MSCS59-MSCS9},{Alex},{Alex},,,
2016-01-18,2G,Delta,Banha,BSC33,127,95.489998,{MSCS11-MSCS12-MSCS13-MSCS24-MSCS33-MSCS34},{10th Ramadan},{10th Ramadan},,,
2016-01-18,2G,Delta,Dakahleyya_Rural,BSC33,50,2.8800001,{MSCS11-MSCS12-MSCS13-MSCS24-MSCS33-MSCS34},{10th Ramadan},{10th Ramadan},,,
2016-01-18,2G,Delta,Qalyubiya_Rural,BSC33,22,2.78,{MSCS11-MSCS12-MSCS13-MSCS24-MSCS33-MSCS34},{10th Ramadan},{10th Ramadan},,,
2016-01-18,2G,Delta,Sharkeyya_Rural,BSC33,118,6.0500002,{MSCS11-MSCS12-MSCS13-MSCS24-MSCS33-MSCS34},{10th Ramadan},{10th Ramadan},,,
2016-01-18,2G,Delta,Gharbiya_Rural,BSC34,13,1.5,{MSCS11-MSCS12-MSCS13-MSCS24-MSCS33-MSCS34},{10th Ramadan},{10th Ramadan},,,
2016-01-18,2G,Delta,Dakahleyya_Rural,BSC34,115,6.6100001,{MSCS11-MSCS12-MSCS13-MSCS24-MSCS33-MSCS34},{10th Ramadan},{10th Ramadan},,,
2016-01-18,2G,Delta,Kafr El Sheikh_Rural,BSC35,6,0.57999998,{MSCS14-MSCS15-MSCS28-MSCS42-MSCS59-MSCS9},{Alex},{Alex},,,
2016-01-18,2G,Alexandria,Alex_2,BSC35,186,39.66,{MSCS14-MSCS15-MSCS28-MSCS42-MSCS59-MSCS9},{Alex},{Alex},,,
2016-01-18,2G,Alexandria,Alex Desert Road,BSC35,10,2.6500001,{MSCS14-MSCS15-MSCS28-MSCS42-MSCS59-MSCS9},{Alex},{Alex},,,
2016-01-18,2G,Alexandria,Alex_1,BSC35,184,32.060001,{MSCS14-MSCS15-MSCS28-MSCS42-MSCS59-MSCS9},{Alex},{Alex},,,
2016-01-18,2G,Alexandria,North Coast East,BSC36,1,0.23999999,{MSCS14-MSCS15-MSCS28-MSCS42-MSCS59-MSCS9},{Alex},{Alex},,,
2016-01-18,2G,Alexandria,Alex_1,BSC36,9,1.5700001,{MSCS14-MSCS15-MSCS28-MSCS42-MSCS59-MSCS9},{Alex},{Alex},,,
2016-01-18,2G,Alexandria,Alex_2,BSC36,175,37.310001,{MSCS14-MSCS15-MSCS28-MSCS42-MSCS59-MSCS9},{Alex},{Alex},,,
2016-01-18,2G,Alexandria,Alex_3,BSC36,174,46.900002,{MSCS14-MSCS15-MSCS28-MSCS42-MSCS59-MSCS9},{Alex},{Alex},,,
2016-01-18,2G,Delta,Monufeyya_Rural,BSC39,17,1.89,{MSCS18},{Zahraa},{Zahraa},,,
2016-01-18,2G,Delta,Gharbiya_Rural,BSC39,176,20.25,{MSCS18},{Zahraa},{Zahraa},,,
2016-01-18,2G,Delta,Sharkeyya_Rural,BSC40,33,1.6900001,{MSCS19},{Zahraa},{Zahraa},,,
2016-01-18,2G,Cairo,Matarya,BSC40,22,4.04,{MSCS19},{Zahraa},{Zahraa},,,
2016-01-18,2G,Cairo,Shubra El-Khima,BSC40,86,18.379999,{MSCS19},{Zahraa},{Zahraa},,,
2016-01-18,2G,Cairo,Zaitoun and Qubba,BSC40,43,22.870001,{MSCS19},{Zahraa},{Zahraa},,,
2016-01-18,2G,Cairo,Shubra El-Khima,BSC41,1,0.20999999,{MSCS35-MSCS36-MSCS46-MSCS47-MSCS48-MSCS49-MSCS56},{HQ},{Beni Suef},,,
2016-01-18,2G,Delta,Qalyubiya_Rural,BSC41,6,0.75999999,{MSCS35-MSCS36-MSCS46-MSCS47-MSCS48-MSCS49-MSCS56},{HQ},{Beni Suef},,,
2016-01-18,2G,Delta,Gharbiya_Rural,BSC41,103,11.85,{MSCS35-MSCS36-MSCS46-MSCS47-MSCS48-MSCS49-MSCS56},{HQ},{Beni Suef},,,
2016-01-18,2G,Delta,Damanhour,BSC41,6,4.0300002,{MSCS35-MSCS36-MSCS46-MSCS47-MSCS48-MSCS49-MSCS56},{HQ},{Beni Suef},,,
2016-01-18,2G,Delta,Beheira_Rural,BSC41,55,3.79,{MSCS35-MSCS36-MSCS46-MSCS47-MSCS48-MSCS49-MSCS56},{HQ},{Beni Suef},,,
2016-01-18,2G,Delta,Beheira_Rural,BSC42,6,0.41,{MSCS35-MSCS36-MSCS46-MSCS47-MSCS48-MSCS49-MSCS56},{HQ},{Beni Suef},,,
2016-01-18,2G,Delta,Dakahleyya_Rural,BSC42,10,0.57999998,{MSCS35-MSCS36-MSCS46-MSCS47-MSCS48-MSCS49-MSCS56},{HQ},{Beni Suef},,,
2016-01-18,2G,Delta,Gharbiya_Rural,BSC42,62,7.1300001,{MSCS35-MSCS36-MSCS46-MSCS47-MSCS48-MSCS49-MSCS56},{HQ},{Beni Suef},,,
2016-01-18,2G,Delta,Mahala,BSC42,169,84.080002,{MSCS35-MSCS36-MSCS46-MSCS47-MSCS48-MSCS49-MSCS56},{HQ},{Beni Suef},,,
2016-01-18,2G,Delta,Monufeyya_Rural,BSC42,6,0.67000002,{MSCS35-MSCS36-MSCS46-MSCS47-MSCS48-MSCS49-MSCS56},{HQ},{Beni Suef},,,
2016-01-18,2G,Delta,Kafr El Sheikh_Rural,BSC43,49,4.7600002,{MSCS22-MSCS23-MSCS25-MSCS57-MSCS58},{CAI5},{CAI5},,,
2016-01-18,2G,Delta,Kafr El Sheikh_Rural,BSC44,11,1.0700001,{MSCS22-MSCS23-MSCS25-MSCS57-MSCS58},{CAI5},{CAI5},,,
2016-01-18,2G,Delta,Dakahleyya_Rural,BSC44,97,5.5799999,{MSCS22-MSCS23-MSCS25-MSCS57-MSCS58},{CAI5},{CAI5},,,
2016-01-18,2G,Giza,Imbaba,BSC44,167,52.68,{MSCS22-MSCS23-MSCS25-MSCS57-MSCS58},{CAI5},{CAI5},,,
2016-01-18,2G,Giza,Mouhandseen,BSC44,3,0.63,{MSCS22-MSCS23-MSCS25-MSCS57-MSCS58},{CAI5},{CAI5},,,
2016-01-18,2G,Giza,Shubra and Imbaba Outskirts,BSC44,8,11.94,{MSCS22-MSCS23-MSCS25-MSCS57-MSCS58},{CAI5},{CAI5},,,
2016-01-18,2G,Delta,Mansoura,BSC45,170,41.560001,{MSCS11-MSCS12-MSCS13-MSCS24-MSCS33-MSCS34},{10th Ramadan},{10th Ramadan},,,
2016-01-18,2G,Delta,Dakahleyya_Rural,BSC46,8,0.46000001,{MSCS22-MSCS23-MSCS25-MSCS57-MSCS58},{CAI5},{CAI5},,,
2016-01-18,2G,Delta,Damietta_Rural,BSC46,102,21.290001,{MSCS22-MSCS23-MSCS25-MSCS57-MSCS58},{CAI5},{CAI5},,,
2016-01-18,2G,Giza,Mouhandseen,BSC46,71,15.01,{MSCS22-MSCS23-MSCS25-MSCS57-MSCS58},{CAI5},{CAI5},,,
2016-01-18,2G,Giza,October,BSC46,3,0.55000001,{MSCS22-MSCS23-MSCS25-MSCS57-MSCS58},{CAI5},{CAI5},,,
2016-01-18,2G,Giza,Imbaba,BSC46,18,5.6799998,{MSCS22-MSCS23-MSCS25-MSCS57-MSCS58},{CAI5},{CAI5},,,
2016-01-18,2G,Delta,Kafr El Sheikh_Rural,BSC47,42,4.0799999,{MSCS14-MSCS15-MSCS28-MSCS42-MSCS59-MSCS9},{Alex},{Alex},,,
2016-01-18,2G,Alexandria,Alex_2,BSC47,108,23.030001,{MSCS14-MSCS15-MSCS28-MSCS42-MSCS59-MSCS9},{Alex},{Alex},,,
2016-01-18,2G,Alexandria,Alex_3,BSC47,173,46.630001,{MSCS14-MSCS15-MSCS28-MSCS42-MSCS59-MSCS9},{Alex},{Alex},,,
2016-01-18,2G,Alexandria,Alex_1,BSC47,6,1.05,{MSCS14-MSCS15-MSCS28-MSCS42-MSCS59-MSCS9},{Alex},{Alex},,,
2016-01-18,2G,Alexandria,Alex Desert Road,BSC47,12,3.1700001,{MSCS14-MSCS15-MSCS28-MSCS42-MSCS59-MSCS9},{Alex},{Alex},,,
2016-01-18,2G,Delta,Monufeyya_Rural,BSC48,30,3.3399999,{MSCS35-MSCS36-MSCS46-MSCS47-MSCS48-MSCS49-MSCS56},{HQ},{Beni Suef},,,
2016-01-18,2G,Delta,Qalyubiya_Rural,BSC48,86,10.89,{MSCS35-MSCS36-MSCS46-MSCS47-MSCS48-MSCS49-MSCS56},{HQ},{Beni Suef},,,
2016-01-18,2G,Delta,Gharbiya_Rural,BSC48,6,0.69,{MSCS35-MSCS36-MSCS46-MSCS47-MSCS48-MSCS49-MSCS56},{HQ},{Beni Suef},,,
2016-01-18,2G,Delta,Beheira_Rural,BSC48,6,0.41,{MSCS35-MSCS36-MSCS46-MSCS47-MSCS48-MSCS49-MSCS56},{HQ},{Beni Suef},,,
2016-01-18,2G,Delta,Sharkeyya_Rural,BSC48,66,3.3800001,{MSCS35-MSCS36-MSCS46-MSCS47-MSCS48-MSCS49-MSCS56},{HQ},{Beni Suef},,,
2016-01-18,2G,Delta,Qalyubiya_Rural,BSC49,212,26.84,{MSCS35-MSCS36-MSCS46-MSCS47-MSCS48-MSCS49-MSCS56},{HQ},{Beni Suef},,,
2016-01-18,2G,Delta,Monufeyya_Rural,BSC49,97,10.8,{MSCS35-MSCS36-MSCS46-MSCS47-MSCS48-MSCS49-MSCS56},{HQ},{Beni Suef},,,
2016-01-18,2G,Delta,Sharkeyya_Rural,BSC51,176,9.0299997,{MSCS11-MSCS12-MSCS13-MSCS24-MSCS33-MSCS34},{10th Ramadan},{10th Ramadan},,,
2016-01-18,2G,Delta,Gharbiya_Rural,BSC51,30,3.45,{MSCS11-MSCS12-MSCS13-MSCS24-MSCS33-MSCS34},{10th Ramadan},{10th Ramadan},,,
2016-01-18,2G,Delta,Dakahleyya_Rural,BSC51,43,2.47,{MSCS11-MSCS12-MSCS13-MSCS24-MSCS33-MSCS34},{10th Ramadan},{10th Ramadan},,,
2016-01-18,2G,Delta,Gharbiya_Rural,BSC52,14,1.61,{MSCS11-MSCS12-MSCS13-MSCS24-MSCS33-MSCS34},{10th Ramadan},{10th Ramadan},,,
2016-01-18,2G,Delta,Kafr El Sheikh_Rural,BSC52,131,12.73,{MSCS11-MSCS12-MSCS13-MSCS24-MSCS33-MSCS34},{10th Ramadan},{10th Ramadan},,,
2016-01-18,2G,Delta,Kafr El Sheikh_Rural,BSC53,35,3.4000001,{MSCS35-MSCS36-MSCS46-MSCS47-MSCS48-MSCS49-MSCS56},{HQ},{Beni Suef},,,
2016-01-18,2G,Delta,Sharkeyya_Rural,BSC53,11,0.56,{MSCS35-MSCS36-MSCS46-MSCS47-MSCS48-MSCS49-MSCS56},{HQ},{Beni Suef},,,
2016-01-18,2G,Delta,Dakahleyya_Rural,BSC53,111,6.3800001,{MSCS35-MSCS36-MSCS46-MSCS47-MSCS48-MSCS49-MSCS56},{HQ},{Beni Suef},,,
2016-01-18,2G,Delta,Gharbiya_Rural,BSC53,12,1.38,{MSCS35-MSCS36-MSCS46-MSCS47-MSCS48-MSCS49-MSCS56},{HQ},{Beni Suef},,,
2016-01-18,2G,Delta,Beheira_Rural,BSC53,48,3.3099999,{MSCS35-MSCS36-MSCS46-MSCS47-MSCS48-MSCS49-MSCS56},{HQ},{Beni Suef},,,
2016-01-18,2G,Delta,Dakahleyya_Rural,BSC56,42,2.4200001,{MSCS22-MSCS23-MSCS25-MSCS57-MSCS58},{CAI5},{CAI5},,,
2016-01-18,2G,Delta,Sharkeyya_Rural,BSC56,6,0.31,{MSCS22-MSCS23-MSCS25-MSCS57-MSCS58},{CAI5},{CAI5},,,
2016-01-18,2G,Delta,Kafr El Sheikh_Rural,BSC56,109,10.59,{MSCS22-MSCS23-MSCS25-MSCS57-MSCS58},{CAI5},{CAI5},,,
2016-01-18,2G,Delta,Kafr El Sheikh_Rural,BSC57,27,2.6199999,{MSCBC1-MSCBC2-MSCBC3-MSCBC4-MSCBC5-MSCBC6},{CAI5},{10th Ramadan,Beni Suef,CAI5,Zahraa},,,
2016-01-18,2G,Delta,Qalyubiya_Rural,BSC57,88,11.14,{MSCBC1-MSCBC2-MSCBC3-MSCBC4-MSCBC5-MSCBC6},{CAI5},{10th Ramadan,Beni Suef,CAI5,Zahraa},,,
2016-01-18,2G,Cairo,Airport,BSC57,6,10.53,{MSCBC1-MSCBC2-MSCBC3-MSCBC4-MSCBC5-MSCBC6},{CAI5},{10th Ramadan,Beni Suef,CAI5,Zahraa},,,
2016-01-18,2G,Cairo,Alsalam,BSC57,115,43.73,{MSCBC1-MSCBC2-MSCBC3-MSCBC4-MSCBC5-MSCBC6},{CAI5},{10th Ramadan,Beni Suef,CAI5,Zahraa},,,
2016-01-18,2G,Cairo,Matarya,BSC57,54,9.9099998,{MSCBC1-MSCBC2-MSCBC3-MSCBC4-MSCBC5-MSCBC6},{CAI5},{10th Ramadan,Beni Suef,CAI5,Zahraa},,,
2016-01-18,2G,Cairo,Nasr City,BSC57,4,0.56,{MSCBC1-MSCBC2-MSCBC3-MSCBC4-MSCBC5-MSCBC6},{CAI5},{10th Ramadan,Beni Suef,CAI5,Zahraa},,,
2016-01-18,2G,Cairo,Moukattam,BSC58,30,11.49,{MSCBC1-MSCBC2-MSCBC3-MSCBC4-MSCBC5-MSCBC6},{Zahraa},{10th Ramadan,Beni Suef,CAI5,Zahraa},,,
2016-01-18,2G,Cairo,Shubra,BSC58,4,2.23,{MSCBC1-MSCBC2-MSCBC3-MSCBC4-MSCBC5-MSCBC6},{Zahraa},{10th Ramadan,Beni Suef,CAI5,Zahraa},,,
2016-01-18,2G,Cairo,Shubra El-Khima,BSC58,1,0.20999999,{MSCBC1-MSCBC2-MSCBC3-MSCBC4-MSCBC5-MSCBC6},{Zahraa},{10th Ramadan,Beni Suef,CAI5,Zahraa},,,
2016-01-18,2G,Cairo,Zamalek,BSC58,23,24.209999,{MSCBC1-MSCBC2-MSCBC3-MSCBC4-MSCBC5-MSCBC6},{Zahraa},{10th Ramadan,Beni Suef,CAI5,Zahraa},,,
2016-01-18,2G,Cairo,Down Town and Manyal,BSC58,432,66.669998,{MSCBC1-MSCBC2-MSCBC3-MSCBC4-MSCBC5-MSCBC6},{Zahraa},{10th Ramadan,Beni Suef,CAI5,Zahraa},,,
2016-01-18,2G,Cairo,Abbassyia,BSC58,19,13.57,{MSCBC1-MSCBC2-MSCBC3-MSCBC4-MSCBC5-MSCBC6},{Zahraa},{10th Ramadan,Beni Suef,CAI5,Zahraa},,,
2016-01-18,2G,Delta,Monufeyya_Rural,BSC58,112,12.47,{MSCBC1-MSCBC2-MSCBC3-MSCBC4-MSCBC5-MSCBC6},{Zahraa},{10th Ramadan,Beni Suef,CAI5,Zahraa},,,
2016-01-18,2G,Delta,Gharbiya_Rural,BSC58,24,2.76,{MSCBC1-MSCBC2-MSCBC3-MSCBC4-MSCBC5-MSCBC6},{Zahraa},{10th Ramadan,Beni Suef,CAI5,Zahraa},,,
2016-01-18,2G,Giza,Mouhandseen,BSC58,4,0.85000002,{MSCBC1-MSCBC2-MSCBC3-MSCBC4-MSCBC5-MSCBC6},{Zahraa},{10th Ramadan,Beni Suef,CAI5,Zahraa},,,
2016-01-18,2G,Giza,Imbaba,BSC59,15,4.73,{MSCBC1-MSCBC2-MSCBC3-MSCBC4-MSCBC5-MSCBC6},{Zahraa},{10th Ramadan,Beni Suef,CAI5,Zahraa},,,
2016-01-18,2G,Delta,Beheira_Rural,BSC59,157,10.83,{MSCBC1-MSCBC2-MSCBC3-MSCBC4-MSCBC5-MSCBC6},{Zahraa},{10th Ramadan,Beni Suef,CAI5,Zahraa},,,
2016-01-18,2G,Cairo,Abbassyia,BSC59,1,0.70999998,{MSCBC1-MSCBC2-MSCBC3-MSCBC4-MSCBC5-MSCBC6},{Zahraa},{10th Ramadan,Beni Suef,CAI5,Zahraa},,,
2016-01-18,2G,Cairo,Helwan,BSC59,6,1.45,{MSCBC1-MSCBC2-MSCBC3-MSCBC4-MSCBC5-MSCBC6},{Zahraa},{10th Ramadan,Beni Suef,CAI5,Zahraa},,,
2016-01-18,2G,Cairo,Down Town and Manyal,BSC59,106,16.360001,{MSCBC1-MSCBC2-MSCBC3-MSCBC4-MSCBC5-MSCBC6},{Zahraa},{10th Ramadan,Beni Suef,CAI5,Zahraa},,,
2016-01-18,2G,Cairo,Zamalek,BSC59,72,75.790001,{MSCBC1-MSCBC2-MSCBC3-MSCBC4-MSCBC5-MSCBC6},{Zahraa},{10th Ramadan,Beni Suef,CAI5,Zahraa},,,
2016-01-18,2G,Cairo,Shubra El-Khima,BSC59,18,3.8499999,{MSCBC1-MSCBC2-MSCBC3-MSCBC4-MSCBC5-MSCBC6},{Zahraa},{10th Ramadan,Beni Suef,CAI5,Zahraa},,,
2016-01-18,2G,Cairo,Shubra,BSC59,132,73.739998,{MSCBC1-MSCBC2-MSCBC3-MSCBC4-MSCBC5-MSCBC6},{Zahraa},{10th Ramadan,Beni Suef,CAI5,Zahraa},,,
2016-01-18,2G,Cairo,Matarya,BSC60,148,27.16,{MSCBC1-MSCBC2-MSCBC3-MSCBC4-MSCBC5-MSCBC6},{Zahraa},{10th Ramadan,Beni Suef,CAI5,Zahraa},,,
2016-01-18,2G,Cairo,Ain Shams,BSC60,64,33.509998,{MSCBC1-MSCBC2-MSCBC3-MSCBC4-MSCBC5-MSCBC6},{Zahraa},{10th Ramadan,Beni Suef,CAI5,Zahraa},,,
2016-01-18,2G,Cairo,Down Town and Manyal,BSC60,110,16.98,{MSCBC1-MSCBC2-MSCBC3-MSCBC4-MSCBC5-MSCBC6},{Zahraa},{10th Ramadan,Beni Suef,CAI5,Zahraa},,,
2016-01-18,2G,Delta,Dakahleyya_Rural,BSC60,79,4.54,{MSCBC1-MSCBC2-MSCBC3-MSCBC4-MSCBC5-MSCBC6},{Zahraa},{10th Ramadan,Beni Suef,CAI5,Zahraa},,,
2016-01-18,2G,Delta,Gharbiya_Rural,BSC60,33,3.8,{MSCBC1-MSCBC2-MSCBC3-MSCBC4-MSCBC5-MSCBC6},{Zahraa},{10th Ramadan,Beni Suef,CAI5,Zahraa},,,
2016-01-18,2G,Delta,Damyata,BSC61,149,100,{MSCBC1-MSCBC2-MSCBC3-MSCBC4-MSCBC5-MSCBC6},{CAI5},{10th Ramadan,Beni Suef,CAI5,Zahraa},,,
2016-01-18,2G,Delta,Damietta_Rural,BSC61,137,28.6,{MSCBC1-MSCBC2-MSCBC3-MSCBC4-MSCBC5-MSCBC6},{CAI5},{10th Ramadan,Beni Suef,CAI5,Zahraa},,,
2016-01-18,2G,Delta,Kafr El Sheikh_Rural,BSC61,8,0.77999997,{MSCBC1-MSCBC2-MSCBC3-MSCBC4-MSCBC5-MSCBC6},{CAI5},{10th Ramadan,Beni Suef,CAI5,Zahraa},,,
2016-01-18,2G,Giza,Kerdasa and Mansoraya,BSC61,22,13.02,{MSCBC1-MSCBC2-MSCBC3-MSCBC4-MSCBC5-MSCBC6},{CAI5},{10th Ramadan,Beni Suef,CAI5,Zahraa},,,
2016-01-18,2G,Giza,Boulaq,BSC61,4,1.35,{MSCBC1-MSCBC2-MSCBC3-MSCBC4-MSCBC5-MSCBC6},{CAI5},{10th Ramadan,Beni Suef,CAI5,Zahraa},,,
2016-01-18,2G,Upper Egypt,New Valley_Rural,BSC61,1,0.57999998,{MSCBC1-MSCBC2-MSCBC3-MSCBC4-MSCBC5-MSCBC6},{CAI5},{10th Ramadan,Beni Suef,CAI5,Zahraa},,,
2016-01-18,2G,Delta,Dakahleyya_Rural,BSC62,169,9.7200003,{MSCBC1-MSCBC2-MSCBC3-MSCBC4-MSCBC5-MSCBC6},{CAI5},{10th Ramadan,Beni Suef,CAI5,Zahraa},,,
2016-01-18,2G,Delta,Gharbiya_Rural,BSC63,15,1.73,{MSCBC1-MSCBC2-MSCBC3-MSCBC4-MSCBC5-MSCBC6},{Mokattam},{10th Ramadan,Beni Suef,CAI5,Zahraa},,,
2016-01-18,2G,Delta,Kafr El Sheikh_Rural,BSC63,29,2.8199999,{MSCBC1-MSCBC2-MSCBC3-MSCBC4-MSCBC5-MSCBC6},{Mokattam},{10th Ramadan,Beni Suef,CAI5,Zahraa},,,
2016-01-18,2G,Delta,Qalyubiya_Rural,BSC63,9,1.14,{MSCBC1-MSCBC2-MSCBC3-MSCBC4-MSCBC5-MSCBC6},{Mokattam},{10th Ramadan,Beni Suef,CAI5,Zahraa},,,
2016-01-18,2G,Cairo,Dar El Salam,BSC63,30,14.22,{MSCBC1-MSCBC2-MSCBC3-MSCBC4-MSCBC5-MSCBC6},{Mokattam},{10th Ramadan,Beni Suef,CAI5,Zahraa},,,
2016-01-18,2G,Cairo,Maadi,BSC63,15,4.23,{MSCBC1-MSCBC2-MSCBC3-MSCBC4-MSCBC5-MSCBC6},{Mokattam},{10th Ramadan,Beni Suef,CAI5,Zahraa},,,
2016-01-18,2G,Cairo,Hadabah Wostah,BSC63,114,86.360001,{MSCBC1-MSCBC2-MSCBC3-MSCBC4-MSCBC5-MSCBC6},{Mokattam},{10th Ramadan,Beni Suef,CAI5,Zahraa},,,
2016-01-18,2G,Cairo,Nasr City,BSC63,279,39.130001,{MSCBC1-MSCBC2-MSCBC3-MSCBC4-MSCBC5-MSCBC6},{Mokattam},{10th Ramadan,Beni Suef,CAI5,Zahraa},,,
2016-01-18,2G,Cairo,Moukattam,BSC63,191,73.18,{MSCBC1-MSCBC2-MSCBC3-MSCBC4-MSCBC5-MSCBC6},{Mokattam},{10th Ramadan,Beni Suef,CAI5,Zahraa},,,
2016-01-18,2G,Cairo,Shubra,BSC64,24,13.41,{MSCBC1-MSCBC2-MSCBC3-MSCBC4-MSCBC5-MSCBC6},{Zahraa},{10th Ramadan,Beni Suef,CAI5,Zahraa},,,
2016-01-18,2G,Cairo,Shubra El-Khima,BSC64,12,2.5599999,{MSCBC1-MSCBC2-MSCBC3-MSCBC4-MSCBC5-MSCBC6},{Zahraa},{10th Ramadan,Beni Suef,CAI5,Zahraa},,,
2016-01-18,2G,Cairo,Zaitoun and Qubba,BSC64,55,29.26,{MSCBC1-MSCBC2-MSCBC3-MSCBC4-MSCBC5-MSCBC6},{Zahraa},{10th Ramadan,Beni Suef,CAI5,Zahraa},,,
2016-01-18,2G,Cairo,Matarya,BSC64,24,4.4000001,{MSCBC1-MSCBC2-MSCBC3-MSCBC4-MSCBC5-MSCBC6},{Zahraa},{10th Ramadan,Beni Suef,CAI5,Zahraa},,,
2016-01-18,2G,Cairo,Alsalam,BSC64,6,2.28,{MSCBC1-MSCBC2-MSCBC3-MSCBC4-MSCBC5-MSCBC6},{Zahraa},{10th Ramadan,Beni Suef,CAI5,Zahraa},,,
2016-01-18,2G,Cairo,Ain Shams,BSC64,15,7.8499999,{MSCBC1-MSCBC2-MSCBC3-MSCBC4-MSCBC5-MSCBC6},{Zahraa},{10th Ramadan,Beni Suef,CAI5,Zahraa},,,
2016-01-18,2G,Cairo,Abbassyia,BSC64,7,5,{MSCBC1-MSCBC2-MSCBC3-MSCBC4-MSCBC5-MSCBC6},{Zahraa},{10th Ramadan,Beni Suef,CAI5,Zahraa},,,
2016-01-18,2G,Delta,Gharbiya_Rural,BSC64,61,7.02,{MSCBC1-MSCBC2-MSCBC3-MSCBC4-MSCBC5-MSCBC6},{Zahraa},{10th Ramadan,Beni Suef,CAI5,Zahraa},,,
2016-01-18,2G,Delta,Beheira_Rural,BSC64,51,3.52,{MSCBC1-MSCBC2-MSCBC3-MSCBC4-MSCBC5-MSCBC6},{Zahraa},{10th Ramadan,Beni Suef,CAI5,Zahraa},,,
2016-01-18,2G,Delta,Dakahleyya_Rural,BSC65,4,0.23,{MSCBC1-MSCBC2-MSCBC3-MSCBC4-MSCBC5-MSCBC6},{Zahraa},{10th Ramadan,Beni Suef,CAI5,Zahraa},,,
2016-01-18,2G,Delta,Sharkeyya_Rural,BSC65,362,18.559999,{MSCBC1-MSCBC2-MSCBC3-MSCBC4-MSCBC5-MSCBC6},{Zahraa},{10th Ramadan,Beni Suef,CAI5,Zahraa},,,
2016-01-18,2G,Cairo,Abbassyia,BSC65,10,7.1399999,{MSCBC1-MSCBC2-MSCBC3-MSCBC4-MSCBC5-MSCBC6},{Zahraa},{10th Ramadan,Beni Suef,CAI5,Zahraa},,,
2016-01-18,2G,Delta,Monufeyya_Rural,BSC66,182,20.27,{MSCBC1-MSCBC2-MSCBC3-MSCBC4-MSCBC5-MSCBC6},{Zahraa},{10th Ramadan,Beni Suef,CAI5,Zahraa},,,
2016-01-18,2G,Delta,Shibin,BSC66,153,100,{MSCBC1-MSCBC2-MSCBC3-MSCBC4-MSCBC5-MSCBC6},{Zahraa},{10th Ramadan,Beni Suef,CAI5,Zahraa},,,
2016-01-18,2G,Giza,Imbaba,BSC67,72,22.709999,{MSCBC1-MSCBC2-MSCBC3-MSCBC4-MSCBC5-MSCBC6},{CAI5},{10th Ramadan,Beni Suef,CAI5,Zahraa},,,
2016-01-18,2G,Delta,Kafr El Sheikh_Rural,BSC67,163,15.84,{MSCBC1-MSCBC2-MSCBC3-MSCBC4-MSCBC5-MSCBC6},{CAI5},{10th Ramadan,Beni Suef,CAI5,Zahraa},,,
2016-01-18,2G,Delta,Dakahleyya_Rural,BSC67,64,3.6800001,{MSCBC1-MSCBC2-MSCBC3-MSCBC4-MSCBC5-MSCBC6},{CAI5},{10th Ramadan,Beni Suef,CAI5,Zahraa},,,
2016-01-18,2G,Delta,Damietta_Rural,BSC67,41,8.5600004,{MSCBC1-MSCBC2-MSCBC3-MSCBC4-MSCBC5-MSCBC6},{CAI5},{10th Ramadan,Beni Suef,CAI5,Zahraa},,,
2016-01-18,2G,Delta,Gharbiya_Rural,BSC68,22,2.53,{MSCBC1-MSCBC2-MSCBC3-MSCBC4-MSCBC5-MSCBC6},{HQ},{10th Ramadan,Beni Suef,CAI5,Zahraa},,,
2016-01-18,2G,Delta,Beheira_Rural,BSC68,4,0.28,{MSCBC1-MSCBC2-MSCBC3-MSCBC4-MSCBC5-MSCBC6},{HQ},{10th Ramadan,Beni Suef,CAI5,Zahraa},,,
2016-01-18,2G,Delta,Kafr El Sheikh_Rural,BSC68,96,9.3299999,{MSCBC1-MSCBC2-MSCBC3-MSCBC4-MSCBC5-MSCBC6},{HQ},{10th Ramadan,Beni Suef,CAI5,Zahraa},,,
2016-01-18,2G,Delta,Kafr El-Shikh,BSC68,103,100,{MSCBC1-MSCBC2-MSCBC3-MSCBC4-MSCBC5-MSCBC6},{HQ},{10th Ramadan,Beni Suef,CAI5,Zahraa},,,
2016-01-18,2G,Delta,Monufeyya_Rural,BSC68,59,6.5700002,{MSCBC1-MSCBC2-MSCBC3-MSCBC4-MSCBC5-MSCBC6},{HQ},{10th Ramadan,Beni Suef,CAI5,Zahraa},,,
2016-01-18,2G,Delta,Qalyubiya_Rural,BSC68,26,3.29,{MSCBC1-MSCBC2-MSCBC3-MSCBC4-MSCBC5-MSCBC6},{HQ},{10th Ramadan,Beni Suef,CAI5,Zahraa},,,
2016-01-18,2G,Delta,Dakahleyya_Rural,BSC69,207,11.9,{MSCBC1-MSCBC2-MSCBC3-MSCBC4-MSCBC5-MSCBC6},{CAI5},{10th Ramadan,Beni Suef,CAI5,Zahraa},,,
2016-01-18,2G,Delta,Damietta_Rural,BSC69,15,3.1300001,{MSCBC1-MSCBC2-MSCBC3-MSCBC4-MSCBC5-MSCBC6},{CAI5},{10th Ramadan,Beni Suef,CAI5,Zahraa},,,
2016-01-18,2G,Cairo,5Th Gathering and Kattamya,BSC69,1,0.25,{MSCBC1-MSCBC2-MSCBC3-MSCBC4-MSCBC5-MSCBC6},{CAI5},{10th Ramadan,Beni Suef,CAI5,Zahraa},,,
2016-01-18,2G,Delta,Damietta_Rural,BSC70,10,2.0899999,{MSCBC1-MSCBC2-MSCBC3-MSCBC4-MSCBC5-MSCBC6},{CAI5},{10th Ramadan,Beni Suef,CAI5,Zahraa},,,
2016-01-18,2G,Delta,Dakahleyya_Rural,BSC70,76,4.3699999,{MSCBC1-MSCBC2-MSCBC3-MSCBC4-MSCBC5-MSCBC6},{CAI5},{10th Ramadan,Beni Suef,CAI5,Zahraa},,,
2016-01-18,2G,Delta,Sharkeyya_Rural,BSC70,38,1.95,{MSCBC1-MSCBC2-MSCBC3-MSCBC4-MSCBC5-MSCBC6},{CAI5},{10th Ramadan,Beni Suef,CAI5,Zahraa},,,
2016-01-18,2G,Delta,Monufeyya_Rural,BSC70,6,0.67000002,{MSCBC1-MSCBC2-MSCBC3-MSCBC4-MSCBC5-MSCBC6},{CAI5},{10th Ramadan,Beni Suef,CAI5,Zahraa},,,
2016-01-18,2G,Delta,Kafr El Sheikh_Rural,BSC70,105,10.2,{MSCBC1-MSCBC2-MSCBC3-MSCBC4-MSCBC5-MSCBC6},{CAI5},{10th Ramadan,Beni Suef,CAI5,Zahraa},,,
2016-01-18,2G,Delta,Kafr El Sheikh_Rural,BSC71,68,6.6100001,{MSCBC1-MSCBC2-MSCBC3-MSCBC4-MSCBC5-MSCBC6},{CAI5},{10th Ramadan,Beni Suef,CAI5,Zahraa},,,
2016-01-18,2G,Delta,Beheira_Rural,BSC71,39,2.6900001,{MSCBC1-MSCBC2-MSCBC3-MSCBC4-MSCBC5-MSCBC6},{CAI5},{10th Ramadan,Beni Suef,CAI5,Zahraa},,,
2016-01-18,2G,Delta,Beheira_Rural,BSC72,33,2.28,{MSCBC1-MSCBC2-MSCBC3-MSCBC4-MSCBC5-MSCBC6},{Mokattam},{10th Ramadan,Beni Suef,CAI5,Zahraa},,,
2016-01-18,2G,Delta,Gharbiya_Rural,BSC72,22,2.53,{MSCBC1-MSCBC2-MSCBC3-MSCBC4-MSCBC5-MSCBC6},{Mokattam},{10th Ramadan,Beni Suef,CAI5,Zahraa},,,
2016-01-18,2G,Cairo,Alsalam,BSC72,142,53.990002,{MSCBC1-MSCBC2-MSCBC3-MSCBC4-MSCBC5-MSCBC6},{Mokattam},{10th Ramadan,Beni Suef,CAI5,Zahraa},,,
2016-01-18,2G,Cairo,Ain Shams,BSC72,111,58.119999,{MSCBC1-MSCBC2-MSCBC3-MSCBC4-MSCBC5-MSCBC6},{Mokattam},{10th Ramadan,Beni Suef,CAI5,Zahraa},,,
2016-01-18,2G,Cairo,Matarya,BSC72,35,6.4200001,{MSCBC1-MSCBC2-MSCBC3-MSCBC4-MSCBC5-MSCBC6},{Mokattam},{10th Ramadan,Beni Suef,CAI5,Zahraa},,,
2016-01-18,2G,Cairo,Heliopolis and Nozha,BSC72,83,17.4,{MSCBC1-MSCBC2-MSCBC3-MSCBC4-MSCBC5-MSCBC6},{Mokattam},{10th Ramadan,Beni Suef,CAI5,Zahraa},,,
2016-01-18,2G,Delta,Monufeyya_Rural,BSC73,163,18.15,{MSCBC1-MSCBC2-MSCBC3-MSCBC4-MSCBC5-MSCBC6},{HQ},{10th Ramadan,Beni Suef,CAI5,Zahraa},,,
2016-01-18,2G,Delta,Beheira_Rural,BSC73,72,4.9699998,{MSCBC1-MSCBC2-MSCBC3-MSCBC4-MSCBC5-MSCBC6},{HQ},{10th Ramadan,Beni Suef,CAI5,Zahraa},,,
2016-01-18,2G,Delta,Dakahleyya_Rural,BSC73,37,2.1300001,{MSCBC1-MSCBC2-MSCBC3-MSCBC4-MSCBC5-MSCBC6},{HQ},{10th Ramadan,Beni Suef,CAI5,Zahraa},,,
2016-01-18,2G,Delta,Gharbiya_Rural,BSC73,55,6.3299999,{MSCBC1-MSCBC2-MSCBC3-MSCBC4-MSCBC5-MSCBC6},{HQ},{10th Ramadan,Beni Suef,CAI5,Zahraa},,,
2016-01-18,2G,Delta,Qalyubiya_Rural,BSC73,29,3.6700001,{MSCBC1-MSCBC2-MSCBC3-MSCBC4-MSCBC5-MSCBC6},{HQ},{10th Ramadan,Beni Suef,CAI5,Zahraa},,,
2016-01-18,2G,Delta,Sharkeyya_Rural,BSC73,73,3.74,{MSCBC1-MSCBC2-MSCBC3-MSCBC4-MSCBC5-MSCBC6},{HQ},{10th Ramadan,Beni Suef,CAI5,Zahraa},,,
2016-01-18,2G,Delta,Dakahleyya_Rural,BSC74,192,11.04,{MSCBC1-MSCBC2-MSCBC3-MSCBC4-MSCBC5-MSCBC6},{10th Ramadan},{10th Ramadan,Beni Suef,CAI5,Zahraa},,,
2016-01-18,2G,Delta,Sharkeyya_Rural,BSC74,108,5.54,{MSCBC1-MSCBC2-MSCBC3-MSCBC4-MSCBC5-MSCBC6},{10th Ramadan},{10th Ramadan,Beni Suef,CAI5,Zahraa},,,
2016-01-18,2G,Delta,Qalyubiya_Rural,BSC74,6,0.75999999,{MSCBC1-MSCBC2-MSCBC3-MSCBC4-MSCBC5-MSCBC6},{10th Ramadan},{10th Ramadan,Beni Suef,CAI5,Zahraa},,,
2016-01-18,2G,Delta,Gharbiya_Rural,BSC74,6,0.69,{MSCBC1-MSCBC2-MSCBC3-MSCBC4-MSCBC5-MSCBC6},{10th Ramadan},{10th Ramadan,Beni Suef,CAI5,Zahraa},,,
2016-01-18,2G,Delta,Kafr El Sheikh_Rural,BSC74,53,5.1500001,{MSCBC1-MSCBC2-MSCBC3-MSCBC4-MSCBC5-MSCBC6},{10th Ramadan},{10th Ramadan,Beni Suef,CAI5,Zahraa},,,
2016-01-18,2G,Delta,Mansoura,BSC74,14,3.4200001,{MSCBC1-MSCBC2-MSCBC3-MSCBC4-MSCBC5-MSCBC6},{10th Ramadan},{10th Ramadan,Beni Suef,CAI5,Zahraa},,,
2016-01-18,2G,Delta,Mansoura,BSC75,27,6.5999999,{MSCBC1-MSCBC2-MSCBC3-MSCBC4-MSCBC5-MSCBC6},{10th Ramadan},{10th Ramadan,Beni Suef,CAI5,Zahraa},,,
2016-01-18,2G,Delta,Sharkeyya_Rural,BSC75,224,11.49,{MSCBC1-MSCBC2-MSCBC3-MSCBC4-MSCBC5-MSCBC6},{10th Ramadan},{10th Ramadan,Beni Suef,CAI5,Zahraa},,,
2016-01-18,2G,Delta,Qalyubiya_Rural,BSC75,12,1.52,{MSCBC1-MSCBC2-MSCBC3-MSCBC4-MSCBC5-MSCBC6},{10th Ramadan},{10th Ramadan,Beni Suef,CAI5,Zahraa},,,
2016-01-18,2G,Delta,Monufeyya_Rural,BSC75,6,0.67000002,{MSCBC1-MSCBC2-MSCBC3-MSCBC4-MSCBC5-MSCBC6},{10th Ramadan},{10th Ramadan,Beni Suef,CAI5,Zahraa},,,
2016-01-18,2G,Delta,Dakahleyya_Rural,BSC75,161,9.2600002,{MSCBC1-MSCBC2-MSCBC3-MSCBC4-MSCBC5-MSCBC6},{10th Ramadan},{10th Ramadan,Beni Suef,CAI5,Zahraa},,,
2016-01-18,2G,Cairo,Matarya,BSC76,9,1.65,{MSCBC1-MSCBC2-MSCBC3-MSCBC4-MSCBC5-MSCBC6},{Mokattam},{10th Ramadan,Beni Suef,CAI5,Zahraa},,,
2016-01-18,2G,Cairo,Abbassyia,BSC76,87,62.139999,{MSCBC1-MSCBC2-MSCBC3-MSCBC4-MSCBC5-MSCBC6},{Mokattam},{10th Ramadan,Beni Suef,CAI5,Zahraa},,,
2016-01-18,2G,Cairo,Zaitoun and Qubba,BSC76,14,7.4499998,{MSCBC1-MSCBC2-MSCBC3-MSCBC4-MSCBC5-MSCBC6},{Mokattam},{10th Ramadan,Beni Suef,CAI5,Zahraa},,,
2016-01-18,2G,Cairo,Nasr City,BSC76,32,4.4899998,{MSCBC1-MSCBC2-MSCBC3-MSCBC4-MSCBC5-MSCBC6},{Mokattam},{10th Ramadan,Beni Suef,CAI5,Zahraa},,,
2016-01-18,2G,Cairo,Matarya,BSC77,99,18.17,{MSCBC1-MSCBC2-MSCBC3-MSCBC4-MSCBC5-MSCBC6},{Mokattam},{10th Ramadan,Beni Suef,CAI5,Zahraa},,,
2016-01-18,2G,Cairo,Shubra El-Khima,BSC77,73,15.6,{MSCBC1-MSCBC2-MSCBC3-MSCBC4-MSCBC5-MSCBC6},{Mokattam},{10th Ramadan,Beni Suef,CAI5,Zahraa},,,
2016-01-18,2G,Delta,Dakahleyya_Rural,BSC78,41,2.3599999,{MSCBC1-MSCBC2-MSCBC3-MSCBC4-MSCBC5-MSCBC6},{CAI5},{10th Ramadan,Beni Suef,CAI5,Zahraa},,,
2016-01-18,2G,Delta,Damietta_Rural,BSC78,52,10.86,{MSCBC1-MSCBC2-MSCBC3-MSCBC4-MSCBC5-MSCBC6},{CAI5},{10th Ramadan,Beni Suef,CAI5,Zahraa},,,
2016-01-18,2G,Giza,Boulaq,BSC78,271,91.550003,{MSCBC1-MSCBC2-MSCBC3-MSCBC4-MSCBC5-MSCBC6},{CAI5},{10th Ramadan,Beni Suef,CAI5,Zahraa},,,
2016-01-18,2G,Giza,Mouhandseen,BSC78,380,80.339996,{MSCBC1-MSCBC2-MSCBC3-MSCBC4-MSCBC5-MSCBC6},{CAI5},{10th Ramadan,Beni Suef,CAI5,Zahraa},,,
2016-01-18,2G,Delta,Damanhour,BSC79,8,5.3699999,{MSCBC1-MSCBC2-MSCBC3-MSCBC4-MSCBC5-MSCBC6},{HQ},{10th Ramadan,Beni Suef,CAI5,Zahraa},,,
2016-01-18,2G,Delta,Beheira_Rural,BSC79,135,9.3100004,{MSCBC1-MSCBC2-MSCBC3-MSCBC4-MSCBC5-MSCBC6},{HQ},{10th Ramadan,Beni Suef,CAI5,Zahraa},,,
2016-01-18,2G,Delta,Qalyubiya_Rural,BSC79,111,14.05,{MSCBC1-MSCBC2-MSCBC3-MSCBC4-MSCBC5-MSCBC6},{HQ},{10th Ramadan,Beni Suef,CAI5,Zahraa},,,
2016-01-18,2G,Delta,Monufeyya_Rural,BSC79,92,10.24,{MSCBC1-MSCBC2-MSCBC3-MSCBC4-MSCBC5-MSCBC6},{HQ},{10th Ramadan,Beni Suef,CAI5,Zahraa},,,
2016-01-18,2G,Delta,Monufeyya_Rural,BSC80,20,2.23,{MSCBC1-MSCBC2-MSCBC3-MSCBC4-MSCBC5-MSCBC6},{Zahraa},{10th Ramadan,Beni Suef,CAI5,Zahraa},,,
2016-01-18,2G,Delta,Gharbiya_Rural,BSC80,116,13.35,{MSCBC1-MSCBC2-MSCBC3-MSCBC4-MSCBC5-MSCBC6},{Zahraa},{10th Ramadan,Beni Suef,CAI5,Zahraa},,,
2016-01-18,2G,Cairo,Shubra El-Khima,BSC80,169,36.110001,{MSCBC1-MSCBC2-MSCBC3-MSCBC4-MSCBC5-MSCBC6},{Zahraa},{10th Ramadan,Beni Suef,CAI5,Zahraa},,,
2016-01-18,2G,Cairo,Shubra,BSC80,16,8.9399996,{MSCBC1-MSCBC2-MSCBC3-MSCBC4-MSCBC5-MSCBC6},{Zahraa},{10th Ramadan,Beni Suef,CAI5,Zahraa},,,
2016-01-18,2G,Delta,Tanta,BSC80,185,100,{MSCBC1-MSCBC2-MSCBC3-MSCBC4-MSCBC5-MSCBC6},{Zahraa},{10th Ramadan,Beni Suef,CAI5,Zahraa},,,
2016-01-18,2G,Cairo,Nasr City,BSC81,274,38.43,{MSCBC1-MSCBC2-MSCBC3-MSCBC4-MSCBC5-MSCBC6},{Mokattam},{10th Ramadan,Beni Suef,CAI5,Zahraa},,,
2016-01-18,2G,Cairo,Zaitoun and Qubba,BSC81,54,28.719999,{MSCBC1-MSCBC2-MSCBC3-MSCBC4-MSCBC5-MSCBC6},{Mokattam},{10th Ramadan,Beni Suef,CAI5,Zahraa},,,
2016-01-18,2G,Cairo,Ain Shams,BSC81,1,0.51999998,{MSCBC1-MSCBC2-MSCBC3-MSCBC4-MSCBC5-MSCBC6},{Mokattam},{10th Ramadan,Beni Suef,CAI5,Zahraa},,,
2016-01-18,2G,Cairo,Airport,BSC81,51,89.470001,{MSCBC1-MSCBC2-MSCBC3-MSCBC4-MSCBC5-MSCBC6},{Mokattam},{10th Ramadan,Beni Suef,CAI5,Zahraa},,,
2016-01-18,2G,Cairo,Heliopolis and Nozha,BSC81,353,74,{MSCBC1-MSCBC2-MSCBC3-MSCBC4-MSCBC5-MSCBC6},{Mokattam},{10th Ramadan,Beni Suef,CAI5,Zahraa},,,
2016-01-18,2G,Cairo,Heliopolis and Nozha,BSC82,41,8.6000004,{MSCBC1-MSCBC2-MSCBC3-MSCBC4-MSCBC5-MSCBC6},{Zahraa},{10th Ramadan,Beni Suef,CAI5,Zahraa},,,
2016-01-18,2G,Cairo,Hadabah Wostah,BSC82,18,13.64,{MSCBC1-MSCBC2-MSCBC3-MSCBC4-MSCBC5-MSCBC6},{Zahraa},{10th Ramadan,Beni Suef,CAI5,Zahraa},,,
2016-01-18,2G,Cairo,Maadi,BSC82,232,65.349998,{MSCBC1-MSCBC2-MSCBC3-MSCBC4-MSCBC5-MSCBC6},{Zahraa},{10th Ramadan,Beni Suef,CAI5,Zahraa},,,
2016-01-18,2G,Cairo,Abbassyia,BSC82,16,11.43,{MSCBC1-MSCBC2-MSCBC3-MSCBC4-MSCBC5-MSCBC6},{Zahraa},{10th Ramadan,Beni Suef,CAI5,Zahraa},,,
2016-01-18,2G,Cairo,Dar El Salam,BSC82,181,85.779999,{MSCBC1-MSCBC2-MSCBC3-MSCBC4-MSCBC5-MSCBC6},{Zahraa},{10th Ramadan,Beni Suef,CAI5,Zahraa},,,
2016-01-18,2G,Cairo,Zaitoun and Qubba,BSC82,22,11.7,{MSCBC1-MSCBC2-MSCBC3-MSCBC4-MSCBC5-MSCBC6},{Zahraa},{10th Ramadan,Beni Suef,CAI5,Zahraa},,,
2016-01-18,2G,Cairo,Matarya,BSC82,6,1.1,{MSCBC1-MSCBC2-MSCBC3-MSCBC4-MSCBC5-MSCBC6},{Zahraa},{10th Ramadan,Beni Suef,CAI5,Zahraa},,,
2016-01-18,2G,Cairo,Moukattam,BSC82,40,15.33,{MSCBC1-MSCBC2-MSCBC3-MSCBC4-MSCBC5-MSCBC6},{Zahraa},{10th Ramadan,Beni Suef,CAI5,Zahraa},,,
2016-01-18,2G,Cairo,Nasr City,BSC82,90,12.62,{MSCBC1-MSCBC2-MSCBC3-MSCBC4-MSCBC5-MSCBC6},{Zahraa},{10th Ramadan,Beni Suef,CAI5,Zahraa},,,
2016-01-18,2G,Delta,Beheira_Rural,BSC82,1,0.07,{MSCBC1-MSCBC2-MSCBC3-MSCBC4-MSCBC5-MSCBC6},{Zahraa},{10th Ramadan,Beni Suef,CAI5,Zahraa},,,
2016-01-18,2G,Giza,Giza Outskirts,BSC82,62,17.610001,{MSCBC1-MSCBC2-MSCBC3-MSCBC4-MSCBC5-MSCBC6},{Zahraa},{10th Ramadan,Beni Suef,CAI5,Zahraa},,,
2016-01-18,2G,Giza,Haram,BSC82,91,9.8900003,{MSCBC1-MSCBC2-MSCBC3-MSCBC4-MSCBC5-MSCBC6},{Zahraa},{10th Ramadan,Beni Suef,CAI5,Zahraa},,,
2016-01-18,2G,Giza,Haram,BSC83,829,90.110001,{MSCBC1-MSCBC2-MSCBC3-MSCBC4-MSCBC5-MSCBC6},{CAI5},{10th Ramadan,Beni Suef,CAI5,Zahraa},,,
2016-01-18,2G,Giza,Kerdasa and Mansoraya,BSC83,22,13.02,{MSCBC1-MSCBC2-MSCBC3-MSCBC4-MSCBC5-MSCBC6},{CAI5},{10th Ramadan,Beni Suef,CAI5,Zahraa},,,
2016-01-18,2G,Giza,Giza Outskirts,BSC83,19,5.4000001,{MSCBC1-MSCBC2-MSCBC3-MSCBC4-MSCBC5-MSCBC6},{CAI5},{10th Ramadan,Beni Suef,CAI5,Zahraa},,,
2016-01-18,2G,Delta,Beheira_Rural,BSC84,6,0.41,{MSCBC1-MSCBC2-MSCBC3-MSCBC4-MSCBC5-MSCBC6},{10th Ramadan},{10th Ramadan,Beni Suef,CAI5,Zahraa},,,
2016-01-18,2G,Delta,Banha,BSC84,6,4.5100002,{MSCBC1-MSCBC2-MSCBC3-MSCBC4-MSCBC5-MSCBC6},{10th Ramadan},{10th Ramadan,Beni Suef,CAI5,Zahraa},,,
2016-01-18,2G,Delta,Kafr El Sheikh_Rural,BSC84,24,2.3299999,{MSCBC1-MSCBC2-MSCBC3-MSCBC4-MSCBC5-MSCBC6},{10th Ramadan},{10th Ramadan,Beni Suef,CAI5,Zahraa},,,
2016-01-18,2G,Delta,Monufeyya_Rural,BSC84,108,12.03,{MSCBC1-MSCBC2-MSCBC3-MSCBC4-MSCBC5-MSCBC6},{10th Ramadan},{10th Ramadan,Beni Suef,CAI5,Zahraa},,,
2016-01-18,2G,Delta,Qalyubiya_Rural,BSC84,12,1.52,{MSCBC1-MSCBC2-MSCBC3-MSCBC4-MSCBC5-MSCBC6},{10th Ramadan},{10th Ramadan,Beni Suef,CAI5,Zahraa},,,
2016-01-18,2G,Alexandria,Alex Desert Road,BSC84,3,0.79000002,{MSCBC1-MSCBC2-MSCBC3-MSCBC4-MSCBC5-MSCBC6},{10th Ramadan},{10th Ramadan,Beni Suef,CAI5,Zahraa},,,
2016-01-18,2G,Delta,Sharkeyya_Rural,BSC85,468,24,{MSCBC1-MSCBC2-MSCBC3-MSCBC4-MSCBC5-MSCBC6},{10th Ramadan},{10th Ramadan,Beni Suef,CAI5,Zahraa},,,
2016-01-18,2G,Delta,Mansoura,BSC85,24,5.8699999,{MSCBC1-MSCBC2-MSCBC3-MSCBC4-MSCBC5-MSCBC6},{10th Ramadan},{10th Ramadan,Beni Suef,CAI5,Zahraa},,,
2016-01-18,2G,Delta,Zagazig,BSC85,203,100,{MSCBC1-MSCBC2-MSCBC3-MSCBC4-MSCBC5-MSCBC6},{10th Ramadan},{10th Ramadan,Beni Suef,CAI5,Zahraa},,,
2016-01-18,2G,Giza,Shubra and Imbaba Outskirts,BSC86,59,88.059998,{MSCBC1-MSCBC2-MSCBC3-MSCBC4-MSCBC5-MSCBC6},{HQ},{10th Ramadan,Beni Suef,CAI5,Zahraa},,,
2016-01-18,2G,Delta,Qalyubiya_Rural,BSC86,171,21.65,{MSCBC1-MSCBC2-MSCBC3-MSCBC4-MSCBC5-MSCBC6},{HQ},{10th Ramadan,Beni Suef,CAI5,Zahraa},,,
2016-01-18,2G,Delta,Mahala,BSC86,32,15.92,{MSCBC1-MSCBC2-MSCBC3-MSCBC4-MSCBC5-MSCBC6},{HQ},{10th Ramadan,Beni Suef,CAI5,Zahraa},,,
2016-01-18,2G,Cairo,Matarya,BSC86,148,27.16,{MSCBC1-MSCBC2-MSCBC3-MSCBC4-MSCBC5-MSCBC6},{HQ},{10th Ramadan,Beni Suef,CAI5,Zahraa},,,
2016-01-18,2G,Cairo,Shubra,BSC86,3,1.6799999,{MSCBC1-MSCBC2-MSCBC3-MSCBC4-MSCBC5-MSCBC6},{HQ},{10th Ramadan,Beni Suef,CAI5,Zahraa},,,
2016-01-18,2G,Cairo,Shubra El-Khima,BSC86,108,23.08,{MSCBC1-MSCBC2-MSCBC3-MSCBC4-MSCBC5-MSCBC6},{HQ},{10th Ramadan,Beni Suef,CAI5,Zahraa},,,
2016-01-18,2G,Delta,Damietta_Rural,BSC87,122,25.469999,{MSCBC1-MSCBC2-MSCBC3-MSCBC4-MSCBC5-MSCBC6},{CAI5},{10th Ramadan,Beni Suef,CAI5,Zahraa},,,
2016-01-18,2G,Delta,Dakahleyya_Rural,BSC87,78,4.4899998,{MSCBC1-MSCBC2-MSCBC3-MSCBC4-MSCBC5-MSCBC6},{CAI5},{10th Ramadan,Beni Suef,CAI5,Zahraa},,,
2016-01-18,2G,Giza,Boulaq,BSC87,21,7.0900002,{MSCBC1-MSCBC2-MSCBC3-MSCBC4-MSCBC5-MSCBC6},{CAI5},{10th Ramadan,Beni Suef,CAI5,Zahraa},,,
2016-01-18,2G,Giza,Kerdasa and Mansoraya,BSC87,3,1.78,{MSCBC1-MSCBC2-MSCBC3-MSCBC4-MSCBC5-MSCBC6},{CAI5},{10th Ramadan,Beni Suef,CAI5,Zahraa},,,
2016-01-18,2G,Giza,Mouhandseen,BSC87,12,2.54,{MSCBC1-MSCBC2-MSCBC3-MSCBC4-MSCBC5-MSCBC6},{CAI5},{10th Ramadan,Beni Suef,CAI5,Zahraa},,,
2016-01-18,2G,Giza,Imbaba,BSC87,45,14.2,{MSCBC1-MSCBC2-MSCBC3-MSCBC4-MSCBC5-MSCBC6},{CAI5},{10th Ramadan,Beni Suef,CAI5,Zahraa},,,
2016-01-18,2G,Upper Egypt,Aswan_Rural,BSCH01,10,2.8199999,{MSCBC1-MSCBC2-MSCBC3-MSCBC4-MSCBC5-MSCBC6},{Beni Suef},{10th Ramadan,Beni Suef,CAI5,Zahraa},,,
2016-01-18,2G,Upper Egypt,Asyut_Rural,BSCH01,40,9.1300001,{MSCBC1-MSCBC2-MSCBC3-MSCBC4-MSCBC5-MSCBC6},{Beni Suef},{10th Ramadan,Beni Suef,CAI5,Zahraa},,,
2016-01-18,2G,Upper Egypt,Sohag,BSCH01,72,100,{MSCBC1-MSCBC2-MSCBC3-MSCBC4-MSCBC5-MSCBC6},{Beni Suef},{10th Ramadan,Beni Suef,CAI5,Zahraa},,,
2016-01-18,2G,Upper Egypt,Souhag_Rural,BSCH01,116,25.66,{MSCBC1-MSCBC2-MSCBC3-MSCBC4-MSCBC5-MSCBC6},{Beni Suef},{10th Ramadan,Beni Suef,CAI5,Zahraa},,,
2016-01-18,2G,Canal,El-Sukhna,BSCH01,100,68.489998,{MSCBC1-MSCBC2-MSCBC3-MSCBC4-MSCBC5-MSCBC6},{Beni Suef},{10th Ramadan,Beni Suef,CAI5,Zahraa},,,
2016-01-18,2G,Canal,Red Sea North_Rural,BSCH01,23,25,{MSCBC1-MSCBC2-MSCBC3-MSCBC4-MSCBC5-MSCBC6},{Beni Suef},{10th Ramadan,Beni Suef,CAI5,Zahraa},,,
2016-01-18,2G,Canal,Red Sea South_Rural,BSCH01,16,11.19,{MSCBC1-MSCBC2-MSCBC3-MSCBC4-MSCBC5-MSCBC6},{Beni Suef},{10th Ramadan,Beni Suef,CAI5,Zahraa},,,
2016-01-18,2G,Canal,Red Sea North_Rural,BSCH02,2,2.1700001,{MSCBC1-MSCBC2-MSCBC3-MSCBC4-MSCBC5-MSCBC6},{Beni Suef},{10th Ramadan,Beni Suef,CAI5,Zahraa},,,
2016-01-18,2G,Canal,Red Sea South_Rural,BSCH02,9,6.29,{MSCBC1-MSCBC2-MSCBC3-MSCBC4-MSCBC5-MSCBC6},{Beni Suef},{10th Ramadan,Beni Suef,CAI5,Zahraa},,,
2016-01-18,2G,Upper Egypt,Souhag_Rural,BSCH02,39,8.6300001,{MSCBC1-MSCBC2-MSCBC3-MSCBC4-MSCBC5-MSCBC6},{Beni Suef},{10th Ramadan,Beni Suef,CAI5,Zahraa},,,
2016-01-18,2G,Upper Egypt,Qena_Rural,BSCH02,37,7.79,{MSCBC1-MSCBC2-MSCBC3-MSCBC4-MSCBC5-MSCBC6},{Beni Suef},{10th Ramadan,Beni Suef,CAI5,Zahraa},,,
2016-01-18,2G,Upper Egypt,New Valley,BSCH02,17,100,{MSCBC1-MSCBC2-MSCBC3-MSCBC4-MSCBC5-MSCBC6},{Beni Suef},{10th Ramadan,Beni Suef,CAI5,Zahraa},,,
2016-01-18,2G,Upper Egypt,New Valley_Rural,BSCH02,97,56.400002,{MSCBC1-MSCBC2-MSCBC3-MSCBC4-MSCBC5-MSCBC6},{Beni Suef},{10th Ramadan,Beni Suef,CAI5,Zahraa},,,
2016-01-18,2G,Upper Egypt,Asyut_Rural,BSCH02,126,28.77,{MSCBC1-MSCBC2-MSCBC3-MSCBC4-MSCBC5-MSCBC6},{Beni Suef},{10th Ramadan,Beni Suef,CAI5,Zahraa},,,
2016-01-18,2G,Upper Egypt,Aswan_Rural,BSCH02,64,18.030001,{MSCBC1-MSCBC2-MSCBC3-MSCBC4-MSCBC5-MSCBC6},{Beni Suef},{10th Ramadan,Beni Suef,CAI5,Zahraa},,,
2016-01-18,2G,Upper Egypt,Asyut_Rural,BSCH03,31,7.0799999,{MSCBC1-MSCBC2-MSCBC3-MSCBC4-MSCBC5-MSCBC6},{Beni Suef},{10th Ramadan,Beni Suef,CAI5,Zahraa},,,
2016-01-18,2G,Upper Egypt,Aswan_Rural,BSCH03,71,20,{MSCBC1-MSCBC2-MSCBC3-MSCBC4-MSCBC5-MSCBC6},{Beni Suef},{10th Ramadan,Beni Suef,CAI5,Zahraa},,,
2016-01-18,2G,Upper Egypt,Minia_Rural,BSCH03,10,2.21,{MSCBC1-MSCBC2-MSCBC3-MSCBC4-MSCBC5-MSCBC6},{Beni Suef},{10th Ramadan,Beni Suef,CAI5,Zahraa},,,
2016-01-18,2G,Upper Egypt,Qena_Rural,BSCH03,63,13.26,{MSCBC1-MSCBC2-MSCBC3-MSCBC4-MSCBC5-MSCBC6},{Beni Suef},{10th Ramadan,Beni Suef,CAI5,Zahraa},,,
2016-01-18,2G,Upper Egypt,Quina,BSCH03,69,100,{MSCBC1-MSCBC2-MSCBC3-MSCBC4-MSCBC5-MSCBC6},{Beni Suef},{10th Ramadan,Beni Suef,CAI5,Zahraa},,,
2016-01-18,2G,Upper Egypt,Souhag_Rural,BSCH04,18,3.98,{MSCBC1-MSCBC2-MSCBC3-MSCBC4-MSCBC5-MSCBC6},{Beni Suef},{10th Ramadan,Beni Suef,CAI5,Zahraa},,,
2016-01-18,2G,Upper Egypt,Luxor_Rural,BSCH04,71,36.599998,{MSCBC1-MSCBC2-MSCBC3-MSCBC4-MSCBC5-MSCBC6},{Beni Suef},{10th Ramadan,Beni Suef,CAI5,Zahraa},,,
2016-01-18,2G,Upper Egypt,Asyut_Rural,BSCH04,97,22.15,{MSCBC1-MSCBC2-MSCBC3-MSCBC4-MSCBC5-MSCBC6},{Beni Suef},{10th Ramadan,Beni Suef,CAI5,Zahraa},,,
2016-01-18,2G,Upper Egypt,Aswan_Rural,BSCH04,210,59.150002,{MSCBC1-MSCBC2-MSCBC3-MSCBC4-MSCBC5-MSCBC6},{Beni Suef},{10th Ramadan,Beni Suef,CAI5,Zahraa},,,
2016-01-18,2G,Upper Egypt,Aswan,BSCH04,98,100,{MSCBC1-MSCBC2-MSCBC3-MSCBC4-MSCBC5-MSCBC6},{Beni Suef},{10th Ramadan,Beni Suef,CAI5,Zahraa},,,
2016-01-18,2G,Upper Egypt,Asyut,BSCH05,122,100,{MSCBC1-MSCBC2-MSCBC3-MSCBC4-MSCBC5-MSCBC6},{Beni Suef},{10th Ramadan,Beni Suef,CAI5,Zahraa},,,
2016-01-18,2G,Upper Egypt,Asyut_Rural,BSCH05,4,0.91000003,{MSCBC1-MSCBC2-MSCBC3-MSCBC4-MSCBC5-MSCBC6},{Beni Suef},{10th Ramadan,Beni Suef,CAI5,Zahraa},,,
2016-01-18,2G,Upper Egypt,Minia_Rural,BSCH06,210,46.459999,{MSCS1-MSCS2-MSCS3-MSCS20-MSCS21-MSCS29-MSCS30},{Beni Suef},{HQ},,,
2016-01-18,2G,Canal,Red Sea South_Rural,BSCH06,33,23.08,{MSCS1-MSCS2-MSCS3-MSCS20-MSCS21-MSCS29-MSCS30},{Beni Suef},{HQ},,,
2016-01-18,2G,Canal,Red Sea North_Rural,BSCH06,16,17.389999,{MSCS1-MSCS2-MSCS3-MSCS20-MSCS21-MSCS29-MSCS30},{Beni Suef},{HQ},,,
2016-01-18,2G,Canal,El-Qosseir,BSCH06,14,100,{MSCS1-MSCS2-MSCS3-MSCS20-MSCS21-MSCS29-MSCS30},{Beni Suef},{HQ},,,
2016-01-18,2G,Canal,Ras Ghareb,BSCH06,18,47.369999,{MSCS1-MSCS2-MSCS3-MSCS20-MSCS21-MSCS29-MSCS30},{Beni Suef},{HQ},,,
2016-01-18,2G,Canal,Ras Ghareb,BSCH07,20,52.630001,{MSCBC1-MSCBC2-MSCBC3-MSCBC4-MSCBC5-MSCBC6},{Beni Suef},{10th Ramadan,Beni Suef,CAI5,Zahraa},,,
2016-01-18,2G,Canal,Red Sea North_Rural,BSCH07,16,17.389999,{MSCBC1-MSCBC2-MSCBC3-MSCBC4-MSCBC5-MSCBC6},{Beni Suef},{10th Ramadan,Beni Suef,CAI5,Zahraa},,,
2016-01-18,2G,Upper Egypt,Minia_Rural,BSCH07,41,9.0699997,{MSCBC1-MSCBC2-MSCBC3-MSCBC4-MSCBC5-MSCBC6},{Beni Suef},{10th Ramadan,Beni Suef,CAI5,Zahraa},,,
2016-01-18,2G,Upper Egypt,Bani Sweif_Rural,BSCH07,280,86.690002,{MSCBC1-MSCBC2-MSCBC3-MSCBC4-MSCBC5-MSCBC6},{Beni Suef},{10th Ramadan,Beni Suef,CAI5,Zahraa},,,
2016-01-18,2G,Upper Egypt,Bani_Suef,BSCH07,95,100,{MSCBC1-MSCBC2-MSCBC3-MSCBC4-MSCBC5-MSCBC6},{Beni Suef},{10th Ramadan,Beni Suef,CAI5,Zahraa},,,
2016-01-18,2G,Upper Egypt,Fayoum_Rural,BSCH07,7,1.58,{MSCBC1-MSCBC2-MSCBC3-MSCBC4-MSCBC5-MSCBC6},{Beni Suef},{10th Ramadan,Beni Suef,CAI5,Zahraa},,,
2016-01-18,2G,Upper Egypt,Fayoum,BSCH08,117,100,{MSCBC1-MSCBC2-MSCBC3-MSCBC4-MSCBC5-MSCBC6},{Beni Suef},{10th Ramadan,Beni Suef,CAI5,Zahraa},,,
2016-01-18,2G,Upper Egypt,Bani Sweif_Rural,BSCH08,3,0.93000001,{MSCBC1-MSCBC2-MSCBC3-MSCBC4-MSCBC5-MSCBC6},{Beni Suef},{10th Ramadan,Beni Suef,CAI5,Zahraa},,,
2016-01-18,2G,Upper Egypt,Fayoum_Rural,BSCH08,64,14.45,{MSCBC1-MSCBC2-MSCBC3-MSCBC4-MSCBC5-MSCBC6},{Beni Suef},{10th Ramadan,Beni Suef,CAI5,Zahraa},,,
2016-01-18,2G,Upper Egypt,New Valley_Rural,BSCH08,44,25.58,{MSCBC1-MSCBC2-MSCBC3-MSCBC4-MSCBC5-MSCBC6},{Beni Suef},{10th Ramadan,Beni Suef,CAI5,Zahraa},,,
2016-01-18,2G,Upper Egypt,Qena_Rural,BSCH08,4,0.83999997,{MSCBC1-MSCBC2-MSCBC3-MSCBC4-MSCBC5-MSCBC6},{Beni Suef},{10th Ramadan,Beni Suef,CAI5,Zahraa},,,
2016-01-18,2G,Upper Egypt,Fayoum_Rural,BSCH09,145,32.73,{MSCBC1-MSCBC2-MSCBC3-MSCBC4-MSCBC5-MSCBC6},{Beni Suef},{10th Ramadan,Beni Suef,CAI5,Zahraa},,,
2016-01-18,2G,Canal,Red Sea South_Rural,BSCH09,24,16.780001,{MSCBC1-MSCBC2-MSCBC3-MSCBC4-MSCBC5-MSCBC6},{Beni Suef},{10th Ramadan,Beni Suef,CAI5,Zahraa},,,
2016-01-18,2G,Canal,Safaga,BSCH09,18,100,{MSCBC1-MSCBC2-MSCBC3-MSCBC4-MSCBC5-MSCBC6},{Beni Suef},{10th Ramadan,Beni Suef,CAI5,Zahraa},,,
2016-01-18,2G,Canal,El-Gouna,BSCH09,21,100,{MSCBC1-MSCBC2-MSCBC3-MSCBC4-MSCBC5-MSCBC6},{Beni Suef},{10th Ramadan,Beni Suef,CAI5,Zahraa},,,
2016-01-18,2G,Canal,Hurghada,BSCH09,277,100,{MSCBC1-MSCBC2-MSCBC3-MSCBC4-MSCBC5-MSCBC6},{Beni Suef},{10th Ramadan,Beni Suef,CAI5,Zahraa},,,
2016-01-18,2G,Canal,Red Sea North_Rural,BSCH09,2,2.1700001,{MSCBC1-MSCBC2-MSCBC3-MSCBC4-MSCBC5-MSCBC6},{Beni Suef},{10th Ramadan,Beni Suef,CAI5,Zahraa},,,
2016-01-18,2G,Canal,Suez,BSCH10,160,100,{MSCS50-MSCS51-MSCS52-MSCS53-MSCS54-MSCS55},{10th Ramadan},{10th Ramadan,Beni Suef},,,
2016-01-18,2G,Canal,Suez Rural,BSCH10,13,100,{MSCS50-MSCS51-MSCS52-MSCS53-MSCS54-MSCS55},{10th Ramadan},{10th Ramadan,Beni Suef},,,
2016-01-18,2G,Canal,Taba,BSCH10,22,100,{MSCS50-MSCS51-MSCS52-MSCS53-MSCS54-MSCS55},{10th Ramadan},{10th Ramadan,Beni Suef},,,
2016-01-18,2G,Canal,Ismailia Rural,BSCH10,19,16.809999,{MSCS50-MSCS51-MSCS52-MSCS53-MSCS54-MSCS55},{10th Ramadan},{10th Ramadan,Beni Suef},,,
2016-01-18,2G,Canal,Nuweiba,BSCH10,10,100,{MSCS50-MSCS51-MSCS52-MSCS53-MSCS54-MSCS55},{10th Ramadan},{10th Ramadan,Beni Suef},,,
2016-01-18,2G,Canal,Sinai South_Rural,BSCH10,54,27.27,{MSCS50-MSCS51-MSCS52-MSCS53-MSCS54-MSCS55},{10th Ramadan},{10th Ramadan,Beni Suef},,,
2016-01-18,2G,Canal,Sinai North_Rural,BSCH11,10,9.0100002,{MSCS50-MSCS51-MSCS52-MSCS53-MSCS54-MSCS55},{10th Ramadan},{10th Ramadan,Beni Suef},,,
2016-01-18,2G,Canal,Sinai South_Rural,BSCH11,99,50,{MSCS50-MSCS51-MSCS52-MSCS53-MSCS54-MSCS55},{10th Ramadan},{10th Ramadan,Beni Suef},,,
2016-01-18,2G,Canal,Red Sea North_Rural,BSCH11,19,20.65,{MSCS50-MSCS51-MSCS52-MSCS53-MSCS54-MSCS55},{10th Ramadan},{10th Ramadan,Beni Suef},,,
2016-01-18,2G,Canal,Ismailia Rural,BSCH11,14,12.39,{MSCS50-MSCS51-MSCS52-MSCS53-MSCS54-MSCS55},{10th Ramadan},{10th Ramadan,Beni Suef},,,
2016-01-18,2G,Canal,Portsaid Rural,BSCH11,38,88.370003,{MSCS50-MSCS51-MSCS52-MSCS53-MSCS54-MSCS55},{10th Ramadan},{10th Ramadan,Beni Suef},,,
2016-01-18,2G,Canal,El-Sukhna,BSCH11,46,31.51,{MSCS50-MSCS51-MSCS52-MSCS53-MSCS54-MSCS55},{10th Ramadan},{10th Ramadan,Beni Suef},,,
2016-01-18,2G,Canal,Dahab,BSCH11,22,100,{MSCS50-MSCS51-MSCS52-MSCS53-MSCS54-MSCS55},{10th Ramadan},{10th Ramadan,Beni Suef},,,
2016-01-18,2G,Canal,Ismailia,BSCH12,104,100,{MSCS50-MSCS51-MSCS52-MSCS53-MSCS54-MSCS55},{10th Ramadan},{10th Ramadan,Beni Suef},,,
2016-01-18,2G,Canal,Sharm El-Shiekh,BSCH12,216,100,{MSCS50-MSCS51-MSCS52-MSCS53-MSCS54-MSCS55},{10th Ramadan},{10th Ramadan,Beni Suef},,,
2016-01-18,2G,Canal,Sinai South_Rural,BSCH12,11,5.5599999,{MSCS50-MSCS51-MSCS52-MSCS53-MSCS54-MSCS55},{10th Ramadan},{10th Ramadan,Beni Suef},,,
2016-01-18,2G,Canal,Red Sea South_Rural,BSCH13,61,42.66,{MSCS1-MSCS2-MSCS3-MSCS20-MSCS21-MSCS29-MSCS30},{Beni Suef},{HQ},,,
2016-01-18,2G,Canal,Marsa Allam,BSCH13,16,100,{MSCS1-MSCS2-MSCS3-MSCS20-MSCS21-MSCS29-MSCS30},{Beni Suef},{HQ},,,
2016-01-18,2G,Upper Egypt,Asyut_Rural,BSCH13,95,21.690001,{MSCS1-MSCS2-MSCS3-MSCS20-MSCS21-MSCS29-MSCS30},{Beni Suef},{HQ},,,
2016-01-18,2G,Upper Egypt,Minia_Rural,BSCH13,9,1.99,{MSCS1-MSCS2-MSCS3-MSCS20-MSCS21-MSCS29-MSCS30},{Beni Suef},{HQ},,,
2016-01-18,2G,Upper Egypt,Minya,BSCH13,92,100,{MSCS1-MSCS2-MSCS3-MSCS20-MSCS21-MSCS29-MSCS30},{Beni Suef},{HQ},,,
2016-01-18,2G,Upper Egypt,Minia_Rural,BSCH14,63,13.94,{MSCBC1-MSCBC2-MSCBC3-MSCBC4-MSCBC5-MSCBC6},{Beni Suef},{10th Ramadan,Beni Suef,CAI5,Zahraa},,,
2016-01-18,2G,Upper Egypt,Qena_Rural,BSCH14,92,19.370001,{MSCBC1-MSCBC2-MSCBC3-MSCBC4-MSCBC5-MSCBC6},{Beni Suef},{10th Ramadan,Beni Suef,CAI5,Zahraa},,,
2016-01-18,2G,Upper Egypt,Souhag_Rural,BSCH14,15,3.3199999,{MSCBC1-MSCBC2-MSCBC3-MSCBC4-MSCBC5-MSCBC6},{Beni Suef},{10th Ramadan,Beni Suef,CAI5,Zahraa},,,
2016-01-18,2G,Upper Egypt,Bani Sweif_Rural,BSCH14,40,12.38,{MSCBC1-MSCBC2-MSCBC3-MSCBC4-MSCBC5-MSCBC6},{Beni Suef},{10th Ramadan,Beni Suef,CAI5,Zahraa},,,
2016-01-18,2G,Upper Egypt,Fayoum_Rural,BSCH14,124,27.99,{MSCBC1-MSCBC2-MSCBC3-MSCBC4-MSCBC5-MSCBC6},{Beni Suef},{10th Ramadan,Beni Suef,CAI5,Zahraa},,,
2016-01-18,2G,Giza,Giza Outskirts,BSCH14,3,0.85000002,{MSCBC1-MSCBC2-MSCBC3-MSCBC4-MSCBC5-MSCBC6},{Beni Suef},{10th Ramadan,Beni Suef,CAI5,Zahraa},,,
2016-01-18,2G,Upper Egypt,Luxor,BSCH15,132,100,{MSCS1-MSCS2-MSCS3-MSCS20-MSCS21-MSCS29-MSCS30},{Beni Suef},{HQ},,,
2016-01-18,2G,Upper Egypt,Luxor_Rural,BSCH15,123,63.400002,{MSCS1-MSCS2-MSCS3-MSCS20-MSCS21-MSCS29-MSCS30},{Beni Suef},{HQ},,,
2016-01-18,2G,Upper Egypt,Qena_Rural,BSCH15,25,5.2600002,{MSCS1-MSCS2-MSCS3-MSCS20-MSCS21-MSCS29-MSCS30},{Beni Suef},{HQ},,,
2016-01-18,2G,Canal,Sinai North_Rural,BSCH16,93,83.779999,{MSCS50-MSCS51-MSCS52-MSCS53-MSCS54-MSCS55},{10th Ramadan},{10th Ramadan,Beni Suef},,,
2016-01-18,2G,Canal,Arish,BSCH16,52,100,{MSCS50-MSCS51-MSCS52-MSCS53-MSCS54-MSCS55},{10th Ramadan},{10th Ramadan,Beni Suef},,,
2016-01-18,2G,Alexandria,Alex Desert Road,BSCH17,54,14.29,{MSCS14-MSCS15-MSCS28-MSCS42-MSCS59-MSCS9},{Alex},{Alex},,,
2016-01-18,2G,Alexandria,North Coast East,BSCH17,206,48.470001,{MSCS14-MSCS15-MSCS28-MSCS42-MSCS59-MSCS9},{Alex},{Alex},,,
2016-01-18,2G,Alexandria,North Coast West,BSCH17,289,74.68,{MSCS14-MSCS15-MSCS28-MSCS42-MSCS59-MSCS9},{Alex},{Alex},,,
2016-01-18,2G,Alexandria,North Coast East,BSCH18,2,0.47,{MSCS14-MSCS15-MSCS28-MSCS42-MSCS59-MSCS9},,{Alex},,,
2016-01-18,2G,Alexandria,Alex Desert Road,BSCH19,117,30.950001,{MSCS14-MSCS15-MSCS28-MSCS42-MSCS59-MSCS9},{Alex},{Alex},,,
2016-01-18,2G,Alexandria,Alex_3,BSCH19,22,5.9299998,{MSCS14-MSCS15-MSCS28-MSCS42-MSCS59-MSCS9},{Alex},{Alex},,,
2016-01-18,2G,Alexandria,Alex_4,BSCH19,200,100,{MSCS14-MSCS15-MSCS28-MSCS42-MSCS59-MSCS9},{Alex},{Alex},,,
2016-01-18,2G,Alexandria,North Coast East,BSCH19,197,46.349998,{MSCS14-MSCS15-MSCS28-MSCS42-MSCS59-MSCS9},{Alex},{Alex},,,
2016-01-18,2G,Alexandria,Alex Desert Road,BSCH20,179,47.349998,{MSCS14-MSCS15-MSCS28-MSCS42-MSCS59-MSCS9},{Alex},{Alex},,,
2016-01-18,2G,Alexandria,North Coast East,BSCH20,19,4.4699998,{MSCS14-MSCS15-MSCS28-MSCS42-MSCS59-MSCS9},{Alex},{Alex},,,
2016-01-18,2G,Alexandria,North Coast West,BSCH20,98,25.32,{MSCS14-MSCS15-MSCS28-MSCS42-MSCS59-MSCS9},{Alex},{Alex},,,
2016-01-18,2G,Delta,Beheira_Rural,BSCH20,3,0.20999999,{MSCS14-MSCS15-MSCS28-MSCS42-MSCS59-MSCS9},{Alex},{Alex},,,
2016-01-18,2G,Giza,Alex Desert Road (Giza),BSCH20,3,4.6900001,{MSCS14-MSCS15-MSCS28-MSCS42-MSCS59-MSCS9},{Alex},{Alex},,,
2016-01-18,2G,Upper Egypt,Fayoum_Rural,BSCH21,28,6.3200002,{MSCBC1-MSCBC2-MSCBC3-MSCBC4-MSCBC5-MSCBC6},{Beni Suef},{10th Ramadan,Beni Suef,CAI5,Zahraa},,,
2016-01-18,2G,Upper Egypt,Souhag_Rural,BSCH21,261,57.740002,{MSCBC1-MSCBC2-MSCBC3-MSCBC4-MSCBC5-MSCBC6},{Beni Suef},{10th Ramadan,Beni Suef,CAI5,Zahraa},,,
2016-01-18,2G,Upper Egypt,Qena_Rural,BSCH21,24,5.0500002,{MSCBC1-MSCBC2-MSCBC3-MSCBC4-MSCBC5-MSCBC6},{Beni Suef},{10th Ramadan,Beni Suef,CAI5,Zahraa},,,
2016-01-18,2G,Upper Egypt,Qena_Rural,BSCH22,60,12.63,{MSCBC1-MSCBC2-MSCBC3-MSCBC4-MSCBC5-MSCBC6},{Beni Suef},{10th Ramadan,Beni Suef,CAI5,Zahraa},,,
2016-01-18,2G,Upper Egypt,Fayoum_Rural,BSCH22,72,16.25,{MSCBC1-MSCBC2-MSCBC3-MSCBC4-MSCBC5-MSCBC6},{Beni Suef},{10th Ramadan,Beni Suef,CAI5,Zahraa},,,
2016-01-18,2G,Upper Egypt,Minia_Rural,BSCH22,119,26.33,{MSCBC1-MSCBC2-MSCBC3-MSCBC4-MSCBC5-MSCBC6},{Beni Suef},{10th Ramadan,Beni Suef,CAI5,Zahraa},,,
2016-01-18,2G,Upper Egypt,Asyut_Rural,BSCH22,45,10.27,{MSCBC1-MSCBC2-MSCBC3-MSCBC4-MSCBC5-MSCBC6},{Beni Suef},{10th Ramadan,Beni Suef,CAI5,Zahraa},,,
2016-01-18,2G,Cairo,10Th Of Ramadan,BSCH23,314,94.580002,{MSCBC1-MSCBC2-MSCBC3-MSCBC4-MSCBC5-MSCBC6},{10th Ramadan},{10th Ramadan,Beni Suef,CAI5,Zahraa},,,
2016-01-18,2G,Canal,Sinai North_Rural,BSCH23,1,0.89999998,{MSCBC1-MSCBC2-MSCBC3-MSCBC4-MSCBC5-MSCBC6},{10th Ramadan},{10th Ramadan,Beni Suef,CAI5,Zahraa},,,
2016-01-18,2G,Canal,Portsaid,BSCH23,123,100,{MSCBC1-MSCBC2-MSCBC3-MSCBC4-MSCBC5-MSCBC6},{10th Ramadan},{10th Ramadan,Beni Suef,CAI5,Zahraa},,,
2016-01-18,2G,Canal,Portsaid Rural,BSCH23,5,11.63,{MSCBC1-MSCBC2-MSCBC3-MSCBC4-MSCBC5-MSCBC6},{10th Ramadan},{10th Ramadan,Beni Suef,CAI5,Zahraa},,,
2016-01-18,2G,Canal,Ismailia Rural,BSCH23,20,17.700001,{MSCBC1-MSCBC2-MSCBC3-MSCBC4-MSCBC5-MSCBC6},{10th Ramadan},{10th Ramadan,Beni Suef,CAI5,Zahraa},,,
2016-01-18,2G,Canal,Red Sea North_Rural,BSCH24,14,15.22,{MSCBC1-MSCBC2-MSCBC3-MSCBC4-MSCBC5-MSCBC6},{CAI5},{10th Ramadan,Beni Suef,CAI5,Zahraa},,,
2016-01-18,2G,Cairo,Obour,BSCH24,6,2.3900001,{MSCBC1-MSCBC2-MSCBC3-MSCBC4-MSCBC5-MSCBC6},{CAI5},{10th Ramadan,Beni Suef,CAI5,Zahraa},,,
2016-01-18,2G,Cairo,5Th Gathering and Kattamya,BSCH24,172,43.110001,{MSCBC1-MSCBC2-MSCBC3-MSCBC4-MSCBC5-MSCBC6},{CAI5},{10th Ramadan,Beni Suef,CAI5,Zahraa},,,
2016-01-18,2G,Cairo,1St Gathering,BSCH24,326,61.98,{MSCBC1-MSCBC2-MSCBC3-MSCBC4-MSCBC5-MSCBC6},{CAI5},{10th Ramadan,Beni Suef,CAI5,Zahraa},,,
2016-01-18,2G,Giza,Sahary Alahram,BSCH24,95,32.869999,{MSCBC1-MSCBC2-MSCBC3-MSCBC4-MSCBC5-MSCBC6},{CAI5},{10th Ramadan,Beni Suef,CAI5,Zahraa},,,
2016-01-18,2G,Giza,Sahary Alahram,BSCH25,122,42.209999,{MSCBC1-MSCBC2-MSCBC3-MSCBC4-MSCBC5-MSCBC6},{HQ},{10th Ramadan,Beni Suef,CAI5,Zahraa},,,
2016-01-18,2G,Giza,Mouhandseen,BSCH25,3,0.63,{MSCBC1-MSCBC2-MSCBC3-MSCBC4-MSCBC5-MSCBC6},{HQ},{10th Ramadan,Beni Suef,CAI5,Zahraa},,,
2016-01-18,2G,Giza,October,BSCH25,455,83.949997,{MSCBC1-MSCBC2-MSCBC3-MSCBC4-MSCBC5-MSCBC6},{HQ},{10th Ramadan,Beni Suef,CAI5,Zahraa},,,
2016-01-18,2G,Upper Egypt,Fayoum_Rural,BSCH25,3,0.68000001,{MSCBC1-MSCBC2-MSCBC3-MSCBC4-MSCBC5-MSCBC6},{HQ},{10th Ramadan,Beni Suef,CAI5,Zahraa},,,
2016-01-18,2G,Giza,Alex Desert Road (Giza),BSCH25,4,6.25,{MSCBC1-MSCBC2-MSCBC3-MSCBC4-MSCBC5-MSCBC6},{HQ},{10th Ramadan,Beni Suef,CAI5,Zahraa},,,
2016-01-18,2G,Upper Egypt,New Valley_Rural,BSCH25,30,17.440001,{MSCBC1-MSCBC2-MSCBC3-MSCBC4-MSCBC5-MSCBC6},{HQ},{10th Ramadan,Beni Suef,CAI5,Zahraa},,,
2016-01-18,2G,Delta,Beheira_Rural,BSCH25,39,2.6900001,{MSCBC1-MSCBC2-MSCBC3-MSCBC4-MSCBC5-MSCBC6},{HQ},{10th Ramadan,Beni Suef,CAI5,Zahraa},,,
2016-01-18,2G,Delta,Damanhour,BSCH25,12,8.0500002,{MSCBC1-MSCBC2-MSCBC3-MSCBC4-MSCBC5-MSCBC6},{HQ},{10th Ramadan,Beni Suef,CAI5,Zahraa},,,
2016-01-18,2G,Cairo,5Th Gathering and Kattamya,BSCH26,226,56.639999,{MSCBC1-MSCBC2-MSCBC3-MSCBC4-MSCBC5-MSCBC6},{CAI5},{10th Ramadan,Beni Suef,CAI5,Zahraa},,,
2016-01-18,2G,Cairo,1St Gathering,BSCH26,96,18.25,{MSCBC1-MSCBC2-MSCBC3-MSCBC4-MSCBC5-MSCBC6},{CAI5},{10th Ramadan,Beni Suef,CAI5,Zahraa},,,
2016-01-18,2G,Cairo,Nasr City,BSCH26,34,4.77,{MSCBC1-MSCBC2-MSCBC3-MSCBC4-MSCBC5-MSCBC6},{CAI5},{10th Ramadan,Beni Suef,CAI5,Zahraa},,,
2016-01-18,2G,Alexandria,Alex Desert Road,BSCH27,3,0.79000002,{MSCBC1-MSCBC2-MSCBC3-MSCBC4-MSCBC5-MSCBC6},{HQ},{10th Ramadan,Beni Suef,CAI5,Zahraa},,,
2016-01-18,2G,Giza,Alex Desert Road (Giza),BSCH27,57,89.059998,{MSCBC1-MSCBC2-MSCBC3-MSCBC4-MSCBC5-MSCBC6},{HQ},{10th Ramadan,Beni Suef,CAI5,Zahraa},,,
2016-01-18,2G,Giza,Kerdasa and Mansoraya,BSCH27,119,70.410004,{MSCBC1-MSCBC2-MSCBC3-MSCBC4-MSCBC5-MSCBC6},{HQ},{10th Ramadan,Beni Suef,CAI5,Zahraa},,,
2016-01-18,2G,Giza,October,BSCH27,84,15.5,{MSCBC1-MSCBC2-MSCBC3-MSCBC4-MSCBC5-MSCBC6},{HQ},{10th Ramadan,Beni Suef,CAI5,Zahraa},,,
2016-01-18,2G,Giza,Sahary Alahram,BSCH27,72,24.91,{MSCBC1-MSCBC2-MSCBC3-MSCBC4-MSCBC5-MSCBC6},{HQ},{10th Ramadan,Beni Suef,CAI5,Zahraa},,,
2016-01-18,2G,Giza,Zayed,BSCH27,254,100,{MSCBC1-MSCBC2-MSCBC3-MSCBC4-MSCBC5-MSCBC6},{HQ},{10th Ramadan,Beni Suef,CAI5,Zahraa},,,
2016-01-18,2G,Cairo,Shorouk and Badr,BSCH28,70,30.57,{MSCBC1-MSCBC2-MSCBC3-MSCBC4-MSCBC5-MSCBC6},{10th Ramadan},{10th Ramadan,Beni Suef,CAI5,Zahraa},,,
2016-01-18,2G,Canal,Sinai North_Rural,BSCH28,7,6.3099999,{MSCBC1-MSCBC2-MSCBC3-MSCBC4-MSCBC5-MSCBC6},{10th Ramadan},{10th Ramadan,Beni Suef,CAI5,Zahraa},,,
2016-01-18,2G,Canal,Sinai South_Rural,BSCH28,34,17.17,{MSCBC1-MSCBC2-MSCBC3-MSCBC4-MSCBC5-MSCBC6},{10th Ramadan},{10th Ramadan,Beni Suef,CAI5,Zahraa},,,
2016-01-18,2G,Canal,Ismailia Rural,BSCH28,60,53.099998,{MSCBC1-MSCBC2-MSCBC3-MSCBC4-MSCBC5-MSCBC6},{10th Ramadan},{10th Ramadan,Beni Suef,CAI5,Zahraa},,,
2016-01-18,2G,Canal,Ras Sidr,BSCH28,28,100,{MSCBC1-MSCBC2-MSCBC3-MSCBC4-MSCBC5-MSCBC6},{10th Ramadan},{10th Ramadan,Beni Suef,CAI5,Zahraa},,,
2016-01-18,2G,Delta,Beheira_Rural,BSCH28,54,3.72,{MSCBC1-MSCBC2-MSCBC3-MSCBC4-MSCBC5-MSCBC6},{10th Ramadan},{10th Ramadan,Beni Suef,CAI5,Zahraa},,,
2016-01-18,2G,Cairo,Maadi,BSCH32,108,30.42,{MSCBC1-MSCBC2-MSCBC3-MSCBC4-MSCBC5-MSCBC6},{Zahraa},{10th Ramadan,Beni Suef,CAI5,Zahraa},,,
2016-01-18,2G,Cairo,Helwan,BSCH32,285,68.669998,{MSCBC1-MSCBC2-MSCBC3-MSCBC4-MSCBC5-MSCBC6},{Zahraa},{10th Ramadan,Beni Suef,CAI5,Zahraa},,,
2016-01-18,2G,Giza,Kerdasa and Mansoraya,BSCH32,3,1.78,{MSCBC1-MSCBC2-MSCBC3-MSCBC4-MSCBC5-MSCBC6},{Zahraa},{10th Ramadan,Beni Suef,CAI5,Zahraa},,,
2016-01-18,2G,Giza,Giza Outskirts,BSCH32,214,60.799999,{MSCBC1-MSCBC2-MSCBC3-MSCBC4-MSCBC5-MSCBC6},{Zahraa},{10th Ramadan,Beni Suef,CAI5,Zahraa},,,
2016-01-18,2G,Giza,Giza Outskirts,BSCH33,54,15.34,{MSCBC1-MSCBC2-MSCBC3-MSCBC4-MSCBC5-MSCBC6},{Mokattam},{10th Ramadan,Beni Suef,CAI5,Zahraa},,,
2016-01-18,2G,Cairo,Helwan,BSCH33,124,29.879999,{MSCBC1-MSCBC2-MSCBC3-MSCBC4-MSCBC5-MSCBC6},{Mokattam},{10th Ramadan,Beni Suef,CAI5,Zahraa},,,
2016-01-18,2G,Cairo,1St Gathering,BSCH34,104,19.77,{MSCBC1-MSCBC2-MSCBC3-MSCBC4-MSCBC5-MSCBC6},{CAI5},{10th Ramadan,Beni Suef,CAI5,Zahraa},,,
2016-01-18,2G,Cairo,10Th Of Ramadan,BSCH34,18,5.4200001,{MSCBC1-MSCBC2-MSCBC3-MSCBC4-MSCBC5-MSCBC6},{CAI5},{10th Ramadan,Beni Suef,CAI5,Zahraa},,,
2016-01-18,2G,Cairo,Obour,BSCH34,245,97.610001,{MSCBC1-MSCBC2-MSCBC3-MSCBC4-MSCBC5-MSCBC6},{CAI5},{10th Ramadan,Beni Suef,CAI5,Zahraa},,,
2016-01-18,2G,Cairo,Shorouk and Badr,BSCH34,159,69.43,{MSCBC1-MSCBC2-MSCBC3-MSCBC4-MSCBC5-MSCBC6},{CAI5},{10th Ramadan,Beni Suef,CAI5,Zahraa},,,
2016-01-18,2G,Upper Egypt,Qena_Rural,BSCH35,170,35.790001,,,,,,
2016-01-18,2G,Upper Egypt,Souhag_Rural,BSCH35,3,0.66000003,,,,,,
2016-01-18,2G,Delta,Beheira_Rural,BSCH41,729,50.279999,,,,,,
2016-01-18,3G,Alexandria,Alex Desert Road,RNC03,1,0.15000001,{MSCS14-MSCS15-MSCS28-MSCS42-MSCS59-MSCS9},{Alex},{Alex},,,
2016-01-18,3G,Alexandria,Alex_2,RNC03,23,3.8599999,{MSCS14-MSCS15-MSCS28-MSCS42-MSCS59-MSCS9},{Alex},{Alex},,,
2016-01-18,3G,Alexandria,Alex_3,RNC03,42,10.5,{MSCS14-MSCS15-MSCS28-MSCS42-MSCS59-MSCS9},{Alex},{Alex},,,
2016-01-18,3G,Delta,Monufeyya_Rural,RNC03,21,2.1300001,{MSCS14-MSCS15-MSCS28-MSCS42-MSCS59-MSCS9},{Alex},{Alex},,,
2016-01-18,3G,Delta,Banha,RNC05,6,3.77,{MSCS35-MSCS36-MSCS46-MSCS47-MSCS48-MSCS49-MSCS56},{HQ},{Beni Suef},,,
2016-01-18,3G,Delta,Gharbiya_Rural,RNC05,12,1.26,{MSCS35-MSCS36-MSCS46-MSCS47-MSCS48-MSCS49-MSCS56},{HQ},{Beni Suef},,,
2016-01-18,3G,Delta,Mahala,RNC05,253,100,{MSCS35-MSCS36-MSCS46-MSCS47-MSCS48-MSCS49-MSCS56},{HQ},{Beni Suef},,,
2016-01-18,3G,Alexandria,Alex_2,RNC06,98,16.440001,{MSCS14-MSCS15-MSCS28-MSCS42-MSCS59-MSCS9},{Alex},{Alex},,,
2016-01-18,3G,Delta,Kafr El Sheikh_Rural,RNC07,28,2.5599999,{MSCS22-MSCS23-MSCS25-MSCS57-MSCS58},,{CAI5},,,
2016-01-18,3G,Giza,Haram,RNC08,18,1.14,{MSCS22-MSCS23-MSCS25-MSCS57-MSCS58},,{CAI5},,,
2016-01-18,3G,Delta,Mansoura,RNC11,37,6.0500002,{MSCS11-MSCS12-MSCS13-MSCS24-MSCS33-MSCS34},,{10th Ramadan},,,
2016-01-18,3G,Delta,Mansoura,RNC12,65,10.62,{MSCS11-MSCS12-MSCS13-MSCS24-MSCS33-MSCS34},{10th Ramadan},{10th Ramadan},,,
2016-01-18,3G,Delta,Gharbiya_Rural,RNC12,12,1.26,{MSCS11-MSCS12-MSCS13-MSCS24-MSCS33-MSCS34},{10th Ramadan},{10th Ramadan},,,
2016-01-18,3G,Delta,Dakahleyya_Rural,RNC12,6,0.31,{MSCS11-MSCS12-MSCS13-MSCS24-MSCS33-MSCS34},{10th Ramadan},{10th Ramadan},,,
2016-01-18,3G,Delta,Sharkeyya_Rural,RNC12,8,0.38999999,{MSCS11-MSCS12-MSCS13-MSCS24-MSCS33-MSCS34},{10th Ramadan},{10th Ramadan},,,
2016-01-18,3G,Delta,Qalyubiya_Rural,RNC15,57,6.7600002,{MSCS26-MSCS27-MSCS38-MSCS39-MSCS40},{CAI5},{CAI5},,,
2016-01-18,3G,Delta,Kafr El Sheikh_Rural,RNC15,52,4.75,{MSCS26-MSCS27-MSCS38-MSCS39-MSCS40},{CAI5},{CAI5},,,
2016-01-18,3G,Cairo,Matarya,RNC15,9,1.0700001,{MSCS26-MSCS27-MSCS38-MSCS39-MSCS40},{CAI5},{CAI5},,,
2016-01-18,3G,Alexandria,Alex_3,RNC17,151,37.75,{MSCS14-MSCS15-MSCS28-MSCS42-MSCS59-MSCS9},{Alex},{Alex},,,
2016-01-18,3G,Alexandria,Alex_1,RNC20,9,1.3200001,{MSCS14-MSCS15-MSCS28-MSCS42-MSCS59-MSCS9},{Alex},{Alex},,,
2016-01-18,3G,Alexandria,Alex_2,RNC20,108,18.120001,{MSCS14-MSCS15-MSCS28-MSCS42-MSCS59-MSCS9},{Alex},{Alex},,,
2016-01-18,3G,Delta,Damietta_Rural,RNC21,60,11.41,{MSCS26-MSCS27-MSCS38-MSCS39-MSCS40},{CAI5},{CAI5},,,
2016-01-18,3G,Delta,Dakahleyya_Rural,RNC21,143,7.3400002,{MSCS26-MSCS27-MSCS38-MSCS39-MSCS40},{CAI5},{CAI5},,,
2016-01-18,3G,Delta,Kafr El Sheikh_Rural,RNC21,61,5.5700002,{MSCS26-MSCS27-MSCS38-MSCS39-MSCS40},{CAI5},{CAI5},,,
2016-01-18,3G,Delta,Qalyubiya_Rural,RNC22,222,26.33,{MSCS35-MSCS36-MSCS46-MSCS47-MSCS48-MSCS49-MSCS56},{HQ},{Beni Suef},,,
2016-01-18,3G,Delta,Monufeyya_Rural,RNC22,6,0.61000001,{MSCS35-MSCS36-MSCS46-MSCS47-MSCS48-MSCS49-MSCS56},{HQ},{Beni Suef},,,
2016-01-18,3G,Delta,Sharkeyya_Rural,RNC22,49,2.4100001,{MSCS35-MSCS36-MSCS46-MSCS47-MSCS48-MSCS49-MSCS56},{HQ},{Beni Suef},,,
2016-01-18,3G,Delta,Sharkeyya_Rural,RNC23,198,9.7299995,{MSCS11-MSCS12-MSCS13-MSCS24-MSCS33-MSCS34},{10th Ramadan},{10th Ramadan},,,
2016-01-18,3G,Delta,Monufeyya_Rural,RNC23,89,9.0299997,{MSCS11-MSCS12-MSCS13-MSCS24-MSCS33-MSCS34},{10th Ramadan},{10th Ramadan},,,
2016-01-18,3G,Delta,Qalyubiya_Rural,RNC23,32,3.8,{MSCS11-MSCS12-MSCS13-MSCS24-MSCS33-MSCS34},{10th Ramadan},{10th Ramadan},,,
2016-01-18,3G,Delta,Mansoura,RNC23,115,18.790001,{MSCS11-MSCS12-MSCS13-MSCS24-MSCS33-MSCS34},{10th Ramadan},{10th Ramadan},,,
2016-01-18,3G,Delta,Banha,RNC23,153,96.230003,{MSCS11-MSCS12-MSCS13-MSCS24-MSCS33-MSCS34},{10th Ramadan},{10th Ramadan},,,
2016-01-18,3G,Cairo,Nasr City,RNC24,403,30.98,{MSCBC1-MSCBC2-MSCBC3-MSCBC4-MSCBC5-MSCBC6},{Mokattam},{10th Ramadan,Beni Suef,CAI5,Zahraa},,,
2016-01-18,3G,Cairo,Matarya,RNC25,77,9.1400003,{MSCBC1-MSCBC2-MSCBC3-MSCBC4-MSCBC5-MSCBC6},{CAI5},{10th Ramadan,Beni Suef,CAI5,Zahraa},,,
2016-01-18,3G,Cairo,Heliopolis and Nozha,RNC25,17,2.27,{MSCBC1-MSCBC2-MSCBC3-MSCBC4-MSCBC5-MSCBC6},{CAI5},{10th Ramadan,Beni Suef,CAI5,Zahraa},,,
2016-01-18,3G,Cairo,Alsalam,RNC25,65,18.059999,{MSCBC1-MSCBC2-MSCBC3-MSCBC4-MSCBC5-MSCBC6},{CAI5},{10th Ramadan,Beni Suef,CAI5,Zahraa},,,
2016-01-18,3G,Delta,Dakahleyya_Rural,RNC25,149,7.6500001,{MSCBC1-MSCBC2-MSCBC3-MSCBC4-MSCBC5-MSCBC6},{CAI5},{10th Ramadan,Beni Suef,CAI5,Zahraa},,,
2016-01-18,3G,Delta,Damietta_Rural,RNC25,132,25.1,{MSCBC1-MSCBC2-MSCBC3-MSCBC4-MSCBC5-MSCBC6},{CAI5},{10th Ramadan,Beni Suef,CAI5,Zahraa},,,
2016-01-18,3G,Giza,Imbaba,RNC25,142,26.84,{MSCBC1-MSCBC2-MSCBC3-MSCBC4-MSCBC5-MSCBC6},{CAI5},{10th Ramadan,Beni Suef,CAI5,Zahraa},,,
2016-01-18,3G,Delta,Damanhour,RNC26,138,90.199997,{MSCBC1-MSCBC2-MSCBC3-MSCBC4-MSCBC5-MSCBC6},{HQ},{10th Ramadan,Beni Suef,CAI5,Zahraa},,,
2016-01-18,3G,Delta,Gharbiya_Rural,RNC26,6,0.63,{MSCBC1-MSCBC2-MSCBC3-MSCBC4-MSCBC5-MSCBC6},{HQ},{10th Ramadan,Beni Suef,CAI5,Zahraa},,,
2016-01-18,3G,Delta,Kafr El-Shikh,RNC26,131,100,{MSCBC1-MSCBC2-MSCBC3-MSCBC4-MSCBC5-MSCBC6},{HQ},{10th Ramadan,Beni Suef,CAI5,Zahraa},,,
2016-01-18,3G,Delta,Kafr El Sheikh_Rural,RNC26,94,8.5799999,{MSCBC1-MSCBC2-MSCBC3-MSCBC4-MSCBC5-MSCBC6},{HQ},{10th Ramadan,Beni Suef,CAI5,Zahraa},,,
2016-01-18,3G,Delta,Beheira_Rural,RNC26,36,2.48,{MSCBC1-MSCBC2-MSCBC3-MSCBC4-MSCBC5-MSCBC6},{HQ},{10th Ramadan,Beni Suef,CAI5,Zahraa},,,
2016-01-18,3G,Delta,Damyata,RNC27,177,100,{MSCS26-MSCS27-MSCS38-MSCS39-MSCS40},{CAI5},{CAI5},,,
2016-01-18,3G,Delta,Damietta_Rural,RNC27,327,62.169998,{MSCS26-MSCS27-MSCS38-MSCS39-MSCS40},{CAI5},{CAI5},,,
2016-01-18,3G,Delta,Dakahleyya_Rural,RNC27,104,5.3400002,{MSCS26-MSCS27-MSCS38-MSCS39-MSCS40},{CAI5},{CAI5},,,
2016-01-18,3G,Cairo,Alsalam,RNC27,106,29.440001,{MSCS26-MSCS27-MSCS38-MSCS39-MSCS40},{CAI5},{CAI5},,,
2016-01-18,3G,Cairo,Matarya,RNC27,59,7.0100002,{MSCS26-MSCS27-MSCS38-MSCS39-MSCS40},{CAI5},{CAI5},,,
2016-01-18,3G,Cairo,Nasr City,RNC27,8,0.61000001,{MSCS26-MSCS27-MSCS38-MSCS39-MSCS40},{CAI5},{CAI5},,,
2016-01-18,3G,Cairo,1St Gathering,RNC27,1,0.1,{MSCS26-MSCS27-MSCS38-MSCS39-MSCS40},{CAI5},{CAI5},,,
2016-01-18,3G,Cairo,5Th Gathering and Kattamya,RNC27,6,0.68000001,{MSCS26-MSCS27-MSCS38-MSCS39-MSCS40},{CAI5},{CAI5},,,
2016-01-18,3G,Cairo,Abbassyia,RNC28,24,12.18,{MSCBC1-MSCBC2-MSCBC3-MSCBC4-MSCBC5-MSCBC6},{Zahraa},{10th Ramadan,Beni Suef,CAI5,Zahraa},,,
2016-01-18,3G,Cairo,Shubra El-Khima,RNC28,6,0.83999997,{MSCBC1-MSCBC2-MSCBC3-MSCBC4-MSCBC5-MSCBC6},{Zahraa},{10th Ramadan,Beni Suef,CAI5,Zahraa},,,
2016-01-18,3G,Cairo,Moukattam,RNC28,45,11.87,{MSCBC1-MSCBC2-MSCBC3-MSCBC4-MSCBC5-MSCBC6},{Zahraa},{10th Ramadan,Beni Suef,CAI5,Zahraa},,,
2016-01-18,3G,Cairo,Maadi,RNC28,41,5.8400002,{MSCBC1-MSCBC2-MSCBC3-MSCBC4-MSCBC5-MSCBC6},{Zahraa},{10th Ramadan,Beni Suef,CAI5,Zahraa},,,
2016-01-18,3G,Cairo,Dar El Salam,RNC28,43,13.69,{MSCBC1-MSCBC2-MSCBC3-MSCBC4-MSCBC5-MSCBC6},{Zahraa},{10th Ramadan,Beni Suef,CAI5,Zahraa},,,
2016-01-18,3G,Cairo,Down Town and Manyal,RNC28,454,54.310001,{MSCBC1-MSCBC2-MSCBC3-MSCBC4-MSCBC5-MSCBC6},{Zahraa},{10th Ramadan,Beni Suef,CAI5,Zahraa},,,
2016-01-18,3G,Giza,Haram,RNC28,194,12.28,{MSCBC1-MSCBC2-MSCBC3-MSCBC4-MSCBC5-MSCBC6},{Zahraa},{10th Ramadan,Beni Suef,CAI5,Zahraa},,,
2016-01-18,3G,Giza,Mouhandseen,RNC28,9,1.26,{MSCBC1-MSCBC2-MSCBC3-MSCBC4-MSCBC5-MSCBC6},{Zahraa},{10th Ramadan,Beni Suef,CAI5,Zahraa},,,
2016-01-18,3G,Giza,Giza Outskirts,RNC28,6,1.1,{MSCBC1-MSCBC2-MSCBC3-MSCBC4-MSCBC5-MSCBC6},{Zahraa},{10th Ramadan,Beni Suef,CAI5,Zahraa},,,
2016-01-18,3G,Delta,Sharkeyya_Rural,RNC29,1254,61.619999,{MSCBC1-MSCBC2-MSCBC3-MSCBC4-MSCBC5-MSCBC6},{10th Ramadan},{10th Ramadan,Beni Suef,CAI5,Zahraa},,,
2016-01-18,3G,Delta,Zagazig,RNC29,258,100,{MSCBC1-MSCBC2-MSCBC3-MSCBC4-MSCBC5-MSCBC6},{10th Ramadan},{10th Ramadan,Beni Suef,CAI5,Zahraa},,,
2016-01-18,3G,Delta,Damietta_Rural,RNC29,7,1.33,{MSCBC1-MSCBC2-MSCBC3-MSCBC4-MSCBC5-MSCBC6},{10th Ramadan},{10th Ramadan,Beni Suef,CAI5,Zahraa},,,
2016-01-18,3G,Delta,Gharbiya_Rural,RNC29,18,1.88,{MSCBC1-MSCBC2-MSCBC3-MSCBC4-MSCBC5-MSCBC6},{10th Ramadan},{10th Ramadan,Beni Suef,CAI5,Zahraa},,,
2016-01-18,3G,Delta,Monufeyya_Rural,RNC29,6,0.61000001,{MSCBC1-MSCBC2-MSCBC3-MSCBC4-MSCBC5-MSCBC6},{10th Ramadan},{10th Ramadan,Beni Suef,CAI5,Zahraa},,,
2016-01-18,3G,Delta,Mansoura,RNC29,9,1.47,{MSCBC1-MSCBC2-MSCBC3-MSCBC4-MSCBC5-MSCBC6},{10th Ramadan},{10th Ramadan,Beni Suef,CAI5,Zahraa},,,
2016-01-18,3G,Delta,Dakahleyya_Rural,RNC29,203,10.42,{MSCBC1-MSCBC2-MSCBC3-MSCBC4-MSCBC5-MSCBC6},{10th Ramadan},{10th Ramadan,Beni Suef,CAI5,Zahraa},,,
2016-01-18,3G,Delta,Beheira_Rural,RNC30,222,15.31,{MSCBC1-MSCBC2-MSCBC3-MSCBC4-MSCBC5-MSCBC6},{HQ},{10th Ramadan,Beni Suef,CAI5,Zahraa},,,
2016-01-18,3G,Delta,Kafr El Sheikh_Rural,RNC30,276,25.209999,{MSCBC1-MSCBC2-MSCBC3-MSCBC4-MSCBC5-MSCBC6},{HQ},{10th Ramadan,Beni Suef,CAI5,Zahraa},,,
2016-01-18,3G,Delta,Gharbiya_Rural,RNC30,253,26.459999,{MSCBC1-MSCBC2-MSCBC3-MSCBC4-MSCBC5-MSCBC6},{HQ},{10th Ramadan,Beni Suef,CAI5,Zahraa},,,
2016-01-18,3G,Delta,Dakahleyya_Rural,RNC30,180,9.2399998,{MSCBC1-MSCBC2-MSCBC3-MSCBC4-MSCBC5-MSCBC6},{HQ},{10th Ramadan,Beni Suef,CAI5,Zahraa},,,
2016-01-18,3G,Delta,Sharkeyya_Rural,RNC30,62,3.05,{MSCBC1-MSCBC2-MSCBC3-MSCBC4-MSCBC5-MSCBC6},{HQ},{10th Ramadan,Beni Suef,CAI5,Zahraa},,,
2016-01-18,3G,Delta,Qalyubiya_Rural,RNC30,44,5.2199998,{MSCBC1-MSCBC2-MSCBC3-MSCBC4-MSCBC5-MSCBC6},{HQ},{10th Ramadan,Beni Suef,CAI5,Zahraa},,,
2016-01-18,3G,Delta,Monufeyya_Rural,RNC30,81,8.2200003,{MSCBC1-MSCBC2-MSCBC3-MSCBC4-MSCBC5-MSCBC6},{HQ},{10th Ramadan,Beni Suef,CAI5,Zahraa},,,
2016-01-18,3G,Cairo,Matarya,RNC31,145,17.219999,{MSCBC1-MSCBC2-MSCBC3-MSCBC4-MSCBC5-MSCBC6},{Mokattam},{10th Ramadan,Beni Suef,CAI5,Zahraa},,,
2016-01-18,3G,Cairo,Zaitoun and Qubba,RNC31,111,41.889999,{MSCBC1-MSCBC2-MSCBC3-MSCBC4-MSCBC5-MSCBC6},{Mokattam},{10th Ramadan,Beni Suef,CAI5,Zahraa},,,
2016-01-18,3G,Cairo,Nasr City,RNC31,137,10.53,{MSCBC1-MSCBC2-MSCBC3-MSCBC4-MSCBC5-MSCBC6},{Mokattam},{10th Ramadan,Beni Suef,CAI5,Zahraa},,,
2016-01-18,3G,Cairo,Moukattam,RNC31,37,9.7600002,{MSCBC1-MSCBC2-MSCBC3-MSCBC4-MSCBC5-MSCBC6},{Mokattam},{10th Ramadan,Beni Suef,CAI5,Zahraa},,,
2016-01-18,3G,Cairo,Shubra,RNC31,27,10.51,{MSCBC1-MSCBC2-MSCBC3-MSCBC4-MSCBC5-MSCBC6},{Mokattam},{10th Ramadan,Beni Suef,CAI5,Zahraa},,,
2016-01-18,3G,Cairo,Shubra El-Khima,RNC31,255,35.52,{MSCBC1-MSCBC2-MSCBC3-MSCBC4-MSCBC5-MSCBC6},{Mokattam},{10th Ramadan,Beni Suef,CAI5,Zahraa},,,
2016-01-18,3G,Cairo,Abbassyia,RNC31,173,87.82,{MSCBC1-MSCBC2-MSCBC3-MSCBC4-MSCBC5-MSCBC6},{Mokattam},{10th Ramadan,Beni Suef,CAI5,Zahraa},,,
2016-01-18,3G,Cairo,Alsalam,RNC32,9,2.5,{MSCBC1-MSCBC2-MSCBC3-MSCBC4-MSCBC5-MSCBC6},{CAI5},{10th Ramadan,Beni Suef,CAI5,Zahraa},,,
2016-01-18,3G,Delta,Qalyubiya_Rural,RNC32,14,1.66,{MSCBC1-MSCBC2-MSCBC3-MSCBC4-MSCBC5-MSCBC6},{CAI5},{10th Ramadan,Beni Suef,CAI5,Zahraa},,,
2016-01-18,3G,Delta,Sharkeyya_Rural,RNC32,8,0.38999999,{MSCBC1-MSCBC2-MSCBC3-MSCBC4-MSCBC5-MSCBC6},{CAI5},{10th Ramadan,Beni Suef,CAI5,Zahraa},,,
2016-01-18,3G,Giza,Haram,RNC32,640,40.509998,{MSCBC1-MSCBC2-MSCBC3-MSCBC4-MSCBC5-MSCBC6},{CAI5},{10th Ramadan,Beni Suef,CAI5,Zahraa},,,
2016-01-18,3G,Giza,Kerdasa and Mansoraya,RNC32,6,1.8,{MSCBC1-MSCBC2-MSCBC3-MSCBC4-MSCBC5-MSCBC6},{CAI5},{10th Ramadan,Beni Suef,CAI5,Zahraa},,,
2016-01-18,3G,Giza,Imbaba,RNC33,363,68.620003,{MSCBC1-MSCBC2-MSCBC3-MSCBC4-MSCBC5-MSCBC6},{CAI5},{10th Ramadan,Beni Suef,CAI5,Zahraa},,,
2016-01-18,3G,Giza,Haram,RNC33,9,0.56999999,{MSCBC1-MSCBC2-MSCBC3-MSCBC4-MSCBC5-MSCBC6},{CAI5},{10th Ramadan,Beni Suef,CAI5,Zahraa},,,
2016-01-18,3G,Giza,Mouhandseen,RNC33,688,96.629997,{MSCBC1-MSCBC2-MSCBC3-MSCBC4-MSCBC5-MSCBC6},{CAI5},{10th Ramadan,Beni Suef,CAI5,Zahraa},,,
2016-01-18,3G,Giza,Kerdasa and Mansoraya,RNC33,57,17.07,{MSCBC1-MSCBC2-MSCBC3-MSCBC4-MSCBC5-MSCBC6},{CAI5},{10th Ramadan,Beni Suef,CAI5,Zahraa},,,
2016-01-18,3G,Giza,October,RNC33,11,0.93000001,{MSCBC1-MSCBC2-MSCBC3-MSCBC4-MSCBC5-MSCBC6},{CAI5},{10th Ramadan,Beni Suef,CAI5,Zahraa},,,
2016-01-18,3G,Giza,Shubra and Imbaba Outskirts,RNC33,12,12.12,{MSCBC1-MSCBC2-MSCBC3-MSCBC4-MSCBC5-MSCBC6},{CAI5},{10th Ramadan,Beni Suef,CAI5,Zahraa},,,
2016-01-18,3G,Giza,Boulaq,RNC33,481,100,{MSCBC1-MSCBC2-MSCBC3-MSCBC4-MSCBC5-MSCBC6},{CAI5},{10th Ramadan,Beni Suef,CAI5,Zahraa},,,
2016-01-18,3G,Delta,Qalyubiya_Rural,RNC33,18,2.1400001,{MSCBC1-MSCBC2-MSCBC3-MSCBC4-MSCBC5-MSCBC6},{CAI5},{10th Ramadan,Beni Suef,CAI5,Zahraa},,,
2016-01-18,3G,Cairo,Alsalam,RNC33,132,36.669998,{MSCBC1-MSCBC2-MSCBC3-MSCBC4-MSCBC5-MSCBC6},{CAI5},{10th Ramadan,Beni Suef,CAI5,Zahraa},,,
2016-01-18,3G,Cairo,Airport,RNC33,9,9.1800003,{MSCBC1-MSCBC2-MSCBC3-MSCBC4-MSCBC5-MSCBC6},{CAI5},{10th Ramadan,Beni Suef,CAI5,Zahraa},,,
2016-01-18,3G,Cairo,Matarya,RNC33,21,2.49,{MSCBC1-MSCBC2-MSCBC3-MSCBC4-MSCBC5-MSCBC6},{CAI5},{10th Ramadan,Beni Suef,CAI5,Zahraa},,,
2016-01-18,3G,Cairo,Shubra El-Khima,RNC34,69,9.6099997,{MSCBC1-MSCBC2-MSCBC3-MSCBC4-MSCBC5-MSCBC6},{Zahraa},{10th Ramadan,Beni Suef,CAI5,Zahraa},,,
2016-01-18,3G,Cairo,Matarya,RNC34,198,23.52,{MSCBC1-MSCBC2-MSCBC3-MSCBC4-MSCBC5-MSCBC6},{Zahraa},{10th Ramadan,Beni Suef,CAI5,Zahraa},,,
2016-01-18,3G,Delta,Qalyubiya_Rural,RNC34,232,27.52,{MSCBC1-MSCBC2-MSCBC3-MSCBC4-MSCBC5-MSCBC6},{Zahraa},{10th Ramadan,Beni Suef,CAI5,Zahraa},,,
2016-01-18,3G,Delta,Monufeyya_Rural,RNC34,96,9.7399998,{MSCBC1-MSCBC2-MSCBC3-MSCBC4-MSCBC5-MSCBC6},{Zahraa},{10th Ramadan,Beni Suef,CAI5,Zahraa},,,
2016-01-18,3G,Delta,Shibin,RNC34,206,100,{MSCBC1-MSCBC2-MSCBC3-MSCBC4-MSCBC5-MSCBC6},{Zahraa},{10th Ramadan,Beni Suef,CAI5,Zahraa},,,
2016-01-18,3G,Giza,Shubra and Imbaba Outskirts,RNC34,87,87.879997,{MSCBC1-MSCBC2-MSCBC3-MSCBC4-MSCBC5-MSCBC6},{Zahraa},{10th Ramadan,Beni Suef,CAI5,Zahraa},,,
2016-01-18,3G,Cairo,Nasr City,RNC35,185,14.22,{MSCBC1-MSCBC2-MSCBC3-MSCBC4-MSCBC5-MSCBC6},{Mokattam},{10th Ramadan,Beni Suef,CAI5,Zahraa},,,
2016-01-18,3G,Cairo,Moukattam,RNC35,297,78.360001,{MSCBC1-MSCBC2-MSCBC3-MSCBC4-MSCBC5-MSCBC6},{Mokattam},{10th Ramadan,Beni Suef,CAI5,Zahraa},,,
2016-01-18,3G,Cairo,Maadi,RNC35,33,4.6999998,{MSCBC1-MSCBC2-MSCBC3-MSCBC4-MSCBC5-MSCBC6},{Mokattam},{10th Ramadan,Beni Suef,CAI5,Zahraa},,,
2016-01-18,3G,Cairo,Heliopolis and Nozha,RNC35,2,0.27000001,{MSCBC1-MSCBC2-MSCBC3-MSCBC4-MSCBC5-MSCBC6},{Mokattam},{10th Ramadan,Beni Suef,CAI5,Zahraa},,,
2016-01-18,3G,Cairo,Dar El Salam,RNC35,57,18.15,{MSCBC1-MSCBC2-MSCBC3-MSCBC4-MSCBC5-MSCBC6},{Mokattam},{10th Ramadan,Beni Suef,CAI5,Zahraa},,,
2016-01-18,3G,Cairo,Hadabah Wostah,RNC35,210,86.419998,{MSCBC1-MSCBC2-MSCBC3-MSCBC4-MSCBC5-MSCBC6},{Mokattam},{10th Ramadan,Beni Suef,CAI5,Zahraa},,,
2016-01-18,3G,Delta,Monufeyya_Rural,RNC36,9,0.91000003,{MSCBC1-MSCBC2-MSCBC3-MSCBC4-MSCBC5-MSCBC6},{10th Ramadan},{10th Ramadan,Beni Suef,CAI5,Zahraa},,,
2016-01-18,3G,Delta,Mansoura,RNC36,10,1.63,{MSCBC1-MSCBC2-MSCBC3-MSCBC4-MSCBC5-MSCBC6},{10th Ramadan},{10th Ramadan,Beni Suef,CAI5,Zahraa},,,
2016-01-18,3G,Delta,Dakahleyya_Rural,RNC36,495,25.41,{MSCBC1-MSCBC2-MSCBC3-MSCBC4-MSCBC5-MSCBC6},{10th Ramadan},{10th Ramadan,Beni Suef,CAI5,Zahraa},,,
2016-01-18,3G,Delta,Sharkeyya_Rural,RNC36,456,22.41,{MSCBC1-MSCBC2-MSCBC3-MSCBC4-MSCBC5-MSCBC6},{10th Ramadan},{10th Ramadan,Beni Suef,CAI5,Zahraa},,,
2016-01-18,3G,Delta,Qalyubiya_Rural,RNC36,18,2.1400001,{MSCBC1-MSCBC2-MSCBC3-MSCBC4-MSCBC5-MSCBC6},{10th Ramadan},{10th Ramadan,Beni Suef,CAI5,Zahraa},,,
2016-01-18,3G,Delta,Kafr El Sheikh_Rural,RNC37,43,3.9300001,{MSCS14-MSCS15-MSCS28-MSCS42-MSCS59-MSCS9},{Alex},{Alex},,,
2016-01-18,3G,Alexandria,North Coast East,RNC37,1,9.0000004E-2,{MSCS14-MSCS15-MSCS28-MSCS42-MSCS59-MSCS9},{Alex},{Alex},,,
2016-01-18,3G,Alexandria,Alex_2,RNC37,367,61.580002,{MSCS14-MSCS15-MSCS28-MSCS42-MSCS59-MSCS9},{Alex},{Alex},,,
2016-01-18,3G,Alexandria,Alex Desert Road,RNC37,23,3.55,{MSCS14-MSCS15-MSCS28-MSCS42-MSCS59-MSCS9},{Alex},{Alex},,,
2016-01-18,3G,Alexandria,Alex_3,RNC37,167,41.75,{MSCS14-MSCS15-MSCS28-MSCS42-MSCS59-MSCS9},{Alex},{Alex},,,
2016-01-18,3G,Alexandria,Alex_1,RNC37,672,98.68,{MSCS14-MSCS15-MSCS28-MSCS42-MSCS59-MSCS9},{Alex},{Alex},,,
2016-01-18,3G,Delta,Kafr El Sheikh_Rural,RNC38,48,4.3800001,{MSCBC1-MSCBC2-MSCBC3-MSCBC4-MSCBC5-MSCBC6},{HQ},{10th Ramadan,Beni Suef,CAI5,Zahraa},,,
2016-01-18,3G,Delta,Dakahleyya_Rural,RNC38,9,0.46000001,{MSCBC1-MSCBC2-MSCBC3-MSCBC4-MSCBC5-MSCBC6},{HQ},{10th Ramadan,Beni Suef,CAI5,Zahraa},,,
2016-01-18,3G,Delta,Gharbiya_Rural,RNC38,613,64.120003,{MSCBC1-MSCBC2-MSCBC3-MSCBC4-MSCBC5-MSCBC6},{HQ},{10th Ramadan,Beni Suef,CAI5,Zahraa},,,
2016-01-18,3G,Delta,Beheira_Rural,RNC38,164,11.31,{MSCBC1-MSCBC2-MSCBC3-MSCBC4-MSCBC5-MSCBC6},{HQ},{10th Ramadan,Beni Suef,CAI5,Zahraa},,,
2016-01-18,3G,Delta,Qalyubiya_Rural,RNC38,188,22.299999,{MSCBC1-MSCBC2-MSCBC3-MSCBC4-MSCBC5-MSCBC6},{HQ},{10th Ramadan,Beni Suef,CAI5,Zahraa},,,
2016-01-18,3G,Delta,Monufeyya_Rural,RNC38,678,68.760002,{MSCBC1-MSCBC2-MSCBC3-MSCBC4-MSCBC5-MSCBC6},{HQ},{10th Ramadan,Beni Suef,CAI5,Zahraa},,,
2016-01-18,3G,Delta,Tanta,RNC38,241,100,{MSCBC1-MSCBC2-MSCBC3-MSCBC4-MSCBC5-MSCBC6},{HQ},{10th Ramadan,Beni Suef,CAI5,Zahraa},,,
2016-01-18,3G,Giza,Haram,RNC39,6,0.38,{MSCBC1-MSCBC2-MSCBC3-MSCBC4-MSCBC5-MSCBC6},{Zahraa},{10th Ramadan,Beni Suef,CAI5,Zahraa},,,
2016-01-18,3G,Giza,Giza Outskirts,RNC39,89,16.33,{MSCBC1-MSCBC2-MSCBC3-MSCBC4-MSCBC5-MSCBC6},{Zahraa},{10th Ramadan,Beni Suef,CAI5,Zahraa},,,
2016-01-18,3G,Cairo,Hadabah Wostah,RNC39,33,13.58,{MSCBC1-MSCBC2-MSCBC3-MSCBC4-MSCBC5-MSCBC6},{Zahraa},{10th Ramadan,Beni Suef,CAI5,Zahraa},,,
2016-01-18,3G,Cairo,Dar El Salam,RNC39,214,68.150002,{MSCBC1-MSCBC2-MSCBC3-MSCBC4-MSCBC5-MSCBC6},{Zahraa},{10th Ramadan,Beni Suef,CAI5,Zahraa},,,
2016-01-18,3G,Cairo,Maadi,RNC39,397,56.549999,{MSCBC1-MSCBC2-MSCBC3-MSCBC4-MSCBC5-MSCBC6},{Zahraa},{10th Ramadan,Beni Suef,CAI5,Zahraa},,,
2016-01-18,3G,Delta,Beheira_Rural,RNC40,6,0.41,,,,,,
2016-01-18,3G,Delta,Gharbiya_Rural,RNC40,42,4.3899999,,,,,,
2016-01-18,3G,Delta,Dakahleyya_Rural,RNC40,601,30.85,,,,,,
2016-01-18,3G,Delta,Kafr El Sheikh_Rural,RNC40,296,27.030001,,,,,,
2016-01-18,3G,Delta,Mansoura,RNC40,376,61.439999,,,,,,
2016-01-18,3G,Alexandria,Alex Desert Road,RNC40,12,1.85,,,,,,
2016-01-18,3G,Cairo,Down Town and Manyal,RNC41,381,45.57,{MSCBC1-MSCBC2-MSCBC3-MSCBC4-MSCBC5-MSCBC6},{Zahraa},{10th Ramadan,Beni Suef,CAI5,Zahraa},,,
2016-01-18,3G,Cairo,Matarya,RNC41,240,28.5,{MSCBC1-MSCBC2-MSCBC3-MSCBC4-MSCBC5-MSCBC6},{Zahraa},{10th Ramadan,Beni Suef,CAI5,Zahraa},,,
2016-01-18,3G,Cairo,Ain Shams,RNC41,82,32.41,{MSCBC1-MSCBC2-MSCBC3-MSCBC4-MSCBC5-MSCBC6},{Zahraa},{10th Ramadan,Beni Suef,CAI5,Zahraa},,,
2016-01-18,3G,Cairo,Alsalam,RNC41,15,4.1700001,{MSCBC1-MSCBC2-MSCBC3-MSCBC4-MSCBC5-MSCBC6},{Zahraa},{10th Ramadan,Beni Suef,CAI5,Zahraa},,,
2016-01-18,3G,Cairo,Shubra El-Khima,RNC41,379,52.790001,{MSCBC1-MSCBC2-MSCBC3-MSCBC4-MSCBC5-MSCBC6},{Zahraa},{10th Ramadan,Beni Suef,CAI5,Zahraa},,,
2016-01-18,3G,Cairo,Shubra,RNC41,230,89.489998,{MSCBC1-MSCBC2-MSCBC3-MSCBC4-MSCBC5-MSCBC6},{Zahraa},{10th Ramadan,Beni Suef,CAI5,Zahraa},,,
2016-01-18,3G,Cairo,Zamalek,RNC41,140,100,{MSCBC1-MSCBC2-MSCBC3-MSCBC4-MSCBC5-MSCBC6},{Zahraa},{10th Ramadan,Beni Suef,CAI5,Zahraa},,,
2016-01-18,3G,Giza,Mouhandseen,RNC41,9,1.26,{MSCBC1-MSCBC2-MSCBC3-MSCBC4-MSCBC5-MSCBC6},{Zahraa},{10th Ramadan,Beni Suef,CAI5,Zahraa},,,
2016-01-18,3G,Giza,Imbaba,RNC41,24,4.54,{MSCBC1-MSCBC2-MSCBC3-MSCBC4-MSCBC5-MSCBC6},{Zahraa},{10th Ramadan,Beni Suef,CAI5,Zahraa},,,
2016-01-18,3G,Delta,Qalyubiya_Rural,RNC41,18,2.1400001,{MSCBC1-MSCBC2-MSCBC3-MSCBC4-MSCBC5-MSCBC6},{Zahraa},{10th Ramadan,Beni Suef,CAI5,Zahraa},,,
2016-01-18,3G,Cairo,Zaitoun and Qubba,RNC42,154,58.110001,{MSCBC1-MSCBC2-MSCBC3-MSCBC4-MSCBC5-MSCBC6},{Mokattam},{10th Ramadan,Beni Suef,CAI5,Zahraa},,,
2016-01-18,3G,Cairo,Shubra El-Khima,RNC42,9,1.25,{MSCBC1-MSCBC2-MSCBC3-MSCBC4-MSCBC5-MSCBC6},{Mokattam},{10th Ramadan,Beni Suef,CAI5,Zahraa},,,
2016-01-18,3G,Cairo,Nasr City,RNC42,496,38.119999,{MSCBC1-MSCBC2-MSCBC3-MSCBC4-MSCBC5-MSCBC6},{Mokattam},{10th Ramadan,Beni Suef,CAI5,Zahraa},,,
2016-01-18,3G,Cairo,Airport,RNC42,89,90.82,{MSCBC1-MSCBC2-MSCBC3-MSCBC4-MSCBC5-MSCBC6},{Mokattam},{10th Ramadan,Beni Suef,CAI5,Zahraa},,,
2016-01-18,3G,Cairo,Alsalam,RNC42,33,9.1700001,{MSCBC1-MSCBC2-MSCBC3-MSCBC4-MSCBC5-MSCBC6},{Mokattam},{10th Ramadan,Beni Suef,CAI5,Zahraa},,,
2016-01-18,3G,Cairo,Heliopolis and Nozha,RNC42,549,73.400002,{MSCBC1-MSCBC2-MSCBC3-MSCBC4-MSCBC5-MSCBC6},{Mokattam},{10th Ramadan,Beni Suef,CAI5,Zahraa},,,
2016-01-18,3G,Cairo,Ain Shams,RNC42,24,9.4899998,{MSCBC1-MSCBC2-MSCBC3-MSCBC4-MSCBC5-MSCBC6},{Mokattam},{10th Ramadan,Beni Suef,CAI5,Zahraa},,,
2016-01-18,3G,Delta,Dakahleyya_Rural,RNC43,58,2.98,,,,,,
2016-01-18,3G,Delta,Kafr El Sheikh_Rural,RNC43,188,17.17,,,,,,
2016-01-18,3G,Giza,Giza Outskirts,RNC43,24,4.4000001,,,,,,
2016-01-18,3G,Giza,Kerdasa and Mansoraya,RNC43,48,14.37,,,,,,
2016-01-18,3G,Giza,Haram,RNC43,713,45.130001,,,,,,
2016-01-18,3G,Cairo,Heliopolis and Nozha,RNC44,180,24.059999,,,,,,
2016-01-18,3G,Cairo,Matarya,RNC44,93,11.05,,,,,,
2016-01-18,3G,Cairo,Ain Shams,RNC44,147,58.099998,,,,,,
2016-01-18,3G,Upper Egypt,Aswan,RNCH01,191,100,{MSCBC1-MSCBC2-MSCBC3-MSCBC4-MSCBC5-MSCBC6},{Beni Suef},{10th Ramadan,Beni Suef,CAI5,Zahraa},,,
2016-01-18,3G,Upper Egypt,Aswan_Rural,RNCH01,60,24.190001,{MSCBC1-MSCBC2-MSCBC3-MSCBC4-MSCBC5-MSCBC6},{Beni Suef},{10th Ramadan,Beni Suef,CAI5,Zahraa},,,
2016-01-18,3G,Upper Egypt,Bani Sweif_Rural,RNCH01,3,1.15,{MSCBC1-MSCBC2-MSCBC3-MSCBC4-MSCBC5-MSCBC6},{Beni Suef},{10th Ramadan,Beni Suef,CAI5,Zahraa},,,
2016-01-18,3G,Upper Egypt,Asyut,RNCH01,287,100,{MSCBC1-MSCBC2-MSCBC3-MSCBC4-MSCBC5-MSCBC6},{Beni Suef},{10th Ramadan,Beni Suef,CAI5,Zahraa},,,
2016-01-18,3G,Upper Egypt,Asyut_Rural,RNCH01,381,95.489998,{MSCBC1-MSCBC2-MSCBC3-MSCBC4-MSCBC5-MSCBC6},{Beni Suef},{10th Ramadan,Beni Suef,CAI5,Zahraa},,,
2016-01-18,3G,Upper Egypt,Fayoum_Rural,RNCH01,116,25.110001,{MSCBC1-MSCBC2-MSCBC3-MSCBC4-MSCBC5-MSCBC6},{Beni Suef},{10th Ramadan,Beni Suef,CAI5,Zahraa},,,
2016-01-18,3G,Upper Egypt,Minia_Rural,RNCH01,24,5.73,{MSCBC1-MSCBC2-MSCBC3-MSCBC4-MSCBC5-MSCBC6},{Beni Suef},{10th Ramadan,Beni Suef,CAI5,Zahraa},,,
2016-01-18,3G,Upper Egypt,New Valley_Rural,RNCH01,7,16.67,{MSCBC1-MSCBC2-MSCBC3-MSCBC4-MSCBC5-MSCBC6},{Beni Suef},{10th Ramadan,Beni Suef,CAI5,Zahraa},,,
2016-01-18,3G,Upper Egypt,Souhag_Rural,RNCH01,21,7.7800002,{MSCBC1-MSCBC2-MSCBC3-MSCBC4-MSCBC5-MSCBC6},{Beni Suef},{10th Ramadan,Beni Suef,CAI5,Zahraa},,,
2016-01-18,3G,Upper Egypt,New Valley_Rural,RNCH02,14,33.330002,{MSCS1-MSCS2-MSCS3-MSCS20-MSCS21-MSCS29-MSCS30},{Beni Suef},{HQ},,,
2016-01-18,3G,Upper Egypt,Qena_Rural,RNCH02,101,28.209999,{MSCS1-MSCS2-MSCS3-MSCS20-MSCS21-MSCS29-MSCS30},{Beni Suef},{HQ},,,
2016-01-18,3G,Upper Egypt,Luxor,RNCH02,249,100,{MSCS1-MSCS2-MSCS3-MSCS20-MSCS21-MSCS29-MSCS30},{Beni Suef},{HQ},,,
2016-01-18,3G,Upper Egypt,Luxor_Rural,RNCH02,163,100,{MSCS1-MSCS2-MSCS3-MSCS20-MSCS21-MSCS29-MSCS30},{Beni Suef},{HQ},,,
2016-01-18,3G,Upper Egypt,Minia_Rural,RNCH02,6,1.4299999,{MSCS1-MSCS2-MSCS3-MSCS20-MSCS21-MSCS29-MSCS30},{Beni Suef},{HQ},,,
2016-01-18,3G,Upper Egypt,Minya,RNCH02,185,100,{MSCS1-MSCS2-MSCS3-MSCS20-MSCS21-MSCS29-MSCS30},{Beni Suef},{HQ},,,
2016-01-18,3G,Upper Egypt,New Valley,RNCH02,24,100,{MSCS1-MSCS2-MSCS3-MSCS20-MSCS21-MSCS29-MSCS30},{Beni Suef},{HQ},,,
2016-01-18,3G,Upper Egypt,Aswan_Rural,RNCH02,188,75.809998,{MSCS1-MSCS2-MSCS3-MSCS20-MSCS21-MSCS29-MSCS30},{Beni Suef},{HQ},,,
2016-01-18,3G,Canal,El-Sukhna,RNCH02,366,68.669998,{MSCS1-MSCS2-MSCS3-MSCS20-MSCS21-MSCS29-MSCS30},{Beni Suef},{HQ},,,
2016-01-18,3G,Canal,Ras Ghareb,RNCH02,51,50,{MSCS1-MSCS2-MSCS3-MSCS20-MSCS21-MSCS29-MSCS30},{Beni Suef},{HQ},,,
2016-01-18,3G,Canal,Red Sea North_Rural,RNCH02,41,35.040001,{MSCS1-MSCS2-MSCS3-MSCS20-MSCS21-MSCS29-MSCS30},{Beni Suef},{HQ},,,
2016-01-18,3G,Canal,Sinai South_Rural,RNCH03,14,10.53,{MSCS50-MSCS51-MSCS52-MSCS53-MSCS54-MSCS55},{10th Ramadan},{10th Ramadan,Beni Suef},,,
2016-01-18,3G,Canal,Red Sea North_Rural,RNCH03,2,1.71,{MSCS50-MSCS51-MSCS52-MSCS53-MSCS54-MSCS55},{10th Ramadan},{10th Ramadan,Beni Suef},,,
2016-01-18,3G,Canal,Suez,RNCH03,484,100,{MSCS50-MSCS51-MSCS52-MSCS53-MSCS54-MSCS55},{10th Ramadan},{10th Ramadan,Beni Suef},,,
2016-01-18,3G,Canal,Suez Rural,RNCH03,10,100,{MSCS50-MSCS51-MSCS52-MSCS53-MSCS54-MSCS55},{10th Ramadan},{10th Ramadan,Beni Suef},,,
2016-01-18,3G,Canal,Taba,RNCH03,18,75,{MSCS50-MSCS51-MSCS52-MSCS53-MSCS54-MSCS55},{10th Ramadan},{10th Ramadan,Beni Suef},,,
2016-01-18,3G,Canal,Dahab,RNCH03,39,100,{MSCS50-MSCS51-MSCS52-MSCS53-MSCS54-MSCS55},{10th Ramadan},{10th Ramadan,Beni Suef},,,
2016-01-18,3G,Canal,Ismailia,RNCH03,295,100,{MSCS50-MSCS51-MSCS52-MSCS53-MSCS54-MSCS55},{10th Ramadan},{10th Ramadan,Beni Suef},,,
2016-01-18,3G,Canal,Ismailia Rural,RNCH03,93,61.18,{MSCS50-MSCS51-MSCS52-MSCS53-MSCS54-MSCS55},{10th Ramadan},{10th Ramadan,Beni Suef},,,
2016-01-18,3G,Canal,Nuweiba,RNCH03,17,100,{MSCS50-MSCS51-MSCS52-MSCS53-MSCS54-MSCS55},{10th Ramadan},{10th Ramadan,Beni Suef},,,
2016-01-18,3G,Canal,Portsaid Rural,RNCH03,9,11.54,{MSCS50-MSCS51-MSCS52-MSCS53-MSCS54-MSCS55},{10th Ramadan},{10th Ramadan,Beni Suef},,,
2016-01-18,3G,Upper Egypt,New Valley_Rural,RNCH03,7,16.67,{MSCS50-MSCS51-MSCS52-MSCS53-MSCS54-MSCS55},{10th Ramadan},{10th Ramadan,Beni Suef},,,
2016-01-18,3G,Canal,El-Sukhna,RNCH04,167,31.33,{MSCS50-MSCS51-MSCS52-MSCS53-MSCS54-MSCS55},{10th Ramadan},{10th Ramadan,Beni Suef},,,
2016-01-18,3G,Canal,Taba,RNCH04,6,25,{MSCS50-MSCS51-MSCS52-MSCS53-MSCS54-MSCS55},{10th Ramadan},{10th Ramadan,Beni Suef},,,
2016-01-18,3G,Canal,Sinai South_Rural,RNCH04,18,13.53,{MSCS50-MSCS51-MSCS52-MSCS53-MSCS54-MSCS55},{10th Ramadan},{10th Ramadan,Beni Suef},,,
2016-01-18,3G,Canal,Sharm El-Shiekh,RNCH04,646,100,{MSCS50-MSCS51-MSCS52-MSCS53-MSCS54-MSCS55},{10th Ramadan},{10th Ramadan,Beni Suef},,,
2016-01-18,3G,Canal,Sinai North_Rural,RNCH04,28,31.110001,{MSCS50-MSCS51-MSCS52-MSCS53-MSCS54-MSCS55},{10th Ramadan},{10th Ramadan,Beni Suef},,,
2016-01-18,3G,Canal,Red Sea North_Rural,RNCH04,33,28.209999,{MSCS50-MSCS51-MSCS52-MSCS53-MSCS54-MSCS55},{10th Ramadan},{10th Ramadan,Beni Suef},,,
2016-01-18,3G,Canal,Safaga,RNCH05,39,100,{MSCBC1-MSCBC2-MSCBC3-MSCBC4-MSCBC5-MSCBC6},{Beni Suef},{10th Ramadan,Beni Suef,CAI5,Zahraa},,,
2016-01-18,3G,Canal,Red Sea South_Rural,RNCH05,50,24.75,{MSCBC1-MSCBC2-MSCBC3-MSCBC4-MSCBC5-MSCBC6},{Beni Suef},{10th Ramadan,Beni Suef,CAI5,Zahraa},,,
2016-01-18,3G,Canal,Red Sea North_Rural,RNCH05,23,19.66,{MSCBC1-MSCBC2-MSCBC3-MSCBC4-MSCBC5-MSCBC6},{Beni Suef},{10th Ramadan,Beni Suef,CAI5,Zahraa},,,
2016-01-18,3G,Canal,Ras Ghareb,RNCH05,51,50,{MSCBC1-MSCBC2-MSCBC3-MSCBC4-MSCBC5-MSCBC6},{Beni Suef},{10th Ramadan,Beni Suef,CAI5,Zahraa},,,
2016-01-18,3G,Canal,El-Gouna,RNCH05,80,100,{MSCBC1-MSCBC2-MSCBC3-MSCBC4-MSCBC5-MSCBC6},{Beni Suef},{10th Ramadan,Beni Suef,CAI5,Zahraa},,,
2016-01-18,3G,Canal,Hurghada,RNCH05,887,100,{MSCBC1-MSCBC2-MSCBC3-MSCBC4-MSCBC5-MSCBC6},{Beni Suef},{10th Ramadan,Beni Suef,CAI5,Zahraa},,,
2016-01-18,3G,Upper Egypt,Fayoum_Rural,RNCH05,102,22.08,{MSCBC1-MSCBC2-MSCBC3-MSCBC4-MSCBC5-MSCBC6},{Beni Suef},{10th Ramadan,Beni Suef,CAI5,Zahraa},,,
2016-01-18,3G,Upper Egypt,Qena_Rural,RNCH06,257,71.790001,{MSCBC1-MSCBC2-MSCBC3-MSCBC4-MSCBC5-MSCBC6},{Beni Suef},{10th Ramadan,Beni Suef,CAI5,Zahraa},,,
2016-01-18,3G,Upper Egypt,Quina,RNCH06,135,100,{MSCBC1-MSCBC2-MSCBC3-MSCBC4-MSCBC5-MSCBC6},{Beni Suef},{10th Ramadan,Beni Suef,CAI5,Zahraa},,,
2016-01-18,3G,Upper Egypt,Sohag,RNCH06,151,100,{MSCBC1-MSCBC2-MSCBC3-MSCBC4-MSCBC5-MSCBC6},{Beni Suef},{10th Ramadan,Beni Suef,CAI5,Zahraa},,,
2016-01-18,3G,Upper Egypt,Souhag_Rural,RNCH06,249,92.220001,{MSCBC1-MSCBC2-MSCBC3-MSCBC4-MSCBC5-MSCBC6},{Beni Suef},{10th Ramadan,Beni Suef,CAI5,Zahraa},,,
2016-01-18,3G,Upper Egypt,Minia_Rural,RNCH06,263,62.77,{MSCBC1-MSCBC2-MSCBC3-MSCBC4-MSCBC5-MSCBC6},{Beni Suef},{10th Ramadan,Beni Suef,CAI5,Zahraa},,,
2016-01-18,3G,Canal,El-Qosseir,RNCH06,36,100,{MSCBC1-MSCBC2-MSCBC3-MSCBC4-MSCBC5-MSCBC6},{Beni Suef},{10th Ramadan,Beni Suef,CAI5,Zahraa},,,
2016-01-18,3G,Canal,Marsa Allam,RNCH06,45,100,{MSCBC1-MSCBC2-MSCBC3-MSCBC4-MSCBC5-MSCBC6},{Beni Suef},{10th Ramadan,Beni Suef,CAI5,Zahraa},,,
2016-01-18,3G,Canal,Red Sea North_Rural,RNCH06,2,1.71,{MSCBC1-MSCBC2-MSCBC3-MSCBC4-MSCBC5-MSCBC6},{Beni Suef},{10th Ramadan,Beni Suef,CAI5,Zahraa},,,
2016-01-18,3G,Canal,Red Sea South_Rural,RNCH06,152,75.25,{MSCBC1-MSCBC2-MSCBC3-MSCBC4-MSCBC5-MSCBC6},{Beni Suef},{10th Ramadan,Beni Suef,CAI5,Zahraa},,,
2016-01-18,3G,Alexandria,Alex_4,RNCH08,341,93.419998,{MSCS14-MSCS15-MSCS28-MSCS42-MSCS59-MSCS9},{Alex},{Alex},,,
2016-01-18,3G,Cairo,10Th Of Ramadan,RNCH08,2,0.34,{MSCS14-MSCS15-MSCS28-MSCS42-MSCS59-MSCS9},{Alex},{Alex},,,
2016-01-18,3G,Alexandria,Alex_3,RNCH08,30,7.5,{MSCS14-MSCS15-MSCS28-MSCS42-MSCS59-MSCS9},{Alex},{Alex},,,
2016-01-18,3G,Alexandria,North Coast East,RNCH08,617,53.369999,{MSCS14-MSCS15-MSCS28-MSCS42-MSCS59-MSCS9},{Alex},{Alex},,,
2016-01-18,3G,Alexandria,North Coast West,RNCH08,645,90.080002,{MSCS14-MSCS15-MSCS28-MSCS42-MSCS59-MSCS9},{Alex},{Alex},,,
2016-01-18,3G,Alexandria,North Coast West,RNCH09,71,9.9200001,{MSCS14-MSCS15-MSCS28-MSCS42-MSCS59-MSCS9},{Alex},{Alex},,,
2016-01-18,3G,Alexandria,Alex_4,RNCH09,24,6.5799999,{MSCS14-MSCS15-MSCS28-MSCS42-MSCS59-MSCS9},{Alex},{Alex},,,
2016-01-18,3G,Alexandria,Alex Desert Road,RNCH09,605,93.510002,{MSCS14-MSCS15-MSCS28-MSCS42-MSCS59-MSCS9},{Alex},{Alex},,,
2016-01-18,3G,Alexandria,Alex_3,RNCH09,10,2.5,{MSCS14-MSCS15-MSCS28-MSCS42-MSCS59-MSCS9},{Alex},{Alex},,,
2016-01-18,3G,Alexandria,North Coast East,RNCH09,538,46.540001,{MSCS14-MSCS15-MSCS28-MSCS42-MSCS59-MSCS9},{Alex},{Alex},,,
2016-01-18,3G,Delta,Beheira_Rural,RNCH09,6,0.41,{MSCS14-MSCS15-MSCS28-MSCS42-MSCS59-MSCS9},{Alex},{Alex},,,
2016-01-18,3G,Cairo,Down Town and Manyal,RNCH09,1,0.12,{MSCS14-MSCS15-MSCS28-MSCS42-MSCS59-MSCS9},{Alex},{Alex},,,
2016-01-18,3G,Giza,Alex Desert Road (Giza),RNCH09,7,6.0300002,{MSCS14-MSCS15-MSCS28-MSCS42-MSCS59-MSCS9},{Alex},{Alex},,,
2016-01-18,3G,Canal,Portsaid,RNCH10,309,100,{MSCBC1-MSCBC2-MSCBC3-MSCBC4-MSCBC5-MSCBC6},{10th Ramadan},{10th Ramadan,Beni Suef,CAI5,Zahraa},,,
2016-01-18,3G,Canal,Portsaid Rural,RNCH10,30,38.459999,{MSCBC1-MSCBC2-MSCBC3-MSCBC4-MSCBC5-MSCBC6},{10th Ramadan},{10th Ramadan,Beni Suef,CAI5,Zahraa},,,
2016-01-18,3G,Cairo,10Th Of Ramadan,RNCH10,562,95.089996,{MSCBC1-MSCBC2-MSCBC3-MSCBC4-MSCBC5-MSCBC6},{10th Ramadan},{10th Ramadan,Beni Suef,CAI5,Zahraa},,,
2016-01-18,3G,Cairo,5Th Gathering and Kattamya,RNCH11,368,41.91,{MSCBC1-MSCBC2-MSCBC3-MSCBC4-MSCBC5-MSCBC6},{CAI5},{10th Ramadan,Beni Suef,CAI5,Zahraa},,,
2016-01-18,3G,Cairo,1St Gathering,RNCH11,619,60.450001,{MSCBC1-MSCBC2-MSCBC3-MSCBC4-MSCBC5-MSCBC6},{CAI5},{10th Ramadan,Beni Suef,CAI5,Zahraa},,,
2016-01-18,3G,Canal,Red Sea North_Rural,RNCH11,16,13.68,{MSCBC1-MSCBC2-MSCBC3-MSCBC4-MSCBC5-MSCBC6},{CAI5},{10th Ramadan,Beni Suef,CAI5,Zahraa},,,
2016-01-18,3G,Giza,Sahary Alahram,RNCH11,229,34.380001,{MSCBC1-MSCBC2-MSCBC3-MSCBC4-MSCBC5-MSCBC6},{CAI5},{10th Ramadan,Beni Suef,CAI5,Zahraa},,,
2016-01-18,3G,Giza,Sahary Alahram,RNCH12,132,19.82,{MSCBC1-MSCBC2-MSCBC3-MSCBC4-MSCBC5-MSCBC6},{HQ},{10th Ramadan,Beni Suef,CAI5,Zahraa},,,
2016-01-18,3G,Giza,Mouhandseen,RNCH12,6,0.83999997,{MSCBC1-MSCBC2-MSCBC3-MSCBC4-MSCBC5-MSCBC6},{HQ},{10th Ramadan,Beni Suef,CAI5,Zahraa},,,
2016-01-18,3G,Giza,October,RNCH12,934,79.290001,{MSCBC1-MSCBC2-MSCBC3-MSCBC4-MSCBC5-MSCBC6},{HQ},{10th Ramadan,Beni Suef,CAI5,Zahraa},,,
2016-01-18,3G,Giza,Alex Desert Road (Giza),RNCH12,8,6.9000001,{MSCBC1-MSCBC2-MSCBC3-MSCBC4-MSCBC5-MSCBC6},{HQ},{10th Ramadan,Beni Suef,CAI5,Zahraa},,,
2016-01-18,3G,Upper Egypt,New Valley_Rural,RNCH12,8,19.049999,{MSCBC1-MSCBC2-MSCBC3-MSCBC4-MSCBC5-MSCBC6},{HQ},{10th Ramadan,Beni Suef,CAI5,Zahraa},,,
2016-01-18,3G,Cairo,Nasr City,RNCH13,72,5.5300002,{MSCBC1-MSCBC2-MSCBC3-MSCBC4-MSCBC5-MSCBC6},{CAI5},{10th Ramadan,Beni Suef,CAI5,Zahraa},,,
2016-01-18,3G,Cairo,5Th Gathering and Kattamya,RNCH13,504,57.400002,{MSCBC1-MSCBC2-MSCBC3-MSCBC4-MSCBC5-MSCBC6},{CAI5},{10th Ramadan,Beni Suef,CAI5,Zahraa},,,
2016-01-18,3G,Cairo,1St Gathering,RNCH13,218,21.290001,{MSCBC1-MSCBC2-MSCBC3-MSCBC4-MSCBC5-MSCBC6},{CAI5},{10th Ramadan,Beni Suef,CAI5,Zahraa},,,
2016-01-18,3G,Alexandria,Alex Desert Road,RNCH14,6,0.93000001,{MSCBC1-MSCBC2-MSCBC3-MSCBC4-MSCBC5-MSCBC6},{HQ},{10th Ramadan,Beni Suef,CAI5,Zahraa},,,
2016-01-18,3G,Delta,Beheira_Rural,RNCH14,39,2.6900001,{MSCBC1-MSCBC2-MSCBC3-MSCBC4-MSCBC5-MSCBC6},{HQ},{10th Ramadan,Beni Suef,CAI5,Zahraa},,,
2016-01-18,3G,Delta,Damanhour,RNCH14,15,9.8000002,{MSCBC1-MSCBC2-MSCBC3-MSCBC4-MSCBC5-MSCBC6},{HQ},{10th Ramadan,Beni Suef,CAI5,Zahraa},,,
2016-01-18,3G,Giza,Alex Desert Road (Giza),RNCH14,101,87.07,{MSCBC1-MSCBC2-MSCBC3-MSCBC4-MSCBC5-MSCBC6},{HQ},{10th Ramadan,Beni Suef,CAI5,Zahraa},,,
2016-01-18,3G,Giza,Kerdasa and Mansoraya,RNCH14,217,64.970001,{MSCBC1-MSCBC2-MSCBC3-MSCBC4-MSCBC5-MSCBC6},{HQ},{10th Ramadan,Beni Suef,CAI5,Zahraa},,,
2016-01-18,3G,Giza,October,RNCH14,233,19.780001,{MSCBC1-MSCBC2-MSCBC3-MSCBC4-MSCBC5-MSCBC6},{HQ},{10th Ramadan,Beni Suef,CAI5,Zahraa},,,
2016-01-18,3G,Giza,Sahary Alahram,RNCH14,305,45.799999,{MSCBC1-MSCBC2-MSCBC3-MSCBC4-MSCBC5-MSCBC6},{HQ},{10th Ramadan,Beni Suef,CAI5,Zahraa},,,
2016-01-18,3G,Giza,Zayed,RNCH14,584,100,{MSCBC1-MSCBC2-MSCBC3-MSCBC4-MSCBC5-MSCBC6},{HQ},{10th Ramadan,Beni Suef,CAI5,Zahraa},,,
2016-01-18,3G,Upper Egypt,Asyut_Rural,RNCH15,18,4.5100002,{MSCBC1-MSCBC2-MSCBC3-MSCBC4-MSCBC5-MSCBC6},{Beni Suef},{10th Ramadan,Beni Suef,CAI5,Zahraa},,,
2016-01-18,3G,Upper Egypt,Bani Sweif_Rural,RNCH15,257,98.849998,{MSCBC1-MSCBC2-MSCBC3-MSCBC4-MSCBC5-MSCBC6},{Beni Suef},{10th Ramadan,Beni Suef,CAI5,Zahraa},,,
2016-01-18,3G,Upper Egypt,Bani_Suef,RNCH15,186,100,{MSCBC1-MSCBC2-MSCBC3-MSCBC4-MSCBC5-MSCBC6},{Beni Suef},{10th Ramadan,Beni Suef,CAI5,Zahraa},,,
2016-01-18,3G,Upper Egypt,Fayoum,RNCH15,343,100,{MSCBC1-MSCBC2-MSCBC3-MSCBC4-MSCBC5-MSCBC6},{Beni Suef},{10th Ramadan,Beni Suef,CAI5,Zahraa},,,
2016-01-18,3G,Upper Egypt,Fayoum_Rural,RNCH15,244,52.810001,{MSCBC1-MSCBC2-MSCBC3-MSCBC4-MSCBC5-MSCBC6},{Beni Suef},{10th Ramadan,Beni Suef,CAI5,Zahraa},,,
2016-01-18,3G,Giza,Giza Outskirts,RNCH15,6,1.1,{MSCBC1-MSCBC2-MSCBC3-MSCBC4-MSCBC5-MSCBC6},{Beni Suef},{10th Ramadan,Beni Suef,CAI5,Zahraa},,,
2016-01-18,3G,Upper Egypt,New Valley_Rural,RNCH15,6,14.29,{MSCBC1-MSCBC2-MSCBC3-MSCBC4-MSCBC5-MSCBC6},{Beni Suef},{10th Ramadan,Beni Suef,CAI5,Zahraa},,,
2016-01-18,3G,Upper Egypt,Minia_Rural,RNCH15,126,30.07,{MSCBC1-MSCBC2-MSCBC3-MSCBC4-MSCBC5-MSCBC6},{Beni Suef},{10th Ramadan,Beni Suef,CAI5,Zahraa},,,
2016-01-18,3G,Delta,Beheira_Rural,RNCH16,60,4.1399999,{MSCBC1-MSCBC2-MSCBC3-MSCBC4-MSCBC5-MSCBC6},{10th Ramadan},{10th Ramadan,Beni Suef,CAI5,Zahraa},,,
2016-01-18,3G,Canal,Ras Sidr,RNCH16,94,100,{MSCBC1-MSCBC2-MSCBC3-MSCBC4-MSCBC5-MSCBC6},{10th Ramadan},{10th Ramadan,Beni Suef,CAI5,Zahraa},,,
2016-01-18,3G,Canal,Sinai North_Rural,RNCH16,62,68.889999,{MSCBC1-MSCBC2-MSCBC3-MSCBC4-MSCBC5-MSCBC6},{10th Ramadan},{10th Ramadan,Beni Suef,CAI5,Zahraa},,,
2016-01-18,3G,Canal,Sinai South_Rural,RNCH16,101,75.940002,{MSCBC1-MSCBC2-MSCBC3-MSCBC4-MSCBC5-MSCBC6},{10th Ramadan},{10th Ramadan,Beni Suef,CAI5,Zahraa},,,
2016-01-18,3G,Cairo,Shorouk and Badr,RNCH16,117,29.18,{MSCBC1-MSCBC2-MSCBC3-MSCBC4-MSCBC5-MSCBC6},{10th Ramadan},{10th Ramadan,Beni Suef,CAI5,Zahraa},,,
2016-01-18,3G,Canal,Portsaid Rural,RNCH16,39,50,{MSCBC1-MSCBC2-MSCBC3-MSCBC4-MSCBC5-MSCBC6},{10th Ramadan},{10th Ramadan,Beni Suef,CAI5,Zahraa},,,
2016-01-18,3G,Canal,Ismailia Rural,RNCH16,48,31.58,{MSCBC1-MSCBC2-MSCBC3-MSCBC4-MSCBC5-MSCBC6},{10th Ramadan},{10th Ramadan,Beni Suef,CAI5,Zahraa},,,
2016-01-18,3G,Canal,Arish,RNCH16,69,100,{MSCBC1-MSCBC2-MSCBC3-MSCBC4-MSCBC5-MSCBC6},{10th Ramadan},{10th Ramadan,Beni Suef,CAI5,Zahraa},,,
2016-01-18,3G,Cairo,Maadi,RNCH17,231,32.91,{MSCBC1-MSCBC2-MSCBC3-MSCBC4-MSCBC5-MSCBC6},{Zahraa},{10th Ramadan,Beni Suef,CAI5,Zahraa},,,
2016-01-18,3G,Cairo,Helwan,RNCH17,518,67.269997,{MSCBC1-MSCBC2-MSCBC3-MSCBC4-MSCBC5-MSCBC6},{Zahraa},{10th Ramadan,Beni Suef,CAI5,Zahraa},,,
2016-01-18,3G,Giza,Giza Outskirts,RNCH17,323,59.27,{MSCBC1-MSCBC2-MSCBC3-MSCBC4-MSCBC5-MSCBC6},{Zahraa},{10th Ramadan,Beni Suef,CAI5,Zahraa},,,
2016-01-18,3G,Giza,Kerdasa and Mansoraya,RNCH17,6,1.8,{MSCBC1-MSCBC2-MSCBC3-MSCBC4-MSCBC5-MSCBC6},{Zahraa},{10th Ramadan,Beni Suef,CAI5,Zahraa},,,
2016-01-18,3G,Giza,Giza Outskirts,RNCH18,97,17.799999,{MSCBC1-MSCBC2-MSCBC3-MSCBC4-MSCBC5-MSCBC6},{Mokattam},{10th Ramadan,Beni Suef,CAI5,Zahraa},,,
2016-01-18,3G,Cairo,Helwan,RNCH18,252,32.73,{MSCBC1-MSCBC2-MSCBC3-MSCBC4-MSCBC5-MSCBC6},{Mokattam},{10th Ramadan,Beni Suef,CAI5,Zahraa},,,
2016-01-18,3G,Cairo,Shorouk and Badr,RNCH20,284,70.82,,,,,,
2016-01-18,3G,Cairo,Obour,RNCH20,500,100,,,,,,
2016-01-18,3G,Cairo,1St Gathering,RNCH20,186,18.16,,,,,,
2016-01-18,3G,Cairo,10Th Of Ramadan,RNCH20,27,4.5700002,,,,,,
2016-01-18,3G,Canal,Ismailia Rural,RNCH26,11,7.2399998,,,,,,
2016-01-18,3G,Delta,Beheira_Rural,RNCH26,917,63.240002,,,,,,
2016-01-18,3G,Delta,Kafr El Sheikh_Rural,RNCH26,9,0.81999999,,,,,,
