DATE_ID,NETWORK,Region,Sub_region,BSC_RNC,CELLs,CELLs%,MSCs,BSC_RNC_Switch_Location,MSC_Switch_Location  2015-07-27,2G,Delta,Damietta_Rural,BSC16,8,1 8200001,{MSCS26-MSCS27-MSCS38-MSCS39-MSCS40},,{CAI5}
2015-12-05,2G,Delta,Dakahleyya_Rural,BSC17,77,4.5500002,{MSCS11-MSCS12-MSCS13-MSCS24-MSCS33-MSCS34},{10th Ramadan},{10th Ramadan},,,
2015-12-05,2G,Delta,Gharbiya_Rural,BSC17,7,0.81999999,{MSCS11-MSCS12-MSCS13-MSCS24-MSCS33-MSCS34},{10th Ramadan},{10th Ramadan},,,
2015-12-05,2G,Delta,Mansoura,BSC17,22,5.46,{MSCS11-MSCS12-MSCS13-MSCS24-MSCS33-MSCS34},{10th Ramadan},{10th Ramadan},,,
2015-12-05,2G,Delta,Sharkeyya_Rural,BSC17,14,0.74000001,{MSCS11-MSCS12-MSCS13-MSCS24-MSCS33-MSCS34},{10th Ramadan},{10th Ramadan},,,
2015-12-05,2G,Delta,Kafr El Sheikh_Rural,BSC18,20,1.98,{MSCS14-MSCS15-MSCS28-MSCS42-MSCS59-MSCS9},{Alex},{Alex},,,
2015-12-05,2G,Delta,Beheira_Rural,BSC18,99,7.3899999,{MSCS14-MSCS15-MSCS28-MSCS42-MSCS59-MSCS9},{Alex},{Alex},,,
2015-12-05,2G,Alexandria,Alex_1,BSC18,35,6.27,{MSCS14-MSCS15-MSCS28-MSCS42-MSCS59-MSCS9},{Alex},{Alex},,,
2015-12-05,2G,Alexandria,Alex_3,BSC18,8,2.23,{MSCS14-MSCS15-MSCS28-MSCS42-MSCS59-MSCS9},{Alex},{Alex},,,
2015-12-05,2G,Delta,Dakahleyya_Rural,BSC19,6,0.34999999,{MSCS11-MSCS12-MSCS13-MSCS24-MSCS33-MSCS34},{10th Ramadan},{10th Ramadan},,,
2015-12-05,2G,Delta,Mansoura,BSC19,146,36.23,{MSCS11-MSCS12-MSCS13-MSCS24-MSCS33-MSCS34},{10th Ramadan},{10th Ramadan},,,
2015-12-05,2G,Delta,Sharkeyya_Rural,BSC21,175,9.29,{MSCS11-MSCS12-MSCS13-MSCS24-MSCS33-MSCS34},{10th Ramadan},{10th Ramadan},,,
2015-12-05,2G,Delta,Sharkeyya_Rural,BSC22,71,3.77,{MSCBC2},{10th Ramadan},{10th Ramadan},,,
2015-12-05,2G,Delta,Dakahleyya_Rural,BSC22,64,3.78,{MSCBC2},{10th Ramadan},{10th Ramadan},,,
2015-12-05,2G,Delta,Kafr El Sheikh_Rural,BSC24,52,5.1500001,{MSCS35-MSCS36-MSCS46-MSCS47-MSCS48-MSCS49-MSCS56},{HQ},{Beni Suef},,,
2015-12-05,2G,Delta,Gharbiya_Rural,BSC24,82,9.5699997,{MSCS35-MSCS36-MSCS46-MSCS47-MSCS48-MSCS49-MSCS56},{HQ},{Beni Suef},,,
2015-12-05,2G,Delta,Sharkeyya_Rural,BSC24,7,0.37,{MSCS35-MSCS36-MSCS46-MSCS47-MSCS48-MSCS49-MSCS56},{HQ},{Beni Suef},,,
2015-12-05,2G,Delta,Damanhour,BSC25,123,82.550003,{MSCS35-MSCS36-MSCS46-MSCS47-MSCS48-MSCS49-MSCS56},{HQ},{Beni Suef},,,
2015-12-05,2G,Delta,Beheira_Rural,BSC25,6,0.44999999,{MSCS35-MSCS36-MSCS46-MSCS47-MSCS48-MSCS49-MSCS56},{HQ},{Beni Suef},,,
2015-12-05,2G,Delta,Kafr El Sheikh_Rural,BSC31,8,0.79000002,{MSCS14-MSCS15-MSCS28-MSCS42-MSCS59-MSCS9},{Alex},{Alex},,,
2015-12-05,2G,Alexandria,Alex_1,BSC31,333,59.68,{MSCS14-MSCS15-MSCS28-MSCS42-MSCS59-MSCS9},{Alex},{Alex},,,
2015-12-05,2G,Delta,Monufeyya_Rural,BSC33,8,0.92000002,{MSCS11-MSCS12-MSCS13-MSCS24-MSCS33-MSCS34},{10th Ramadan},{10th Ramadan},,,
2015-12-05,2G,Delta,Qalyubiya_Rural,BSC33,23,2.9200001,{MSCS11-MSCS12-MSCS13-MSCS24-MSCS33-MSCS34},{10th Ramadan},{10th Ramadan},,,
2015-12-05,2G,Delta,Banha,BSC33,127,97.690002,{MSCS11-MSCS12-MSCS13-MSCS24-MSCS33-MSCS34},{10th Ramadan},{10th Ramadan},,,
2015-12-05,2G,Delta,Dakahleyya_Rural,BSC33,49,2.8900001,{MSCS11-MSCS12-MSCS13-MSCS24-MSCS33-MSCS34},{10th Ramadan},{10th Ramadan},,,
2015-12-05,2G,Delta,Sharkeyya_Rural,BSC33,118,6.2600002,{MSCS11-MSCS12-MSCS13-MSCS24-MSCS33-MSCS34},{10th Ramadan},{10th Ramadan},,,
2015-12-05,2G,Delta,Dakahleyya_Rural,BSC34,123,7.27,{MSCS11-MSCS12-MSCS13-MSCS24-MSCS33-MSCS34},{10th Ramadan},{10th Ramadan},,,
2015-12-05,2G,Delta,Gharbiya_Rural,BSC34,17,1.98,{MSCS11-MSCS12-MSCS13-MSCS24-MSCS33-MSCS34},{10th Ramadan},{10th Ramadan},,,
2015-12-05,2G,Delta,Kafr El Sheikh_Rural,BSC35,6,0.58999997,{MSCS14-MSCS15-MSCS28-MSCS42-MSCS59-MSCS9},{Alex},{Alex},,,
2015-12-05,2G,Alexandria,Alex_1,BSC35,175,31.360001,{MSCS14-MSCS15-MSCS28-MSCS42-MSCS59-MSCS9},{Alex},{Alex},,,
2015-12-05,2G,Alexandria,Alex_2,BSC35,180,39.049999,{MSCS14-MSCS15-MSCS28-MSCS42-MSCS59-MSCS9},{Alex},{Alex},,,
2015-12-05,2G,Alexandria,Alex Desert Road,BSC35,10,2.6600001,{MSCS14-MSCS15-MSCS28-MSCS42-MSCS59-MSCS9},{Alex},{Alex},,,
2015-12-05,2G,Alexandria,Alex_2,BSC36,173,37.529999,{MSCS14-MSCS15-MSCS28-MSCS42-MSCS59-MSCS9},{Alex},{Alex},,,
2015-12-05,2G,Alexandria,Alex_1,BSC36,9,1.61,{MSCS14-MSCS15-MSCS28-MSCS42-MSCS59-MSCS9},{Alex},{Alex},,,
2015-12-05,2G,Alexandria,Alex_3,BSC36,165,45.959999,{MSCS14-MSCS15-MSCS28-MSCS42-MSCS59-MSCS9},{Alex},{Alex},,,
2015-12-05,2G,Alexandria,North Coast East,BSC36,1,0.23999999,{MSCS14-MSCS15-MSCS28-MSCS42-MSCS59-MSCS9},{Alex},{Alex},,,
2015-12-05,2G,Delta,Monufeyya_Rural,BSC39,17,1.95,{MSCS18},{Zahraa},{Zahraa},,,
2015-12-05,2G,Delta,Gharbiya_Rural,BSC39,176,20.540001,{MSCS18},{Zahraa},{Zahraa},,,
2015-12-05,2G,Cairo,Matarya,BSC40,22,4.0599999,{MSCS19},{Zahraa},{Zahraa},,,
2015-12-05,2G,Cairo,Shubra El-Khima,BSC40,86,18.49,{MSCS19},{Zahraa},{Zahraa},,,
2015-12-05,2G,Cairo,Zaitoun and Qubba,BSC40,49,26.92,{MSCS19},{Zahraa},{Zahraa},,,
2015-12-05,2G,Delta,Sharkeyya_Rural,BSC40,33,1.75,{MSCS19},{Zahraa},{Zahraa},,,
2015-12-05,2G,Cairo,Shubra El-Khima,BSC41,4,0.86000001,{MSCS35-MSCS36-MSCS46-MSCS47-MSCS48-MSCS49-MSCS56},{HQ},{Beni Suef},,,
2015-12-05,2G,Delta,Damanhour,BSC41,6,4.0300002,{MSCS35-MSCS36-MSCS46-MSCS47-MSCS48-MSCS49-MSCS56},{HQ},{Beni Suef},,,
2015-12-05,2G,Delta,Beheira_Rural,BSC41,55,4.1100001,{MSCS35-MSCS36-MSCS46-MSCS47-MSCS48-MSCS49-MSCS56},{HQ},{Beni Suef},,,
2015-12-05,2G,Delta,Qalyubiya_Rural,BSC41,6,0.75999999,{MSCS35-MSCS36-MSCS46-MSCS47-MSCS48-MSCS49-MSCS56},{HQ},{Beni Suef},,,
2015-12-05,2G,Delta,Gharbiya_Rural,BSC41,103,12.02,{MSCS35-MSCS36-MSCS46-MSCS47-MSCS48-MSCS49-MSCS56},{HQ},{Beni Suef},,,
2015-12-05,2G,Delta,Gharbiya_Rural,BSC42,56,6.5300002,{MSCS35-MSCS36-MSCS46-MSCS47-MSCS48-MSCS49-MSCS56},{HQ},{Beni Suef},,,
2015-12-05,2G,Delta,Mahala,BSC42,151,82.510002,{MSCS35-MSCS36-MSCS46-MSCS47-MSCS48-MSCS49-MSCS56},{HQ},{Beni Suef},,,
2015-12-05,2G,Delta,Monufeyya_Rural,BSC42,6,0.69,{MSCS35-MSCS36-MSCS46-MSCS47-MSCS48-MSCS49-MSCS56},{HQ},{Beni Suef},,,
2015-12-05,2G,Delta,Beheira_Rural,BSC42,6,0.44999999,{MSCS35-MSCS36-MSCS46-MSCS47-MSCS48-MSCS49-MSCS56},{HQ},{Beni Suef},,,
2015-12-05,2G,Delta,Dakahleyya_Rural,BSC42,10,0.58999997,{MSCS35-MSCS36-MSCS46-MSCS47-MSCS48-MSCS49-MSCS56},{HQ},{Beni Suef},,,
2015-12-05,2G,Delta,Kafr El Sheikh_Rural,BSC43,43,4.2600002,{MSCS22-MSCS23-MSCS25-MSCS57-MSCS58},{CAI5},{CAI5},,,
2015-12-05,2G,Delta,Kafr El Sheikh_Rural,BSC44,11,1.09,{MSCS22-MSCS23-MSCS25-MSCS57-MSCS58},{CAI5},{CAI5},,,
2015-12-05,2G,Delta,Dakahleyya_Rural,BSC44,97,5.73,{MSCS22-MSCS23-MSCS25-MSCS57-MSCS58},{CAI5},{CAI5},,,
2015-12-05,2G,Giza,Imbaba,BSC44,174,54.209999,{MSCS22-MSCS23-MSCS25-MSCS57-MSCS58},{CAI5},{CAI5},,,
2015-12-05,2G,Giza,Mouhandseen,BSC44,6,1.28,{MSCS22-MSCS23-MSCS25-MSCS57-MSCS58},{CAI5},{CAI5},,,
2015-12-05,2G,Giza,Shubra and Imbaba Outskirts,BSC44,8,11.94,{MSCS22-MSCS23-MSCS25-MSCS57-MSCS58},{CAI5},{CAI5},,,
2015-12-05,2G,Delta,Mansoura,BSC45,170,42.18,{MSCS11-MSCS12-MSCS13-MSCS24-MSCS33-MSCS34},{10th Ramadan},{10th Ramadan},,,
2015-12-05,2G,Delta,Dakahleyya_Rural,BSC46,8,0.47,{MSCS22-MSCS23-MSCS25-MSCS57-MSCS58},{CAI5},{CAI5},,,
2015-12-05,2G,Delta,Damietta_Rural,BSC46,102,21.98,{MSCS22-MSCS23-MSCS25-MSCS57-MSCS58},{CAI5},{CAI5},,,
2015-12-05,2G,Giza,Mouhandseen,BSC46,70,14.99,{MSCS22-MSCS23-MSCS25-MSCS57-MSCS58},{CAI5},{CAI5},,,
2015-12-05,2G,Giza,Imbaba,BSC46,18,5.6100001,{MSCS22-MSCS23-MSCS25-MSCS57-MSCS58},{CAI5},{CAI5},,,
2015-12-05,2G,Delta,Beheira_Rural,BSC47,26,1.9400001,{MSCS14-MSCS15-MSCS28-MSCS42-MSCS59-MSCS9},{Alex},{Alex},,,
2015-12-05,2G,Delta,Kafr El Sheikh_Rural,BSC47,34,3.3699999,{MSCS14-MSCS15-MSCS28-MSCS42-MSCS59-MSCS9},{Alex},{Alex},,,
2015-12-05,2G,Alexandria,Alex_2,BSC47,108,23.43,{MSCS14-MSCS15-MSCS28-MSCS42-MSCS59-MSCS9},{Alex},{Alex},,,
2015-12-05,2G,Alexandria,Alex_1,BSC47,6,1.08,{MSCS14-MSCS15-MSCS28-MSCS42-MSCS59-MSCS9},{Alex},{Alex},,,
2015-12-05,2G,Alexandria,Alex_3,BSC47,164,45.68,{MSCS14-MSCS15-MSCS28-MSCS42-MSCS59-MSCS9},{Alex},{Alex},,,
2015-12-05,2G,Alexandria,Alex Desert Road,BSC47,12,3.1900001,{MSCS14-MSCS15-MSCS28-MSCS42-MSCS59-MSCS9},{Alex},{Alex},,,
2015-12-05,2G,Delta,Gharbiya_Rural,BSC48,6,0.69999999,{MSCS35-MSCS36-MSCS46-MSCS47-MSCS48-MSCS49-MSCS56},{HQ},{Beni Suef},,,
2015-12-05,2G,Delta,Monufeyya_Rural,BSC48,30,3.4300001,{MSCS35-MSCS36-MSCS46-MSCS47-MSCS48-MSCS49-MSCS56},{HQ},{Beni Suef},,,
2015-12-05,2G,Delta,Beheira_Rural,BSC48,6,0.44999999,{MSCS35-MSCS36-MSCS46-MSCS47-MSCS48-MSCS49-MSCS56},{HQ},{Beni Suef},,,
2015-12-05,2G,Delta,Qalyubiya_Rural,BSC48,84,10.66,{MSCS35-MSCS36-MSCS46-MSCS47-MSCS48-MSCS49-MSCS56},{HQ},{Beni Suef},,,
2015-12-05,2G,Delta,Sharkeyya_Rural,BSC48,74,3.9300001,{MSCS35-MSCS36-MSCS46-MSCS47-MSCS48-MSCS49-MSCS56},{HQ},{Beni Suef},,,
2015-12-05,2G,Delta,Qalyubiya_Rural,BSC49,212,26.9,{MSCS35-MSCS36-MSCS46-MSCS47-MSCS48-MSCS49-MSCS56},{HQ},{Beni Suef},,,
2015-12-05,2G,Delta,Monufeyya_Rural,BSC49,97,11.1,{MSCS35-MSCS36-MSCS46-MSCS47-MSCS48-MSCS49-MSCS56},{HQ},{Beni Suef},,,
2015-12-05,2G,Delta,Gharbiya_Rural,BSC51,30,3.5,{MSCS11-MSCS12-MSCS13-MSCS24-MSCS33-MSCS34},{10th Ramadan},{10th Ramadan},,,
2015-12-05,2G,Delta,Dakahleyya_Rural,BSC51,43,2.54,{MSCS11-MSCS12-MSCS13-MSCS24-MSCS33-MSCS34},{10th Ramadan},{10th Ramadan},,,
2015-12-05,2G,Delta,Sharkeyya_Rural,BSC51,169,8.9700003,{MSCS11-MSCS12-MSCS13-MSCS24-MSCS33-MSCS34},{10th Ramadan},{10th Ramadan},,,
2015-12-05,2G,Delta,Gharbiya_Rural,BSC52,14,1.63,{MSCS11-MSCS12-MSCS13-MSCS24-MSCS33-MSCS34},{10th Ramadan},{10th Ramadan},,,
2015-12-05,2G,Delta,Kafr El Sheikh_Rural,BSC52,128,12.69,{MSCS11-MSCS12-MSCS13-MSCS24-MSCS33-MSCS34},{10th Ramadan},{10th Ramadan},,,
2015-12-05,2G,Delta,Kafr El Sheikh_Rural,BSC53,35,3.47,{MSCS35-MSCS36-MSCS46-MSCS47-MSCS48-MSCS49-MSCS56},{HQ},{Beni Suef},,,
2015-12-05,2G,Delta,Gharbiya_Rural,BSC53,12,1.4,{MSCS35-MSCS36-MSCS46-MSCS47-MSCS48-MSCS49-MSCS56},{HQ},{Beni Suef},,,
2015-12-05,2G,Delta,Dakahleyya_Rural,BSC53,105,6.1999998,{MSCS35-MSCS36-MSCS46-MSCS47-MSCS48-MSCS49-MSCS56},{HQ},{Beni Suef},,,
2015-12-05,2G,Delta,Beheira_Rural,BSC53,48,3.5799999,{MSCS35-MSCS36-MSCS46-MSCS47-MSCS48-MSCS49-MSCS56},{HQ},{Beni Suef},,,
2015-12-05,2G,Delta,Sharkeyya_Rural,BSC53,11,0.57999998,{MSCS35-MSCS36-MSCS46-MSCS47-MSCS48-MSCS49-MSCS56},{HQ},{Beni Suef},,,
2015-12-05,2G,Delta,Sharkeyya_Rural,BSC56,6,0.31999999,{MSCS22-MSCS23-MSCS25-MSCS57-MSCS58},{CAI5},{CAI5},,,
2015-12-05,2G,Delta,Dakahleyya_Rural,BSC56,42,2.48,{MSCS22-MSCS23-MSCS25-MSCS57-MSCS58},{CAI5},{CAI5},,,
2015-12-05,2G,Delta,Kafr El Sheikh_Rural,BSC56,109,10.8,{MSCS22-MSCS23-MSCS25-MSCS57-MSCS58},{CAI5},{CAI5},,,
2015-12-05,2G,Delta,Kafr El Sheikh_Rural,BSC57,27,2.6800001,{MSCBC1-MSCBC2-MSCBC3-MSCBC4-MSCBC5-MSCBC6},{CAI5},{10th Ramadan,Beni Suef,CAI5,Zahraa},,,
2015-12-05,2G,Delta,Qalyubiya_Rural,BSC57,88,11.17,{MSCBC1-MSCBC2-MSCBC3-MSCBC4-MSCBC5-MSCBC6},{CAI5},{10th Ramadan,Beni Suef,CAI5,Zahraa},,,
2015-12-05,2G,Cairo,Matarya,BSC57,54,9.96,{MSCBC1-MSCBC2-MSCBC3-MSCBC4-MSCBC5-MSCBC6},{CAI5},{10th Ramadan,Beni Suef,CAI5,Zahraa},,,
2015-12-05,2G,Cairo,Airport,BSC57,6,10.34,{MSCBC1-MSCBC2-MSCBC3-MSCBC4-MSCBC5-MSCBC6},{CAI5},{10th Ramadan,Beni Suef,CAI5,Zahraa},,,
2015-12-05,2G,Cairo,Alsalam,BSC57,113,43.299999,{MSCBC1-MSCBC2-MSCBC3-MSCBC4-MSCBC5-MSCBC6},{CAI5},{10th Ramadan,Beni Suef,CAI5,Zahraa},,,
2015-12-05,2G,Cairo,Nasr City,BSC57,4,0.56,{MSCBC1-MSCBC2-MSCBC3-MSCBC4-MSCBC5-MSCBC6},{CAI5},{10th Ramadan,Beni Suef,CAI5,Zahraa},,,
2015-12-05,2G,Cairo,Moukattam,BSC58,30,11.63,{MSCBC1-MSCBC2-MSCBC3-MSCBC4-MSCBC5-MSCBC6},{Zahraa},{10th Ramadan,Beni Suef,CAI5,Zahraa},,,
2015-12-05,2G,Cairo,Shubra El-Khima,BSC58,1,0.22,{MSCBC1-MSCBC2-MSCBC3-MSCBC4-MSCBC5-MSCBC6},{Zahraa},{10th Ramadan,Beni Suef,CAI5,Zahraa},,,
2015-12-05,2G,Cairo,Shubra,BSC58,4,2.22,{MSCBC1-MSCBC2-MSCBC3-MSCBC4-MSCBC5-MSCBC6},{Zahraa},{10th Ramadan,Beni Suef,CAI5,Zahraa},,,
2015-12-05,2G,Cairo,Zamalek,BSC58,23,24.209999,{MSCBC1-MSCBC2-MSCBC3-MSCBC4-MSCBC5-MSCBC6},{Zahraa},{10th Ramadan,Beni Suef,CAI5,Zahraa},,,
2015-12-05,2G,Cairo,Down Town and Manyal,BSC58,426,66.360001,{MSCBC1-MSCBC2-MSCBC3-MSCBC4-MSCBC5-MSCBC6},{Zahraa},{10th Ramadan,Beni Suef,CAI5,Zahraa},,,
2015-12-05,2G,Cairo,Abbassyia,BSC58,17,12.41,{MSCBC1-MSCBC2-MSCBC3-MSCBC4-MSCBC5-MSCBC6},{Zahraa},{10th Ramadan,Beni Suef,CAI5,Zahraa},,,
2015-12-05,2G,Delta,Monufeyya_Rural,BSC58,102,11.67,{MSCBC1-MSCBC2-MSCBC3-MSCBC4-MSCBC5-MSCBC6},{Zahraa},{10th Ramadan,Beni Suef,CAI5,Zahraa},,,
2015-12-05,2G,Delta,Gharbiya_Rural,BSC58,24,2.8,{MSCBC1-MSCBC2-MSCBC3-MSCBC4-MSCBC5-MSCBC6},{Zahraa},{10th Ramadan,Beni Suef,CAI5,Zahraa},,,
2015-12-05,2G,Giza,Mouhandseen,BSC58,4,0.86000001,{MSCBC1-MSCBC2-MSCBC3-MSCBC4-MSCBC5-MSCBC6},{Zahraa},{10th Ramadan,Beni Suef,CAI5,Zahraa},,,
2015-12-05,2G,Giza,Imbaba,BSC59,12,3.74,{MSCBC1-MSCBC2-MSCBC3-MSCBC4-MSCBC5-MSCBC6},{Zahraa},{10th Ramadan,Beni Suef,CAI5,Zahraa},,,
2015-12-05,2G,Delta,Beheira_Rural,BSC59,157,11.73,{MSCBC1-MSCBC2-MSCBC3-MSCBC4-MSCBC5-MSCBC6},{Zahraa},{10th Ramadan,Beni Suef,CAI5,Zahraa},,,
2015-12-05,2G,Cairo,Down Town and Manyal,BSC59,106,16.51,{MSCBC1-MSCBC2-MSCBC3-MSCBC4-MSCBC5-MSCBC6},{Zahraa},{10th Ramadan,Beni Suef,CAI5,Zahraa},,,
2015-12-05,2G,Cairo,Helwan,BSC59,6,1.46,{MSCBC1-MSCBC2-MSCBC3-MSCBC4-MSCBC5-MSCBC6},{Zahraa},{10th Ramadan,Beni Suef,CAI5,Zahraa},,,
2015-12-05,2G,Cairo,Abbassyia,BSC59,1,0.73000002,{MSCBC1-MSCBC2-MSCBC3-MSCBC4-MSCBC5-MSCBC6},{Zahraa},{10th Ramadan,Beni Suef,CAI5,Zahraa},,,
2015-12-05,2G,Cairo,Zamalek,BSC59,72,75.790001,{MSCBC1-MSCBC2-MSCBC3-MSCBC4-MSCBC5-MSCBC6},{Zahraa},{10th Ramadan,Beni Suef,CAI5,Zahraa},,,
2015-12-05,2G,Cairo,Shubra El-Khima,BSC59,18,3.8699999,{MSCBC1-MSCBC2-MSCBC3-MSCBC4-MSCBC5-MSCBC6},{Zahraa},{10th Ramadan,Beni Suef,CAI5,Zahraa},,,
2015-12-05,2G,Cairo,Shubra,BSC59,132,73.330002,{MSCBC1-MSCBC2-MSCBC3-MSCBC4-MSCBC5-MSCBC6},{Zahraa},{10th Ramadan,Beni Suef,CAI5,Zahraa},,,
2015-12-05,2G,Cairo,Matarya,BSC60,148,27.309999,{MSCBC1-MSCBC2-MSCBC3-MSCBC4-MSCBC5-MSCBC6},{Zahraa},{10th Ramadan,Beni Suef,CAI5,Zahraa},,,
2015-12-05,2G,Cairo,Ain Shams,BSC60,64,34.59,{MSCBC1-MSCBC2-MSCBC3-MSCBC4-MSCBC5-MSCBC6},{Zahraa},{10th Ramadan,Beni Suef,CAI5,Zahraa},,,
2015-12-05,2G,Cairo,Down Town and Manyal,BSC60,110,17.129999,{MSCBC1-MSCBC2-MSCBC3-MSCBC4-MSCBC5-MSCBC6},{Zahraa},{10th Ramadan,Beni Suef,CAI5,Zahraa},,,
2015-12-05,2G,Delta,Dakahleyya_Rural,BSC60,76,4.4899998,{MSCBC1-MSCBC2-MSCBC3-MSCBC4-MSCBC5-MSCBC6},{Zahraa},{10th Ramadan,Beni Suef,CAI5,Zahraa},,,
2015-12-05,2G,Delta,Gharbiya_Rural,BSC60,33,3.8499999,{MSCBC1-MSCBC2-MSCBC3-MSCBC4-MSCBC5-MSCBC6},{Zahraa},{10th Ramadan,Beni Suef,CAI5,Zahraa},,,
2015-12-05,2G,Delta,Kafr El Sheikh_Rural,BSC61,8,0.79000002,{MSCBC1-MSCBC2-MSCBC3-MSCBC4-MSCBC5-MSCBC6},{CAI5},{10th Ramadan,Beni Suef,CAI5,Zahraa},,,
2015-12-05,2G,Delta,Damyata,BSC61,149,100,{MSCBC1-MSCBC2-MSCBC3-MSCBC4-MSCBC5-MSCBC6},{CAI5},{10th Ramadan,Beni Suef,CAI5,Zahraa},,,
2015-12-05,2G,Delta,Damietta_Rural,BSC61,131,28.23,{MSCBC1-MSCBC2-MSCBC3-MSCBC4-MSCBC5-MSCBC6},{CAI5},{10th Ramadan,Beni Suef,CAI5,Zahraa},,,
2015-12-05,2G,Giza,Kerdasa and Mansoraya,BSC61,22,14.01,{MSCBC1-MSCBC2-MSCBC3-MSCBC4-MSCBC5-MSCBC6},{CAI5},{10th Ramadan,Beni Suef,CAI5,Zahraa},,,
2015-12-05,2G,Giza,Boulaq,BSC61,4,1.37,{MSCBC1-MSCBC2-MSCBC3-MSCBC4-MSCBC5-MSCBC6},{CAI5},{10th Ramadan,Beni Suef,CAI5,Zahraa},,,
2015-12-05,2G,Upper Egypt,New Valley_Rural,BSC61,1,0.60000002,{MSCBC1-MSCBC2-MSCBC3-MSCBC4-MSCBC5-MSCBC6},{CAI5},{10th Ramadan,Beni Suef,CAI5,Zahraa},,,
2015-12-05,2G,Delta,Dakahleyya_Rural,BSC62,160,9.4499998,{MSCBC1-MSCBC2-MSCBC3-MSCBC4-MSCBC5-MSCBC6},{CAI5},{10th Ramadan,Beni Suef,CAI5,Zahraa},,,
2015-12-05,2G,Delta,Kafr El Sheikh_Rural,BSC63,29,2.8699999,{MSCBC1-MSCBC2-MSCBC3-MSCBC4-MSCBC5-MSCBC6},{Mokattam},{10th Ramadan,Beni Suef,CAI5,Zahraa},,,
2015-12-05,2G,Delta,Gharbiya_Rural,BSC63,15,1.75,{MSCBC1-MSCBC2-MSCBC3-MSCBC4-MSCBC5-MSCBC6},{Mokattam},{10th Ramadan,Beni Suef,CAI5,Zahraa},,,
2015-12-05,2G,Delta,Qalyubiya_Rural,BSC63,9,1.14,{MSCBC1-MSCBC2-MSCBC3-MSCBC4-MSCBC5-MSCBC6},{Mokattam},{10th Ramadan,Beni Suef,CAI5,Zahraa},,,
2015-12-05,2G,Cairo,Hadabah Wostah,BSC63,113,86.260002,{MSCBC1-MSCBC2-MSCBC3-MSCBC4-MSCBC5-MSCBC6},{Mokattam},{10th Ramadan,Beni Suef,CAI5,Zahraa},,,
2015-12-05,2G,Cairo,Dar El Salam,BSC63,39,18.48,{MSCBC1-MSCBC2-MSCBC3-MSCBC4-MSCBC5-MSCBC6},{Mokattam},{10th Ramadan,Beni Suef,CAI5,Zahraa},,,
2015-12-05,2G,Cairo,Maadi,BSC63,15,4.2600002,{MSCBC1-MSCBC2-MSCBC3-MSCBC4-MSCBC5-MSCBC6},{Mokattam},{10th Ramadan,Beni Suef,CAI5,Zahraa},,,
2015-12-05,2G,Cairo,Moukattam,BSC63,188,72.870003,{MSCBC1-MSCBC2-MSCBC3-MSCBC4-MSCBC5-MSCBC6},{Mokattam},{10th Ramadan,Beni Suef,CAI5,Zahraa},,,
2015-12-05,2G,Cairo,Nasr City,BSC63,280,39.220001,{MSCBC1-MSCBC2-MSCBC3-MSCBC4-MSCBC5-MSCBC6},{Mokattam},{10th Ramadan,Beni Suef,CAI5,Zahraa},,,
2015-12-05,2G,Cairo,Zaitoun and Qubba,BSC64,52,28.57,{MSCBC1-MSCBC2-MSCBC3-MSCBC4-MSCBC5-MSCBC6},{Zahraa},{10th Ramadan,Beni Suef,CAI5,Zahraa},,,
2015-12-05,2G,Cairo,Shubra,BSC64,24,13.33,{MSCBC1-MSCBC2-MSCBC3-MSCBC4-MSCBC5-MSCBC6},{Zahraa},{10th Ramadan,Beni Suef,CAI5,Zahraa},,,
2015-12-05,2G,Cairo,Shubra El-Khima,BSC64,12,2.5799999,{MSCBC1-MSCBC2-MSCBC3-MSCBC4-MSCBC5-MSCBC6},{Zahraa},{10th Ramadan,Beni Suef,CAI5,Zahraa},,,
2015-12-05,2G,Cairo,Matarya,BSC64,21,3.8699999,{MSCBC1-MSCBC2-MSCBC3-MSCBC4-MSCBC5-MSCBC6},{Zahraa},{10th Ramadan,Beni Suef,CAI5,Zahraa},,,
2015-12-05,2G,Cairo,Alsalam,BSC64,6,2.3,{MSCBC1-MSCBC2-MSCBC3-MSCBC4-MSCBC5-MSCBC6},{Zahraa},{10th Ramadan,Beni Suef,CAI5,Zahraa},,,
2015-12-05,2G,Cairo,Ain Shams,BSC64,12,6.4899998,{MSCBC1-MSCBC2-MSCBC3-MSCBC4-MSCBC5-MSCBC6},{Zahraa},{10th Ramadan,Beni Suef,CAI5,Zahraa},,,
2015-12-05,2G,Cairo,Abbassyia,BSC64,7,5.1100001,{MSCBC1-MSCBC2-MSCBC3-MSCBC4-MSCBC5-MSCBC6},{Zahraa},{10th Ramadan,Beni Suef,CAI5,Zahraa},,,
2015-12-05,2G,Delta,Gharbiya_Rural,BSC64,61,7.1199999,{MSCBC1-MSCBC2-MSCBC3-MSCBC4-MSCBC5-MSCBC6},{Zahraa},{10th Ramadan,Beni Suef,CAI5,Zahraa},,,
2015-12-05,2G,Delta,Beheira_Rural,BSC64,51,3.8099999,{MSCBC1-MSCBC2-MSCBC3-MSCBC4-MSCBC5-MSCBC6},{Zahraa},{10th Ramadan,Beni Suef,CAI5,Zahraa},,,
2015-12-05,2G,Delta,Dakahleyya_Rural,BSC65,4,0.23999999,{MSCBC1-MSCBC2-MSCBC3-MSCBC4-MSCBC5-MSCBC6},{Zahraa},{10th Ramadan,Beni Suef,CAI5,Zahraa},,,
2015-12-05,2G,Cairo,Abbassyia,BSC65,10,7.3000002,{MSCBC1-MSCBC2-MSCBC3-MSCBC4-MSCBC5-MSCBC6},{Zahraa},{10th Ramadan,Beni Suef,CAI5,Zahraa},,,
2015-12-05,2G,Delta,Sharkeyya_Rural,BSC65,359,19.059999,{MSCBC1-MSCBC2-MSCBC3-MSCBC4-MSCBC5-MSCBC6},{Zahraa},{10th Ramadan,Beni Suef,CAI5,Zahraa},,,
2015-12-05,2G,Delta,Shibin,BSC66,142,100,{MSCBC1-MSCBC2-MSCBC3-MSCBC4-MSCBC5-MSCBC6},{Zahraa},{10th Ramadan,Beni Suef,CAI5,Zahraa},,,
2015-12-05,2G,Delta,Monufeyya_Rural,BSC66,180,20.59,{MSCBC1-MSCBC2-MSCBC3-MSCBC4-MSCBC5-MSCBC6},{Zahraa},{10th Ramadan,Beni Suef,CAI5,Zahraa},,,
2015-12-05,2G,Delta,Kafr El Sheikh_Rural,BSC67,171,16.950001,{MSCBC1-MSCBC2-MSCBC3-MSCBC4-MSCBC5-MSCBC6},{CAI5},{10th Ramadan,Beni Suef,CAI5,Zahraa},,,
2015-12-05,2G,Delta,Dakahleyya_Rural,BSC67,64,3.78,{MSCBC1-MSCBC2-MSCBC3-MSCBC4-MSCBC5-MSCBC6},{CAI5},{10th Ramadan,Beni Suef,CAI5,Zahraa},,,
2015-12-05,2G,Delta,Damietta_Rural,BSC67,35,7.54,{MSCBC1-MSCBC2-MSCBC3-MSCBC4-MSCBC5-MSCBC6},{CAI5},{10th Ramadan,Beni Suef,CAI5,Zahraa},,,
2015-12-05,2G,Giza,Imbaba,BSC67,72,22.43,{MSCBC1-MSCBC2-MSCBC3-MSCBC4-MSCBC5-MSCBC6},{CAI5},{10th Ramadan,Beni Suef,CAI5,Zahraa},,,
2015-12-05,2G,Delta,Gharbiya_Rural,BSC68,22,2.5699999,{MSCBC1-MSCBC2-MSCBC3-MSCBC4-MSCBC5-MSCBC6},{HQ},{10th Ramadan,Beni Suef,CAI5,Zahraa},,,
2015-12-05,2G,Delta,Beheira_Rural,BSC68,4,0.30000001,{MSCBC1-MSCBC2-MSCBC3-MSCBC4-MSCBC5-MSCBC6},{HQ},{10th Ramadan,Beni Suef,CAI5,Zahraa},,,
2015-12-05,2G,Delta,Kafr El-Shikh,BSC68,103,100,{MSCBC1-MSCBC2-MSCBC3-MSCBC4-MSCBC5-MSCBC6},{HQ},{10th Ramadan,Beni Suef,CAI5,Zahraa},,,
2015-12-05,2G,Delta,Kafr El Sheikh_Rural,BSC68,88,8.7200003,{MSCBC1-MSCBC2-MSCBC3-MSCBC4-MSCBC5-MSCBC6},{HQ},{10th Ramadan,Beni Suef,CAI5,Zahraa},,,
2015-12-05,2G,Delta,Qalyubiya_Rural,BSC68,26,3.3,{MSCBC1-MSCBC2-MSCBC3-MSCBC4-MSCBC5-MSCBC6},{HQ},{10th Ramadan,Beni Suef,CAI5,Zahraa},,,
2015-12-05,2G,Delta,Monufeyya_Rural,BSC68,59,6.75,{MSCBC1-MSCBC2-MSCBC3-MSCBC4-MSCBC5-MSCBC6},{HQ},{10th Ramadan,Beni Suef,CAI5,Zahraa},,,
2015-12-05,2G,Delta,Damietta_Rural,BSC69,15,3.23,{MSCBC1-MSCBC2-MSCBC3-MSCBC4-MSCBC5-MSCBC6},{CAI5},{10th Ramadan,Beni Suef,CAI5,Zahraa},,,
2015-12-05,2G,Delta,Dakahleyya_Rural,BSC69,198,11.7,{MSCBC1-MSCBC2-MSCBC3-MSCBC4-MSCBC5-MSCBC6},{CAI5},{10th Ramadan,Beni Suef,CAI5,Zahraa},,,
2015-12-05,2G,Cairo,5Th Gathering and Kattamya,BSC69,1,0.30000001,{MSCBC1-MSCBC2-MSCBC3-MSCBC4-MSCBC5-MSCBC6},{CAI5},{10th Ramadan,Beni Suef,CAI5,Zahraa},,,
2015-12-05,2G,Delta,Dakahleyya_Rural,BSC70,76,4.4899998,{MSCBC1-MSCBC2-MSCBC3-MSCBC4-MSCBC5-MSCBC6},{CAI5},{10th Ramadan,Beni Suef,CAI5,Zahraa},,,
2015-12-05,2G,Delta,Damietta_Rural,BSC70,10,2.1600001,{MSCBC1-MSCBC2-MSCBC3-MSCBC4-MSCBC5-MSCBC6},{CAI5},{10th Ramadan,Beni Suef,CAI5,Zahraa},,,
2015-12-05,2G,Delta,Monufeyya_Rural,BSC70,6,0.69,{MSCBC1-MSCBC2-MSCBC3-MSCBC4-MSCBC5-MSCBC6},{CAI5},{10th Ramadan,Beni Suef,CAI5,Zahraa},,,
2015-12-05,2G,Delta,Kafr El Sheikh_Rural,BSC70,97,9.6099997,{MSCBC1-MSCBC2-MSCBC3-MSCBC4-MSCBC5-MSCBC6},{CAI5},{10th Ramadan,Beni Suef,CAI5,Zahraa},,,
2015-12-05,2G,Giza,Haram,BSC70,2,0.22,{MSCBC1-MSCBC2-MSCBC3-MSCBC4-MSCBC5-MSCBC6},{CAI5},{10th Ramadan,Beni Suef,CAI5,Zahraa},,,
2015-12-05,2G,Delta,Sharkeyya_Rural,BSC70,30,1.59,{MSCBC1-MSCBC2-MSCBC3-MSCBC4-MSCBC5-MSCBC6},{CAI5},{10th Ramadan,Beni Suef,CAI5,Zahraa},,,
2015-12-05,2G,Delta,Kafr El Sheikh_Rural,BSC71,60,5.9499998,{MSCBC1-MSCBC2-MSCBC3-MSCBC4-MSCBC5-MSCBC6},{CAI5},{10th Ramadan,Beni Suef,CAI5,Zahraa},,,
2015-12-05,2G,Delta,Beheira_Rural,BSC71,187,13.97,{MSCBC1-MSCBC2-MSCBC3-MSCBC4-MSCBC5-MSCBC6},{CAI5},{10th Ramadan,Beni Suef,CAI5,Zahraa},,,
2015-12-05,2G,Delta,Beheira_Rural,BSC72,33,2.46,{MSCBC1-MSCBC2-MSCBC3-MSCBC4-MSCBC5-MSCBC6},{Mokattam},{10th Ramadan,Beni Suef,CAI5,Zahraa},,,
2015-12-05,2G,Delta,Gharbiya_Rural,BSC72,22,2.5699999,{MSCBC1-MSCBC2-MSCBC3-MSCBC4-MSCBC5-MSCBC6},{Mokattam},{10th Ramadan,Beni Suef,CAI5,Zahraa},,,
2015-12-05,2G,Cairo,Ain Shams,BSC72,108,58.380001,{MSCBC1-MSCBC2-MSCBC3-MSCBC4-MSCBC5-MSCBC6},{Mokattam},{10th Ramadan,Beni Suef,CAI5,Zahraa},,,
2015-12-05,2G,Cairo,Alsalam,BSC72,142,54.41,{MSCBC1-MSCBC2-MSCBC3-MSCBC4-MSCBC5-MSCBC6},{Mokattam},{10th Ramadan,Beni Suef,CAI5,Zahraa},,,
2015-12-05,2G,Cairo,Matarya,BSC72,35,6.46,{MSCBC1-MSCBC2-MSCBC3-MSCBC4-MSCBC5-MSCBC6},{Mokattam},{10th Ramadan,Beni Suef,CAI5,Zahraa},,,
2015-12-05,2G,Cairo,Heliopolis and Nozha,BSC72,85,17.82,{MSCBC1-MSCBC2-MSCBC3-MSCBC4-MSCBC5-MSCBC6},{Mokattam},{10th Ramadan,Beni Suef,CAI5,Zahraa},,,
2015-12-05,2G,Delta,Gharbiya_Rural,BSC73,55,6.4200001,{MSCBC1-MSCBC2-MSCBC3-MSCBC4-MSCBC5-MSCBC6},{HQ},{10th Ramadan,Beni Suef,CAI5,Zahraa},,,
2015-12-05,2G,Delta,Qalyubiya_Rural,BSC73,29,3.6800001,{MSCBC1-MSCBC2-MSCBC3-MSCBC4-MSCBC5-MSCBC6},{HQ},{10th Ramadan,Beni Suef,CAI5,Zahraa},,,
2015-12-05,2G,Delta,Monufeyya_Rural,BSC73,157,17.959999,{MSCBC1-MSCBC2-MSCBC3-MSCBC4-MSCBC5-MSCBC6},{HQ},{10th Ramadan,Beni Suef,CAI5,Zahraa},,,
2015-12-05,2G,Delta,Beheira_Rural,BSC73,72,5.3800001,{MSCBC1-MSCBC2-MSCBC3-MSCBC4-MSCBC5-MSCBC6},{HQ},{10th Ramadan,Beni Suef,CAI5,Zahraa},,,
2015-12-05,2G,Delta,Dakahleyya_Rural,BSC73,37,2.1900001,{MSCBC1-MSCBC2-MSCBC3-MSCBC4-MSCBC5-MSCBC6},{HQ},{10th Ramadan,Beni Suef,CAI5,Zahraa},,,
2015-12-05,2G,Delta,Sharkeyya_Rural,BSC73,73,3.8699999,{MSCBC1-MSCBC2-MSCBC3-MSCBC4-MSCBC5-MSCBC6},{HQ},{10th Ramadan,Beni Suef,CAI5,Zahraa},,,
2015-12-05,2G,Delta,Sharkeyya_Rural,BSC74,100,5.3099999,{MSCBC1-MSCBC2-MSCBC3-MSCBC4-MSCBC5-MSCBC6},{10th Ramadan},{10th Ramadan,Beni Suef,CAI5,Zahraa},,,
2015-12-05,2G,Delta,Dakahleyya_Rural,BSC74,192,11.34,{MSCBC1-MSCBC2-MSCBC3-MSCBC4-MSCBC5-MSCBC6},{10th Ramadan},{10th Ramadan,Beni Suef,CAI5,Zahraa},,,
2015-12-05,2G,Delta,Gharbiya_Rural,BSC74,6,0.69999999,{MSCBC1-MSCBC2-MSCBC3-MSCBC4-MSCBC5-MSCBC6},{10th Ramadan},{10th Ramadan,Beni Suef,CAI5,Zahraa},,,
2015-12-05,2G,Delta,Mansoura,BSC74,14,3.47,{MSCBC1-MSCBC2-MSCBC3-MSCBC4-MSCBC5-MSCBC6},{10th Ramadan},{10th Ramadan,Beni Suef,CAI5,Zahraa},,,
2015-12-05,2G,Delta,Qalyubiya_Rural,BSC74,6,0.75999999,{MSCBC1-MSCBC2-MSCBC3-MSCBC4-MSCBC5-MSCBC6},{10th Ramadan},{10th Ramadan,Beni Suef,CAI5,Zahraa},,,
2015-12-05,2G,Delta,Kafr El Sheikh_Rural,BSC74,53,5.25,{MSCBC1-MSCBC2-MSCBC3-MSCBC4-MSCBC5-MSCBC6},{10th Ramadan},{10th Ramadan,Beni Suef,CAI5,Zahraa},,,
2015-12-05,2G,Delta,Qalyubiya_Rural,BSC75,12,1.52,{MSCBC1-MSCBC2-MSCBC3-MSCBC4-MSCBC5-MSCBC6},{10th Ramadan},{10th Ramadan,Beni Suef,CAI5,Zahraa},,,
2015-12-05,2G,Delta,Mansoura,BSC75,27,6.6999998,{MSCBC1-MSCBC2-MSCBC3-MSCBC4-MSCBC5-MSCBC6},{10th Ramadan},{10th Ramadan,Beni Suef,CAI5,Zahraa},,,
2015-12-05,2G,Delta,Monufeyya_Rural,BSC75,6,0.69,{MSCBC1-MSCBC2-MSCBC3-MSCBC4-MSCBC5-MSCBC6},{10th Ramadan},{10th Ramadan,Beni Suef,CAI5,Zahraa},,,
2015-12-05,2G,Delta,Dakahleyya_Rural,BSC75,143,8.4499998,{MSCBC1-MSCBC2-MSCBC3-MSCBC4-MSCBC5-MSCBC6},{10th Ramadan},{10th Ramadan,Beni Suef,CAI5,Zahraa},,,
2015-12-05,2G,Delta,Sharkeyya_Rural,BSC75,216,11.46,{MSCBC1-MSCBC2-MSCBC3-MSCBC4-MSCBC5-MSCBC6},{10th Ramadan},{10th Ramadan,Beni Suef,CAI5,Zahraa},,,
2015-12-05,2G,Cairo,Abbassyia,BSC76,93,67.879997,{MSCBC1-MSCBC2-MSCBC3-MSCBC4-MSCBC5-MSCBC6},{Mokattam},{10th Ramadan,Beni Suef,CAI5,Zahraa},,,
2015-12-05,2G,Cairo,Matarya,BSC76,9,1.66,{MSCBC1-MSCBC2-MSCBC3-MSCBC4-MSCBC5-MSCBC6},{Mokattam},{10th Ramadan,Beni Suef,CAI5,Zahraa},,,
2015-12-05,2G,Cairo,Zaitoun and Qubba,BSC76,14,7.6900001,{MSCBC1-MSCBC2-MSCBC3-MSCBC4-MSCBC5-MSCBC6},{Mokattam},{10th Ramadan,Beni Suef,CAI5,Zahraa},,,
2015-12-05,2G,Cairo,Nasr City,BSC76,91,12.75,{MSCBC1-MSCBC2-MSCBC3-MSCBC4-MSCBC5-MSCBC6},{Mokattam},{10th Ramadan,Beni Suef,CAI5,Zahraa},,,
2015-12-05,2G,Cairo,Moukattam,BSC76,40,15.5,{MSCBC1-MSCBC2-MSCBC3-MSCBC4-MSCBC5-MSCBC6},{Mokattam},{10th Ramadan,Beni Suef,CAI5,Zahraa},,,
2015-12-05,2G,Cairo,Shubra El-Khima,BSC77,73,15.7,{MSCBC1-MSCBC2-MSCBC3-MSCBC4-MSCBC5-MSCBC6},{Mokattam},{10th Ramadan,Beni Suef,CAI5,Zahraa},,,
2015-12-05,2G,Cairo,Matarya,BSC77,99,18.27,{MSCBC1-MSCBC2-MSCBC3-MSCBC4-MSCBC5-MSCBC6},{Mokattam},{10th Ramadan,Beni Suef,CAI5,Zahraa},,,
2015-12-05,2G,Delta,Damietta_Rural,BSC78,52,11.21,{MSCBC1-MSCBC2-MSCBC3-MSCBC4-MSCBC5-MSCBC6},{CAI5},{10th Ramadan,Beni Suef,CAI5,Zahraa},,,
2015-12-05,2G,Delta,Dakahleyya_Rural,BSC78,41,2.4200001,{MSCBC1-MSCBC2-MSCBC3-MSCBC4-MSCBC5-MSCBC6},{CAI5},{10th Ramadan,Beni Suef,CAI5,Zahraa},,,
2015-12-05,2G,Delta,Kafr El Sheikh_Rural,BSC78,6,0.58999997,{MSCBC1-MSCBC2-MSCBC3-MSCBC4-MSCBC5-MSCBC6},{CAI5},{10th Ramadan,Beni Suef,CAI5,Zahraa},,,
2015-12-05,2G,Giza,Boulaq,BSC78,268,91.470001,{MSCBC1-MSCBC2-MSCBC3-MSCBC4-MSCBC5-MSCBC6},{CAI5},{10th Ramadan,Beni Suef,CAI5,Zahraa},,,
2015-12-05,2G,Giza,Mouhandseen,BSC78,372,79.660004,{MSCBC1-MSCBC2-MSCBC3-MSCBC4-MSCBC5-MSCBC6},{CAI5},{10th Ramadan,Beni Suef,CAI5,Zahraa},,,
2015-12-05,2G,Delta,Monufeyya_Rural,BSC79,86,9.8400002,{MSCBC1-MSCBC2-MSCBC3-MSCBC4-MSCBC5-MSCBC6},{HQ},{10th Ramadan,Beni Suef,CAI5,Zahraa},,,
2015-12-05,2G,Delta,Qalyubiya_Rural,BSC79,111,14.09,{MSCBC1-MSCBC2-MSCBC3-MSCBC4-MSCBC5-MSCBC6},{HQ},{10th Ramadan,Beni Suef,CAI5,Zahraa},,,
2015-12-05,2G,Delta,Beheira_Rural,BSC79,135,10.08,{MSCBC1-MSCBC2-MSCBC3-MSCBC4-MSCBC5-MSCBC6},{HQ},{10th Ramadan,Beni Suef,CAI5,Zahraa},,,
2015-12-05,2G,Delta,Damanhour,BSC79,8,5.3699999,{MSCBC1-MSCBC2-MSCBC3-MSCBC4-MSCBC5-MSCBC6},{HQ},{10th Ramadan,Beni Suef,CAI5,Zahraa},,,
2015-12-05,2G,Delta,Monufeyya_Rural,BSC80,20,2.29,{MSCBC1-MSCBC2-MSCBC3-MSCBC4-MSCBC5-MSCBC6},{Zahraa},{10th Ramadan,Beni Suef,CAI5,Zahraa},,,
2015-12-05,2G,Delta,Gharbiya_Rural,BSC80,116,13.54,{MSCBC1-MSCBC2-MSCBC3-MSCBC4-MSCBC5-MSCBC6},{Zahraa},{10th Ramadan,Beni Suef,CAI5,Zahraa},,,
2015-12-05,2G,Cairo,Shubra El-Khima,BSC80,169,36.34,{MSCBC1-MSCBC2-MSCBC3-MSCBC4-MSCBC5-MSCBC6},{Zahraa},{10th Ramadan,Beni Suef,CAI5,Zahraa},,,
2015-12-05,2G,Cairo,Shubra,BSC80,17,9.4399996,{MSCBC1-MSCBC2-MSCBC3-MSCBC4-MSCBC5-MSCBC6},{Zahraa},{10th Ramadan,Beni Suef,CAI5,Zahraa},,,
2015-12-05,2G,Delta,Tanta,BSC80,179,100,{MSCBC1-MSCBC2-MSCBC3-MSCBC4-MSCBC5-MSCBC6},{Zahraa},{10th Ramadan,Beni Suef,CAI5,Zahraa},,,
2015-12-05,2G,Cairo,Zaitoun and Qubba,BSC81,45,24.73,{MSCBC1-MSCBC2-MSCBC3-MSCBC4-MSCBC5-MSCBC6},{Mokattam},{10th Ramadan,Beni Suef,CAI5,Zahraa},,,
2015-12-05,2G,Cairo,Nasr City,BSC81,274,38.380001,{MSCBC1-MSCBC2-MSCBC3-MSCBC4-MSCBC5-MSCBC6},{Mokattam},{10th Ramadan,Beni Suef,CAI5,Zahraa},,,
2015-12-05,2G,Cairo,Heliopolis and Nozha,BSC81,351,73.580002,{MSCBC1-MSCBC2-MSCBC3-MSCBC4-MSCBC5-MSCBC6},{Mokattam},{10th Ramadan,Beni Suef,CAI5,Zahraa},,,
2015-12-05,2G,Cairo,Ain Shams,BSC81,1,0.54000002,{MSCBC1-MSCBC2-MSCBC3-MSCBC4-MSCBC5-MSCBC6},{Mokattam},{10th Ramadan,Beni Suef,CAI5,Zahraa},,,
2015-12-05,2G,Cairo,Airport,BSC81,52,89.660004,{MSCBC1-MSCBC2-MSCBC3-MSCBC4-MSCBC5-MSCBC6},{Mokattam},{10th Ramadan,Beni Suef,CAI5,Zahraa},,,
2015-12-05,2G,Cairo,Abbassyia,BSC82,9,6.5700002,{MSCBC1-MSCBC2-MSCBC3-MSCBC4-MSCBC5-MSCBC6},{Zahraa},{10th Ramadan,Beni Suef,CAI5,Zahraa},,,
2015-12-05,2G,Cairo,Dar El Salam,BSC82,172,81.519997,{MSCBC1-MSCBC2-MSCBC3-MSCBC4-MSCBC5-MSCBC6},{Zahraa},{10th Ramadan,Beni Suef,CAI5,Zahraa},,,
2015-12-05,2G,Cairo,Hadabah Wostah,BSC82,18,13.74,{MSCBC1-MSCBC2-MSCBC3-MSCBC4-MSCBC5-MSCBC6},{Zahraa},{10th Ramadan,Beni Suef,CAI5,Zahraa},,,
2015-12-05,2G,Cairo,Heliopolis and Nozha,BSC82,41,8.6000004,{MSCBC1-MSCBC2-MSCBC3-MSCBC4-MSCBC5-MSCBC6},{Zahraa},{10th Ramadan,Beni Suef,CAI5,Zahraa},,,
2015-12-05,2G,Cairo,Matarya,BSC82,6,1.11,{MSCBC1-MSCBC2-MSCBC3-MSCBC4-MSCBC5-MSCBC6},{Zahraa},{10th Ramadan,Beni Suef,CAI5,Zahraa},,,
2015-12-05,2G,Cairo,Nasr City,BSC82,31,4.3400002,{MSCBC1-MSCBC2-MSCBC3-MSCBC4-MSCBC5-MSCBC6},{Zahraa},{10th Ramadan,Beni Suef,CAI5,Zahraa},,,
2015-12-05,2G,Cairo,Maadi,BSC82,232,65.910004,{MSCBC1-MSCBC2-MSCBC3-MSCBC4-MSCBC5-MSCBC6},{Zahraa},{10th Ramadan,Beni Suef,CAI5,Zahraa},,,
2015-12-05,2G,Cairo,Zaitoun and Qubba,BSC82,22,12.09,{MSCBC1-MSCBC2-MSCBC3-MSCBC4-MSCBC5-MSCBC6},{Zahraa},{10th Ramadan,Beni Suef,CAI5,Zahraa},,,
2015-12-05,2G,Delta,Beheira_Rural,BSC82,1,0.07,{MSCBC1-MSCBC2-MSCBC3-MSCBC4-MSCBC5-MSCBC6},{Zahraa},{10th Ramadan,Beni Suef,CAI5,Zahraa},,,
2015-12-05,2G,Giza,Giza Outskirts,BSC82,62,17.610001,{MSCBC1-MSCBC2-MSCBC3-MSCBC4-MSCBC5-MSCBC6},{Zahraa},{10th Ramadan,Beni Suef,CAI5,Zahraa},,,
2015-12-05,2G,Giza,Haram,BSC82,88,9.7700005,{MSCBC1-MSCBC2-MSCBC3-MSCBC4-MSCBC5-MSCBC6},{Zahraa},{10th Ramadan,Beni Suef,CAI5,Zahraa},,,
2015-12-05,2G,Giza,Haram,BSC83,811,90.010002,{MSCBC1-MSCBC2-MSCBC3-MSCBC4-MSCBC5-MSCBC6},{CAI5},{10th Ramadan,Beni Suef,CAI5,Zahraa},,,
2015-12-05,2G,Giza,Giza Outskirts,BSC83,19,5.4000001,{MSCBC1-MSCBC2-MSCBC3-MSCBC4-MSCBC5-MSCBC6},{CAI5},{10th Ramadan,Beni Suef,CAI5,Zahraa},,,
2015-12-05,2G,Giza,Kerdasa and Mansoraya,BSC83,13,8.2799997,{MSCBC1-MSCBC2-MSCBC3-MSCBC4-MSCBC5-MSCBC6},{CAI5},{10th Ramadan,Beni Suef,CAI5,Zahraa},,,
2015-12-05,2G,Giza,Sahary Alahram,BSC83,13,4.4099998,{MSCBC1-MSCBC2-MSCBC3-MSCBC4-MSCBC5-MSCBC6},{CAI5},{10th Ramadan,Beni Suef,CAI5,Zahraa},,,
2015-12-05,2G,Delta,Beheira_Rural,BSC84,86,6.4200001,{MSCBC1-MSCBC2-MSCBC3-MSCBC4-MSCBC5-MSCBC6},{10th Ramadan},{10th Ramadan,Beni Suef,CAI5,Zahraa},,,
2015-12-05,2G,Delta,Banha,BSC84,3,2.3099999,{MSCBC1-MSCBC2-MSCBC3-MSCBC4-MSCBC5-MSCBC6},{10th Ramadan},{10th Ramadan,Beni Suef,CAI5,Zahraa},,,
2015-12-05,2G,Delta,Kafr El Sheikh_Rural,BSC84,24,2.3800001,{MSCBC1-MSCBC2-MSCBC3-MSCBC4-MSCBC5-MSCBC6},{10th Ramadan},{10th Ramadan,Beni Suef,CAI5,Zahraa},,,
2015-12-05,2G,Delta,Monufeyya_Rural,BSC84,100,11.44,{MSCBC1-MSCBC2-MSCBC3-MSCBC4-MSCBC5-MSCBC6},{10th Ramadan},{10th Ramadan,Beni Suef,CAI5,Zahraa},,,
2015-12-05,2G,Delta,Qalyubiya_Rural,BSC84,11,1.4,{MSCBC1-MSCBC2-MSCBC3-MSCBC4-MSCBC5-MSCBC6},{10th Ramadan},{10th Ramadan,Beni Suef,CAI5,Zahraa},,,
2015-12-05,2G,Alexandria,Alex Desert Road,BSC84,3,0.80000001,{MSCBC1-MSCBC2-MSCBC3-MSCBC4-MSCBC5-MSCBC6},{10th Ramadan},{10th Ramadan,Beni Suef,CAI5,Zahraa},,,
2015-12-05,2G,Delta,Mansoura,BSC85,24,5.96,{MSCBC1-MSCBC2-MSCBC3-MSCBC4-MSCBC5-MSCBC6},{10th Ramadan},{10th Ramadan,Beni Suef,CAI5,Zahraa},,,
2015-12-05,2G,Delta,Zagazig,BSC85,197,100,{MSCBC1-MSCBC2-MSCBC3-MSCBC4-MSCBC5-MSCBC6},{10th Ramadan},{10th Ramadan,Beni Suef,CAI5,Zahraa},,,
2015-12-05,2G,Delta,Sharkeyya_Rural,BSC85,428,22.719999,{MSCBC1-MSCBC2-MSCBC3-MSCBC4-MSCBC5-MSCBC6},{10th Ramadan},{10th Ramadan,Beni Suef,CAI5,Zahraa},,,
2015-12-05,2G,Giza,Shubra and Imbaba Outskirts,BSC86,59,88.059998,{MSCBC1-MSCBC2-MSCBC3-MSCBC4-MSCBC5-MSCBC6},{HQ},{10th Ramadan,Beni Suef,CAI5,Zahraa},,,
2015-12-05,2G,Delta,Mahala,BSC86,32,17.49,{MSCBC1-MSCBC2-MSCBC3-MSCBC4-MSCBC5-MSCBC6},{HQ},{10th Ramadan,Beni Suef,CAI5,Zahraa},,,
2015-12-05,2G,Delta,Qalyubiya_Rural,BSC86,171,21.700001,{MSCBC1-MSCBC2-MSCBC3-MSCBC4-MSCBC5-MSCBC6},{HQ},{10th Ramadan,Beni Suef,CAI5,Zahraa},,,
2015-12-05,2G,Cairo,Shubra El-Khima,BSC86,102,21.940001,{MSCBC1-MSCBC2-MSCBC3-MSCBC4-MSCBC5-MSCBC6},{HQ},{10th Ramadan,Beni Suef,CAI5,Zahraa},,,
2015-12-05,2G,Cairo,Shubra,BSC86,3,1.67,{MSCBC1-MSCBC2-MSCBC3-MSCBC4-MSCBC5-MSCBC6},{HQ},{10th Ramadan,Beni Suef,CAI5,Zahraa},,,
2015-12-05,2G,Cairo,Matarya,BSC86,148,27.309999,{MSCBC1-MSCBC2-MSCBC3-MSCBC4-MSCBC5-MSCBC6},{HQ},{10th Ramadan,Beni Suef,CAI5,Zahraa},,,
2015-12-05,2G,Delta,Dakahleyya_Rural,BSC87,78,4.6100001,{MSCBC1-MSCBC2-MSCBC3-MSCBC4-MSCBC5-MSCBC6},{CAI5},{10th Ramadan,Beni Suef,CAI5,Zahraa},,,
2015-12-05,2G,Delta,Damietta_Rural,BSC87,119,25.65,{MSCBC1-MSCBC2-MSCBC3-MSCBC4-MSCBC5-MSCBC6},{CAI5},{10th Ramadan,Beni Suef,CAI5,Zahraa},,,
2015-12-05,2G,Giza,Imbaba,BSC87,45,14.02,{MSCBC1-MSCBC2-MSCBC3-MSCBC4-MSCBC5-MSCBC6},{CAI5},{10th Ramadan,Beni Suef,CAI5,Zahraa},,,
2015-12-05,2G,Giza,Mouhandseen,BSC87,12,2.5699999,{MSCBC1-MSCBC2-MSCBC3-MSCBC4-MSCBC5-MSCBC6},{CAI5},{10th Ramadan,Beni Suef,CAI5,Zahraa},,,
2015-12-05,2G,Giza,Boulaq,BSC87,21,7.1700001,{MSCBC1-MSCBC2-MSCBC3-MSCBC4-MSCBC5-MSCBC6},{CAI5},{10th Ramadan,Beni Suef,CAI5,Zahraa},,,
2015-12-05,2G,Giza,Kerdasa and Mansoraya,BSC87,3,1.91,{MSCBC1-MSCBC2-MSCBC3-MSCBC4-MSCBC5-MSCBC6},{CAI5},{10th Ramadan,Beni Suef,CAI5,Zahraa},,,
2015-12-05,2G,Upper Egypt,Aswan_Rural,BSCH01,10,2.8199999,{MSCS1-MSCS2-MSCS3-MSCS20-MSCS21-MSCS29-MSCS30},{Beni Suef},{HQ},,,
2015-12-05,2G,Upper Egypt,Asyut_Rural,BSCH01,40,9.3199997,{MSCS1-MSCS2-MSCS3-MSCS20-MSCS21-MSCS29-MSCS30},{Beni Suef},{HQ},,,
2015-12-05,2G,Upper Egypt,Sohag,BSCH01,72,100,{MSCS1-MSCS2-MSCS3-MSCS20-MSCS21-MSCS29-MSCS30},{Beni Suef},{HQ},,,
2015-12-05,2G,Upper Egypt,Souhag_Rural,BSCH01,108,24.709999,{MSCS1-MSCS2-MSCS3-MSCS20-MSCS21-MSCS29-MSCS30},{Beni Suef},{HQ},,,
2015-12-05,2G,Canal,El-Sukhna,BSCH01,98,68.059998,{MSCS1-MSCS2-MSCS3-MSCS20-MSCS21-MSCS29-MSCS30},{Beni Suef},{HQ},,,
2015-12-05,2G,Canal,Red Sea North_Rural,BSCH01,23,29.49,{MSCS1-MSCS2-MSCS3-MSCS20-MSCS21-MSCS29-MSCS30},{Beni Suef},{HQ},,,
2015-12-05,2G,Canal,Red Sea South_Rural,BSCH01,16,11.19,{MSCS1-MSCS2-MSCS3-MSCS20-MSCS21-MSCS29-MSCS30},{Beni Suef},{HQ},,,
2015-12-05,2G,Canal,Red Sea North_Rural,BSCH02,2,2.5599999,{MSCS1-MSCS2-MSCS3-MSCS20-MSCS21-MSCS29-MSCS30},{Beni Suef},{HQ},,,
2015-12-05,2G,Canal,Red Sea South_Rural,BSCH02,9,6.29,{MSCS1-MSCS2-MSCS3-MSCS20-MSCS21-MSCS29-MSCS30},{Beni Suef},{HQ},,,
2015-12-05,2G,Upper Egypt,Souhag_Rural,BSCH02,39,8.9200001,{MSCS1-MSCS2-MSCS3-MSCS20-MSCS21-MSCS29-MSCS30},{Beni Suef},{HQ},,,
2015-12-05,2G,Upper Egypt,Qena_Rural,BSCH02,37,7.8699999,{MSCS1-MSCS2-MSCS3-MSCS20-MSCS21-MSCS29-MSCS30},{Beni Suef},{HQ},,,
2015-12-05,2G,Upper Egypt,New Valley_Rural,BSCH02,97,57.740002,{MSCS1-MSCS2-MSCS3-MSCS20-MSCS21-MSCS29-MSCS30},{Beni Suef},{HQ},,,
2015-12-05,2G,Upper Egypt,New Valley,BSCH02,17,100,{MSCS1-MSCS2-MSCS3-MSCS20-MSCS21-MSCS29-MSCS30},{Beni Suef},{HQ},,,
2015-12-05,2G,Upper Egypt,Asyut_Rural,BSCH02,126,29.370001,{MSCS1-MSCS2-MSCS3-MSCS20-MSCS21-MSCS29-MSCS30},{Beni Suef},{HQ},,,
2015-12-05,2G,Upper Egypt,Aswan_Rural,BSCH02,64,18.030001,{MSCS1-MSCS2-MSCS3-MSCS20-MSCS21-MSCS29-MSCS30},{Beni Suef},{HQ},,,
2015-12-05,2G,Upper Egypt,Aswan_Rural,BSCH03,71,20,{MSCS1-MSCS2-MSCS3-MSCS20-MSCS21-MSCS29-MSCS30},{Beni Suef},{HQ},,,
2015-12-05,2G,Upper Egypt,Asyut_Rural,BSCH03,31,7.23,{MSCS1-MSCS2-MSCS3-MSCS20-MSCS21-MSCS29-MSCS30},{Beni Suef},{HQ},,,
2015-12-05,2G,Upper Egypt,Minia_Rural,BSCH03,10,2.3199999,{MSCS1-MSCS2-MSCS3-MSCS20-MSCS21-MSCS29-MSCS30},{Beni Suef},{HQ},,,
2015-12-05,2G,Upper Egypt,Qena_Rural,BSCH03,67,14.26,{MSCS1-MSCS2-MSCS3-MSCS20-MSCS21-MSCS29-MSCS30},{Beni Suef},{HQ},,,
2015-12-05,2G,Upper Egypt,Quina,BSCH03,69,100,{MSCS1-MSCS2-MSCS3-MSCS20-MSCS21-MSCS29-MSCS30},{Beni Suef},{HQ},,,
2015-12-05,2G,Upper Egypt,Souhag_Rural,BSCH04,18,4.1199999,{MSCS1-MSCS2-MSCS3-MSCS20-MSCS21-MSCS29-MSCS30},{Beni Suef},{HQ},,,
2015-12-05,2G,Upper Egypt,Luxor_Rural,BSCH04,71,36.599998,{MSCS1-MSCS2-MSCS3-MSCS20-MSCS21-MSCS29-MSCS30},{Beni Suef},{HQ},,,
2015-12-05,2G,Upper Egypt,Asyut_Rural,BSCH04,94,21.91,{MSCS1-MSCS2-MSCS3-MSCS20-MSCS21-MSCS29-MSCS30},{Beni Suef},{HQ},,,
2015-12-05,2G,Upper Egypt,Aswan_Rural,BSCH04,210,59.150002,{MSCS1-MSCS2-MSCS3-MSCS20-MSCS21-MSCS29-MSCS30},{Beni Suef},{HQ},,,
2015-12-05,2G,Upper Egypt,Aswan,BSCH04,98,100,{MSCS1-MSCS2-MSCS3-MSCS20-MSCS21-MSCS29-MSCS30},{Beni Suef},{HQ},,,
2015-12-05,2G,Upper Egypt,Asyut,BSCH05,119,100,{MSCBC1-MSCBC2-MSCBC3-MSCBC4-MSCBC5-MSCBC6},{Beni Suef},{10th Ramadan,Beni Suef,CAI5,Zahraa},,,
2015-12-05,2G,Upper Egypt,Asyut_Rural,BSCH05,4,0.93000001,{MSCBC1-MSCBC2-MSCBC3-MSCBC4-MSCBC5-MSCBC6},{Beni Suef},{10th Ramadan,Beni Suef,CAI5,Zahraa},,,
2015-12-05,2G,Upper Egypt,Minia_Rural,BSCH06,202,46.869999,{MSCS1-MSCS2-MSCS3-MSCS20-MSCS21-MSCS29-MSCS30},{Beni Suef},{HQ},,,
2015-12-05,2G,Canal,El-Qosseir,BSCH06,14,100,{MSCS1-MSCS2-MSCS3-MSCS20-MSCS21-MSCS29-MSCS30},{Beni Suef},{HQ},,,
2015-12-05,2G,Canal,Ras Ghareb,BSCH06,18,47.369999,{MSCS1-MSCS2-MSCS3-MSCS20-MSCS21-MSCS29-MSCS30},{Beni Suef},{HQ},,,
2015-12-05,2G,Canal,Red Sea North_Rural,BSCH06,16,20.51,{MSCS1-MSCS2-MSCS3-MSCS20-MSCS21-MSCS29-MSCS30},{Beni Suef},{HQ},,,
2015-12-05,2G,Canal,Red Sea South_Rural,BSCH06,33,23.08,{MSCS1-MSCS2-MSCS3-MSCS20-MSCS21-MSCS29-MSCS30},{Beni Suef},{HQ},,,
2015-12-05,2G,Canal,Red Sea North_Rural,BSCH07,16,20.51,{MSCBC1-MSCBC2-MSCBC3-MSCBC4-MSCBC5-MSCBC6},{Beni Suef},{10th Ramadan,Beni Suef,CAI5,Zahraa},,,
2015-12-05,2G,Canal,Ras Ghareb,BSCH07,20,52.630001,{MSCBC1-MSCBC2-MSCBC3-MSCBC4-MSCBC5-MSCBC6},{Beni Suef},{10th Ramadan,Beni Suef,CAI5,Zahraa},,,
2015-12-05,2G,Upper Egypt,Minia_Rural,BSCH07,41,9.5100002,{MSCBC1-MSCBC2-MSCBC3-MSCBC4-MSCBC5-MSCBC6},{Beni Suef},{10th Ramadan,Beni Suef,CAI5,Zahraa},,,
2015-12-05,2G,Upper Egypt,Qena_Rural,BSCH07,73,15.53,{MSCBC1-MSCBC2-MSCBC3-MSCBC4-MSCBC5-MSCBC6},{Beni Suef},{10th Ramadan,Beni Suef,CAI5,Zahraa},,,
2015-12-05,2G,Upper Egypt,Fayoum_Rural,BSCH07,7,1.59,{MSCBC1-MSCBC2-MSCBC3-MSCBC4-MSCBC5-MSCBC6},{Beni Suef},{10th Ramadan,Beni Suef,CAI5,Zahraa},,,
2015-12-05,2G,Upper Egypt,Bani Sweif_Rural,BSCH07,273,86.389999,{MSCBC1-MSCBC2-MSCBC3-MSCBC4-MSCBC5-MSCBC6},{Beni Suef},{10th Ramadan,Beni Suef,CAI5,Zahraa},,,
2015-12-05,2G,Upper Egypt,Bani_Suef,BSCH07,92,100,{MSCBC1-MSCBC2-MSCBC3-MSCBC4-MSCBC5-MSCBC6},{Beni Suef},{10th Ramadan,Beni Suef,CAI5,Zahraa},,,
2015-12-05,2G,Upper Egypt,Fayoum,BSCH08,117,100,{MSCBC1-MSCBC2-MSCBC3-MSCBC4-MSCBC5-MSCBC6},{Beni Suef},{10th Ramadan,Beni Suef,CAI5,Zahraa},,,
2015-12-05,2G,Upper Egypt,Bani Sweif_Rural,BSCH08,3,0.94999999,{MSCBC1-MSCBC2-MSCBC3-MSCBC4-MSCBC5-MSCBC6},{Beni Suef},{10th Ramadan,Beni Suef,CAI5,Zahraa},,,
2015-12-05,2G,Upper Egypt,Fayoum_Rural,BSCH08,64,14.55,{MSCBC1-MSCBC2-MSCBC3-MSCBC4-MSCBC5-MSCBC6},{Beni Suef},{10th Ramadan,Beni Suef,CAI5,Zahraa},,,
2015-12-05,2G,Upper Egypt,Qena_Rural,BSCH08,63,13.4,{MSCBC1-MSCBC2-MSCBC3-MSCBC4-MSCBC5-MSCBC6},{Beni Suef},{10th Ramadan,Beni Suef,CAI5,Zahraa},,,
2015-12-05,2G,Upper Egypt,New Valley_Rural,BSCH08,40,23.809999,{MSCBC1-MSCBC2-MSCBC3-MSCBC4-MSCBC5-MSCBC6},{Beni Suef},{10th Ramadan,Beni Suef,CAI5,Zahraa},,,
2015-12-05,2G,Upper Egypt,Souhag_Rural,BSCH08,3,0.69,{MSCBC1-MSCBC2-MSCBC3-MSCBC4-MSCBC5-MSCBC6},{Beni Suef},{10th Ramadan,Beni Suef,CAI5,Zahraa},,,
2015-12-05,2G,Upper Egypt,Fayoum_Rural,BSCH09,142,32.27,{MSCBC1-MSCBC2-MSCBC3-MSCBC4-MSCBC5-MSCBC6},{Beni Suef},{10th Ramadan,Beni Suef,CAI5,Zahraa},,,
2015-12-05,2G,Canal,Red Sea North_Rural,BSCH09,2,2.5599999,{MSCBC1-MSCBC2-MSCBC3-MSCBC4-MSCBC5-MSCBC6},{Beni Suef},{10th Ramadan,Beni Suef,CAI5,Zahraa},,,
2015-12-05,2G,Canal,Red Sea South_Rural,BSCH09,24,16.780001,{MSCBC1-MSCBC2-MSCBC3-MSCBC4-MSCBC5-MSCBC6},{Beni Suef},{10th Ramadan,Beni Suef,CAI5,Zahraa},,,
2015-12-05,2G,Canal,Safaga,BSCH09,18,100,{MSCBC1-MSCBC2-MSCBC3-MSCBC4-MSCBC5-MSCBC6},{Beni Suef},{10th Ramadan,Beni Suef,CAI5,Zahraa},,,
2015-12-05,2G,Canal,El-Gouna,BSCH09,21,100,{MSCBC1-MSCBC2-MSCBC3-MSCBC4-MSCBC5-MSCBC6},{Beni Suef},{10th Ramadan,Beni Suef,CAI5,Zahraa},,,
2015-12-05,2G,Canal,Hurghada,BSCH09,271,100,{MSCBC1-MSCBC2-MSCBC3-MSCBC4-MSCBC5-MSCBC6},{Beni Suef},{10th Ramadan,Beni Suef,CAI5,Zahraa},,,
2015-12-05,2G,Canal,Ismailia Rural,BSCH10,19,16.809999,{MSCS50-MSCS51-MSCS52-MSCS53-MSCS54-MSCS55},{10th Ramadan},{10th Ramadan,Beni Suef},,,
2015-12-05,2G,Canal,Nuweiba,BSCH10,10,100,{MSCS50-MSCS51-MSCS52-MSCS53-MSCS54-MSCS55},{10th Ramadan},{10th Ramadan,Beni Suef},,,
2015-12-05,2G,Canal,Sinai South_Rural,BSCH10,54,27.27,{MSCS50-MSCS51-MSCS52-MSCS53-MSCS54-MSCS55},{10th Ramadan},{10th Ramadan,Beni Suef},,,
2015-12-05,2G,Canal,Suez,BSCH10,160,100,{MSCS50-MSCS51-MSCS52-MSCS53-MSCS54-MSCS55},{10th Ramadan},{10th Ramadan,Beni Suef},,,
2015-12-05,2G,Canal,Suez Rural,BSCH10,13,100,{MSCS50-MSCS51-MSCS52-MSCS53-MSCS54-MSCS55},{10th Ramadan},{10th Ramadan,Beni Suef},,,
2015-12-05,2G,Canal,Taba,BSCH10,22,100,{MSCS50-MSCS51-MSCS52-MSCS53-MSCS54-MSCS55},{10th Ramadan},{10th Ramadan,Beni Suef},,,
2015-12-05,2G,Canal,Sinai North_Rural,BSCH11,10,9.0100002,{MSCS50-MSCS51-MSCS52-MSCS53-MSCS54-MSCS55},{10th Ramadan},{10th Ramadan,Beni Suef},,,
2015-12-05,2G,Canal,Sinai South_Rural,BSCH11,99,50,{MSCS50-MSCS51-MSCS52-MSCS53-MSCS54-MSCS55},{10th Ramadan},{10th Ramadan,Beni Suef},,,
2015-12-05,2G,Canal,Portsaid Rural,BSCH11,38,88.370003,{MSCS50-MSCS51-MSCS52-MSCS53-MSCS54-MSCS55},{10th Ramadan},{10th Ramadan,Beni Suef},,,
2015-12-05,2G,Canal,Ismailia Rural,BSCH11,14,12.39,{MSCS50-MSCS51-MSCS52-MSCS53-MSCS54-MSCS55},{10th Ramadan},{10th Ramadan,Beni Suef},,,
2015-12-05,2G,Canal,Dahab,BSCH11,22,100,{MSCS50-MSCS51-MSCS52-MSCS53-MSCS54-MSCS55},{10th Ramadan},{10th Ramadan,Beni Suef},,,
2015-12-05,2G,Canal,El-Sukhna,BSCH11,46,31.940001,{MSCS50-MSCS51-MSCS52-MSCS53-MSCS54-MSCS55},{10th Ramadan},{10th Ramadan,Beni Suef},,,
2015-12-05,2G,Canal,Red Sea North_Rural,BSCH11,19,24.360001,{MSCS50-MSCS51-MSCS52-MSCS53-MSCS54-MSCS55},{10th Ramadan},{10th Ramadan,Beni Suef},,,
2015-12-05,2G,Canal,Sharm El-Shiekh,BSCH12,216,100,{MSCS50-MSCS51-MSCS52-MSCS53-MSCS54-MSCS55},{10th Ramadan},{10th Ramadan,Beni Suef},,,
2015-12-05,2G,Canal,Ismailia,BSCH12,104,100,{MSCS50-MSCS51-MSCS52-MSCS53-MSCS54-MSCS55},{10th Ramadan},{10th Ramadan,Beni Suef},,,
2015-12-05,2G,Canal,Sinai South_Rural,BSCH12,11,5.5599999,{MSCS50-MSCS51-MSCS52-MSCS53-MSCS54-MSCS55},{10th Ramadan},{10th Ramadan,Beni Suef},,,
2015-12-05,2G,Canal,Marsa Allam,BSCH13,16,100,{MSCS1-MSCS2-MSCS3-MSCS20-MSCS21-MSCS29-MSCS30},{Beni Suef},{HQ},,,
2015-12-05,2G,Canal,Red Sea South_Rural,BSCH13,61,42.66,{MSCS1-MSCS2-MSCS3-MSCS20-MSCS21-MSCS29-MSCS30},{Beni Suef},{HQ},,,
2015-12-05,2G,Upper Egypt,Minya,BSCH13,93,100,{MSCS1-MSCS2-MSCS3-MSCS20-MSCS21-MSCS29-MSCS30},{Beni Suef},{HQ},,,
2015-12-05,2G,Upper Egypt,Minia_Rural,BSCH13,9,2.0899999,{MSCS1-MSCS2-MSCS3-MSCS20-MSCS21-MSCS29-MSCS30},{Beni Suef},{HQ},,,
2015-12-05,2G,Upper Egypt,Asyut_Rural,BSCH13,92,21.450001,{MSCS1-MSCS2-MSCS3-MSCS20-MSCS21-MSCS29-MSCS30},{Beni Suef},{HQ},,,
2015-12-05,2G,Giza,Giza Outskirts,BSCH14,3,0.85000002,{MSCBC1-MSCBC2-MSCBC3-MSCBC4-MSCBC5-MSCBC6},{Beni Suef},{10th Ramadan,Beni Suef,CAI5,Zahraa},,,
2015-12-05,2G,Upper Egypt,Minia_Rural,BSCH14,53,12.3,{MSCBC1-MSCBC2-MSCBC3-MSCBC4-MSCBC5-MSCBC6},{Beni Suef},{10th Ramadan,Beni Suef,CAI5,Zahraa},,,
2015-12-05,2G,Upper Egypt,Fayoum_Rural,BSCH14,124,28.18,{MSCBC1-MSCBC2-MSCBC3-MSCBC4-MSCBC5-MSCBC6},{Beni Suef},{10th Ramadan,Beni Suef,CAI5,Zahraa},,,
2015-12-05,2G,Upper Egypt,Bani Sweif_Rural,BSCH14,40,12.66,{MSCBC1-MSCBC2-MSCBC3-MSCBC4-MSCBC5-MSCBC6},{Beni Suef},{10th Ramadan,Beni Suef,CAI5,Zahraa},,,
2015-12-05,2G,Upper Egypt,Qena_Rural,BSCH14,89,18.940001,{MSCBC1-MSCBC2-MSCBC3-MSCBC4-MSCBC5-MSCBC6},{Beni Suef},{10th Ramadan,Beni Suef,CAI5,Zahraa},,,
2015-12-05,2G,Upper Egypt,Souhag_Rural,BSCH14,15,3.4300001,{MSCBC1-MSCBC2-MSCBC3-MSCBC4-MSCBC5-MSCBC6},{Beni Suef},{10th Ramadan,Beni Suef,CAI5,Zahraa},,,
2015-12-05,2G,Upper Egypt,Luxor,BSCH15,129,100,{MSCS1-MSCS2-MSCS3-MSCS20-MSCS21-MSCS29-MSCS30},{Beni Suef},{HQ},,,
2015-12-05,2G,Upper Egypt,Luxor_Rural,BSCH15,123,63.400002,{MSCS1-MSCS2-MSCS3-MSCS20-MSCS21-MSCS29-MSCS30},{Beni Suef},{HQ},,,
2015-12-05,2G,Upper Egypt,Qena_Rural,BSCH15,25,5.3200002,{MSCS1-MSCS2-MSCS3-MSCS20-MSCS21-MSCS29-MSCS30},{Beni Suef},{HQ},,,
2015-12-05,2G,Canal,Sinai North_Rural,BSCH16,93,83.779999,{MSCS50-MSCS51-MSCS52-MSCS53-MSCS54-MSCS55},{10th Ramadan},{10th Ramadan,Beni Suef},,,
2015-12-05,2G,Canal,Arish,BSCH16,52,100,{MSCS50-MSCS51-MSCS52-MSCS53-MSCS54-MSCS55},{10th Ramadan},{10th Ramadan,Beni Suef},,,
2015-12-05,2G,Alexandria,Alex Desert Road,BSCH17,48,12.77,{MSCS14-MSCS15-MSCS28-MSCS42-MSCS59-MSCS9},{Alex},{Alex},,,
2015-12-05,2G,Alexandria,North Coast West,BSCH17,289,73.910004,{MSCS14-MSCS15-MSCS28-MSCS42-MSCS59-MSCS9},{Alex},{Alex},,,
2015-12-05,2G,Alexandria,North Coast East,BSCH17,99,23.4,{MSCS14-MSCS15-MSCS28-MSCS42-MSCS59-MSCS9},{Alex},{Alex},,,
2015-12-05,2G,Alexandria,North Coast East,BSCH18,108,25.530001,{MSCS14-MSCS15-MSCS28-MSCS42-MSCS59-MSCS9},,{Alex},,,
2015-12-05,2G,Alexandria,North Coast East,BSCH19,196,46.34,{MSCS14-MSCS15-MSCS28-MSCS42-MSCS59-MSCS9},{Alex},{Alex},,,
2015-12-05,2G,Alexandria,Alex_4,BSCH19,200,100,{MSCS14-MSCS15-MSCS28-MSCS42-MSCS59-MSCS9},{Alex},{Alex},,,
2015-12-05,2G,Alexandria,Alex Desert Road,BSCH19,117,31.120001,{MSCS14-MSCS15-MSCS28-MSCS42-MSCS59-MSCS9},{Alex},{Alex},,,
2015-12-05,2G,Alexandria,Alex_3,BSCH19,22,6.1300001,{MSCS14-MSCS15-MSCS28-MSCS42-MSCS59-MSCS9},{Alex},{Alex},,,
2015-12-05,2G,Alexandria,Alex Desert Road,BSCH20,179,47.610001,{MSCS14-MSCS15-MSCS28-MSCS42-MSCS59-MSCS9},{Alex},{Alex},,,
2015-12-05,2G,Alexandria,North Coast East,BSCH20,19,4.4899998,{MSCS14-MSCS15-MSCS28-MSCS42-MSCS59-MSCS9},{Alex},{Alex},,,
2015-12-05,2G,Alexandria,North Coast West,BSCH20,102,26.09,{MSCS14-MSCS15-MSCS28-MSCS42-MSCS59-MSCS9},{Alex},{Alex},,,
2015-12-05,2G,Delta,Beheira_Rural,BSCH20,3,0.22,{MSCS14-MSCS15-MSCS28-MSCS42-MSCS59-MSCS9},{Alex},{Alex},,,
2015-12-05,2G,Giza,Alex Desert Road (Giza),BSCH20,3,5,{MSCS14-MSCS15-MSCS28-MSCS42-MSCS59-MSCS9},{Alex},{Alex},,,
2015-12-05,2G,Upper Egypt,Qena_Rural,BSCH21,24,5.1100001,{MSCBC1-MSCBC2-MSCBC3-MSCBC4-MSCBC5-MSCBC6},{Beni Suef},{10th Ramadan,Beni Suef,CAI5,Zahraa},,,
2015-12-05,2G,Upper Egypt,Fayoum_Rural,BSCH21,28,6.3600001,{MSCBC1-MSCBC2-MSCBC3-MSCBC4-MSCBC5-MSCBC6},{Beni Suef},{10th Ramadan,Beni Suef,CAI5,Zahraa},,,
2015-12-05,2G,Upper Egypt,Souhag_Rural,BSCH21,254,58.119999,{MSCBC1-MSCBC2-MSCBC3-MSCBC4-MSCBC5-MSCBC6},{Beni Suef},{10th Ramadan,Beni Suef,CAI5,Zahraa},,,
2015-12-05,2G,Upper Egypt,Qena_Rural,BSCH22,60,12.77,{MSCBC1-MSCBC2-MSCBC3-MSCBC4-MSCBC5-MSCBC6},{Beni Suef},{10th Ramadan,Beni Suef,CAI5,Zahraa},,,
2015-12-05,2G,Upper Egypt,Fayoum_Rural,BSCH22,72,16.360001,{MSCBC1-MSCBC2-MSCBC3-MSCBC4-MSCBC5-MSCBC6},{Beni Suef},{10th Ramadan,Beni Suef,CAI5,Zahraa},,,
2015-12-05,2G,Upper Egypt,Minia_Rural,BSCH22,116,26.91,{MSCBC1-MSCBC2-MSCBC3-MSCBC4-MSCBC5-MSCBC6},{Beni Suef},{10th Ramadan,Beni Suef,CAI5,Zahraa},,,
2015-12-05,2G,Upper Egypt,Asyut_Rural,BSCH22,42,9.79,{MSCBC1-MSCBC2-MSCBC3-MSCBC4-MSCBC5-MSCBC6},{Beni Suef},{10th Ramadan,Beni Suef,CAI5,Zahraa},,,
2015-12-05,2G,Canal,Sinai North_Rural,BSCH23,1,0.89999998,{MSCBC1-MSCBC2-MSCBC3-MSCBC4-MSCBC5-MSCBC6},{10th Ramadan},{10th Ramadan,Beni Suef,CAI5,Zahraa},,,
2015-12-05,2G,Cairo,10Th Of Ramadan,BSCH23,314,94.580002,{MSCBC1-MSCBC2-MSCBC3-MSCBC4-MSCBC5-MSCBC6},{10th Ramadan},{10th Ramadan,Beni Suef,CAI5,Zahraa},,,
2015-12-05,2G,Canal,Portsaid Rural,BSCH23,5,11.63,{MSCBC1-MSCBC2-MSCBC3-MSCBC4-MSCBC5-MSCBC6},{10th Ramadan},{10th Ramadan,Beni Suef,CAI5,Zahraa},,,
2015-12-05,2G,Canal,Portsaid,BSCH23,117,100,{MSCBC1-MSCBC2-MSCBC3-MSCBC4-MSCBC5-MSCBC6},{10th Ramadan},{10th Ramadan,Beni Suef,CAI5,Zahraa},,,
2015-12-05,2G,Canal,Ismailia Rural,BSCH23,20,17.700001,{MSCBC1-MSCBC2-MSCBC3-MSCBC4-MSCBC5-MSCBC6},{10th Ramadan},{10th Ramadan,Beni Suef,CAI5,Zahraa},,,
2015-12-05,2G,Cairo,Obour,BSCH24,6,2.4200001,{MSCBC1-MSCBC2-MSCBC3-MSCBC4-MSCBC5-MSCBC6},{CAI5},{10th Ramadan,Beni Suef,CAI5,Zahraa},,,
2015-12-05,2G,Cairo,1St Gathering,BSCH24,316,62.080002,{MSCBC1-MSCBC2-MSCBC3-MSCBC4-MSCBC5-MSCBC6},{CAI5},{10th Ramadan,Beni Suef,CAI5,Zahraa},,,
2015-12-05,2G,Cairo,5Th Gathering and Kattamya,BSCH24,109,32.439999,{MSCBC1-MSCBC2-MSCBC3-MSCBC4-MSCBC5-MSCBC6},{CAI5},{10th Ramadan,Beni Suef,CAI5,Zahraa},,,
2015-12-05,2G,Giza,Sahary Alahram,BSCH24,84,28.469999,{MSCBC1-MSCBC2-MSCBC3-MSCBC4-MSCBC5-MSCBC6},{CAI5},{10th Ramadan,Beni Suef,CAI5,Zahraa},,,
2015-12-05,2G,Giza,Sahary Alahram,BSCH25,126,42.709999,{MSCBC1-MSCBC2-MSCBC3-MSCBC4-MSCBC5-MSCBC6},{HQ},{10th Ramadan,Beni Suef,CAI5,Zahraa},,,
2015-12-05,2G,Giza,Mouhandseen,BSCH25,3,0.63999999,{MSCBC1-MSCBC2-MSCBC3-MSCBC4-MSCBC5-MSCBC6},{HQ},{10th Ramadan,Beni Suef,CAI5,Zahraa},,,
2015-12-05,2G,Giza,October,BSCH25,452,84.330002,{MSCBC1-MSCBC2-MSCBC3-MSCBC4-MSCBC5-MSCBC6},{HQ},{10th Ramadan,Beni Suef,CAI5,Zahraa},,,
2015-12-05,2G,Upper Egypt,New Valley_Rural,BSCH25,30,17.860001,{MSCBC1-MSCBC2-MSCBC3-MSCBC4-MSCBC5-MSCBC6},{HQ},{10th Ramadan,Beni Suef,CAI5,Zahraa},,,
2015-12-05,2G,Upper Egypt,Fayoum_Rural,BSCH25,3,0.68000001,{MSCBC1-MSCBC2-MSCBC3-MSCBC4-MSCBC5-MSCBC6},{HQ},{10th Ramadan,Beni Suef,CAI5,Zahraa},,,
2015-12-05,2G,Alexandria,Alex Desert Road,BSCH25,4,1.0599999,{MSCBC1-MSCBC2-MSCBC3-MSCBC4-MSCBC5-MSCBC6},{HQ},{10th Ramadan,Beni Suef,CAI5,Zahraa},,,
2015-12-05,2G,Delta,Beheira_Rural,BSCH25,28,2.0899999,{MSCBC1-MSCBC2-MSCBC3-MSCBC4-MSCBC5-MSCBC6},{HQ},{10th Ramadan,Beni Suef,CAI5,Zahraa},,,
2015-12-05,2G,Delta,Damanhour,BSCH25,12,8.0500002,{MSCBC1-MSCBC2-MSCBC3-MSCBC4-MSCBC5-MSCBC6},{HQ},{10th Ramadan,Beni Suef,CAI5,Zahraa},,,
2015-12-05,2G,Cairo,5Th Gathering and Kattamya,BSCH26,226,67.260002,{MSCBC1-MSCBC2-MSCBC3-MSCBC4-MSCBC5-MSCBC6},{CAI5},{10th Ramadan,Beni Suef,CAI5,Zahraa},,,
2015-12-05,2G,Cairo,1St Gathering,BSCH26,96,18.860001,{MSCBC1-MSCBC2-MSCBC3-MSCBC4-MSCBC5-MSCBC6},{CAI5},{10th Ramadan,Beni Suef,CAI5,Zahraa},,,
2015-12-05,2G,Cairo,Nasr City,BSCH26,34,4.7600002,{MSCBC1-MSCBC2-MSCBC3-MSCBC4-MSCBC5-MSCBC6},{CAI5},{10th Ramadan,Beni Suef,CAI5,Zahraa},,,
2015-12-05,2G,Alexandria,Alex Desert Road,BSCH27,3,0.80000001,{MSCBC1-MSCBC2-MSCBC3-MSCBC4-MSCBC5-MSCBC6},{HQ},{10th Ramadan,Beni Suef,CAI5,Zahraa},,,
2015-12-05,2G,Giza,Zayed,BSCH27,247,100,{MSCBC1-MSCBC2-MSCBC3-MSCBC4-MSCBC5-MSCBC6},{HQ},{10th Ramadan,Beni Suef,CAI5,Zahraa},,,
2015-12-05,2G,Giza,October,BSCH27,84,15.67,{MSCBC1-MSCBC2-MSCBC3-MSCBC4-MSCBC5-MSCBC6},{HQ},{10th Ramadan,Beni Suef,CAI5,Zahraa},,,
2015-12-05,2G,Giza,Sahary Alahram,BSCH27,72,24.41,{MSCBC1-MSCBC2-MSCBC3-MSCBC4-MSCBC5-MSCBC6},{HQ},{10th Ramadan,Beni Suef,CAI5,Zahraa},,,
2015-12-05,2G,Giza,Alex Desert Road (Giza),BSCH27,57,95,{MSCBC1-MSCBC2-MSCBC3-MSCBC4-MSCBC5-MSCBC6},{HQ},{10th Ramadan,Beni Suef,CAI5,Zahraa},,,
2015-12-05,2G,Giza,Kerdasa and Mansoraya,BSCH27,116,73.889999,{MSCBC1-MSCBC2-MSCBC3-MSCBC4-MSCBC5-MSCBC6},{HQ},{10th Ramadan,Beni Suef,CAI5,Zahraa},,,
2015-12-05,2G,Cairo,Shorouk and Badr,BSCH28,66,29.33,{MSCBC1-MSCBC2-MSCBC3-MSCBC4-MSCBC5-MSCBC6},{10th Ramadan},{10th Ramadan,Beni Suef,CAI5,Zahraa},,,
2015-12-05,2G,Canal,Ismailia Rural,BSCH28,48,42.48,{MSCBC1-MSCBC2-MSCBC3-MSCBC4-MSCBC5-MSCBC6},{10th Ramadan},{10th Ramadan,Beni Suef,CAI5,Zahraa},,,
2015-12-05,2G,Canal,Sinai North_Rural,BSCH28,7,6.3099999,{MSCBC1-MSCBC2-MSCBC3-MSCBC4-MSCBC5-MSCBC6},{10th Ramadan},{10th Ramadan,Beni Suef,CAI5,Zahraa},,,
2015-12-05,2G,Canal,Ras Sidr,BSCH28,25,100,{MSCBC1-MSCBC2-MSCBC3-MSCBC4-MSCBC5-MSCBC6},{10th Ramadan},{10th Ramadan,Beni Suef,CAI5,Zahraa},,,
2015-12-05,2G,Canal,Sinai South_Rural,BSCH28,34,17.17,{MSCBC1-MSCBC2-MSCBC3-MSCBC4-MSCBC5-MSCBC6},{10th Ramadan},{10th Ramadan,Beni Suef,CAI5,Zahraa},,,
2015-12-05,2G,Delta,Beheira_Rural,BSCH28,44,3.29,{MSCBC1-MSCBC2-MSCBC3-MSCBC4-MSCBC5-MSCBC6},{10th Ramadan},{10th Ramadan,Beni Suef,CAI5,Zahraa},,,
2015-12-05,2G,Cairo,Maadi,BSCH32,105,29.83,{MSCBC1-MSCBC2-MSCBC3-MSCBC4-MSCBC5-MSCBC6},{Zahraa},{10th Ramadan,Beni Suef,CAI5,Zahraa},,,
2015-12-05,2G,Cairo,Helwan,BSCH32,282,68.449997,{MSCBC1-MSCBC2-MSCBC3-MSCBC4-MSCBC5-MSCBC6},{Zahraa},{10th Ramadan,Beni Suef,CAI5,Zahraa},,,
2015-12-05,2G,Giza,Kerdasa and Mansoraya,BSCH32,3,1.91,{MSCBC1-MSCBC2-MSCBC3-MSCBC4-MSCBC5-MSCBC6},{Zahraa},{10th Ramadan,Beni Suef,CAI5,Zahraa},,,
2015-12-05,2G,Giza,Giza Outskirts,BSCH32,214,60.799999,{MSCBC1-MSCBC2-MSCBC3-MSCBC4-MSCBC5-MSCBC6},{Zahraa},{10th Ramadan,Beni Suef,CAI5,Zahraa},,,
2015-12-05,2G,Giza,Giza Outskirts,BSCH33,54,15.34,{MSCBC1-MSCBC2-MSCBC3-MSCBC4-MSCBC5-MSCBC6},{Mokattam},{10th Ramadan,Beni Suef,CAI5,Zahraa},,,
2015-12-05,2G,Cairo,Helwan,BSCH33,124,30.1,{MSCBC1-MSCBC2-MSCBC3-MSCBC4-MSCBC5-MSCBC6},{Mokattam},{10th Ramadan,Beni Suef,CAI5,Zahraa},,,
2015-12-05,2G,Cairo,1St Gathering,BSCH34,97,19.059999,{MSCBC1-MSCBC2-MSCBC3-MSCBC4-MSCBC5-MSCBC6},{CAI5},{10th Ramadan,Beni Suef,CAI5,Zahraa},,,
2015-12-05,2G,Cairo,10Th Of Ramadan,BSCH34,18,5.4200001,{MSCBC1-MSCBC2-MSCBC3-MSCBC4-MSCBC5-MSCBC6},{CAI5},{10th Ramadan,Beni Suef,CAI5,Zahraa},,,
2015-12-05,2G,Cairo,Shorouk and Badr,BSCH34,159,70.669998,{MSCBC1-MSCBC2-MSCBC3-MSCBC4-MSCBC5-MSCBC6},{CAI5},{10th Ramadan,Beni Suef,CAI5,Zahraa},,,
2015-12-05,2G,Cairo,Obour,BSCH34,242,97.580002,{MSCBC1-MSCBC2-MSCBC3-MSCBC4-MSCBC5-MSCBC6},{CAI5},{10th Ramadan,Beni Suef,CAI5,Zahraa},,,
2015-12-05,2G,Upper Egypt,Qena_Rural,BSCH35,32,6.8099999,,,,,,
2015-12-05,2G,Canal,Ismailia Rural,BSCH41,12,10.62,,,,,,
2015-12-05,2G,Delta,Beheira_Rural,BSCH41,292,21.809999,,,,,,
2015-12-05,3G,Alexandria,Alex Desert Road,RNC03,1,0.16,{MSCS14-MSCS15-MSCS28-MSCS42-MSCS59-MSCS9},{Alex},{Alex},,,
2015-12-05,3G,Alexandria,Alex_2,RNC03,23,3.98,{MSCS14-MSCS15-MSCS28-MSCS42-MSCS59-MSCS9},{Alex},{Alex},,,
2015-12-05,3G,Alexandria,Alex_3,RNC03,42,10.99,{MSCS14-MSCS15-MSCS28-MSCS42-MSCS59-MSCS9},{Alex},{Alex},,,
2015-12-05,3G,Delta,Monufeyya_Rural,RNC03,21,2.3800001,{MSCS14-MSCS15-MSCS28-MSCS42-MSCS59-MSCS9},{Alex},{Alex},,,
2015-12-05,3G,Giza,Haram,RNC04,12,0.77999997,{MSCS22-MSCS23-MSCS25-MSCS57-MSCS58},,{CAI5},,,
2015-12-05,3G,Delta,Beheira_Rural,RNC04,12,1.08,{MSCS22-MSCS23-MSCS25-MSCS57-MSCS58},,{CAI5},,,
2015-12-05,3G,Delta,Banha,RNC05,6,4,{MSCS35-MSCS36-MSCS46-MSCS47-MSCS48-MSCS49-MSCS56},{HQ},{Beni Suef},,,
2015-12-05,3G,Delta,Gharbiya_Rural,RNC05,12,1.34,{MSCS35-MSCS36-MSCS46-MSCS47-MSCS48-MSCS49-MSCS56},{HQ},{Beni Suef},,,
2015-12-05,3G,Delta,Mahala,RNC05,209,100,{MSCS35-MSCS36-MSCS46-MSCS47-MSCS48-MSCS49-MSCS56},{HQ},{Beni Suef},,,
2015-12-05,3G,Alexandria,Alex_2,RNC06,92,15.92,{MSCS14-MSCS15-MSCS28-MSCS42-MSCS59-MSCS9},{Alex},{Alex},,,
2015-12-05,3G,Delta,Beheira_Rural,RNC07,36,3.23,{MSCS22-MSCS23-MSCS25-MSCS57-MSCS58},,{CAI5},,,
2015-12-05,3G,Delta,Kafr El Sheikh_Rural,RNC07,28,2.6900001,{MSCS22-MSCS23-MSCS25-MSCS57-MSCS58},,{CAI5},,,
2015-12-05,3G,Giza,Imbaba,RNC07,16,3.1199999,{MSCS22-MSCS23-MSCS25-MSCS57-MSCS58},,{CAI5},,,
2015-12-05,3G,Giza,Haram,RNC08,14,0.91000003,{MSCS22-MSCS23-MSCS25-MSCS57-MSCS58},,{CAI5},,,
2015-12-05,3G,Delta,Mansoura,RNC11,130,21.780001,{MSCS11-MSCS12-MSCS13-MSCS24-MSCS33-MSCS34},{10th Ramadan},{10th Ramadan},,,
2015-12-05,3G,Delta,Mansoura,RNC12,65,10.89,{MSCS11-MSCS12-MSCS13-MSCS24-MSCS33-MSCS34},{10th Ramadan},{10th Ramadan},,,
2015-12-05,3G,Delta,Sharkeyya_Rural,RNC12,8,0.43000001,{MSCS11-MSCS12-MSCS13-MSCS24-MSCS33-MSCS34},{10th Ramadan},{10th Ramadan},,,
2015-12-05,3G,Delta,Gharbiya_Rural,RNC12,12,1.34,{MSCS11-MSCS12-MSCS13-MSCS24-MSCS33-MSCS34},{10th Ramadan},{10th Ramadan},,,
2015-12-05,3G,Delta,Dakahleyya_Rural,RNC12,6,0.33000001,{MSCS11-MSCS12-MSCS13-MSCS24-MSCS33-MSCS34},{10th Ramadan},{10th Ramadan},,,
2015-12-05,3G,Delta,Beheira_Rural,RNC15,6,0.54000002,{MSCS26-MSCS27-MSCS38-MSCS39-MSCS40},{CAI5},{CAI5},,,
2015-12-05,3G,Cairo,Matarya,RNC15,9,1.08,{MSCS26-MSCS27-MSCS38-MSCS39-MSCS40},{CAI5},{CAI5},,,
2015-12-05,3G,Delta,Kafr El Sheikh_Rural,RNC15,52,5,{MSCS26-MSCS27-MSCS38-MSCS39-MSCS40},{CAI5},{CAI5},,,
2015-12-05,3G,Delta,Qalyubiya_Rural,RNC15,48,5.9899998,{MSCS26-MSCS27-MSCS38-MSCS39-MSCS40},{CAI5},{CAI5},,,
2015-12-05,3G,Alexandria,Alex_3,RNC17,145,37.959999,{MSCS14-MSCS15-MSCS28-MSCS42-MSCS59-MSCS9},{Alex},{Alex},,,
2015-12-05,3G,Alexandria,Alex_1,RNC20,9,1.37,{MSCS14-MSCS15-MSCS28-MSCS42-MSCS59-MSCS9},{Alex},{Alex},,,
2015-12-05,3G,Alexandria,Alex_2,RNC20,108,18.690001,{MSCS14-MSCS15-MSCS28-MSCS42-MSCS59-MSCS9},{Alex},{Alex},,,
2015-12-05,3G,Delta,Dakahleyya_Rural,RNC21,143,7.8600001,{MSCS26-MSCS27-MSCS38-MSCS39-MSCS40},{CAI5},{CAI5},,,
2015-12-05,3G,Delta,Damietta_Rural,RNC21,60,11.93,{MSCS26-MSCS27-MSCS38-MSCS39-MSCS40},{CAI5},{CAI5},,,
2015-12-05,3G,Delta,Kafr El Sheikh_Rural,RNC21,58,5.5799999,{MSCS26-MSCS27-MSCS38-MSCS39-MSCS40},{CAI5},{CAI5},,,
2015-12-05,3G,Delta,Qalyubiya_Rural,RNC22,242,30.209999,{MSCS35-MSCS36-MSCS46-MSCS47-MSCS48-MSCS49-MSCS56},{HQ},{Beni Suef},,,
2015-12-05,3G,Delta,Monufeyya_Rural,RNC22,6,0.68000001,{MSCS35-MSCS36-MSCS46-MSCS47-MSCS48-MSCS49-MSCS56},{HQ},{Beni Suef},,,
2015-12-05,3G,Delta,Sharkeyya_Rural,RNC22,97,5.2199998,{MSCS35-MSCS36-MSCS46-MSCS47-MSCS48-MSCS49-MSCS56},{HQ},{Beni Suef},,,
2015-12-05,3G,Delta,Sharkeyya_Rural,RNC23,355,19.120001,{MSCS11-MSCS12-MSCS13-MSCS24-MSCS33-MSCS34},{10th Ramadan},{10th Ramadan},,,
2015-12-05,3G,Delta,Monufeyya_Rural,RNC23,86,9.7600002,{MSCS11-MSCS12-MSCS13-MSCS24-MSCS33-MSCS34},{10th Ramadan},{10th Ramadan},,,
2015-12-05,3G,Delta,Qalyubiya_Rural,RNC23,32,4,{MSCS11-MSCS12-MSCS13-MSCS24-MSCS33-MSCS34},{10th Ramadan},{10th Ramadan},,,
2015-12-05,3G,Delta,Banha,RNC23,144,96,{MSCS11-MSCS12-MSCS13-MSCS24-MSCS33-MSCS34},{10th Ramadan},{10th Ramadan},,,
2015-12-05,3G,Cairo,Nasr City,RNC24,403,31.120001,{MSCS16-MSCS17-MSCS31-MSCS32},{Mokattam},{Mokattam},,,
2015-12-05,3G,Cairo,Matarya,RNC25,77,9.21,{MSCS22-MSCS23-MSCS25-MSCS57-MSCS58},{CAI5},{CAI5},,,
2015-12-05,3G,Cairo,Alsalam,RNC25,65,18.209999,{MSCS22-MSCS23-MSCS25-MSCS57-MSCS58},{CAI5},{CAI5},,,
2015-12-05,3G,Cairo,Heliopolis and Nozha,RNC25,17,2.3499999,{MSCS22-MSCS23-MSCS25-MSCS57-MSCS58},{CAI5},{CAI5},,,
2015-12-05,3G,Delta,Dakahleyya_Rural,RNC25,137,7.5300002,{MSCS22-MSCS23-MSCS25-MSCS57-MSCS58},{CAI5},{CAI5},,,
2015-12-05,3G,Delta,Damietta_Rural,RNC25,132,26.24,{MSCS22-MSCS23-MSCS25-MSCS57-MSCS58},{CAI5},{CAI5},,,
2015-12-05,3G,Giza,Imbaba,RNC25,141,27.49,{MSCS22-MSCS23-MSCS25-MSCS57-MSCS58},{CAI5},{CAI5},,,
2015-12-05,3G,Delta,Kafr El-Shikh,RNC26,126,100,{MSCS35-MSCS36-MSCS46-MSCS47-MSCS48-MSCS49-MSCS56},{HQ},{Beni Suef},,,
2015-12-05,3G,Delta,Kafr El Sheikh_Rural,RNC26,82,7.8800001,{MSCS35-MSCS36-MSCS46-MSCS47-MSCS48-MSCS49-MSCS56},{HQ},{Beni Suef},,,
2015-12-05,3G,Delta,Gharbiya_Rural,RNC26,6,0.67000002,{MSCS35-MSCS36-MSCS46-MSCS47-MSCS48-MSCS49-MSCS56},{HQ},{Beni Suef},,,
2015-12-05,3G,Delta,Damanhour,RNC26,138,90.199997,{MSCS35-MSCS36-MSCS46-MSCS47-MSCS48-MSCS49-MSCS56},{HQ},{Beni Suef},,,
2015-12-05,3G,Delta,Beheira_Rural,RNC26,103,9.25,{MSCS35-MSCS36-MSCS46-MSCS47-MSCS48-MSCS49-MSCS56},{HQ},{Beni Suef},,,
2015-12-05,3G,Delta,Dakahleyya_Rural,RNC27,88,4.8400002,{MSCS26-MSCS27-MSCS38-MSCS39-MSCS40},{CAI5},{CAI5},,,
2015-12-05,3G,Delta,Damietta_Rural,RNC27,304,60.439999,{MSCS26-MSCS27-MSCS38-MSCS39-MSCS40},{CAI5},{CAI5},,,
2015-12-05,3G,Cairo,Alsalam,RNC27,106,29.690001,{MSCS26-MSCS27-MSCS38-MSCS39-MSCS40},{CAI5},{CAI5},,,
2015-12-05,3G,Cairo,1St Gathering,RNC27,1,0.1,{MSCS26-MSCS27-MSCS38-MSCS39-MSCS40},{CAI5},{CAI5},,,
2015-12-05,3G,Cairo,5Th Gathering and Kattamya,RNC27,6,0.69999999,{MSCS26-MSCS27-MSCS38-MSCS39-MSCS40},{CAI5},{CAI5},,,
2015-12-05,3G,Cairo,Matarya,RNC27,59,7.0599999,{MSCS26-MSCS27-MSCS38-MSCS39-MSCS40},{CAI5},{CAI5},,,
2015-12-05,3G,Cairo,Nasr City,RNC27,8,0.62,{MSCS26-MSCS27-MSCS38-MSCS39-MSCS40},{CAI5},{CAI5},,,
2015-12-05,3G,Delta,Damyata,RNC27,176,100,{MSCS26-MSCS27-MSCS38-MSCS39-MSCS40},{CAI5},{CAI5},,,
2015-12-05,3G,Giza,Haram,RNC27,25,1.63,{MSCS26-MSCS27-MSCS38-MSCS39-MSCS40},{CAI5},{CAI5},,,
2015-12-05,3G,Giza,Kerdasa and Mansoraya,RNC27,6,1.97,{MSCS26-MSCS27-MSCS38-MSCS39-MSCS40},{CAI5},{CAI5},,,
2015-12-05,3G,Giza,Haram,RNC28,175,11.4,{MSCBC1-MSCBC2-MSCBC3-MSCBC4-MSCBC5-MSCBC6},{Zahraa},{10th Ramadan,Beni Suef,CAI5,Zahraa},,,
2015-12-05,3G,Giza,Giza Outskirts,RNC28,6,1.11,{MSCBC1-MSCBC2-MSCBC3-MSCBC4-MSCBC5-MSCBC6},{Zahraa},{10th Ramadan,Beni Suef,CAI5,Zahraa},,,
2015-12-05,3G,Cairo,Shubra El-Khima,RNC28,6,0.86000001,{MSCBC1-MSCBC2-MSCBC3-MSCBC4-MSCBC5-MSCBC6},{Zahraa},{10th Ramadan,Beni Suef,CAI5,Zahraa},,,
2015-12-05,3G,Cairo,Moukattam,RNC28,45,12.26,{MSCBC1-MSCBC2-MSCBC3-MSCBC4-MSCBC5-MSCBC6},{Zahraa},{10th Ramadan,Beni Suef,CAI5,Zahraa},,,
2015-12-05,3G,Cairo,Maadi,RNC28,41,5.9899998,{MSCBC1-MSCBC2-MSCBC3-MSCBC4-MSCBC5-MSCBC6},{Zahraa},{10th Ramadan,Beni Suef,CAI5,Zahraa},,,
2015-12-05,3G,Cairo,Abbassyia,RNC28,21,11.11,{MSCBC1-MSCBC2-MSCBC3-MSCBC4-MSCBC5-MSCBC6},{Zahraa},{10th Ramadan,Beni Suef,CAI5,Zahraa},,,
2015-12-05,3G,Cairo,Dar El Salam,RNC28,40,13.11,{MSCBC1-MSCBC2-MSCBC3-MSCBC4-MSCBC5-MSCBC6},{Zahraa},{10th Ramadan,Beni Suef,CAI5,Zahraa},,,
2015-12-05,3G,Cairo,Down Town and Manyal,RNC28,443,55.790001,{MSCBC1-MSCBC2-MSCBC3-MSCBC4-MSCBC5-MSCBC6},{Zahraa},{10th Ramadan,Beni Suef,CAI5,Zahraa},,,
2015-12-05,3G,Delta,Damietta_Rural,RNC29,7,1.39,{MSCBC1-MSCBC2-MSCBC3-MSCBC4-MSCBC5-MSCBC6},{10th Ramadan},{10th Ramadan,Beni Suef,CAI5,Zahraa},,,
2015-12-05,3G,Delta,Gharbiya_Rural,RNC29,15,1.6799999,{MSCBC1-MSCBC2-MSCBC3-MSCBC4-MSCBC5-MSCBC6},{10th Ramadan},{10th Ramadan,Beni Suef,CAI5,Zahraa},,,
2015-12-05,3G,Delta,Dakahleyya_Rural,RNC29,184,10.11,{MSCBC1-MSCBC2-MSCBC3-MSCBC4-MSCBC5-MSCBC6},{10th Ramadan},{10th Ramadan,Beni Suef,CAI5,Zahraa},,,
2015-12-05,3G,Delta,Zagazig,RNC29,240,100,{MSCBC1-MSCBC2-MSCBC3-MSCBC4-MSCBC5-MSCBC6},{10th Ramadan},{10th Ramadan,Beni Suef,CAI5,Zahraa},,,
2015-12-05,3G,Delta,Sharkeyya_Rural,RNC29,969,52.18,{MSCBC1-MSCBC2-MSCBC3-MSCBC4-MSCBC5-MSCBC6},{10th Ramadan},{10th Ramadan,Beni Suef,CAI5,Zahraa},,,
2015-12-05,3G,Delta,Mansoura,RNC29,9,1.51,{MSCBC1-MSCBC2-MSCBC3-MSCBC4-MSCBC5-MSCBC6},{10th Ramadan},{10th Ramadan,Beni Suef,CAI5,Zahraa},,,
2015-12-05,3G,Delta,Monufeyya_Rural,RNC29,6,0.68000001,{MSCBC1-MSCBC2-MSCBC3-MSCBC4-MSCBC5-MSCBC6},{10th Ramadan},{10th Ramadan,Beni Suef,CAI5,Zahraa},,,
2015-12-05,3G,Delta,Monufeyya_Rural,RNC30,63,7.1500001,{MSCBC1-MSCBC2-MSCBC3-MSCBC4-MSCBC5-MSCBC6},{HQ},{10th Ramadan,Beni Suef,CAI5,Zahraa},,,
2015-12-05,3G,Delta,Kafr El Sheikh_Rural,RNC30,270,25.959999,{MSCBC1-MSCBC2-MSCBC3-MSCBC4-MSCBC5-MSCBC6},{HQ},{10th Ramadan,Beni Suef,CAI5,Zahraa},,,
2015-12-05,3G,Delta,Sharkeyya_Rural,RNC30,6,0.31999999,{MSCBC1-MSCBC2-MSCBC3-MSCBC4-MSCBC5-MSCBC6},{HQ},{10th Ramadan,Beni Suef,CAI5,Zahraa},,,
2015-12-05,3G,Delta,Beheira_Rural,RNC30,250,22.459999,{MSCBC1-MSCBC2-MSCBC3-MSCBC4-MSCBC5-MSCBC6},{HQ},{10th Ramadan,Beni Suef,CAI5,Zahraa},,,
2015-12-05,3G,Delta,Gharbiya_Rural,RNC30,241,26.99,{MSCBC1-MSCBC2-MSCBC3-MSCBC4-MSCBC5-MSCBC6},{HQ},{10th Ramadan,Beni Suef,CAI5,Zahraa},,,
2015-12-05,3G,Delta,Dakahleyya_Rural,RNC30,164,9.0100002,{MSCBC1-MSCBC2-MSCBC3-MSCBC4-MSCBC5-MSCBC6},{HQ},{10th Ramadan,Beni Suef,CAI5,Zahraa},,,
2015-12-05,3G,Cairo,Shubra El-Khima,RNC31,253,36.25,{MSCBC1-MSCBC2-MSCBC3-MSCBC4-MSCBC5-MSCBC6},{Mokattam},{10th Ramadan,Beni Suef,CAI5,Zahraa},,,
2015-12-05,3G,Cairo,Abbassyia,RNC31,168,88.889999,{MSCBC1-MSCBC2-MSCBC3-MSCBC4-MSCBC5-MSCBC6},{Mokattam},{10th Ramadan,Beni Suef,CAI5,Zahraa},,,
2015-12-05,3G,Cairo,Matarya,RNC31,145,17.34,{MSCBC1-MSCBC2-MSCBC3-MSCBC4-MSCBC5-MSCBC6},{Mokattam},{10th Ramadan,Beni Suef,CAI5,Zahraa},,,
2015-12-05,3G,Cairo,Zaitoun and Qubba,RNC31,105,41.5,{MSCBC1-MSCBC2-MSCBC3-MSCBC4-MSCBC5-MSCBC6},{Mokattam},{10th Ramadan,Beni Suef,CAI5,Zahraa},,,
2015-12-05,3G,Cairo,Shubra,RNC31,27,10.38,{MSCBC1-MSCBC2-MSCBC3-MSCBC4-MSCBC5-MSCBC6},{Mokattam},{10th Ramadan,Beni Suef,CAI5,Zahraa},,,
2015-12-05,3G,Cairo,Moukattam,RNC31,37,10.08,{MSCBC1-MSCBC2-MSCBC3-MSCBC4-MSCBC5-MSCBC6},{Mokattam},{10th Ramadan,Beni Suef,CAI5,Zahraa},,,
2015-12-05,3G,Cairo,Nasr City,RNC31,137,10.58,{MSCBC1-MSCBC2-MSCBC3-MSCBC4-MSCBC5-MSCBC6},{Mokattam},{10th Ramadan,Beni Suef,CAI5,Zahraa},,,
2015-12-05,3G,Cairo,Alsalam,RNC32,9,2.52,{MSCBC1-MSCBC2-MSCBC3-MSCBC4-MSCBC5-MSCBC6},{CAI5},{10th Ramadan,Beni Suef,CAI5,Zahraa},,,
2015-12-05,3G,Delta,Beheira_Rural,RNC32,3,0.27000001,{MSCBC1-MSCBC2-MSCBC3-MSCBC4-MSCBC5-MSCBC6},{CAI5},{10th Ramadan,Beni Suef,CAI5,Zahraa},,,
2015-12-05,3G,Delta,Qalyubiya_Rural,RNC32,14,1.75,{MSCBC1-MSCBC2-MSCBC3-MSCBC4-MSCBC5-MSCBC6},{CAI5},{10th Ramadan,Beni Suef,CAI5,Zahraa},,,
2015-12-05,3G,Delta,Sharkeyya_Rural,RNC32,8,0.43000001,{MSCBC1-MSCBC2-MSCBC3-MSCBC4-MSCBC5-MSCBC6},{CAI5},{10th Ramadan,Beni Suef,CAI5,Zahraa},,,
2015-12-05,3G,Giza,Haram,RNC32,622,40.52,{MSCBC1-MSCBC2-MSCBC3-MSCBC4-MSCBC5-MSCBC6},{CAI5},{10th Ramadan,Beni Suef,CAI5,Zahraa},,,
2015-12-05,3G,Giza,Kerdasa and Mansoraya,RNC32,6,1.97,{MSCBC1-MSCBC2-MSCBC3-MSCBC4-MSCBC5-MSCBC6},{CAI5},{10th Ramadan,Beni Suef,CAI5,Zahraa},,,
2015-12-05,3G,Giza,Imbaba,RNC33,338,65.889999,{MSCBC1-MSCBC2-MSCBC3-MSCBC4-MSCBC5-MSCBC6},{CAI5},{10th Ramadan,Beni Suef,CAI5,Zahraa},,,
2015-12-05,3G,Giza,Kerdasa and Mansoraya,RNC33,51,16.719999,{MSCBC1-MSCBC2-MSCBC3-MSCBC4-MSCBC5-MSCBC6},{CAI5},{10th Ramadan,Beni Suef,CAI5,Zahraa},,,
2015-12-05,3G,Giza,Haram,RNC33,9,0.58999997,{MSCBC1-MSCBC2-MSCBC3-MSCBC4-MSCBC5-MSCBC6},{CAI5},{10th Ramadan,Beni Suef,CAI5,Zahraa},,,
2015-12-05,3G,Giza,Boulaq,RNC33,454,100,{MSCBC1-MSCBC2-MSCBC3-MSCBC4-MSCBC5-MSCBC6},{CAI5},{10th Ramadan,Beni Suef,CAI5,Zahraa},,,
2015-12-05,3G,Delta,Qalyubiya_Rural,RNC33,18,2.25,{MSCBC1-MSCBC2-MSCBC3-MSCBC4-MSCBC5-MSCBC6},{CAI5},{10th Ramadan,Beni Suef,CAI5,Zahraa},,,
2015-12-05,3G,Giza,Mouhandseen,RNC33,660,99.099998,{MSCBC1-MSCBC2-MSCBC3-MSCBC4-MSCBC5-MSCBC6},{CAI5},{10th Ramadan,Beni Suef,CAI5,Zahraa},,,
2015-12-05,3G,Giza,Shubra and Imbaba Outskirts,RNC33,24,24.24,{MSCBC1-MSCBC2-MSCBC3-MSCBC4-MSCBC5-MSCBC6},{CAI5},{10th Ramadan,Beni Suef,CAI5,Zahraa},,,
2015-12-05,3G,Cairo,Alsalam,RNC33,129,36.130001,{MSCBC1-MSCBC2-MSCBC3-MSCBC4-MSCBC5-MSCBC6},{CAI5},{10th Ramadan,Beni Suef,CAI5,Zahraa},,,
2015-12-05,3G,Cairo,Airport,RNC33,9,9.6800003,{MSCBC1-MSCBC2-MSCBC3-MSCBC4-MSCBC5-MSCBC6},{CAI5},{10th Ramadan,Beni Suef,CAI5,Zahraa},,,
2015-12-05,3G,Cairo,Matarya,RNC33,21,2.51,{MSCBC1-MSCBC2-MSCBC3-MSCBC4-MSCBC5-MSCBC6},{CAI5},{10th Ramadan,Beni Suef,CAI5,Zahraa},,,
2015-12-05,3G,Cairo,Matarya,RNC34,198,23.68,{MSCBC1-MSCBC2-MSCBC3-MSCBC4-MSCBC5-MSCBC6},{Zahraa},{10th Ramadan,Beni Suef,CAI5,Zahraa},,,
2015-12-05,3G,Cairo,Shubra El-Khima,RNC34,63,9.0299997,{MSCBC1-MSCBC2-MSCBC3-MSCBC4-MSCBC5-MSCBC6},{Zahraa},{10th Ramadan,Beni Suef,CAI5,Zahraa},,,
2015-12-05,3G,Giza,Shubra and Imbaba Outskirts,RNC34,75,75.760002,{MSCBC1-MSCBC2-MSCBC3-MSCBC4-MSCBC5-MSCBC6},{Zahraa},{10th Ramadan,Beni Suef,CAI5,Zahraa},,,
2015-12-05,3G,Delta,Monufeyya_Rural,RNC34,79,8.9700003,{MSCBC1-MSCBC2-MSCBC3-MSCBC4-MSCBC5-MSCBC6},{Zahraa},{10th Ramadan,Beni Suef,CAI5,Zahraa},,,
2015-12-05,3G,Delta,Qalyubiya_Rural,RNC34,241,30.09,{MSCBC1-MSCBC2-MSCBC3-MSCBC4-MSCBC5-MSCBC6},{Zahraa},{10th Ramadan,Beni Suef,CAI5,Zahraa},,,
2015-12-05,3G,Delta,Shibin,RNC34,179,100,{MSCBC1-MSCBC2-MSCBC3-MSCBC4-MSCBC5-MSCBC6},{Zahraa},{10th Ramadan,Beni Suef,CAI5,Zahraa},,,
2015-12-05,3G,Cairo,Nasr City,RNC35,185,14.29,{MSCBC1-MSCBC2-MSCBC3-MSCBC4-MSCBC5-MSCBC6},{Mokattam},{10th Ramadan,Beni Suef,CAI5,Zahraa},,,
2015-12-05,3G,Cairo,Moukattam,RNC35,285,77.660004,{MSCBC1-MSCBC2-MSCBC3-MSCBC4-MSCBC5-MSCBC6},{Mokattam},{10th Ramadan,Beni Suef,CAI5,Zahraa},,,
2015-12-05,3G,Cairo,Maadi,RNC35,33,4.8200002,{MSCBC1-MSCBC2-MSCBC3-MSCBC4-MSCBC5-MSCBC6},{Mokattam},{10th Ramadan,Beni Suef,CAI5,Zahraa},,,
2015-12-05,3G,Cairo,Dar El Salam,RNC35,57,18.690001,{MSCBC1-MSCBC2-MSCBC3-MSCBC4-MSCBC5-MSCBC6},{Mokattam},{10th Ramadan,Beni Suef,CAI5,Zahraa},,,
2015-12-05,3G,Cairo,Hadabah Wostah,RNC35,207,86.25,{MSCBC1-MSCBC2-MSCBC3-MSCBC4-MSCBC5-MSCBC6},{Mokattam},{10th Ramadan,Beni Suef,CAI5,Zahraa},,,
2015-12-05,3G,Delta,Dakahleyya_Rural,RNC36,472,25.93,{MSCBC1-MSCBC2-MSCBC3-MSCBC4-MSCBC5-MSCBC6},{10th Ramadan},{10th Ramadan,Beni Suef,CAI5,Zahraa},,,
2015-12-05,3G,Delta,Sharkeyya_Rural,RNC36,414,22.290001,{MSCBC1-MSCBC2-MSCBC3-MSCBC4-MSCBC5-MSCBC6},{10th Ramadan},{10th Ramadan,Beni Suef,CAI5,Zahraa},,,
2015-12-05,3G,Delta,Monufeyya_Rural,RNC36,9,1.02,{MSCBC1-MSCBC2-MSCBC3-MSCBC4-MSCBC5-MSCBC6},{10th Ramadan},{10th Ramadan,Beni Suef,CAI5,Zahraa},,,
2015-12-05,3G,Delta,Mansoura,RNC36,28,4.6900001,{MSCBC1-MSCBC2-MSCBC3-MSCBC4-MSCBC5-MSCBC6},{10th Ramadan},{10th Ramadan,Beni Suef,CAI5,Zahraa},,,
2015-12-05,3G,Delta,Qalyubiya_Rural,RNC36,18,2.25,{MSCBC1-MSCBC2-MSCBC3-MSCBC4-MSCBC5-MSCBC6},{10th Ramadan},{10th Ramadan,Beni Suef,CAI5,Zahraa},,,
2015-12-05,3G,Delta,Kafr El Sheikh_Rural,RNC37,43,4.1300001,{MSCS14-MSCS15-MSCS28-MSCS42-MSCS59-MSCS9},{Alex},{Alex},,,
2015-12-05,3G,Delta,Beheira_Rural,RNC37,34,3.05,{MSCS14-MSCS15-MSCS28-MSCS42-MSCS59-MSCS9},{Alex},{Alex},,,
2015-12-05,3G,Alexandria,North Coast East,RNC37,1,9.0000004E-2,{MSCS14-MSCS15-MSCS28-MSCS42-MSCS59-MSCS9},{Alex},{Alex},,,
2015-12-05,3G,Alexandria,Alex_2,RNC37,355,61.419998,{MSCS14-MSCS15-MSCS28-MSCS42-MSCS59-MSCS9},{Alex},{Alex},,,
2015-12-05,3G,Alexandria,Alex_1,RNC37,649,98.629997,{MSCS14-MSCS15-MSCS28-MSCS42-MSCS59-MSCS9},{Alex},{Alex},,,
2015-12-05,3G,Alexandria,Alex_3,RNC37,155,40.580002,{MSCS14-MSCS15-MSCS28-MSCS42-MSCS59-MSCS9},{Alex},{Alex},,,
2015-12-05,3G,Alexandria,Alex Desert Road,RNC37,20,3.27,{MSCS14-MSCS15-MSCS28-MSCS42-MSCS59-MSCS9},{Alex},{Alex},,,
2015-12-05,3G,Delta,Beheira_Rural,RNC38,164,14.73,{MSCBC1-MSCBC2-MSCBC3-MSCBC4-MSCBC5-MSCBC6},{HQ},{10th Ramadan,Beni Suef,CAI5,Zahraa},,,
2015-12-05,3G,Delta,Gharbiya_Rural,RNC38,566,63.380001,{MSCBC1-MSCBC2-MSCBC3-MSCBC4-MSCBC5-MSCBC6},{HQ},{10th Ramadan,Beni Suef,CAI5,Zahraa},,,
2015-12-05,3G,Delta,Kafr El Sheikh_Rural,RNC38,46,4.4200001,{MSCBC1-MSCBC2-MSCBC3-MSCBC4-MSCBC5-MSCBC6},{HQ},{10th Ramadan,Beni Suef,CAI5,Zahraa},,,
2015-12-05,3G,Delta,Qalyubiya_Rural,RNC38,170,21.219999,{MSCBC1-MSCBC2-MSCBC3-MSCBC4-MSCBC5-MSCBC6},{HQ},{10th Ramadan,Beni Suef,CAI5,Zahraa},,,
2015-12-05,3G,Delta,Monufeyya_Rural,RNC38,611,69.349998,{MSCBC1-MSCBC2-MSCBC3-MSCBC4-MSCBC5-MSCBC6},{HQ},{10th Ramadan,Beni Suef,CAI5,Zahraa},,,
2015-12-05,3G,Delta,Tanta,RNC38,229,100,{MSCBC1-MSCBC2-MSCBC3-MSCBC4-MSCBC5-MSCBC6},{HQ},{10th Ramadan,Beni Suef,CAI5,Zahraa},,,
2015-12-05,3G,Giza,Haram,RNC39,6,0.38999999,{MSCBC1-MSCBC2-MSCBC3-MSCBC4-MSCBC5-MSCBC6},{Zahraa},{10th Ramadan,Beni Suef,CAI5,Zahraa},,,
2015-12-05,3G,Giza,Giza Outskirts,RNC39,89,16.51,{MSCBC1-MSCBC2-MSCBC3-MSCBC4-MSCBC5-MSCBC6},{Zahraa},{10th Ramadan,Beni Suef,CAI5,Zahraa},,,
2015-12-05,3G,Cairo,Hadabah Wostah,RNC39,33,13.75,{MSCBC1-MSCBC2-MSCBC3-MSCBC4-MSCBC5-MSCBC6},{Zahraa},{10th Ramadan,Beni Suef,CAI5,Zahraa},,,
2015-12-05,3G,Cairo,Dar El Salam,RNC39,208,68.199997,{MSCBC1-MSCBC2-MSCBC3-MSCBC4-MSCBC5-MSCBC6},{Zahraa},{10th Ramadan,Beni Suef,CAI5,Zahraa},,,
2015-12-05,3G,Cairo,Maadi,RNC39,385,56.290001,{MSCBC1-MSCBC2-MSCBC3-MSCBC4-MSCBC5-MSCBC6},{Zahraa},{10th Ramadan,Beni Suef,CAI5,Zahraa},,,
2015-12-05,3G,Delta,Beheira_Rural,RNC40,74,6.6500001,,,,,,
2015-12-05,3G,Delta,Dakahleyya_Rural,RNC40,574,31.540001,,,,,,
2015-12-05,3G,Alexandria,Alex Desert Road,RNC40,12,1.96,,,,,,
2015-12-05,3G,Delta,Kafr El Sheikh_Rural,RNC40,279,26.83,,,,,,
2015-12-05,3G,Delta,Gharbiya_Rural,RNC40,41,4.5900002,,,,,,
2015-12-05,3G,Delta,Mansoura,RNC40,365,61.139999,,,,,,
2015-12-05,3G,Delta,Qalyubiya_Rural,RNC41,18,2.25,{MSCBC1-MSCBC2-MSCBC3-MSCBC4-MSCBC5-MSCBC6},{Zahraa},{10th Ramadan,Beni Suef,CAI5,Zahraa},,,
2015-12-05,3G,Giza,Imbaba,RNC41,18,3.51,{MSCBC1-MSCBC2-MSCBC3-MSCBC4-MSCBC5-MSCBC6},{Zahraa},{10th Ramadan,Beni Suef,CAI5,Zahraa},,,
2015-12-05,3G,Cairo,Matarya,RNC41,234,27.99,{MSCBC1-MSCBC2-MSCBC3-MSCBC4-MSCBC5-MSCBC6},{Zahraa},{10th Ramadan,Beni Suef,CAI5,Zahraa},,,
2015-12-05,3G,Cairo,Shubra El-Khima,RNC41,367,52.580002,{MSCBC1-MSCBC2-MSCBC3-MSCBC4-MSCBC5-MSCBC6},{Zahraa},{10th Ramadan,Beni Suef,CAI5,Zahraa},,,
2015-12-05,3G,Cairo,Shubra,RNC41,233,89.620003,{MSCBC1-MSCBC2-MSCBC3-MSCBC4-MSCBC5-MSCBC6},{Zahraa},{10th Ramadan,Beni Suef,CAI5,Zahraa},,,
2015-12-05,3G,Cairo,Zamalek,RNC41,135,100,{MSCBC1-MSCBC2-MSCBC3-MSCBC4-MSCBC5-MSCBC6},{Zahraa},{10th Ramadan,Beni Suef,CAI5,Zahraa},,,
2015-12-05,3G,Cairo,Alsalam,RNC41,15,4.1999998,{MSCBC1-MSCBC2-MSCBC3-MSCBC4-MSCBC5-MSCBC6},{Zahraa},{10th Ramadan,Beni Suef,CAI5,Zahraa},,,
2015-12-05,3G,Cairo,Down Town and Manyal,RNC41,350,44.080002,{MSCBC1-MSCBC2-MSCBC3-MSCBC4-MSCBC5-MSCBC6},{Zahraa},{10th Ramadan,Beni Suef,CAI5,Zahraa},,,
2015-12-05,3G,Cairo,Ain Shams,RNC41,76,31.15,{MSCBC1-MSCBC2-MSCBC3-MSCBC4-MSCBC5-MSCBC6},{Zahraa},{10th Ramadan,Beni Suef,CAI5,Zahraa},,,
2015-12-05,3G,Cairo,Ain Shams,RNC42,24,9.8400002,{MSCBC1-MSCBC2-MSCBC3-MSCBC4-MSCBC5-MSCBC6},{Mokattam},{10th Ramadan,Beni Suef,CAI5,Zahraa},,,
2015-12-05,3G,Cairo,Airport,RNC42,84,90.32,{MSCBC1-MSCBC2-MSCBC3-MSCBC4-MSCBC5-MSCBC6},{Mokattam},{10th Ramadan,Beni Suef,CAI5,Zahraa},,,
2015-12-05,3G,Cairo,Heliopolis and Nozha,RNC42,530,73.199997,{MSCBC1-MSCBC2-MSCBC3-MSCBC4-MSCBC5-MSCBC6},{Mokattam},{10th Ramadan,Beni Suef,CAI5,Zahraa},,,
2015-12-05,3G,Cairo,Alsalam,RNC42,33,9.2399998,{MSCBC1-MSCBC2-MSCBC3-MSCBC4-MSCBC5-MSCBC6},{Mokattam},{10th Ramadan,Beni Suef,CAI5,Zahraa},,,
2015-12-05,3G,Cairo,Zaitoun and Qubba,RNC42,148,58.5,{MSCBC1-MSCBC2-MSCBC3-MSCBC4-MSCBC5-MSCBC6},{Mokattam},{10th Ramadan,Beni Suef,CAI5,Zahraa},,,
2015-12-05,3G,Cairo,Shubra El-Khima,RNC42,9,1.29,{MSCBC1-MSCBC2-MSCBC3-MSCBC4-MSCBC5-MSCBC6},{Mokattam},{10th Ramadan,Beni Suef,CAI5,Zahraa},,,
2015-12-05,3G,Cairo,Nasr City,RNC42,493,38.07,{MSCBC1-MSCBC2-MSCBC3-MSCBC4-MSCBC5-MSCBC6},{Mokattam},{10th Ramadan,Beni Suef,CAI5,Zahraa},,,
2015-12-05,3G,Delta,Dakahleyya_Rural,RNC43,52,2.8599999,,,,,,
2015-12-05,3G,Giza,Kerdasa and Mansoraya,RNC43,28,9.1800003,,,,,,
2015-12-05,3G,Giza,Haram,RNC43,672,43.779999,,,,,,
2015-12-05,3G,Giza,Giza Outskirts,RNC43,24,4.4499998,,,,,,
2015-12-05,3G,Delta,Kafr El Sheikh_Rural,RNC43,182,17.5,,,,,,
2015-12-05,3G,Giza,Sahary Alahram,RNC43,28,4.0799999,,,,,,
2015-12-05,3G,Cairo,Matarya,RNC44,93,11.12,,,,,,
2015-12-05,3G,Cairo,Heliopolis and Nozha,RNC44,177,24.450001,,,,,,
2015-12-05,3G,Cairo,Ain Shams,RNC44,144,59.02,,,,,,
2015-12-05,3G,Upper Egypt,Aswan,RNCH01,185,100,{MSCBC1-MSCBC2-MSCBC3-MSCBC4-MSCBC5-MSCBC6},{Beni Suef},{10th Ramadan,Beni Suef,CAI5,Zahraa},,,
2015-12-05,3G,Upper Egypt,Aswan_Rural,RNCH01,57,25,{MSCBC1-MSCBC2-MSCBC3-MSCBC4-MSCBC5-MSCBC6},{Beni Suef},{10th Ramadan,Beni Suef,CAI5,Zahraa},,,
2015-12-05,3G,Upper Egypt,Asyut,RNCH01,274,100,{MSCBC1-MSCBC2-MSCBC3-MSCBC4-MSCBC5-MSCBC6},{Beni Suef},{10th Ramadan,Beni Suef,CAI5,Zahraa},,,
2015-12-05,3G,Upper Egypt,Asyut_Rural,RNCH01,344,96.629997,{MSCBC1-MSCBC2-MSCBC3-MSCBC4-MSCBC5-MSCBC6},{Beni Suef},{10th Ramadan,Beni Suef,CAI5,Zahraa},,,
2015-12-05,3G,Upper Egypt,Bani Sweif_Rural,RNCH01,3,1.35,{MSCBC1-MSCBC2-MSCBC3-MSCBC4-MSCBC5-MSCBC6},{Beni Suef},{10th Ramadan,Beni Suef,CAI5,Zahraa},,,
2015-12-05,3G,Upper Egypt,Minia_Rural,RNCH01,24,6.23,{MSCBC1-MSCBC2-MSCBC3-MSCBC4-MSCBC5-MSCBC6},{Beni Suef},{10th Ramadan,Beni Suef,CAI5,Zahraa},,,
2015-12-05,3G,Upper Egypt,Fayoum_Rural,RNCH01,113,24.84,{MSCBC1-MSCBC2-MSCBC3-MSCBC4-MSCBC5-MSCBC6},{Beni Suef},{10th Ramadan,Beni Suef,CAI5,Zahraa},,,
2015-12-05,3G,Upper Egypt,New Valley_Rural,RNCH01,7,16.67,{MSCBC1-MSCBC2-MSCBC3-MSCBC4-MSCBC5-MSCBC6},{Beni Suef},{10th Ramadan,Beni Suef,CAI5,Zahraa},,,
2015-12-05,3G,Upper Egypt,Souhag_Rural,RNCH01,21,9.29,{MSCBC1-MSCBC2-MSCBC3-MSCBC4-MSCBC5-MSCBC6},{Beni Suef},{10th Ramadan,Beni Suef,CAI5,Zahraa},,,
2015-12-05,3G,Upper Egypt,New Valley_Rural,RNCH02,14,33.330002,{MSCS1-MSCS2-MSCS3-MSCS20-MSCS21-MSCS29-MSCS30},{Beni Suef},{HQ},,,
2015-12-05,3G,Upper Egypt,Minya,RNCH02,185,100,{MSCS1-MSCS2-MSCS3-MSCS20-MSCS21-MSCS29-MSCS30},{Beni Suef},{HQ},,,
2015-12-05,3G,Upper Egypt,New Valley,RNCH02,24,100,{MSCS1-MSCS2-MSCS3-MSCS20-MSCS21-MSCS29-MSCS30},{Beni Suef},{HQ},,,
2015-12-05,3G,Upper Egypt,Qena_Rural,RNCH02,95,27.940001,{MSCS1-MSCS2-MSCS3-MSCS20-MSCS21-MSCS29-MSCS30},{Beni Suef},{HQ},,,
2015-12-05,3G,Upper Egypt,Luxor,RNCH02,247,100,{MSCS1-MSCS2-MSCS3-MSCS20-MSCS21-MSCS29-MSCS30},{Beni Suef},{HQ},,,
2015-12-05,3G,Upper Egypt,Luxor_Rural,RNCH02,157,100,{MSCS1-MSCS2-MSCS3-MSCS20-MSCS21-MSCS29-MSCS30},{Beni Suef},{HQ},,,
2015-12-05,3G,Upper Egypt,Minia_Rural,RNCH02,6,1.5599999,{MSCS1-MSCS2-MSCS3-MSCS20-MSCS21-MSCS29-MSCS30},{Beni Suef},{HQ},,,
2015-12-05,3G,Upper Egypt,Aswan_Rural,RNCH02,171,75,{MSCS1-MSCS2-MSCS3-MSCS20-MSCS21-MSCS29-MSCS30},{Beni Suef},{HQ},,,
2015-12-05,3G,Canal,Ras Ghareb,RNCH02,51,50,{MSCS1-MSCS2-MSCS3-MSCS20-MSCS21-MSCS29-MSCS30},{Beni Suef},{HQ},,,
2015-12-05,3G,Canal,El-Sukhna,RNCH02,360,68.699997,{MSCS1-MSCS2-MSCS3-MSCS20-MSCS21-MSCS29-MSCS30},{Beni Suef},{HQ},,,
2015-12-05,3G,Canal,Red Sea North_Rural,RNCH02,41,35.040001,{MSCS1-MSCS2-MSCS3-MSCS20-MSCS21-MSCS29-MSCS30},{Beni Suef},{HQ},,,
2015-12-05,3G,Canal,Portsaid Rural,RNCH03,9,11.54,{MSCS50-MSCS51-MSCS52-MSCS53-MSCS54-MSCS55},{10th Ramadan},{10th Ramadan,Beni Suef},,,
2015-12-05,3G,Canal,Red Sea North_Rural,RNCH03,2,1.71,{MSCS50-MSCS51-MSCS52-MSCS53-MSCS54-MSCS55},{10th Ramadan},{10th Ramadan,Beni Suef},,,
2015-12-05,3G,Canal,Sinai South_Rural,RNCH03,14,10.53,{MSCS50-MSCS51-MSCS52-MSCS53-MSCS54-MSCS55},{10th Ramadan},{10th Ramadan,Beni Suef},,,
2015-12-05,3G,Canal,Suez,RNCH03,484,100,{MSCS50-MSCS51-MSCS52-MSCS53-MSCS54-MSCS55},{10th Ramadan},{10th Ramadan,Beni Suef},,,
2015-12-05,3G,Canal,Suez Rural,RNCH03,10,100,{MSCS50-MSCS51-MSCS52-MSCS53-MSCS54-MSCS55},{10th Ramadan},{10th Ramadan,Beni Suef},,,
2015-12-05,3G,Canal,Taba,RNCH03,18,75,{MSCS50-MSCS51-MSCS52-MSCS53-MSCS54-MSCS55},{10th Ramadan},{10th Ramadan,Beni Suef},,,
2015-12-05,3G,Canal,Dahab,RNCH03,39,100,{MSCS50-MSCS51-MSCS52-MSCS53-MSCS54-MSCS55},{10th Ramadan},{10th Ramadan,Beni Suef},,,
2015-12-05,3G,Canal,Ismailia,RNCH03,295,100,{MSCS50-MSCS51-MSCS52-MSCS53-MSCS54-MSCS55},{10th Ramadan},{10th Ramadan,Beni Suef},,,
2015-12-05,3G,Canal,Ismailia Rural,RNCH03,93,63.27,{MSCS50-MSCS51-MSCS52-MSCS53-MSCS54-MSCS55},{10th Ramadan},{10th Ramadan,Beni Suef},,,
2015-12-05,3G,Canal,Nuweiba,RNCH03,17,100,{MSCS50-MSCS51-MSCS52-MSCS53-MSCS54-MSCS55},{10th Ramadan},{10th Ramadan,Beni Suef},,,
2015-12-05,3G,Upper Egypt,New Valley_Rural,RNCH03,7,16.67,{MSCS50-MSCS51-MSCS52-MSCS53-MSCS54-MSCS55},{10th Ramadan},{10th Ramadan,Beni Suef},,,
2015-12-05,3G,Canal,El-Sukhna,RNCH04,164,31.299999,{MSCS50-MSCS51-MSCS52-MSCS53-MSCS54-MSCS55},{10th Ramadan},{10th Ramadan,Beni Suef},,,
2015-12-05,3G,Canal,Taba,RNCH04,6,25,{MSCS50-MSCS51-MSCS52-MSCS53-MSCS54-MSCS55},{10th Ramadan},{10th Ramadan,Beni Suef},,,
2015-12-05,3G,Canal,Sharm El-Shiekh,RNCH04,644,100,{MSCS50-MSCS51-MSCS52-MSCS53-MSCS54-MSCS55},{10th Ramadan},{10th Ramadan,Beni Suef},,,
2015-12-05,3G,Canal,Sinai North_Rural,RNCH04,15,19.48,{MSCS50-MSCS51-MSCS52-MSCS53-MSCS54-MSCS55},{10th Ramadan},{10th Ramadan,Beni Suef},,,
2015-12-05,3G,Canal,Red Sea North_Rural,RNCH04,33,28.209999,{MSCS50-MSCS51-MSCS52-MSCS53-MSCS54-MSCS55},{10th Ramadan},{10th Ramadan,Beni Suef},,,
2015-12-05,3G,Canal,Sinai South_Rural,RNCH04,18,13.53,{MSCS50-MSCS51-MSCS52-MSCS53-MSCS54-MSCS55},{10th Ramadan},{10th Ramadan,Beni Suef},,,
2015-12-05,3G,Canal,Safaga,RNCH05,39,100,{MSCBC1-MSCBC2-MSCBC3-MSCBC4-MSCBC5-MSCBC6},{Beni Suef},{10th Ramadan,Beni Suef,CAI5,Zahraa},,,
2015-12-05,3G,Canal,Red Sea South_Rural,RNCH05,46,23,{MSCBC1-MSCBC2-MSCBC3-MSCBC4-MSCBC5-MSCBC6},{Beni Suef},{10th Ramadan,Beni Suef,CAI5,Zahraa},,,
2015-12-05,3G,Canal,Red Sea North_Rural,RNCH05,23,19.66,{MSCBC1-MSCBC2-MSCBC3-MSCBC4-MSCBC5-MSCBC6},{Beni Suef},{10th Ramadan,Beni Suef,CAI5,Zahraa},,,
2015-12-05,3G,Canal,Hurghada,RNCH05,867,100,{MSCBC1-MSCBC2-MSCBC3-MSCBC4-MSCBC5-MSCBC6},{Beni Suef},{10th Ramadan,Beni Suef,CAI5,Zahraa},,,
2015-12-05,3G,Canal,El-Gouna,RNCH05,80,100,{MSCBC1-MSCBC2-MSCBC3-MSCBC4-MSCBC5-MSCBC6},{Beni Suef},{10th Ramadan,Beni Suef,CAI5,Zahraa},,,
2015-12-05,3G,Canal,Ras Ghareb,RNCH05,51,50,{MSCBC1-MSCBC2-MSCBC3-MSCBC4-MSCBC5-MSCBC6},{Beni Suef},{10th Ramadan,Beni Suef,CAI5,Zahraa},,,
2015-12-05,3G,Upper Egypt,Fayoum_Rural,RNCH05,102,22.42,{MSCBC1-MSCBC2-MSCBC3-MSCBC4-MSCBC5-MSCBC6},{Beni Suef},{10th Ramadan,Beni Suef,CAI5,Zahraa},,,
2015-12-05,3G,Upper Egypt,Minia_Rural,RNCH06,243,63.119999,{MSCS1-MSCS2-MSCS3-MSCS20-MSCS21-MSCS29-MSCS30},{Beni Suef},{HQ},,,
2015-12-05,3G,Upper Egypt,Qena_Rural,RNCH06,245,72.059998,{MSCS1-MSCS2-MSCS3-MSCS20-MSCS21-MSCS29-MSCS30},{Beni Suef},{HQ},,,
2015-12-05,3G,Upper Egypt,Quina,RNCH06,135,100,{MSCS1-MSCS2-MSCS3-MSCS20-MSCS21-MSCS29-MSCS30},{Beni Suef},{HQ},,,
2015-12-05,3G,Upper Egypt,Sohag,RNCH06,142,100,{MSCS1-MSCS2-MSCS3-MSCS20-MSCS21-MSCS29-MSCS30},{Beni Suef},{HQ},,,
2015-12-05,3G,Upper Egypt,Souhag_Rural,RNCH06,205,90.709999,{MSCS1-MSCS2-MSCS3-MSCS20-MSCS21-MSCS29-MSCS30},{Beni Suef},{HQ},,,
2015-12-05,3G,Canal,Marsa Allam,RNCH06,45,100,{MSCS1-MSCS2-MSCS3-MSCS20-MSCS21-MSCS29-MSCS30},{Beni Suef},{HQ},,,
2015-12-05,3G,Canal,El-Qosseir,RNCH06,36,100,{MSCS1-MSCS2-MSCS3-MSCS20-MSCS21-MSCS29-MSCS30},{Beni Suef},{HQ},,,
2015-12-05,3G,Canal,Red Sea North_Rural,RNCH06,2,1.71,{MSCS1-MSCS2-MSCS3-MSCS20-MSCS21-MSCS29-MSCS30},{Beni Suef},{HQ},,,
2015-12-05,3G,Canal,Red Sea South_Rural,RNCH06,154,77,{MSCS1-MSCS2-MSCS3-MSCS20-MSCS21-MSCS29-MSCS30},{Beni Suef},{HQ},,,
2015-12-05,3G,Cairo,10Th Of Ramadan,RNCH08,2,0.34999999,{MSCS14-MSCS15-MSCS28-MSCS42-MSCS59-MSCS9},{Alex},{Alex},,,
2015-12-05,3G,Alexandria,North Coast East,RNCH08,606,53.68,{MSCS14-MSCS15-MSCS28-MSCS42-MSCS59-MSCS9},{Alex},{Alex},,,
2015-12-05,3G,Alexandria,North Coast West,RNCH08,642,90.809998,{MSCS14-MSCS15-MSCS28-MSCS42-MSCS59-MSCS9},{Alex},{Alex},,,
2015-12-05,3G,Alexandria,Alex_3,RNCH08,30,7.8499999,{MSCS14-MSCS15-MSCS28-MSCS42-MSCS59-MSCS9},{Alex},{Alex},,,
2015-12-05,3G,Alexandria,Alex_4,RNCH08,338,93.370003,{MSCS14-MSCS15-MSCS28-MSCS42-MSCS59-MSCS9},{Alex},{Alex},,,
2015-12-05,3G,Alexandria,North Coast East,RNCH09,522,46.240002,{MSCS14-MSCS15-MSCS28-MSCS42-MSCS59-MSCS9},{Alex},{Alex},,,
2015-12-05,3G,Alexandria,Alex_4,RNCH09,24,6.6300001,{MSCS14-MSCS15-MSCS28-MSCS42-MSCS59-MSCS9},{Alex},{Alex},,,
2015-12-05,3G,Alexandria,Alex_3,RNCH09,10,2.6199999,{MSCS14-MSCS15-MSCS28-MSCS42-MSCS59-MSCS9},{Alex},{Alex},,,
2015-12-05,3G,Alexandria,Alex Desert Road,RNCH09,568,92.809998,{MSCS14-MSCS15-MSCS28-MSCS42-MSCS59-MSCS9},{Alex},{Alex},,,
2015-12-05,3G,Alexandria,North Coast West,RNCH09,65,9.1899996,{MSCS14-MSCS15-MSCS28-MSCS42-MSCS59-MSCS9},{Alex},{Alex},,,
2015-12-05,3G,Cairo,Down Town and Manyal,RNCH09,1,0.13,{MSCS14-MSCS15-MSCS28-MSCS42-MSCS59-MSCS9},{Alex},{Alex},,,
2015-12-05,3G,Delta,Beheira_Rural,RNCH09,6,0.54000002,{MSCS14-MSCS15-MSCS28-MSCS42-MSCS59-MSCS9},{Alex},{Alex},,,
2015-12-05,3G,Giza,Alex Desert Road (Giza),RNCH09,7,6.6700001,{MSCS14-MSCS15-MSCS28-MSCS42-MSCS59-MSCS9},{Alex},{Alex},,,
2015-12-05,3G,Canal,Portsaid,RNCH10,273,100,{MSCBC1-MSCBC2-MSCBC3-MSCBC4-MSCBC5-MSCBC6},{10th Ramadan},{10th Ramadan,Beni Suef,CAI5,Zahraa},,,
2015-12-05,3G,Canal,Portsaid Rural,RNCH10,30,38.459999,{MSCBC1-MSCBC2-MSCBC3-MSCBC4-MSCBC5-MSCBC6},{10th Ramadan},{10th Ramadan,Beni Suef,CAI5,Zahraa},,,
2015-12-05,3G,Cairo,10Th Of Ramadan,RNCH10,545,94.949997,{MSCBC1-MSCBC2-MSCBC3-MSCBC4-MSCBC5-MSCBC6},{10th Ramadan},{10th Ramadan,Beni Suef,CAI5,Zahraa},,,
2015-12-05,3G,Cairo,1St Gathering,RNCH11,601,60.709999,{MSCBC1-MSCBC2-MSCBC3-MSCBC4-MSCBC5-MSCBC6},{CAI5},{10th Ramadan,Beni Suef,CAI5,Zahraa},,,
2015-12-05,3G,Cairo,5Th Gathering and Kattamya,RNCH11,362,42.09,{MSCBC1-MSCBC2-MSCBC3-MSCBC4-MSCBC5-MSCBC6},{CAI5},{10th Ramadan,Beni Suef,CAI5,Zahraa},,,
2015-12-05,3G,Canal,Red Sea North_Rural,RNCH11,16,13.68,{MSCBC1-MSCBC2-MSCBC3-MSCBC4-MSCBC5-MSCBC6},{CAI5},{10th Ramadan,Beni Suef,CAI5,Zahraa},,,
2015-12-05,3G,Giza,Sahary Alahram,RNCH11,221,32.169998,{MSCBC1-MSCBC2-MSCBC3-MSCBC4-MSCBC5-MSCBC6},{CAI5},{10th Ramadan,Beni Suef,CAI5,Zahraa},,,
2015-12-05,3G,Giza,Sahary Alahram,RNCH12,136,19.799999,{MSCBC1-MSCBC2-MSCBC3-MSCBC4-MSCBC5-MSCBC6},{HQ},{10th Ramadan,Beni Suef,CAI5,Zahraa},,,
2015-12-05,3G,Giza,October,RNCH12,938,80.029999,{MSCBC1-MSCBC2-MSCBC3-MSCBC4-MSCBC5-MSCBC6},{HQ},{10th Ramadan,Beni Suef,CAI5,Zahraa},,,
2015-12-05,3G,Upper Egypt,New Valley_Rural,RNCH12,8,19.049999,{MSCBC1-MSCBC2-MSCBC3-MSCBC4-MSCBC5-MSCBC6},{HQ},{10th Ramadan,Beni Suef,CAI5,Zahraa},,,
2015-12-05,3G,Giza,Mouhandseen,RNCH12,6,0.89999998,{MSCBC1-MSCBC2-MSCBC3-MSCBC4-MSCBC5-MSCBC6},{HQ},{10th Ramadan,Beni Suef,CAI5,Zahraa},,,
2015-12-05,3G,Alexandria,Alex Desert Road,RNCH12,8,1.3099999,{MSCBC1-MSCBC2-MSCBC3-MSCBC4-MSCBC5-MSCBC6},{HQ},{10th Ramadan,Beni Suef,CAI5,Zahraa},,,
2015-12-05,3G,Cairo,5Th Gathering and Kattamya,RNCH13,492,57.209999,{MSCBC1-MSCBC2-MSCBC3-MSCBC4-MSCBC5-MSCBC6},{CAI5},{10th Ramadan,Beni Suef,CAI5,Zahraa},,,
2015-12-05,3G,Cairo,1St Gathering,RNCH13,218,22.02,{MSCBC1-MSCBC2-MSCBC3-MSCBC4-MSCBC5-MSCBC6},{CAI5},{10th Ramadan,Beni Suef,CAI5,Zahraa},,,
2015-12-05,3G,Cairo,Nasr City,RNCH13,69,5.3299999,{MSCBC1-MSCBC2-MSCBC3-MSCBC4-MSCBC5-MSCBC6},{CAI5},{10th Ramadan,Beni Suef,CAI5,Zahraa},,,
2015-12-05,3G,Delta,Damanhour,RNCH14,15,9.8000002,{MSCBC1-MSCBC2-MSCBC3-MSCBC4-MSCBC5-MSCBC6},{HQ},{10th Ramadan,Beni Suef,CAI5,Zahraa},,,
2015-12-05,3G,Delta,Beheira_Rural,RNCH14,24,2.1600001,{MSCBC1-MSCBC2-MSCBC3-MSCBC4-MSCBC5-MSCBC6},{HQ},{10th Ramadan,Beni Suef,CAI5,Zahraa},,,
2015-12-05,3G,Alexandria,Alex Desert Road,RNCH14,3,0.49000001,{MSCBC1-MSCBC2-MSCBC3-MSCBC4-MSCBC5-MSCBC6},{HQ},{10th Ramadan,Beni Suef,CAI5,Zahraa},,,
2015-12-05,3G,Giza,Kerdasa and Mansoraya,RNCH14,208,68.199997,{MSCBC1-MSCBC2-MSCBC3-MSCBC4-MSCBC5-MSCBC6},{HQ},{10th Ramadan,Beni Suef,CAI5,Zahraa},,,
2015-12-05,3G,Giza,Alex Desert Road (Giza),RNCH14,98,93.330002,{MSCBC1-MSCBC2-MSCBC3-MSCBC4-MSCBC5-MSCBC6},{HQ},{10th Ramadan,Beni Suef,CAI5,Zahraa},,,
2015-12-05,3G,Giza,October,RNCH14,234,19.969999,{MSCBC1-MSCBC2-MSCBC3-MSCBC4-MSCBC5-MSCBC6},{HQ},{10th Ramadan,Beni Suef,CAI5,Zahraa},,,
2015-12-05,3G,Giza,Sahary Alahram,RNCH14,302,43.959999,{MSCBC1-MSCBC2-MSCBC3-MSCBC4-MSCBC5-MSCBC6},{HQ},{10th Ramadan,Beni Suef,CAI5,Zahraa},,,
2015-12-05,3G,Giza,Zayed,RNCH14,569,100,{MSCBC1-MSCBC2-MSCBC3-MSCBC4-MSCBC5-MSCBC6},{HQ},{10th Ramadan,Beni Suef,CAI5,Zahraa},,,
2015-12-05,3G,Upper Egypt,Asyut_Rural,RNCH15,12,3.3699999,{MSCBC1-MSCBC2-MSCBC3-MSCBC4-MSCBC5-MSCBC6},{Beni Suef},{10th Ramadan,Beni Suef,CAI5,Zahraa},,,
2015-12-05,3G,Upper Egypt,Bani Sweif_Rural,RNCH15,220,98.650002,{MSCBC1-MSCBC2-MSCBC3-MSCBC4-MSCBC5-MSCBC6},{Beni Suef},{10th Ramadan,Beni Suef,CAI5,Zahraa},,,
2015-12-05,3G,Upper Egypt,Bani_Suef,RNCH15,178,100,{MSCBC1-MSCBC2-MSCBC3-MSCBC4-MSCBC5-MSCBC6},{Beni Suef},{10th Ramadan,Beni Suef,CAI5,Zahraa},,,
2015-12-05,3G,Upper Egypt,Fayoum,RNCH15,343,100,{MSCBC1-MSCBC2-MSCBC3-MSCBC4-MSCBC5-MSCBC6},{Beni Suef},{10th Ramadan,Beni Suef,CAI5,Zahraa},,,
2015-12-05,3G,Upper Egypt,Fayoum_Rural,RNCH15,240,52.75,{MSCBC1-MSCBC2-MSCBC3-MSCBC4-MSCBC5-MSCBC6},{Beni Suef},{10th Ramadan,Beni Suef,CAI5,Zahraa},,,
2015-12-05,3G,Upper Egypt,New Valley_Rural,RNCH15,6,14.29,{MSCBC1-MSCBC2-MSCBC3-MSCBC4-MSCBC5-MSCBC6},{Beni Suef},{10th Ramadan,Beni Suef,CAI5,Zahraa},,,
2015-12-05,3G,Upper Egypt,Minia_Rural,RNCH15,112,29.09,{MSCBC1-MSCBC2-MSCBC3-MSCBC4-MSCBC5-MSCBC6},{Beni Suef},{10th Ramadan,Beni Suef,CAI5,Zahraa},,,
2015-12-05,3G,Giza,Giza Outskirts,RNCH15,6,1.11,{MSCBC1-MSCBC2-MSCBC3-MSCBC4-MSCBC5-MSCBC6},{Beni Suef},{10th Ramadan,Beni Suef,CAI5,Zahraa},,,
2015-12-05,3G,Delta,Beheira_Rural,RNCH16,42,3.77,{MSCBC1-MSCBC2-MSCBC3-MSCBC4-MSCBC5-MSCBC6},{10th Ramadan},{10th Ramadan,Beni Suef,CAI5,Zahraa},,,
2015-12-05,3G,Canal,Sinai North_Rural,RNCH16,62,80.519997,{MSCBC1-MSCBC2-MSCBC3-MSCBC4-MSCBC5-MSCBC6},{10th Ramadan},{10th Ramadan,Beni Suef,CAI5,Zahraa},,,
2015-12-05,3G,Canal,Sinai South_Rural,RNCH16,101,75.940002,{MSCBC1-MSCBC2-MSCBC3-MSCBC4-MSCBC5-MSCBC6},{10th Ramadan},{10th Ramadan,Beni Suef,CAI5,Zahraa},,,
2015-12-05,3G,Canal,Portsaid Rural,RNCH16,39,50,{MSCBC1-MSCBC2-MSCBC3-MSCBC4-MSCBC5-MSCBC6},{10th Ramadan},{10th Ramadan,Beni Suef,CAI5,Zahraa},,,
2015-12-05,3G,Canal,Ras Sidr,RNCH16,85,100,{MSCBC1-MSCBC2-MSCBC3-MSCBC4-MSCBC5-MSCBC6},{10th Ramadan},{10th Ramadan,Beni Suef,CAI5,Zahraa},,,
2015-12-05,3G,Canal,Ismailia Rural,RNCH16,43,29.25,{MSCBC1-MSCBC2-MSCBC3-MSCBC4-MSCBC5-MSCBC6},{10th Ramadan},{10th Ramadan,Beni Suef,CAI5,Zahraa},,,
2015-12-05,3G,Cairo,Shorouk and Badr,RNCH16,105,26.99,{MSCBC1-MSCBC2-MSCBC3-MSCBC4-MSCBC5-MSCBC6},{10th Ramadan},{10th Ramadan,Beni Suef,CAI5,Zahraa},,,
2015-12-05,3G,Canal,Arish,RNCH16,69,100,{MSCBC1-MSCBC2-MSCBC3-MSCBC4-MSCBC5-MSCBC6},{10th Ramadan},{10th Ramadan,Beni Suef,CAI5,Zahraa},,,
2015-12-05,3G,Cairo,Helwan,RNCH17,512,67.019997,{MSCBC1-MSCBC2-MSCBC3-MSCBC4-MSCBC5-MSCBC6},{Zahraa},{10th Ramadan,Beni Suef,CAI5,Zahraa},,,
2015-12-05,3G,Cairo,Maadi,RNCH17,225,32.889999,{MSCBC1-MSCBC2-MSCBC3-MSCBC4-MSCBC5-MSCBC6},{Zahraa},{10th Ramadan,Beni Suef,CAI5,Zahraa},,,
2015-12-05,3G,Giza,Kerdasa and Mansoraya,RNCH17,6,1.97,{MSCBC1-MSCBC2-MSCBC3-MSCBC4-MSCBC5-MSCBC6},{Zahraa},{10th Ramadan,Beni Suef,CAI5,Zahraa},,,
2015-12-05,3G,Giza,Giza Outskirts,RNCH17,323,59.93,{MSCBC1-MSCBC2-MSCBC3-MSCBC4-MSCBC5-MSCBC6},{Zahraa},{10th Ramadan,Beni Suef,CAI5,Zahraa},,,
2015-12-05,3G,Giza,Giza Outskirts,RNCH18,91,1