DATE_ID,NETWORK,Region,Sub_region,BSC_RNC,CELLs,CELLs%,MSCs,BSC_RNC_Switch_Location,MSC_Switch_Location  2015-07-27,2G,Delta,Damietta_Rural,BSC16,8,1 8200001,{MSCS26-MSCS27-MSCS38-MSCS39-MSCS40},,{CAI5}
2016-03-06,2G,Delta,Dakahleyya_Rural,BSC17,85,4.7800002,{MSCS11-MSCS12-MSCS13-MSCS24-MSCS33-MSCS34},{RMD},{RMD},,,
2016-03-06,2G,Delta,Gharbiya_Rural,BSC17,7,0.77999997,{MSCS11-MSCS12-MSCS13-MSCS24-MSCS33-MSCS34},{RMD},{RMD},,,
2016-03-06,2G,Delta,Mansoura,BSC17,22,5.2800002,{MSCS11-MSCS12-MSCS13-MSCS24-MSCS33-MSCS34},{RMD},{RMD},,,
2016-03-06,2G,Delta,Sharkeyya_Rural,BSC17,14,0.70999998,{MSCS11-MSCS12-MSCS13-MSCS24-MSCS33-MSCS34},{RMD},{RMD},,,
2016-03-06,2G,Delta,Kafr El Sheikh_Rural,BSC18,14,1.3,{MSCS14-MSCS15-MSCS28-MSCS42-MSCS59-MSCS9},{Alex},{Alex},,,
2016-03-06,2G,Alexandria,Alex Desert Road,BSC18,7,1.87,{MSCS14-MSCS15-MSCS28-MSCS42-MSCS59-MSCS9},{Alex},{Alex},,,
2016-03-06,2G,Alexandria,Alex_1,BSC18,83,14.12,{MSCS14-MSCS15-MSCS28-MSCS42-MSCS59-MSCS9},{Alex},{Alex},,,
2016-03-06,2G,Alexandria,Alex_2,BSC18,20,4.1900001,{MSCS14-MSCS15-MSCS28-MSCS42-MSCS59-MSCS9},{Alex},{Alex},,,
2016-03-06,2G,Alexandria,Alex_3,BSC18,2,0.52999997,{MSCS14-MSCS15-MSCS28-MSCS42-MSCS59-MSCS9},{Alex},{Alex},,,
2016-03-06,2G,Delta,Mansoura,BSC19,152,36.450001,{MSCS11-MSCS12-MSCS13-MSCS24-MSCS33-MSCS34},{RMD},{RMD},,,
2016-03-06,2G,Delta,Dakahleyya_Rural,BSC19,17,0.95999998,{MSCS11-MSCS12-MSCS13-MSCS24-MSCS33-MSCS34},{RMD},{RMD},,,
2016-03-06,2G,Delta,Sharkeyya_Rural,BSC21,189,9.54,{MSCS11-MSCS12-MSCS13-MSCS24-MSCS33-MSCS34},{RMD},{RMD},,,
2016-03-06,2G,Delta,Sharkeyya_Rural,BSC22,71,3.5799999,{MSCBC2},{RMD},{RMD},,,
2016-03-06,2G,Delta,Dakahleyya_Rural,BSC22,42,2.3599999,{MSCBC2},{RMD},{RMD},,,
2016-03-06,2G,Delta,Dakahleyya_Rural,BSC24,14,0.79000002,{MSCS35-MSCS36-MSCS46-MSCS47-MSCS48-MSCS49-MSCS56},{HQ},{Beni Suef},,,
2016-03-06,2G,Delta,Sharkeyya_Rural,BSC24,7,0.34999999,{MSCS35-MSCS36-MSCS46-MSCS47-MSCS48-MSCS49-MSCS56},{HQ},{Beni Suef},,,
2016-03-06,2G,Delta,Kafr El Sheikh_Rural,BSC24,53,4.9299998,{MSCS35-MSCS36-MSCS46-MSCS47-MSCS48-MSCS49-MSCS56},{HQ},{Beni Suef},,,
2016-03-06,2G,Delta,Gharbiya_Rural,BSC24,95,10.59,{MSCS35-MSCS36-MSCS46-MSCS47-MSCS48-MSCS49-MSCS56},{HQ},{Beni Suef},,,
2016-03-06,2G,Delta,Kafr El Sheikh_Rural,BSC25,23,2.1400001,{MSCS35-MSCS36-MSCS46-MSCS47-MSCS48-MSCS49-MSCS56},{HQ},{Beni Suef},,,
2016-03-06,2G,Delta,Damanhour,BSC25,16,10.32,{MSCS35-MSCS36-MSCS46-MSCS47-MSCS48-MSCS49-MSCS56},{HQ},{Beni Suef},,,
2016-03-06,2G,Alexandria,Alex_1,BSC31,349,59.349998,{MSCS14-MSCS15-MSCS28-MSCS42-MSCS59-MSCS9},{Alex},{Alex},,,
2016-03-06,2G,Delta,Dakahleyya_Rural,BSC33,50,2.8099999,{MSCS11-MSCS12-MSCS13-MSCS24-MSCS33-MSCS34},{RMD},{RMD},,,
2016-03-06,2G,Delta,Banha,BSC33,133,100,{MSCS11-MSCS12-MSCS13-MSCS24-MSCS33-MSCS34},{RMD},{RMD},,,
2016-03-06,2G,Delta,Qalyubiya_Rural,BSC33,22,2.73,{MSCS11-MSCS12-MSCS13-MSCS24-MSCS33-MSCS34},{RMD},{RMD},,,
2016-03-06,2G,Delta,Sharkeyya_Rural,BSC33,118,5.9499998,{MSCS11-MSCS12-MSCS13-MSCS24-MSCS33-MSCS34},{RMD},{RMD},,,
2016-03-06,2G,Delta,Gharbiya_Rural,BSC34,13,1.45,{MSCS11-MSCS12-MSCS13-MSCS24-MSCS33-MSCS34},{RMD},{RMD},,,
2016-03-06,2G,Delta,Dakahleyya_Rural,BSC34,134,7.5300002,{MSCS11-MSCS12-MSCS13-MSCS24-MSCS33-MSCS34},{RMD},{RMD},,,
2016-03-06,2G,Delta,Kafr El Sheikh_Rural,BSC35,6,0.56,{MSCS14-MSCS15-MSCS28-MSCS42-MSCS59-MSCS9},{Alex},{Alex},,,
2016-03-06,2G,Alexandria,Alex_1,BSC35,141,23.98,{MSCS14-MSCS15-MSCS28-MSCS42-MSCS59-MSCS9},{Alex},{Alex},,,
2016-03-06,2G,Alexandria,Alex_2,BSC35,169,35.43,{MSCS14-MSCS15-MSCS28-MSCS42-MSCS59-MSCS9},{Alex},{Alex},,,
2016-03-06,2G,Alexandria,Alex Desert Road,BSC35,3,0.80000001,{MSCS14-MSCS15-MSCS28-MSCS42-MSCS59-MSCS9},{Alex},{Alex},,,
2016-03-06,2G,Alexandria,Alex_1,BSC36,9,1.53,{MSCS14-MSCS15-MSCS28-MSCS42-MSCS59-MSCS9},{Alex},{Alex},,,
2016-03-06,2G,Alexandria,Alex_2,BSC36,177,37.110001,{MSCS14-MSCS15-MSCS28-MSCS42-MSCS59-MSCS9},{Alex},{Alex},,,
2016-03-06,2G,Alexandria,Alex_3,BSC36,177,46.950001,{MSCS14-MSCS15-MSCS28-MSCS42-MSCS59-MSCS9},{Alex},{Alex},,,
2016-03-06,2G,Alexandria,North Coast East,BSC36,1,0.25999999,{MSCS14-MSCS15-MSCS28-MSCS42-MSCS59-MSCS9},{Alex},{Alex},,,
2016-03-06,2G,Delta,Gharbiya_Rural,BSC39,176,19.620001,{MSCS18},{Zahraa},{Zahraa},,,
2016-03-06,2G,Delta,Monufeyya_Rural,BSC39,17,1.83,{MSCS18},{Zahraa},{Zahraa},,,
2016-03-06,2G,Cairo,Matarya,BSC40,21,3.8,{MSCS19},{Zahraa},{Zahraa},,,
2016-03-06,2G,Cairo,Shubra El-Khima,BSC40,89,18.459999,{MSCS19},{Zahraa},{Zahraa},,,
2016-03-06,2G,Cairo,Zaitoun and Qubba,BSC40,43,22.870001,{MSCS19},{Zahraa},{Zahraa},,,
2016-03-06,2G,Delta,Sharkeyya_Rural,BSC40,33,1.66,{MSCS19},{Zahraa},{Zahraa},,,
2016-03-06,2G,Cairo,Shubra El-Khima,BSC41,1,0.20999999,{MSCS35-MSCS36-MSCS46-MSCS47-MSCS48-MSCS49-MSCS56},{HQ},{Beni Suef},,,
2016-03-06,2G,Delta,Beheira_Rural,BSC41,6,0.40000001,{MSCS35-MSCS36-MSCS46-MSCS47-MSCS48-MSCS49-MSCS56},{HQ},{Beni Suef},,,
2016-03-06,2G,Delta,Gharbiya_Rural,BSC41,117,13.04,{MSCS35-MSCS36-MSCS46-MSCS47-MSCS48-MSCS49-MSCS56},{HQ},{Beni Suef},,,
2016-03-06,2G,Delta,Gharbiya_Rural,BSC42,62,6.9099998,{MSCS35-MSCS36-MSCS46-MSCS47-MSCS48-MSCS49-MSCS56},{HQ},{Beni Suef},,,
2016-03-06,2G,Delta,Dakahleyya_Rural,BSC42,10,0.56,{MSCS35-MSCS36-MSCS46-MSCS47-MSCS48-MSCS49-MSCS56},{HQ},{Beni Suef},,,
2016-03-06,2G,Delta,Beheira_Rural,BSC42,6,0.40000001,{MSCS35-MSCS36-MSCS46-MSCS47-MSCS48-MSCS49-MSCS56},{HQ},{Beni Suef},,,
2016-03-06,2G,Delta,Monufeyya_Rural,BSC42,6,0.64999998,{MSCS35-MSCS36-MSCS46-MSCS47-MSCS48-MSCS49-MSCS56},{HQ},{Beni Suef},,,
2016-03-06,2G,Delta,Mahala,BSC42,169,81.639999,{MSCS35-MSCS36-MSCS46-MSCS47-MSCS48-MSCS49-MSCS56},{HQ},{Beni Suef},,,
2016-03-06,2G,Delta,Kafr El Sheikh_Rural,BSC44,11,1.02,{MSCS22-MSCS23-MSCS25-MSCS57-MSCS58},{TG},{TG},,,
2016-03-06,2G,Delta,Dakahleyya_Rural,BSC44,97,5.4499998,{MSCS22-MSCS23-MSCS25-MSCS57-MSCS58},{TG},{TG},,,
2016-03-06,2G,Giza,Imbaba,BSC44,51,15.22,{MSCS22-MSCS23-MSCS25-MSCS57-MSCS58},{TG},{TG},,,
2016-03-06,2G,Giza,Mouhandseen,BSC44,3,0.62,{MSCS22-MSCS23-MSCS25-MSCS57-MSCS58},{TG},{TG},,,
2016-03-06,2G,Giza,Shubra and Imbaba Outskirts,BSC44,4,5.9699998,{MSCS22-MSCS23-MSCS25-MSCS57-MSCS58},{TG},{TG},,,
2016-03-06,2G,Delta,Mansoura,BSC45,178,42.689999,{MSCS11-MSCS12-MSCS13-MSCS24-MSCS33-MSCS34},{RMD},{RMD},,,
2016-03-06,2G,Delta,Damietta_Rural,BSC46,105,20.959999,{MSCS22-MSCS23-MSCS25-MSCS57-MSCS58},{TG},{TG},,,
2016-03-06,2G,Delta,Dakahleyya_Rural,BSC46,8,0.44999999,{MSCS22-MSCS23-MSCS25-MSCS57-MSCS58},{TG},{TG},,,
2016-03-06,2G,Giza,Mouhandseen,BSC46,71,14.64,{MSCS22-MSCS23-MSCS25-MSCS57-MSCS58},{TG},{TG},,,
2016-03-06,2G,Giza,October,BSC46,3,0.54000002,{MSCS22-MSCS23-MSCS25-MSCS57-MSCS58},{TG},{TG},,,
2016-03-06,2G,Giza,Imbaba,BSC46,18,5.3699999,{MSCS22-MSCS23-MSCS25-MSCS57-MSCS58},{TG},{TG},,,
2016-03-06,2G,Delta,Kafr El Sheikh_Rural,BSC47,36,3.3499999,{MSCS14-MSCS15-MSCS28-MSCS42-MSCS59-MSCS9},{Alex},{Alex},,,
2016-03-06,2G,Alexandria,Alex_2,BSC47,111,23.27,{MSCS14-MSCS15-MSCS28-MSCS42-MSCS59-MSCS9},{Alex},{Alex},,,
2016-03-06,2G,Alexandria,Alex_3,BSC47,176,46.68,{MSCS14-MSCS15-MSCS28-MSCS42-MSCS59-MSCS9},{Alex},{Alex},,,
2016-03-06,2G,Alexandria,Alex_1,BSC47,6,1.02,{MSCS14-MSCS15-MSCS28-MSCS42-MSCS59-MSCS9},{Alex},{Alex},,,
2016-03-06,2G,Alexandria,Alex Desert Road,BSC47,12,3.2,{MSCS14-MSCS15-MSCS28-MSCS42-MSCS59-MSCS9},{Alex},{Alex},,,
2016-03-06,2G,Delta,Gharbiya_Rural,BSC48,6,0.67000002,{MSCS35-MSCS36-MSCS46-MSCS47-MSCS48-MSCS49-MSCS56},{HQ},{Beni Suef},,,
2016-03-06,2G,Delta,Monufeyya_Rural,BSC48,30,3.23,{MSCS35-MSCS36-MSCS46-MSCS47-MSCS48-MSCS49-MSCS56},{HQ},{Beni Suef},,,
2016-03-06,2G,Delta,Qalyubiya_Rural,BSC48,86,10.68,{MSCS35-MSCS36-MSCS46-MSCS47-MSCS48-MSCS49-MSCS56},{HQ},{Beni Suef},,,
2016-03-06,2G,Delta,Sharkeyya_Rural,BSC48,66,3.3299999,{MSCS35-MSCS36-MSCS46-MSCS47-MSCS48-MSCS49-MSCS56},{HQ},{Beni Suef},,,
2016-03-06,2G,Delta,Beheira_Rural,BSC48,6,0.40000001,{MSCS35-MSCS36-MSCS46-MSCS47-MSCS48-MSCS49-MSCS56},{HQ},{Beni Suef},,,
2016-03-06,2G,Delta,Qalyubiya_Rural,BSC49,224,27.83,{MSCS35-MSCS36-MSCS46-MSCS47-MSCS48-MSCS49-MSCS56},{HQ},{Beni Suef},,,
2016-03-06,2G,Delta,Monufeyya_Rural,BSC49,97,10.45,{MSCS35-MSCS36-MSCS46-MSCS47-MSCS48-MSCS49-MSCS56},{HQ},{Beni Suef},,,
2016-03-06,2G,Delta,Dakahleyya_Rural,BSC51,43,2.4200001,{MSCS11-MSCS12-MSCS13-MSCS24-MSCS33-MSCS34},{RMD},{RMD},,,
2016-03-06,2G,Delta,Gharbiya_Rural,BSC51,30,3.3399999,{MSCS11-MSCS12-MSCS13-MSCS24-MSCS33-MSCS34},{RMD},{RMD},,,
2016-03-06,2G,Delta,Sharkeyya_Rural,BSC51,182,9.1800003,{MSCS11-MSCS12-MSCS13-MSCS24-MSCS33-MSCS34},{RMD},{RMD},,,
2016-03-06,2G,Delta,Gharbiya_Rural,BSC52,14,1.5599999,{MSCS11-MSCS12-MSCS13-MSCS24-MSCS33-MSCS34},{RMD},{RMD},,,
2016-03-06,2G,Delta,Kafr El Sheikh_Rural,BSC52,137,12.76,{MSCS11-MSCS12-MSCS13-MSCS24-MSCS33-MSCS34},{RMD},{RMD},,,
2016-03-06,2G,Delta,Kafr El Sheikh_Rural,BSC53,35,3.26,{MSCS35-MSCS36-MSCS46-MSCS47-MSCS48-MSCS49-MSCS56},{HQ},{Beni Suef},,,
2016-03-06,2G,Delta,Gharbiya_Rural,BSC53,12,1.34,{MSCS35-MSCS36-MSCS46-MSCS47-MSCS48-MSCS49-MSCS56},{HQ},{Beni Suef},,,
2016-03-06,2G,Delta,Dakahleyya_Rural,BSC53,117,6.5799999,{MSCS35-MSCS36-MSCS46-MSCS47-MSCS48-MSCS49-MSCS56},{HQ},{Beni Suef},,,
2016-03-06,2G,Delta,Beheira_Rural,BSC53,41,2.71,{MSCS35-MSCS36-MSCS46-MSCS47-MSCS48-MSCS49-MSCS56},{HQ},{Beni Suef},,,
2016-03-06,2G,Delta,Sharkeyya_Rural,BSC53,11,0.55000001,{MSCS35-MSCS36-MSCS46-MSCS47-MSCS48-MSCS49-MSCS56},{HQ},{Beni Suef},,,
2016-03-06,2G,Delta,Dakahleyya_Rural,BSC56,42,2.3599999,{MSCS22-MSCS23-MSCS25-MSCS57-MSCS58},{TG},{TG},,,
2016-03-06,2G,Delta,Kafr El Sheikh_Rural,BSC56,109,10.15,{MSCS22-MSCS23-MSCS25-MSCS57-MSCS58},{TG},{TG},,,
2016-03-06,2G,Delta,Sharkeyya_Rural,BSC56,6,0.30000001,{MSCS22-MSCS23-MSCS25-MSCS57-MSCS58},{TG},{TG},,,
2016-03-06,2G,Delta,Qalyubiya_Rural,BSC57,88,10.93,{MSCBC1-MSCBC2-MSCBC3-MSCBC4-MSCBC5-MSCBC6},{TG},{Beni Suef,RMD,TG,Zahraa},,,
2016-03-06,2G,Delta,Kafr El Sheikh_Rural,BSC57,27,2.51,{MSCBC1-MSCBC2-MSCBC3-MSCBC4-MSCBC5-MSCBC6},{TG},{Beni Suef,RMD,TG,Zahraa},,,
2016-03-06,2G,Cairo,Airport,BSC57,6,10.53,{MSCBC1-MSCBC2-MSCBC3-MSCBC4-MSCBC5-MSCBC6},{TG},{Beni Suef,RMD,TG,Zahraa},,,
2016-03-06,2G,Cairo,Alsalam,BSC57,119,42.959999,{MSCBC1-MSCBC2-MSCBC3-MSCBC4-MSCBC5-MSCBC6},{TG},{Beni Suef,RMD,TG,Zahraa},,,
2016-03-06,2G,Cairo,Matarya,BSC57,54,9.7600002,{MSCBC1-MSCBC2-MSCBC3-MSCBC4-MSCBC5-MSCBC6},{TG},{Beni Suef,RMD,TG,Zahraa},,,
2016-03-06,2G,Cairo,Nasr City,BSC57,4,0.56,{MSCBC1-MSCBC2-MSCBC3-MSCBC4-MSCBC5-MSCBC6},{TG},{Beni Suef,RMD,TG,Zahraa},,,
2016-03-06,2G,Cairo,Moukattam,BSC58,30,11.11,{MSCBC1-MSCBC2-MSCBC3-MSCBC4-MSCBC5-MSCBC6},{Zahraa},{Beni Suef,RMD,TG,Zahraa},,,
2016-03-06,2G,Cairo,Nasr City,BSC58,4,0.56,{MSCBC1-MSCBC2-MSCBC3-MSCBC4-MSCBC5-MSCBC6},{Zahraa},{Beni Suef,RMD,TG,Zahraa},,,
2016-03-06,2G,Cairo,Shubra El-Khima,BSC58,1,0.20999999,{MSCBC1-MSCBC2-MSCBC3-MSCBC4-MSCBC5-MSCBC6},{Zahraa},{Beni Suef,RMD,TG,Zahraa},,,
2016-03-06,2G,Cairo,Shubra,BSC58,4,2.23,{MSCBC1-MSCBC2-MSCBC3-MSCBC4-MSCBC5-MSCBC6},{Zahraa},{Beni Suef,RMD,TG,Zahraa},,,
2016-03-06,2G,Cairo,Zamalek,BSC58,23,23.469999,{MSCBC1-MSCBC2-MSCBC3-MSCBC4-MSCBC5-MSCBC6},{Zahraa},{Beni Suef,RMD,TG,Zahraa},,,
2016-03-06,2G,Cairo,Abbassyia,BSC58,19,13.01,{MSCBC1-MSCBC2-MSCBC3-MSCBC4-MSCBC5-MSCBC6},{Zahraa},{Beni Suef,RMD,TG,Zahraa},,,
2016-03-06,2G,Cairo,Down Town and Manyal,BSC58,428,65.949997,{MSCBC1-MSCBC2-MSCBC3-MSCBC4-MSCBC5-MSCBC6},{Zahraa},{Beni Suef,RMD,TG,Zahraa},,,
2016-03-06,2G,Cairo,Heliopolis and Nozha,BSC58,2,0.41,{MSCBC1-MSCBC2-MSCBC3-MSCBC4-MSCBC5-MSCBC6},{Zahraa},{Beni Suef,RMD,TG,Zahraa},,,
2016-03-06,2G,Delta,Monufeyya_Rural,BSC58,112,12.07,{MSCBC1-MSCBC2-MSCBC3-MSCBC4-MSCBC5-MSCBC6},{Zahraa},{Beni Suef,RMD,TG,Zahraa},,,
2016-03-06,2G,Delta,Gharbiya_Rural,BSC58,26,2.9000001,{MSCBC1-MSCBC2-MSCBC3-MSCBC4-MSCBC5-MSCBC6},{Zahraa},{Beni Suef,RMD,TG,Zahraa},,,
2016-03-06,2G,Giza,Mouhandseen,BSC58,4,0.81999999,{MSCBC1-MSCBC2-MSCBC3-MSCBC4-MSCBC5-MSCBC6},{Zahraa},{Beni Suef,RMD,TG,Zahraa},,,
2016-03-06,2G,Giza,Imbaba,BSC59,15,4.48,{MSCBC1-MSCBC2-MSCBC3-MSCBC4-MSCBC5-MSCBC6},{Zahraa},{Beni Suef,RMD,TG,Zahraa},,,
2016-03-06,2G,Delta,Beheira_Rural,BSC59,154,10.17,{MSCBC1-MSCBC2-MSCBC3-MSCBC4-MSCBC5-MSCBC6},{Zahraa},{Beni Suef,RMD,TG,Zahraa},,,
2016-03-06,2G,Cairo,Helwan,BSC59,6,1.45,{MSCBC1-MSCBC2-MSCBC3-MSCBC4-MSCBC5-MSCBC6},{Zahraa},{Beni Suef,RMD,TG,Zahraa},,,
2016-03-06,2G,Cairo,Abbassyia,BSC59,1,0.68000001,{MSCBC1-MSCBC2-MSCBC3-MSCBC4-MSCBC5-MSCBC6},{Zahraa},{Beni Suef,RMD,TG,Zahraa},,,
2016-03-06,2G,Cairo,Down Town and Manyal,BSC59,105,16.18,{MSCBC1-MSCBC2-MSCBC3-MSCBC4-MSCBC5-MSCBC6},{Zahraa},{Beni Suef,RMD,TG,Zahraa},,,
2016-03-06,2G,Cairo,Zamalek,BSC59,75,76.529999,{MSCBC1-MSCBC2-MSCBC3-MSCBC4-MSCBC5-MSCBC6},{Zahraa},{Beni Suef,RMD,TG,Zahraa},,,
2016-03-06,2G,Cairo,Shubra,BSC59,132,73.739998,{MSCBC1-MSCBC2-MSCBC3-MSCBC4-MSCBC5-MSCBC6},{Zahraa},{Beni Suef,RMD,TG,Zahraa},,,
2016-03-06,2G,Cairo,Shubra El-Khima,BSC59,18,3.73,{MSCBC1-MSCBC2-MSCBC3-MSCBC4-MSCBC5-MSCBC6},{Zahraa},{Beni Suef,RMD,TG,Zahraa},,,
2016-03-06,2G,Cairo,Matarya,BSC60,151,27.309999,{MSCBC1-MSCBC2-MSCBC3-MSCBC4-MSCBC5-MSCBC6},{Zahraa},{Beni Suef,RMD,TG,Zahraa},,,
2016-03-06,2G,Cairo,Ain Shams,BSC60,70,34.48,{MSCBC1-MSCBC2-MSCBC3-MSCBC4-MSCBC5-MSCBC6},{Zahraa},{Beni Suef,RMD,TG,Zahraa},,,
2016-03-06,2G,Cairo,Down Town and Manyal,BSC60,110,16.950001,{MSCBC1-MSCBC2-MSCBC3-MSCBC4-MSCBC5-MSCBC6},{Zahraa},{Beni Suef,RMD,TG,Zahraa},,,
2016-03-06,2G,Delta,Dakahleyya_Rural,BSC60,79,4.4400001,{MSCBC1-MSCBC2-MSCBC3-MSCBC4-MSCBC5-MSCBC6},{Zahraa},{Beni Suef,RMD,TG,Zahraa},,,
2016-03-06,2G,Delta,Gharbiya_Rural,BSC60,33,3.6800001,{MSCBC1-MSCBC2-MSCBC3-MSCBC4-MSCBC5-MSCBC6},{Zahraa},{Beni Suef,RMD,TG,Zahraa},,,
2016-03-06,2G,Delta,Kafr El Sheikh_Rural,BSC61,8,0.74000001,{MSCBC1-MSCBC2-MSCBC3-MSCBC4-MSCBC5-MSCBC6},{TG},{Beni Suef,RMD,TG,Zahraa},,,
2016-03-06,2G,Delta,Damietta_Rural,BSC61,144,28.74,{MSCBC1-MSCBC2-MSCBC3-MSCBC4-MSCBC5-MSCBC6},{TG},{Beni Suef,RMD,TG,Zahraa},,,
2016-03-06,2G,Delta,Damyata,BSC61,149,100,{MSCBC1-MSCBC2-MSCBC3-MSCBC4-MSCBC5-MSCBC6},{TG},{Beni Suef,RMD,TG,Zahraa},,,
2016-03-06,2G,Giza,Kerdasa and Mansoraya,BSC61,25,13.81,{MSCBC1-MSCBC2-MSCBC3-MSCBC4-MSCBC5-MSCBC6},{TG},{Beni Suef,RMD,TG,Zahraa},,,
2016-03-06,2G,Giza,Boulaq,BSC61,4,1.3099999,{MSCBC1-MSCBC2-MSCBC3-MSCBC4-MSCBC5-MSCBC6},{TG},{Beni Suef,RMD,TG,Zahraa},,,
2016-03-06,2G,Upper Egypt,New Valley_Rural,BSC61,1,0.60000002,{MSCBC1-MSCBC2-MSCBC3-MSCBC4-MSCBC5-MSCBC6},{TG},{Beni Suef,RMD,TG,Zahraa},,,
2016-03-06,2G,Delta,Dakahleyya_Rural,BSC62,169,9.5,{MSCBC1-MSCBC2-MSCBC3-MSCBC4-MSCBC5-MSCBC6},{TG},{Beni Suef,RMD,TG,Zahraa},,,
2016-03-06,2G,Delta,Gharbiya_Rural,BSC63,12,1.34,{MSCBC1-MSCBC2-MSCBC3-MSCBC4-MSCBC5-MSCBC6},{Mokattam},{Beni Suef,RMD,TG,Zahraa},,,
2016-03-06,2G,Delta,Kafr El Sheikh_Rural,BSC63,29,2.7,{MSCBC1-MSCBC2-MSCBC3-MSCBC4-MSCBC5-MSCBC6},{Mokattam},{Beni Suef,RMD,TG,Zahraa},,,
2016-03-06,2G,Cairo,Hadabah Wostah,BSC63,117,88.639999,{MSCBC1-MSCBC2-MSCBC3-MSCBC4-MSCBC5-MSCBC6},{Mokattam},{Beni Suef,RMD,TG,Zahraa},,,
2016-03-06,2G,Cairo,Maadi,BSC63,18,4.9499998,{MSCBC1-MSCBC2-MSCBC3-MSCBC4-MSCBC5-MSCBC6},{Mokattam},{Beni Suef,RMD,TG,Zahraa},,,
2016-03-06,2G,Cairo,Dar El Salam,BSC63,30,13.7,{MSCBC1-MSCBC2-MSCBC3-MSCBC4-MSCBC5-MSCBC6},{Mokattam},{Beni Suef,RMD,TG,Zahraa},,,
2016-03-06,2G,Cairo,Nasr City,BSC63,282,39.169998,{MSCBC1-MSCBC2-MSCBC3-MSCBC4-MSCBC5-MSCBC6},{Mokattam},{Beni Suef,RMD,TG,Zahraa},,,
2016-03-06,2G,Cairo,Moukattam,BSC63,191,70.739998,{MSCBC1-MSCBC2-MSCBC3-MSCBC4-MSCBC5-MSCBC6},{Mokattam},{Beni Suef,RMD,TG,Zahraa},,,
2016-03-06,2G,Cairo,Shubra,BSC64,24,13.41,{MSCBC1-MSCBC2-MSCBC3-MSCBC4-MSCBC5-MSCBC6},{Zahraa},{Beni Suef,RMD,TG,Zahraa},,,
2016-03-06,2G,Cairo,Shubra El-Khima,BSC64,15,3.1099999,{MSCBC1-MSCBC2-MSCBC3-MSCBC4-MSCBC5-MSCBC6},{Zahraa},{Beni Suef,RMD,TG,Zahraa},,,
2016-03-06,2G,Cairo,Zaitoun and Qubba,BSC64,55,29.26,{MSCBC1-MSCBC2-MSCBC3-MSCBC4-MSCBC5-MSCBC6},{Zahraa},{Beni Suef,RMD,TG,Zahraa},,,
2016-03-06,2G,Cairo,Alsalam,BSC64,6,2.1700001,{MSCBC1-MSCBC2-MSCBC3-MSCBC4-MSCBC5-MSCBC6},{Zahraa},{Beni Suef,RMD,TG,Zahraa},,,
2016-03-06,2G,Cairo,Ain Shams,BSC64,15,7.3899999,{MSCBC1-MSCBC2-MSCBC3-MSCBC4-MSCBC5-MSCBC6},{Zahraa},{Beni Suef,RMD,TG,Zahraa},,,
2016-03-06,2G,Cairo,Matarya,BSC64,24,4.3400002,{MSCBC1-MSCBC2-MSCBC3-MSCBC4-MSCBC5-MSCBC6},{Zahraa},{Beni Suef,RMD,TG,Zahraa},,,
2016-03-06,2G,Cairo,Abbassyia,BSC64,7,4.79,{MSCBC1-MSCBC2-MSCBC3-MSCBC4-MSCBC5-MSCBC6},{Zahraa},{Beni Suef,RMD,TG,Zahraa},,,
2016-03-06,2G,Delta,Gharbiya_Rural,BSC64,67,7.4699998,{MSCBC1-MSCBC2-MSCBC3-MSCBC4-MSCBC5-MSCBC6},{Zahraa},{Beni Suef,RMD,TG,Zahraa},,,
2016-03-06,2G,Delta,Beheira_Rural,BSC64,51,3.3699999,{MSCBC1-MSCBC2-MSCBC3-MSCBC4-MSCBC5-MSCBC6},{Zahraa},{Beni Suef,RMD,TG,Zahraa},,,
2016-03-06,2G,Delta,Dakahleyya_Rural,BSC65,4,0.22,{MSCBC1-MSCBC2-MSCBC3-MSCBC4-MSCBC5-MSCBC6},{Zahraa},{Beni Suef,RMD,TG,Zahraa},,,
2016-03-06,2G,Delta,Sharkeyya_Rural,BSC65,362,18.26,{MSCBC1-MSCBC2-MSCBC3-MSCBC4-MSCBC5-MSCBC6},{Zahraa},{Beni Suef,RMD,TG,Zahraa},,,
2016-03-06,2G,Cairo,Abbassyia,BSC65,10,6.8499999,{MSCBC1-MSCBC2-MSCBC3-MSCBC4-MSCBC5-MSCBC6},{Zahraa},{Beni Suef,RMD,TG,Zahraa},,,
2016-03-06,2G,Delta,Monufeyya_Rural,BSC66,196,21.120001,{MSCBC1-MSCBC2-MSCBC3-MSCBC4-MSCBC5-MSCBC6},{Zahraa},{Beni Suef,RMD,TG,Zahraa},,,
2016-03-06,2G,Delta,Shibin,BSC66,153,100,{MSCBC1-MSCBC2-MSCBC3-MSCBC4-MSCBC5-MSCBC6},{Zahraa},{Beni Suef,RMD,TG,Zahraa},,,
2016-03-06,2G,Giza,Imbaba,BSC67,72,21.49,{MSCBC1-MSCBC2-MSCBC3-MSCBC4-MSCBC5-MSCBC6},{TG},{Beni Suef,RMD,TG,Zahraa},,,
2016-03-06,2G,Delta,Kafr El Sheikh_Rural,BSC67,218,20.299999,{MSCBC1-MSCBC2-MSCBC3-MSCBC4-MSCBC5-MSCBC6},{TG},{Beni Suef,RMD,TG,Zahraa},,,
2016-03-06,2G,Delta,Dakahleyya_Rural,BSC67,64,3.5999999,{MSCBC1-MSCBC2-MSCBC3-MSCBC4-MSCBC5-MSCBC6},{TG},{Beni Suef,RMD,TG,Zahraa},,,
2016-03-06,2G,Delta,Damietta_Rural,BSC67,41,8.1800003,{MSCBC1-MSCBC2-MSCBC3-MSCBC4-MSCBC5-MSCBC6},{TG},{Beni Suef,RMD,TG,Zahraa},,,
2016-03-06,2G,Delta,Beheira_Rural,BSC68,4,0.25999999,{MSCBC1-MSCBC2-MSCBC3-MSCBC4-MSCBC5-MSCBC6},{HQ},{Beni Suef,RMD,TG,Zahraa},,,
2016-03-06,2G,Delta,Kafr El Sheikh_Rural,BSC68,100,9.3100004,{MSCBC1-MSCBC2-MSCBC3-MSCBC4-MSCBC5-MSCBC6},{HQ},{Beni Suef,RMD,TG,Zahraa},,,
2016-03-06,2G,Delta,Gharbiya_Rural,BSC68,22,2.45,{MSCBC1-MSCBC2-MSCBC3-MSCBC4-MSCBC5-MSCBC6},{HQ},{Beni Suef,RMD,TG,Zahraa},,,
2016-03-06,2G,Delta,Kafr El-Shikh,BSC68,115,100,{MSCBC1-MSCBC2-MSCBC3-MSCBC4-MSCBC5-MSCBC6},{HQ},{Beni Suef,RMD,TG,Zahraa},,,
2016-03-06,2G,Delta,Monufeyya_Rural,BSC68,59,6.3600001,{MSCBC1-MSCBC2-MSCBC3-MSCBC4-MSCBC5-MSCBC6},{HQ},{Beni Suef,RMD,TG,Zahraa},,,
2016-03-06,2G,Delta,Qalyubiya_Rural,BSC68,26,3.23,{MSCBC1-MSCBC2-MSCBC3-MSCBC4-MSCBC5-MSCBC6},{HQ},{Beni Suef,RMD,TG,Zahraa},,,
2016-03-06,2G,Delta,Damietta_Rural,BSC69,15,2.99,{MSCBC1-MSCBC2-MSCBC3-MSCBC4-MSCBC5-MSCBC6},{TG},{Beni Suef,RMD,TG,Zahraa},,,
2016-03-06,2G,Delta,Dakahleyya_Rural,BSC69,205,11.52,{MSCBC1-MSCBC2-MSCBC3-MSCBC4-MSCBC5-MSCBC6},{TG},{Beni Suef,RMD,TG,Zahraa},,,
2016-03-06,2G,Cairo,5Th Gathering and Kattamya,BSC69,1,0.23999999,{MSCBC1-MSCBC2-MSCBC3-MSCBC4-MSCBC5-MSCBC6},{TG},{Beni Suef,RMD,TG,Zahraa},,,
2016-03-06,2G,Giza,Imbaba,BSC69,125,37.310001,{MSCBC1-MSCBC2-MSCBC3-MSCBC4-MSCBC5-MSCBC6},{TG},{Beni Suef,RMD,TG,Zahraa},,,
2016-03-06,2G,Giza,Shubra and Imbaba Outskirts,BSC69,4,5.9699998,{MSCBC1-MSCBC2-MSCBC3-MSCBC4-MSCBC5-MSCBC6},{TG},{Beni Suef,RMD,TG,Zahraa},,,
2016-03-06,2G,Delta,Sharkeyya_Rural,BSC70,30,1.51,{MSCBC1-MSCBC2-MSCBC3-MSCBC4-MSCBC5-MSCBC6},{TG},{Beni Suef,RMD,TG,Zahraa},,,
2016-03-06,2G,Delta,Dakahleyya_Rural,BSC70,82,4.6100001,{MSCBC1-MSCBC2-MSCBC3-MSCBC4-MSCBC5-MSCBC6},{TG},{Beni Suef,RMD,TG,Zahraa},,,
2016-03-06,2G,Delta,Damietta_Rural,BSC70,10,2,{MSCBC1-MSCBC2-MSCBC3-MSCBC4-MSCBC5-MSCBC6},{TG},{Beni Suef,RMD,TG,Zahraa},,,
2016-03-06,2G,Delta,Monufeyya_Rural,BSC70,6,0.64999998,{MSCBC1-MSCBC2-MSCBC3-MSCBC4-MSCBC5-MSCBC6},{TG},{Beni Suef,RMD,TG,Zahraa},,,
2016-03-06,2G,Delta,Kafr El Sheikh_Rural,BSC70,105,9.7799997,{MSCBC1-MSCBC2-MSCBC3-MSCBC4-MSCBC5-MSCBC6},{TG},{Beni Suef,RMD,TG,Zahraa},,,
2016-03-06,2G,Delta,Kafr El Sheikh_Rural,BSC71,68,6.3299999,{MSCBC1-MSCBC2-MSCBC3-MSCBC4-MSCBC5-MSCBC6},{TG},{Beni Suef,RMD,TG,Zahraa},,,
2016-03-06,2G,Delta,Beheira_Rural,BSC71,12,0.79000002,{MSCBC1-MSCBC2-MSCBC3-MSCBC4-MSCBC5-MSCBC6},{TG},{Beni Suef,RMD,TG,Zahraa},,,
2016-03-06,2G,Delta,Beheira_Rural,BSC72,33,2.1800001,{MSCBC1-MSCBC2-MSCBC3-MSCBC4-MSCBC5-MSCBC6},{Mokattam},{Beni Suef,RMD,TG,Zahraa},,,
2016-03-06,2G,Delta,Gharbiya_Rural,BSC72,22,2.45,{MSCBC1-MSCBC2-MSCBC3-MSCBC4-MSCBC5-MSCBC6},{Mokattam},{Beni Suef,RMD,TG,Zahraa},,,
2016-03-06,2G,Cairo,Ain Shams,BSC72,117,57.639999,{MSCBC1-MSCBC2-MSCBC3-MSCBC4-MSCBC5-MSCBC6},{Mokattam},{Beni Suef,RMD,TG,Zahraa},,,
2016-03-06,2G,Cairo,Alsalam,BSC72,152,54.869999,{MSCBC1-MSCBC2-MSCBC3-MSCBC4-MSCBC5-MSCBC6},{Mokattam},{Beni Suef,RMD,TG,Zahraa},,,
2016-03-06,2G,Cairo,Matarya,BSC72,38,6.8699999,{MSCBC1-MSCBC2-MSCBC3-MSCBC4-MSCBC5-MSCBC6},{Mokattam},{Beni Suef,RMD,TG,Zahraa},,,
2016-03-06,2G,Cairo,Heliopolis and Nozha,BSC72,82,16.84,{MSCBC1-MSCBC2-MSCBC3-MSCBC4-MSCBC5-MSCBC6},{Mokattam},{Beni Suef,RMD,TG,Zahraa},,,
2016-03-06,2G,Delta,Gharbiya_Rural,BSC73,61,6.8000002,{MSCBC1-MSCBC2-MSCBC3-MSCBC4-MSCBC5-MSCBC6},{HQ},{Beni Suef,RMD,TG,Zahraa},,,
2016-03-06,2G,Delta,Mahala,BSC73,6,2.9000001,{MSCBC1-MSCBC2-MSCBC3-MSCBC4-MSCBC5-MSCBC6},{HQ},{Beni Suef,RMD,TG,Zahraa},,,
2016-03-06,2G,Delta,Qalyubiya_Rural,BSC73,32,3.98,{MSCBC1-MSCBC2-MSCBC3-MSCBC4-MSCBC5-MSCBC6},{HQ},{Beni Suef,RMD,TG,Zahraa},,,
2016-03-06,2G,Delta,Monufeyya_Rural,BSC73,173,18.639999,{MSCBC1-MSCBC2-MSCBC3-MSCBC4-MSCBC5-MSCBC6},{HQ},{Beni Suef,RMD,TG,Zahraa},,,
2016-03-06,2G,Delta,Sharkeyya_Rural,BSC73,79,3.99,{MSCBC1-MSCBC2-MSCBC3-MSCBC4-MSCBC5-MSCBC6},{HQ},{Beni Suef,RMD,TG,Zahraa},,,
2016-03-06,2G,Delta,Dakahleyya_Rural,BSC73,37,2.0799999,{MSCBC1-MSCBC2-MSCBC3-MSCBC4-MSCBC5-MSCBC6},{HQ},{Beni Suef,RMD,TG,Zahraa},,,
2016-03-06,2G,Delta,Beheira_Rural,BSC73,64,4.2199998,{MSCBC1-MSCBC2-MSCBC3-MSCBC4-MSCBC5-MSCBC6},{HQ},{Beni Suef,RMD,TG,Zahraa},,,
2016-03-06,2G,Delta,Gharbiya_Rural,BSC74,6,0.67000002,{MSCBC1-MSCBC2-MSCBC3-MSCBC4-MSCBC5-MSCBC6},{RMD},{Beni Suef,RMD,TG,Zahraa},,,
2016-03-06,2G,Delta,Dakahleyya_Rural,BSC74,192,10.79,{MSCBC1-MSCBC2-MSCBC3-MSCBC4-MSCBC5-MSCBC6},{RMD},{Beni Suef,RMD,TG,Zahraa},,,
2016-03-06,2G,Delta,Sharkeyya_Rural,BSC74,114,5.75,{MSCBC1-MSCBC2-MSCBC3-MSCBC4-MSCBC5-MSCBC6},{RMD},{Beni Suef,RMD,TG,Zahraa},,,
2016-03-06,2G,Delta,Qalyubiya_Rural,BSC74,6,0.75,{MSCBC1-MSCBC2-MSCBC3-MSCBC4-MSCBC5-MSCBC6},{RMD},{Beni Suef,RMD,TG,Zahraa},,,
2016-03-06,2G,Delta,Mansoura,BSC74,14,3.3599999,{MSCBC1-MSCBC2-MSCBC3-MSCBC4-MSCBC5-MSCBC6},{RMD},{Beni Suef,RMD,TG,Zahraa},,,
2016-03-06,2G,Delta,Kafr El Sheikh_Rural,BSC74,53,4.9299998,{MSCBC1-MSCBC2-MSCBC3-MSCBC4-MSCBC5-MSCBC6},{RMD},{Beni Suef,RMD,TG,Zahraa},,,
2016-03-06,2G,Delta,Qalyubiya_Rural,BSC75,12,1.49,{MSCBC1-MSCBC2-MSCBC3-MSCBC4-MSCBC5-MSCBC6},{RMD},{Beni Suef,RMD,TG,Zahraa},,,
2016-03-06,2G,Delta,Sharkeyya_Rural,BSC75,226,11.4,{MSCBC1-MSCBC2-MSCBC3-MSCBC4-MSCBC5-MSCBC6},{RMD},{Beni Suef,RMD,TG,Zahraa},,,
2016-03-06,2G,Delta,Mansoura,BSC75,27,6.4699998,{MSCBC1-MSCBC2-MSCBC3-MSCBC4-MSCBC5-MSCBC6},{RMD},{Beni Suef,RMD,TG,Zahraa},,,
2016-03-06,2G,Delta,Monufeyya_Rural,BSC75,6,0.64999998,{MSCBC1-MSCBC2-MSCBC3-MSCBC4-MSCBC5-MSCBC6},{RMD},{Beni Suef,RMD,TG,Zahraa},,,
2016-03-06,2G,Delta,Dakahleyya_Rural,BSC75,169,9.5,{MSCBC1-MSCBC2-MSCBC3-MSCBC4-MSCBC5-MSCBC6},{RMD},{Beni Suef,RMD,TG,Zahraa},,,
2016-03-06,2G,Cairo,Abbassyia,BSC76,85,58.220001,{MSCBC1-MSCBC2-MSCBC3-MSCBC4-MSCBC5-MSCBC6},{Mokattam},{Beni Suef,RMD,TG,Zahraa},,,
2016-03-06,2G,Cairo,Matarya,BSC76,9,1.63,{MSCBC1-MSCBC2-MSCBC3-MSCBC4-MSCBC5-MSCBC6},{Mokattam},{Beni Suef,RMD,TG,Zahraa},,,
2016-03-06,2G,Cairo,Zaitoun and Qubba,BSC76,14,7.4499998,{MSCBC1-MSCBC2-MSCBC3-MSCBC4-MSCBC5-MSCBC6},{Mokattam},{Beni Suef,RMD,TG,Zahraa},,,
2016-03-06,2G,Cairo,Shubra El-Khima,BSC77,73,15.15,{MSCBC1-MSCBC2-MSCBC3-MSCBC4-MSCBC5-MSCBC6},{Mokattam},{Beni Suef,RMD,TG,Zahraa},,,
2016-03-06,2G,Cairo,Matarya,BSC77,108,19.530001,{MSCBC1-MSCBC2-MSCBC3-MSCBC4-MSCBC5-MSCBC6},{Mokattam},{Beni Suef,RMD,TG,Zahraa},,,
2016-03-06,2G,Delta,Dakahleyya_Rural,BSC78,41,2.3,{MSCBC1-MSCBC2-MSCBC3-MSCBC4-MSCBC5-MSCBC6},{TG},{Beni Suef,RMD,TG,Zahraa},,,
2016-03-06,2G,Delta,Damietta_Rural,BSC78,52,10.38,{MSCBC1-MSCBC2-MSCBC3-MSCBC4-MSCBC5-MSCBC6},{TG},{Beni Suef,RMD,TG,Zahraa},,,
2016-03-06,2G,Giza,Boulaq,BSC78,280,91.800003,{MSCBC1-MSCBC2-MSCBC3-MSCBC4-MSCBC5-MSCBC6},{TG},{Beni Suef,RMD,TG,Zahraa},,,
2016-03-06,2G,Giza,Mouhandseen,BSC78,391,80.620003,{MSCBC1-MSCBC2-MSCBC3-MSCBC4-MSCBC5-MSCBC6},{TG},{Beni Suef,RMD,TG,Zahraa},,,
2016-03-06,2G,Giza,Kerdasa and Mansoraya,BSC78,3,1.66,{MSCBC1-MSCBC2-MSCBC3-MSCBC4-MSCBC5-MSCBC6},{TG},{Beni Suef,RMD,TG,Zahraa},,,
2016-03-06,2G,Delta,Beheira_Rural,BSC79,122,8.0500002,{MSCBC1-MSCBC2-MSCBC3-MSCBC4-MSCBC5-MSCBC6},{HQ},{Beni Suef,RMD,TG,Zahraa},,,
2016-03-06,2G,Delta,Monufeyya_Rural,BSC79,92,9.9099998,{MSCBC1-MSCBC2-MSCBC3-MSCBC4-MSCBC5-MSCBC6},{HQ},{Beni Suef,RMD,TG,Zahraa},,,
2016-03-06,2G,Delta,Qalyubiya_Rural,BSC79,114,14.16,{MSCBC1-MSCBC2-MSCBC3-MSCBC4-MSCBC5-MSCBC6},{HQ},{Beni Suef,RMD,TG,Zahraa},,,
2016-03-06,2G,Delta,Monufeyya_Rural,BSC80,20,2.1600001,{MSCBC1-MSCBC2-MSCBC3-MSCBC4-MSCBC5-MSCBC6},{Zahraa},{Beni Suef,RMD,TG,Zahraa},,,
2016-03-06,2G,Delta,Gharbiya_Rural,BSC80,116,12.93,{MSCBC1-MSCBC2-MSCBC3-MSCBC4-MSCBC5-MSCBC6},{Zahraa},{Beni Suef,RMD,TG,Zahraa},,,
2016-03-06,2G,Cairo,Shubra El-Khima,BSC80,177,36.720001,{MSCBC1-MSCBC2-MSCBC3-MSCBC4-MSCBC5-MSCBC6},{Zahraa},{Beni Suef,RMD,TG,Zahraa},,,
2016-03-06,2G,Cairo,Shubra,BSC80,16,8.9399996,{MSCBC1-MSCBC2-MSCBC3-MSCBC4-MSCBC5-MSCBC6},{Zahraa},{Beni Suef,RMD,TG,Zahraa},,,
2016-03-06,2G,Delta,Tanta,BSC80,188,100,{MSCBC1-MSCBC2-MSCBC3-MSCBC4-MSCBC5-MSCBC6},{Zahraa},{Beni Suef,RMD,TG,Zahraa},,,
2016-03-06,2G,Cairo,Zaitoun and Qubba,BSC81,54,28.719999,{MSCBC1-MSCBC2-MSCBC3-MSCBC4-MSCBC5-MSCBC6},{Mokattam},{Beni Suef,RMD,TG,Zahraa},,,
2016-03-06,2G,Cairo,Nasr City,BSC81,274,38.060001,{MSCBC1-MSCBC2-MSCBC3-MSCBC4-MSCBC5-MSCBC6},{Mokattam},{Beni Suef,RMD,TG,Zahraa},,,
2016-03-06,2G,Cairo,Heliopolis and Nozha,BSC81,362,74.330002,{MSCBC1-MSCBC2-MSCBC3-MSCBC4-MSCBC5-MSCBC6},{Mokattam},{Beni Suef,RMD,TG,Zahraa},,,
2016-03-06,2G,Cairo,Ain Shams,BSC81,1,0.49000001,{MSCBC1-MSCBC2-MSCBC3-MSCBC4-MSCBC5-MSCBC6},{Mokattam},{Beni Suef,RMD,TG,Zahraa},,,
2016-03-06,2G,Cairo,Airport,BSC81,51,89.470001,{MSCBC1-MSCBC2-MSCBC3-MSCBC4-MSCBC5-MSCBC6},{Mokattam},{Beni Suef,RMD,TG,Zahraa},,,
2016-03-06,2G,Cairo,Abbassyia,BSC82,24,16.440001,{MSCBC1-MSCBC2-MSCBC3-MSCBC4-MSCBC5-MSCBC6},{Zahraa},{Beni Suef,RMD,TG,Zahraa},,,
2016-03-06,2G,Cairo,Dar El Salam,BSC82,189,86.300003,{MSCBC1-MSCBC2-MSCBC3-MSCBC4-MSCBC5-MSCBC6},{Zahraa},{Beni Suef,RMD,TG,Zahraa},,,
2016-03-06,2G,Cairo,Maadi,BSC82,235,64.559998,{MSCBC1-MSCBC2-MSCBC3-MSCBC4-MSCBC5-MSCBC6},{Zahraa},{Beni Suef,RMD,TG,Zahraa},,,
2016-03-06,2G,Cairo,Heliopolis and Nozha,BSC82,41,8.4200001,{MSCBC1-MSCBC2-MSCBC3-MSCBC4-MSCBC5-MSCBC6},{Zahraa},{Beni Suef,RMD,TG,Zahraa},,,
2016-03-06,2G,Cairo,Down Town and Manyal,BSC82,6,0.92000002,{MSCBC1-MSCBC2-MSCBC3-MSCBC4-MSCBC5-MSCBC6},{Zahraa},{Beni Suef,RMD,TG,Zahraa},,,
2016-03-06,2G,Cairo,Hadabah Wostah,BSC82,15,11.36,{MSCBC1-MSCBC2-MSCBC3-MSCBC4-MSCBC5-MSCBC6},{Zahraa},{Beni Suef,RMD,TG,Zahraa},,,
2016-03-06,2G,Cairo,Moukattam,BSC82,43,15.93,{MSCBC1-MSCBC2-MSCBC3-MSCBC4-MSCBC5-MSCBC6},{Zahraa},{Beni Suef,RMD,TG,Zahraa},,,
2016-03-06,2G,Cairo,Nasr City,BSC82,122,16.940001,{MSCBC1-MSCBC2-MSCBC3-MSCBC4-MSCBC5-MSCBC6},{Zahraa},{Beni Suef,RMD,TG,Zahraa},,,
2016-03-06,2G,Cairo,Zaitoun and Qubba,BSC82,22,11.7,{MSCBC1-MSCBC2-MSCBC3-MSCBC4-MSCBC5-MSCBC6},{Zahraa},{Beni Suef,RMD,TG,Zahraa},,,
2016-03-06,2G,Giza,Giza Outskirts,BSC82,62,17.459999,{MSCBC1-MSCBC2-MSCBC3-MSCBC4-MSCBC5-MSCBC6},{Zahraa},{Beni Suef,RMD,TG,Zahraa},,,
2016-03-06,2G,Giza,Haram,BSC82,99,10.2,{MSCBC1-MSCBC2-MSCBC3-MSCBC4-MSCBC5-MSCBC6},{Zahraa},{Beni Suef,RMD,TG,Zahraa},,,
2016-03-06,2G,Giza,Haram,BSC83,872,89.800003,{MSCBC1-MSCBC2-MSCBC3-MSCBC4-MSCBC5-MSCBC6},{TG},{Beni Suef,RMD,TG,Zahraa},,,
2016-03-06,2G,Giza,Giza Outskirts,BSC83,19,5.3499999,{MSCBC1-MSCBC2-MSCBC3-MSCBC4-MSCBC5-MSCBC6},{TG},{Beni Suef,RMD,TG,Zahraa},,,
2016-03-06,2G,Giza,Kerdasa and Mansoraya,BSC83,25,13.81,{MSCBC1-MSCBC2-MSCBC3-MSCBC4-MSCBC5-MSCBC6},{TG},{Beni Suef,RMD,TG,Zahraa},,,
2016-03-06,2G,Alexandria,Alex Desert Road,BSC84,3,0.80000001,{MSCBC1-MSCBC2-MSCBC3-MSCBC4-MSCBC5-MSCBC6},{RMD},{Beni Suef,RMD,TG,Zahraa},,,
2016-03-06,2G,Delta,Beheira_Rural,BSC84,3,0.2,{MSCBC1-MSCBC2-MSCBC3-MSCBC4-MSCBC5-MSCBC6},{RMD},{Beni Suef,RMD,TG,Zahraa},,,
2016-03-06,2G,Delta,Monufeyya_Rural,BSC84,108,11.64,{MSCBC1-MSCBC2-MSCBC3-MSCBC4-MSCBC5-MSCBC6},{RMD},{Beni Suef,RMD,TG,Zahraa},,,
2016-03-06,2G,Delta,Qalyubiya_Rural,BSC84,18,2.24,{MSCBC1-MSCBC2-MSCBC3-MSCBC4-MSCBC5-MSCBC6},{RMD},{Beni Suef,RMD,TG,Zahraa},,,
2016-03-06,2G,Delta,Kafr El Sheikh_Rural,BSC84,30,2.79,{MSCBC1-MSCBC2-MSCBC3-MSCBC4-MSCBC5-MSCBC6},{RMD},{Beni Suef,RMD,TG,Zahraa},,,
2016-03-06,2G,Delta,Mansoura,BSC85,24,5.7600002,{MSCBC1-MSCBC2-MSCBC3-MSCBC4-MSCBC5-MSCBC6},{RMD},{Beni Suef,RMD,TG,Zahraa},,,
2016-03-06,2G,Delta,Sharkeyya_Rural,BSC85,474,23.92,{MSCBC1-MSCBC2-MSCBC3-MSCBC4-MSCBC5-MSCBC6},{RMD},{Beni Suef,RMD,TG,Zahraa},,,
2016-03-06,2G,Delta,Zagazig,BSC85,215,100,{MSCBC1-MSCBC2-MSCBC3-MSCBC4-MSCBC5-MSCBC6},{RMD},{Beni Suef,RMD,TG,Zahraa},,,
2016-03-06,2G,Giza,Shubra and Imbaba Outskirts,BSC86,59,88.059998,{MSCBC1-MSCBC2-MSCBC3-MSCBC4-MSCBC5-MSCBC6},{HQ},{Beni Suef,RMD,TG,Zahraa},,,
2016-03-06,2G,Delta,Qalyubiya_Rural,BSC86,177,21.99,{MSCBC1-MSCBC2-MSCBC3-MSCBC4-MSCBC5-MSCBC6},{HQ},{Beni Suef,RMD,TG,Zahraa},,,
2016-03-06,2G,Delta,Mahala,BSC86,32,15.46,{MSCBC1-MSCBC2-MSCBC3-MSCBC4-MSCBC5-MSCBC6},{HQ},{Beni Suef,RMD,TG,Zahraa},,,
2016-03-06,2G,Cairo,Shubra,BSC86,3,1.6799999,{MSCBC1-MSCBC2-MSCBC3-MSCBC4-MSCBC5-MSCBC6},{HQ},{Beni Suef,RMD,TG,Zahraa},,,
2016-03-06,2G,Cairo,Shubra El-Khima,BSC86,108,22.41,{MSCBC1-MSCBC2-MSCBC3-MSCBC4-MSCBC5-MSCBC6},{HQ},{Beni Suef,RMD,TG,Zahraa},,,
2016-03-06,2G,Cairo,Matarya,BSC86,148,26.76,{MSCBC1-MSCBC2-MSCBC3-MSCBC4-MSCBC5-MSCBC6},{HQ},{Beni Suef,RMD,TG,Zahraa},,,
2016-03-06,2G,Delta,Dakahleyya_Rural,BSC87,78,4.3800001,{MSCBC1-MSCBC2-MSCBC3-MSCBC4-MSCBC5-MSCBC6},{TG},{Beni Suef,RMD,TG,Zahraa},,,
2016-03-06,2G,Delta,Damietta_Rural,BSC87,134,26.75,{MSCBC1-MSCBC2-MSCBC3-MSCBC4-MSCBC5-MSCBC6},{TG},{Beni Suef,RMD,TG,Zahraa},,,
2016-03-06,2G,Giza,Mouhandseen,BSC87,13,2.6800001,{MSCBC1-MSCBC2-MSCBC3-MSCBC4-MSCBC5-MSCBC6},{TG},{Beni Suef,RMD,TG,Zahraa},,,
2016-03-06,2G,Giza,Boulaq,BSC87,21,6.8899999,{MSCBC1-MSCBC2-MSCBC3-MSCBC4-MSCBC5-MSCBC6},{TG},{Beni Suef,RMD,TG,Zahraa},,,
2016-03-06,2G,Giza,Kerdasa and Mansoraya,BSC87,3,1.66,{MSCBC1-MSCBC2-MSCBC3-MSCBC4-MSCBC5-MSCBC6},{TG},{Beni Suef,RMD,TG,Zahraa},,,
2016-03-06,2G,Giza,Imbaba,BSC87,54,16.120001,{MSCBC1-MSCBC2-MSCBC3-MSCBC4-MSCBC5-MSCBC6},{TG},{Beni Suef,RMD,TG,Zahraa},,,
2016-03-06,2G,Upper Egypt,Aswan_Rural,BSCH01,10,2.75,{MSCBC1-MSCBC2-MSCBC3-MSCBC4-MSCBC5-MSCBC6},{Beni Suef},{Beni Suef,RMD,TG,Zahraa},,,
2016-03-06,2G,Upper Egypt,Asyut_Rural,BSCH01,40,9.0500002,{MSCBC1-MSCBC2-MSCBC3-MSCBC4-MSCBC5-MSCBC6},{Beni Suef},{Beni Suef,RMD,TG,Zahraa},,,
2016-03-06,2G,Upper Egypt,Sohag,BSCH01,72,100,{MSCBC1-MSCBC2-MSCBC3-MSCBC4-MSCBC5-MSCBC6},{Beni Suef},{Beni Suef,RMD,TG,Zahraa},,,
2016-03-06,2G,Upper Egypt,Souhag_Rural,BSCH01,118,25.43,{MSCBC1-MSCBC2-MSCBC3-MSCBC4-MSCBC5-MSCBC6},{Beni Suef},{Beni Suef,RMD,TG,Zahraa},,,
2016-03-06,2G,Canal,El-Sukhna,BSCH01,98,68.059998,{MSCBC1-MSCBC2-MSCBC3-MSCBC4-MSCBC5-MSCBC6},{Beni Suef},{Beni Suef,RMD,TG,Zahraa},,,
2016-03-06,2G,Canal,Red Sea North_Rural,BSCH01,15,16.299999,{MSCBC1-MSCBC2-MSCBC3-MSCBC4-MSCBC5-MSCBC6},{Beni Suef},{Beni Suef,RMD,TG,Zahraa},,,
2016-03-06,2G,Canal,Red Sea South_Rural,BSCH01,16,10.67,{MSCBC1-MSCBC2-MSCBC3-MSCBC4-MSCBC5-MSCBC6},{Beni Suef},{Beni Suef,RMD,TG,Zahraa},,,
2016-03-06,2G,Canal,Red Sea South_Rural,BSCH02,9,6,{MSCBC1-MSCBC2-MSCBC3-MSCBC4-MSCBC5-MSCBC6},{Beni Suef},{Beni Suef,RMD,TG,Zahraa},,,
2016-03-06,2G,Canal,Red Sea North_Rural,BSCH02,2,2.1700001,{MSCBC1-MSCBC2-MSCBC3-MSCBC4-MSCBC5-MSCBC6},{Beni Suef},{Beni Suef,RMD,TG,Zahraa},,,
2016-03-06,2G,Upper Egypt,Souhag_Rural,BSCH02,49,10.56,{MSCBC1-MSCBC2-MSCBC3-MSCBC4-MSCBC5-MSCBC6},{Beni Suef},{Beni Suef,RMD,TG,Zahraa},,,
2016-03-06,2G,Upper Egypt,Qena_Rural,BSCH02,37,7.6300001,{MSCBC1-MSCBC2-MSCBC3-MSCBC4-MSCBC5-MSCBC6},{Beni Suef},{Beni Suef,RMD,TG,Zahraa},,,
2016-03-06,2G,Upper Egypt,New Valley,BSCH02,17,100,{MSCBC1-MSCBC2-MSCBC3-MSCBC4-MSCBC5-MSCBC6},{Beni Suef},{Beni Suef,RMD,TG,Zahraa},,,
2016-03-06,2G,Upper Egypt,New Valley_Rural,BSCH02,97,57.740002,{MSCBC1-MSCBC2-MSCBC3-MSCBC4-MSCBC5-MSCBC6},{Beni Suef},{Beni Suef,RMD,TG,Zahraa},,,
2016-03-06,2G,Upper Egypt,Aswan_Rural,BSCH02,64,17.629999,{MSCBC1-MSCBC2-MSCBC3-MSCBC4-MSCBC5-MSCBC6},{Beni Suef},{Beni Suef,RMD,TG,Zahraa},,,
2016-03-06,2G,Upper Egypt,Asyut_Rural,BSCH02,126,28.51,{MSCBC1-MSCBC2-MSCBC3-MSCBC4-MSCBC5-MSCBC6},{Beni Suef},{Beni Suef,RMD,TG,Zahraa},,,
2016-03-06,2G,Upper Egypt,Asyut_Rural,BSCH03,31,7.0100002,{MSCBC1-MSCBC2-MSCBC3-MSCBC4-MSCBC5-MSCBC6},{Beni Suef},{Beni Suef,RMD,TG,Zahraa},,,
2016-03-06,2G,Upper Egypt,Aswan_Rural,BSCH03,79,21.76,{MSCBC1-MSCBC2-MSCBC3-MSCBC4-MSCBC5-MSCBC6},{Beni Suef},{Beni Suef,RMD,TG,Zahraa},,,
2016-03-06,2G,Upper Egypt,Minia_Rural,BSCH03,10,2.1500001,{MSCBC1-MSCBC2-MSCBC3-MSCBC4-MSCBC5-MSCBC6},{Beni Suef},{Beni Suef,RMD,TG,Zahraa},,,
2016-03-06,2G,Upper Egypt,Qena_Rural,BSCH03,63,12.99,{MSCBC1-MSCBC2-MSCBC3-MSCBC4-MSCBC5-MSCBC6},{Beni Suef},{Beni Suef,RMD,TG,Zahraa},,,
2016-03-06,2G,Upper Egypt,Quina,BSCH03,69,100,{MSCBC1-MSCBC2-MSCBC3-MSCBC4-MSCBC5-MSCBC6},{Beni Suef},{Beni Suef,RMD,TG,Zahraa},,,
2016-03-06,2G,Upper Egypt,Souhag_Rural,BSCH04,18,3.8800001,{MSCBC1-MSCBC2-MSCBC3-MSCBC4-MSCBC5-MSCBC6},{Beni Suef},{Beni Suef,RMD,TG,Zahraa},,,
2016-03-06,2G,Upper Egypt,Asyut_Rural,BSCH04,97,21.950001,{MSCBC1-MSCBC2-MSCBC3-MSCBC4-MSCBC5-MSCBC6},{Beni Suef},{Beni Suef,RMD,TG,Zahraa},,,
2016-03-06,2G,Upper Egypt,Luxor_Rural,BSCH04,71,35.860001,{MSCBC1-MSCBC2-MSCBC3-MSCBC4-MSCBC5-MSCBC6},{Beni Suef},{Beni Suef,RMD,TG,Zahraa},,,
2016-03-06,2G,Upper Egypt,Aswan_Rural,BSCH04,210,57.849998,{MSCBC1-MSCBC2-MSCBC3-MSCBC4-MSCBC5-MSCBC6},{Beni Suef},{Beni Suef,RMD,TG,Zahraa},,,
2016-03-06,2G,Upper Egypt,Aswan,BSCH04,102,100,{MSCBC1-MSCBC2-MSCBC3-MSCBC4-MSCBC5-MSCBC6},{Beni Suef},{Beni Suef,RMD,TG,Zahraa},,,
2016-03-06,2G,Upper Egypt,Asyut,BSCH05,123,100,{MSCBC1-MSCBC2-MSCBC3-MSCBC4-MSCBC5-MSCBC6},{Beni Suef},{Beni Suef,RMD,TG,Zahraa},,,
2016-03-06,2G,Upper Egypt,Asyut_Rural,BSCH05,4,0.89999998,{MSCBC1-MSCBC2-MSCBC3-MSCBC4-MSCBC5-MSCBC6},{Beni Suef},{Beni Suef,RMD,TG,Zahraa},,,
2016-03-06,2G,Upper Egypt,Minia_Rural,BSCH06,219,47.099998,{MSCBC1-MSCBC2-MSCBC3-MSCBC4-MSCBC5-MSCBC6},{Beni Suef},{Beni Suef,RMD,TG,Zahraa},,,
2016-03-06,2G,Canal,Red Sea South_Rural,BSCH06,36,24,{MSCBC1-MSCBC2-MSCBC3-MSCBC4-MSCBC5-MSCBC6},{Beni Suef},{Beni Suef,RMD,TG,Zahraa},,,
2016-03-06,2G,Canal,Red Sea North_Rural,BSCH06,16,17.389999,{MSCBC1-MSCBC2-MSCBC3-MSCBC4-MSCBC5-MSCBC6},{Beni Suef},{Beni Suef,RMD,TG,Zahraa},,,
2016-03-06,2G,Canal,Ras Ghareb,BSCH06,18,47.369999,{MSCBC1-MSCBC2-MSCBC3-MSCBC4-MSCBC5-MSCBC6},{Beni Suef},{Beni Suef,RMD,TG,Zahraa},,,
2016-03-06,2G,Canal,El-Qosseir,BSCH06,18,100,{MSCBC1-MSCBC2-MSCBC3-MSCBC4-MSCBC5-MSCBC6},{Beni Suef},{Beni Suef,RMD,TG,Zahraa},,,
2016-03-06,2G,Canal,Ras Ghareb,BSCH07,20,52.630001,{MSCBC1-MSCBC2-MSCBC3-MSCBC4-MSCBC5-MSCBC6},{Beni Suef},{Beni Suef,RMD,TG,Zahraa},,,
2016-03-06,2G,Canal,Red Sea North_Rural,BSCH07,16,17.389999,{MSCBC1-MSCBC2-MSCBC3-MSCBC4-MSCBC5-MSCBC6},{Beni Suef},{Beni Suef,RMD,TG,Zahraa},,,
2016-03-06,2G,Upper Egypt,Minia_Rural,BSCH07,41,8.8199997,{MSCBC1-MSCBC2-MSCBC3-MSCBC4-MSCBC5-MSCBC6},{Beni Suef},{Beni Suef,RMD,TG,Zahraa},,,
2016-03-06,2G,Upper Egypt,Fayoum_Rural,BSCH07,7,1.59,{MSCBC1-MSCBC2-MSCBC3-MSCBC4-MSCBC5-MSCBC6},{Beni Suef},{Beni Suef,RMD,TG,Zahraa},,,
2016-03-06,2G,Upper Egypt,Qena_Rural,BSCH07,3,0.62,{MSCBC1-MSCBC2-MSCBC3-MSCBC4-MSCBC5-MSCBC6},{Beni Suef},{Beni Suef,RMD,TG,Zahraa},,,
2016-03-06,2G,Upper Egypt,Bani Sweif_Rural,BSCH07,290,87.089996,{MSCBC1-MSCBC2-MSCBC3-MSCBC4-MSCBC5-MSCBC6},{Beni Suef},{Beni Suef,RMD,TG,Zahraa},,,
2016-03-06,2G,Upper Egypt,Bani_Suef,BSCH07,98,100,{MSCBC1-MSCBC2-MSCBC3-MSCBC4-MSCBC5-MSCBC6},{Beni Suef},{Beni Suef,RMD,TG,Zahraa},,,
2016-03-06,2G,Upper Egypt,Fayoum,BSCH08,117,100,{MSCBC1-MSCBC2-MSCBC3-MSCBC4-MSCBC5-MSCBC6},{Beni Suef},{Beni Suef,RMD,TG,Zahraa},,,
2016-03-06,2G,Upper Egypt,Bani Sweif_Rural,BSCH08,3,0.89999998,{MSCBC1-MSCBC2-MSCBC3-MSCBC4-MSCBC5-MSCBC6},{Beni Suef},{Beni Suef,RMD,TG,Zahraa},,,
2016-03-06,2G,Upper Egypt,Fayoum_Rural,BSCH08,64,14.55,{MSCBC1-MSCBC2-MSCBC3-MSCBC4-MSCBC5-MSCBC6},{Beni Suef},{Beni Suef,RMD,TG,Zahraa},,,
2016-03-06,2G,Upper Egypt,Qena_Rural,BSCH08,4,0.81999999,{MSCBC1-MSCBC2-MSCBC3-MSCBC4-MSCBC5-MSCBC6},{Beni Suef},{Beni Suef,RMD,TG,Zahraa},,,
2016-03-06,2G,Upper Egypt,New Valley_Rural,BSCH08,40,23.809999,{MSCBC1-MSCBC2-MSCBC3-MSCBC4-MSCBC5-MSCBC6},{Beni Suef},{Beni Suef,RMD,TG,Zahraa},,,
2016-03-06,2G,Upper Egypt,Fayoum_Rural,BSCH09,145,32.950001,{MSCBC1-MSCBC2-MSCBC3-MSCBC4-MSCBC5-MSCBC6},{Beni Suef},{Beni Suef,RMD,TG,Zahraa},,,
2016-03-06,2G,Canal,Red Sea North_Rural,BSCH09,2,2.1700001,{MSCBC1-MSCBC2-MSCBC3-MSCBC4-MSCBC5-MSCBC6},{Beni Suef},{Beni Suef,RMD,TG,Zahraa},,,
2016-03-06,2G,Canal,El-Gouna,BSCH09,21,100,{MSCBC1-MSCBC2-MSCBC3-MSCBC4-MSCBC5-MSCBC6},{Beni Suef},{Beni Suef,RMD,TG,Zahraa},,,
2016-03-06,2G,Canal,Safaga,BSCH09,18,100,{MSCBC1-MSCBC2-MSCBC3-MSCBC4-MSCBC5-MSCBC6},{Beni Suef},{Beni Suef,RMD,TG,Zahraa},,,
2016-03-06,2G,Canal,Red Sea South_Rural,BSCH09,24,16,{MSCBC1-MSCBC2-MSCBC3-MSCBC4-MSCBC5-MSCBC6},{Beni Suef},{Beni Suef,RMD,TG,Zahraa},,,
2016-03-06,2G,Canal,Hurghada,BSCH09,277,100,{MSCBC1-MSCBC2-MSCBC3-MSCBC4-MSCBC5-MSCBC6},{Beni Suef},{Beni Suef,RMD,TG,Zahraa},,,
2016-03-06,2G,Canal,Ismailia Rural,BSCH10,19,16.809999,{MSCS50-MSCS51-MSCS52-MSCS53-MSCS54-MSCS55},{RMD},{Beni Suef,RMD},,,
2016-03-06,2G,Canal,Nuweiba,BSCH10,10,100,{MSCS50-MSCS51-MSCS52-MSCS53-MSCS54-MSCS55},{RMD},{Beni Suef,RMD},,,
2016-03-06,2G,Canal,Red Sea North_Rural,BSCH10,8,8.6999998,{MSCS50-MSCS51-MSCS52-MSCS53-MSCS54-MSCS55},{RMD},{Beni Suef,RMD},,,
2016-03-06,2G,Canal,Sinai South_Rural,BSCH10,54,26.870001,{MSCS50-MSCS51-MSCS52-MSCS53-MSCS54-MSCS55},{RMD},{Beni Suef,RMD},,,
2016-03-06,2G,Canal,Suez,BSCH10,170,100,{MSCS50-MSCS51-MSCS52-MSCS53-MSCS54-MSCS55},{RMD},{Beni Suef,RMD},,,
2016-03-06,2G,Canal,Suez Rural,BSCH10,13,100,{MSCS50-MSCS51-MSCS52-MSCS53-MSCS54-MSCS55},{RMD},{Beni Suef,RMD},,,
2016-03-06,2G,Canal,Taba,BSCH10,19,100,{MSCS50-MSCS51-MSCS52-MSCS53-MSCS54-MSCS55},{RMD},{Beni Suef,RMD},,,
2016-03-06,2G,Canal,Sinai South_Rural,BSCH11,102,50.75,{MSCS50-MSCS51-MSCS52-MSCS53-MSCS54-MSCS55},{RMD},{Beni Suef,RMD},,,
2016-03-06,2G,Canal,Red Sea North_Rural,BSCH11,19,20.65,{MSCS50-MSCS51-MSCS52-MSCS53-MSCS54-MSCS55},{RMD},{Beni Suef,RMD},,,
2016-03-06,2G,Canal,Sinai North_Rural,BSCH11,10,9.0100002,{MSCS50-MSCS51-MSCS52-MSCS53-MSCS54-MSCS55},{RMD},{Beni Suef,RMD},,,
2016-03-06,2G,Canal,Portsaid Rural,BSCH11,38,88.370003,{MSCS50-MSCS51-MSCS52-MSCS53-MSCS54-MSCS55},{RMD},{Beni Suef,RMD},,,
2016-03-06,2G,Canal,Ismailia Rural,BSCH11,14,12.39,{MSCS50-MSCS51-MSCS52-MSCS53-MSCS54-MSCS55},{RMD},{Beni Suef,RMD},,,
2016-03-06,2G,Canal,El-Sukhna,BSCH11,46,31.940001,{MSCS50-MSCS51-MSCS52-MSCS53-MSCS54-MSCS55},{RMD},{Beni Suef,RMD},,,
2016-03-06,2G,Canal,Dahab,BSCH11,22,100,{MSCS50-MSCS51-MSCS52-MSCS53-MSCS54-MSCS55},{RMD},{Beni Suef,RMD},,,
2016-03-06,2G,Canal,Ismailia,BSCH12,107,100,{MSCS50-MSCS51-MSCS52-MSCS53-MSCS54-MSCS55},{RMD},{Beni Suef,RMD},,,
2016-03-06,2G,Canal,Sharm El-Shiekh,BSCH12,222,100,{MSCS50-MSCS51-MSCS52-MSCS53-MSCS54-MSCS55},{RMD},{Beni Suef,RMD},,,
2016-03-06,2G,Canal,Sinai South_Rural,BSCH12,11,5.4699998,{MSCS50-MSCS51-MSCS52-MSCS53-MSCS54-MSCS55},{RMD},{Beni Suef,RMD},,,
2016-03-06,2G,Canal,Red Sea South_Rural,BSCH13,65,43.330002,{MSCBC1-MSCBC2-MSCBC3-MSCBC4-MSCBC5-MSCBC6},{Beni Suef},{Beni Suef,RMD,TG,Zahraa},,,
2016-03-06,2G,Canal,Marsa Allam,BSCH13,18,100,{MSCBC1-MSCBC2-MSCBC3-MSCBC4-MSCBC5-MSCBC6},{Beni Suef},{Beni Suef,RMD,TG,Zahraa},,,
2016-03-06,2G,Upper Egypt,Asyut_Rural,BSCH13,99,22.4,{MSCBC1-MSCBC2-MSCBC3-MSCBC4-MSCBC5-MSCBC6},{Beni Suef},{Beni Suef,RMD,TG,Zahraa},,,
2016-03-06,2G,Upper Egypt,Minia_Rural,BSCH13,9,1.9400001,{MSCBC1-MSCBC2-MSCBC3-MSCBC4-MSCBC5-MSCBC6},{Beni Suef},{Beni Suef,RMD,TG,Zahraa},,,
2016-03-06,2G,Upper Egypt,Minya,BSCH13,92,100,{MSCBC1-MSCBC2-MSCBC3-MSCBC4-MSCBC5-MSCBC6},{Beni Suef},{Beni Suef,RMD,TG,Zahraa},,,
2016-03-06,2G,Upper Egypt,Minia_Rural,BSCH14,67,14.41,{MSCBC1-MSCBC2-MSCBC3-MSCBC4-MSCBC5-MSCBC6},{Beni Suef},{Beni Suef,RMD,TG,Zahraa},,,
2016-03-06,2G,Upper Egypt,Qena_Rural,BSCH14,92,18.969999,{MSCBC1-MSCBC2-MSCBC3-MSCBC4-MSCBC5-MSCBC6},{Beni Suef},{Beni Suef,RMD,TG,Zahraa},,,
2016-03-06,2G,Upper Egypt,Souhag_Rural,BSCH14,15,3.23,{MSCBC1-MSCBC2-MSCBC3-MSCBC4-MSCBC5-MSCBC6},{Beni Suef},{Beni Suef,RMD,TG,Zahraa},,,
2016-03-06,2G,Upper Egypt,Fayoum_Rural,BSCH14,121,27.5,{MSCBC1-MSCBC2-MSCBC3-MSCBC4-MSCBC5-MSCBC6},{Beni Suef},{Beni Suef,RMD,TG,Zahraa},,,
2016-03-06,2G,Upper Egypt,Bani Sweif_Rural,BSCH14,40,12.01,{MSCBC1-MSCBC2-MSCBC3-MSCBC4-MSCBC5-MSCBC6},{Beni Suef},{Beni Suef,RMD,TG,Zahraa},,,
2016-03-06,2G,Giza,Giza Outskirts,BSCH14,3,0.85000002,{MSCBC1-MSCBC2-MSCBC3-MSCBC4-MSCBC5-MSCBC6},{Beni Suef},{Beni Suef,RMD,TG,Zahraa},,,
2016-03-06,2G,Upper Egypt,Qena_Rural,BSCH15,25,5.1500001,{MSCBC1-MSCBC2-MSCBC3-MSCBC4-MSCBC5-MSCBC6},{Beni Suef},{Beni Suef,RMD,TG,Zahraa},,,
2016-03-06,2G,Upper Egypt,Luxor,BSCH15,132,100,{MSCBC1-MSCBC2-MSCBC3-MSCBC4-MSCBC5-MSCBC6},{Beni Suef},{Beni Suef,RMD,TG,Zahraa},,,
2016-03-06,2G,Upper Egypt,Luxor_Rural,BSCH15,127,64.139999,{MSCBC1-MSCBC2-MSCBC3-MSCBC4-MSCBC5-MSCBC6},{Beni Suef},{Beni Suef,RMD,TG,Zahraa},,,
2016-03-06,2G,Canal,Arish,BSCH16,52,100,{MSCBC1-MSCBC2-MSCBC3-MSCBC4-MSCBC5-MSCBC6},{RMD},{Beni Suef,RMD,TG,Zahraa},,,
2016-03-06,2G,Canal,Sinai North_Rural,BSCH16,93,83.779999,{MSCBC1-MSCBC2-MSCBC3-MSCBC4-MSCBC5-MSCBC6},{RMD},{Beni Suef,RMD,TG,Zahraa},,,
2016-03-06,2G,Alexandria,Alex Desert Road,BSCH17,54,14.4,{MSCBC1-MSCBC2-MSCBC3-MSCBC4-MSCBC5-MSCBC6},{Alex},{Beni Suef,RMD,TG,Zahraa},,,
2016-03-06,2G,Alexandria,North Coast East,BSCH17,185,47.439999,{MSCBC1-MSCBC2-MSCBC3-MSCBC4-MSCBC5-MSCBC6},{Alex},{Beni Suef,RMD,TG,Zahraa},,,
2016-03-06,2G,Alexandria,North Coast West,BSCH17,286,73.150002,{MSCBC1-MSCBC2-MSCBC3-MSCBC4-MSCBC5-MSCBC6},{Alex},{Beni Suef,RMD,TG,Zahraa},,,
2016-03-06,2G,Alexandria,North Coast East,BSCH18,2,0.50999999,{MSCS14-MSCS15-MSCS28-MSCS42-MSCS59-MSCS9},,{Alex},,,
2016-03-06,2G,Alexandria,North Coast East,BSCH19,183,46.919998,{MSCBC1-MSCBC2-MSCBC3-MSCBC4-MSCBC5-MSCBC6},{Alex},{Beni Suef,RMD,TG,Zahraa},,,
2016-03-06,2G,Alexandria,Alex_4,BSCH19,199,100,{MSCBC1-MSCBC2-MSCBC3-MSCBC4-MSCBC5-MSCBC6},{Alex},{Beni Suef,RMD,TG,Zahraa},,,
2016-03-06,2G,Alexandria,Alex Desert Road,BSCH19,117,31.200001,{MSCBC1-MSCBC2-MSCBC3-MSCBC4-MSCBC5-MSCBC6},{Alex},{Beni Suef,RMD,TG,Zahraa},,,
2016-03-06,2G,Alexandria,Alex_3,BSCH19,22,5.8400002,{MSCBC1-MSCBC2-MSCBC3-MSCBC4-MSCBC5-MSCBC6},{Alex},{Beni Suef,RMD,TG,Zahraa},,,
2016-03-06,2G,Alexandria,Alex Desert Road,BSCH20,176,46.93,{MSCBC1-MSCBC2-MSCBC3-MSCBC4-MSCBC5-MSCBC6},{Alex},{Beni Suef,RMD,TG,Zahraa},,,
2016-03-06,2G,Alexandria,North Coast East,BSCH20,19,4.8699999,{MSCBC1-MSCBC2-MSCBC3-MSCBC4-MSCBC5-MSCBC6},{Alex},{Beni Suef,RMD,TG,Zahraa},,,
2016-03-06,2G,Alexandria,North Coast West,BSCH20,105,26.85,{MSCBC1-MSCBC2-MSCBC3-MSCBC4-MSCBC5-MSCBC6},{Alex},{Beni Suef,RMD,TG,Zahraa},,,
2016-03-06,2G,Delta,Beheira_Rural,BSCH20,6,0.40000001,{MSCBC1-MSCBC2-MSCBC3-MSCBC4-MSCBC5-MSCBC6},{Alex},{Beni Suef,RMD,TG,Zahraa},,,
2016-03-06,2G,Giza,Alex Desert Road (Giza),BSCH20,3,4.6900001,{MSCBC1-MSCBC2-MSCBC3-MSCBC4-MSCBC5-MSCBC6},{Alex},{Beni Suef,RMD,TG,Zahraa},,,
2016-03-06,2G,Upper Egypt,Fayoum_Rural,BSCH21,28,6.3600001,{MSCBC1-MSCBC2-MSCBC3-MSCBC4-MSCBC5-MSCBC6},{Beni Suef},{Beni Suef,RMD,TG,Zahraa},,,
2016-03-06,2G,Upper Egypt,Qena_Rural,BSCH21,24,4.9499998,{MSCBC1-MSCBC2-MSCBC3-MSCBC4-MSCBC5-MSCBC6},{Beni Suef},{Beni Suef,RMD,TG,Zahraa},,,
2016-03-06,2G,Upper Egypt,Souhag_Rural,BSCH21,261,56.25,{MSCBC1-MSCBC2-MSCBC3-MSCBC4-MSCBC5-MSCBC6},{Beni Suef},{Beni Suef,RMD,TG,Zahraa},,,
2016-03-06,2G,Upper Egypt,Qena_Rural,BSCH22,60,12.37,{MSCBC1-MSCBC2-MSCBC3-MSCBC4-MSCBC5-MSCBC6},{Beni Suef},{Beni Suef,RMD,TG,Zahraa},,,
2016-03-06,2G,Upper Egypt,Fayoum_Rural,BSCH22,72,16.360001,{MSCBC1-MSCBC2-MSCBC3-MSCBC4-MSCBC5-MSCBC6},{Beni Suef},{Beni Suef,RMD,TG,Zahraa},,,
2016-03-06,2G,Upper Egypt,Minia_Rural,BSCH22,119,25.59,{MSCBC1-MSCBC2-MSCBC3-MSCBC4-MSCBC5-MSCBC6},{Beni Suef},{Beni Suef,RMD,TG,Zahraa},,,
2016-03-06,2G,Upper Egypt,Asyut_Rural,BSCH22,45,10.18,{MSCBC1-MSCBC2-MSCBC3-MSCBC4-MSCBC5-MSCBC6},{Beni Suef},{Beni Suef,RMD,TG,Zahraa},,,
2016-03-06,2G,Cairo,10Th Of Ramadan,BSCH23,323,94.720001,{MSCBC1-MSCBC2-MSCBC3-MSCBC4-MSCBC5-MSCBC6},{RMD},{Beni Suef,RMD,TG,Zahraa},,,
2016-03-06,2G,Canal,Ismailia Rural,BSCH23,20,17.700001,{MSCBC1-MSCBC2-MSCBC3-MSCBC4-MSCBC5-MSCBC6},{RMD},{Beni Suef,RMD,TG,Zahraa},,,
2016-03-06,2G,Canal,Portsaid Rural,BSCH23,5,11.63,{MSCBC1-MSCBC2-MSCBC3-MSCBC4-MSCBC5-MSCBC6},{RMD},{Beni Suef,RMD,TG,Zahraa},,,
2016-03-06,2G,Canal,Portsaid,BSCH23,133,100,{MSCBC1-MSCBC2-MSCBC3-MSCBC4-MSCBC5-MSCBC6},{RMD},{Beni Suef,RMD,TG,Zahraa},,,
2016-03-06,2G,Canal,Sinai North_Rural,BSCH23,1,0.89999998,{MSCBC1-MSCBC2-MSCBC3-MSCBC4-MSCBC5-MSCBC6},{RMD},{Beni Suef,RMD,TG,Zahraa},,,
2016-03-06,2G,Canal,Red Sea North_Rural,BSCH24,14,15.22,{MSCBC1-MSCBC2-MSCBC3-MSCBC4-MSCBC5-MSCBC6},{TG},{Beni Suef,RMD,TG,Zahraa},,,
2016-03-06,2G,Cairo,Moukattam,BSCH24,6,2.22,{MSCBC1-MSCBC2-MSCBC3-MSCBC4-MSCBC5-MSCBC6},{TG},{Beni Suef,RMD,TG,Zahraa},,,
2016-03-06,2G,Cairo,Obour,BSCH24,6,2.3900001,{MSCBC1-MSCBC2-MSCBC3-MSCBC4-MSCBC5-MSCBC6},{TG},{Beni Suef,RMD,TG,Zahraa},,,
2016-03-06,2G,Cairo,1St Gathering,BSCH24,332,62.060001,{MSCBC1-MSCBC2-MSCBC3-MSCBC4-MSCBC5-MSCBC6},{TG},{Beni Suef,RMD,TG,Zahraa},,,
2016-03-06,2G,Cairo,5Th Gathering and Kattamya,BSCH24,180,43.580002,{MSCBC1-MSCBC2-MSCBC3-MSCBC4-MSCBC5-MSCBC6},{TG},{Beni Suef,RMD,TG,Zahraa},,,
2016-03-06,2G,Giza,Sahary Alahram,BSCH24,95,32.529999,{MSCBC1-MSCBC2-MSCBC3-MSCBC4-MSCBC5-MSCBC6},{TG},{Beni Suef,RMD,TG,Zahraa},,,
2016-03-06,2G,Giza,Sahary Alahram,BSCH25,122,41.779999,{MSCBC1-MSCBC2-MSCBC3-MSCBC4-MSCBC5-MSCBC6},{HQ},{Beni Suef,RMD,TG,Zahraa},,,
2016-03-06,2G,Giza,Mouhandseen,BSCH25,3,0.62,{MSCBC1-MSCBC2-MSCBC3-MSCBC4-MSCBC5-MSCBC6},{HQ},{Beni Suef,RMD,TG,Zahraa},,,
2016-03-06,2G,Giza,October,BSCH25,471,84.860001,{MSCBC1-MSCBC2-MSCBC3-MSCBC4-MSCBC5-MSCBC6},{HQ},{Beni Suef,RMD,TG,Zahraa},,,
2016-03-06,2G,Upper Egypt,Fayoum_Rural,BSCH25,3,0.68000001,{MSCBC1-MSCBC2-MSCBC3-MSCBC4-MSCBC5-MSCBC6},{HQ},{Beni Suef,RMD,TG,Zahraa},,,
2016-03-06,2G,Upper Egypt,New Valley_Rural,BSCH25,30,17.860001,{MSCBC1-MSCBC2-MSCBC3-MSCBC4-MSCBC5-MSCBC6},{HQ},{Beni Suef,RMD,TG,Zahraa},,,
2016-03-06,2G,Delta,Beheira_Rural,BSCH25,45,2.97,{MSCBC1-MSCBC2-MSCBC3-MSCBC4-MSCBC5-MSCBC6},{HQ},{Beni Suef,RMD,TG,Zahraa},,,
2016-03-06,2G,Delta,Damanhour,BSCH25,12,7.7399998,{MSCBC1-MSCBC2-MSCBC3-MSCBC4-MSCBC5-MSCBC6},{HQ},{Beni Suef,RMD,TG,Zahraa},,,
2016-03-06,2G,Delta,Monufeyya_Rural,BSCH25,6,0.64999998,{MSCBC1-MSCBC2-MSCBC3-MSCBC4-MSCBC5-MSCBC6},{HQ},{Beni Suef,RMD,TG,Zahraa},,,
2016-03-06,2G,Cairo,1St Gathering,BSCH26,99,18.5,{MSCBC1-MSCBC2-MSCBC3-MSCBC4-MSCBC5-MSCBC6},{TG},{Beni Suef,RMD,TG,Zahraa},,,
2016-03-06,2G,Cairo,5Th Gathering and Kattamya,BSCH26,232,56.169998,{MSCBC1-MSCBC2-MSCBC3-MSCBC4-MSCBC5-MSCBC6},{TG},{Beni Suef,RMD,TG,Zahraa},,,
2016-03-06,2G,Cairo,Nasr City,BSCH26,34,4.7199998,{MSCBC1-MSCBC2-MSCBC3-MSCBC4-MSCBC5-MSCBC6},{TG},{Beni Suef,RMD,TG,Zahraa},,,
2016-03-06,2G,Alexandria,Alex Desert Road,BSCH27,3,0.80000001,{MSCBC1-MSCBC2-MSCBC3-MSCBC4-MSCBC5-MSCBC6},{HQ},{Beni Suef,RMD,TG,Zahraa},,,
2016-03-06,2G,Giza,October,BSCH27,81,14.59,{MSCBC1-MSCBC2-MSCBC3-MSCBC4-MSCBC5-MSCBC6},{HQ},{Beni Suef,RMD,TG,Zahraa},,,
2016-03-06,2G,Giza,Sahary Alahram,BSCH27,75,25.68,{MSCBC1-MSCBC2-MSCBC3-MSCBC4-MSCBC5-MSCBC6},{HQ},{Beni Suef,RMD,TG,Zahraa},,,
2016-03-06,2G,Giza,Zayed,BSCH27,262,100,{MSCBC1-MSCBC2-MSCBC3-MSCBC4-MSCBC5-MSCBC6},{HQ},{Beni Suef,RMD,TG,Zahraa},,,
2016-03-06,2G,Giza,Alex Desert Road (Giza),BSCH27,61,95.309998,{MSCBC1-MSCBC2-MSCBC3-MSCBC4-MSCBC5-MSCBC6},{HQ},{Beni Suef,RMD,TG,Zahraa},,,
2016-03-06,2G,Giza,Kerdasa and Mansoraya,BSCH27,122,67.400002,{MSCBC1-MSCBC2-MSCBC3-MSCBC4-MSCBC5-MSCBC6},{HQ},{Beni Suef,RMD,TG,Zahraa},,,
2016-03-06,2G,Cairo,Shorouk and Badr,BSCH28,70,30.17,{MSCBC1-MSCBC2-MSCBC3-MSCBC4-MSCBC5-MSCBC6},{RMD},{Beni Suef,RMD,TG,Zahraa},,,
2016-03-06,2G,Canal,Ras Sidr,BSCH28,35,100,{MSCBC1-MSCBC2-MSCBC3-MSCBC4-MSCBC5-MSCBC6},{RMD},{Beni Suef,RMD,TG,Zahraa},,,
2016-03-06,2G,Canal,Sinai North_Rural,BSCH28,7,6.3099999,{MSCBC1-MSCBC2-MSCBC3-MSCBC4-MSCBC5-MSCBC6},{RMD},{Beni Suef,RMD,TG,Zahraa},,,
2016-03-06,2G,Canal,Ismailia Rural,BSCH28,60,53.099998,{MSCBC1-MSCBC2-MSCBC3-MSCBC4-MSCBC5-MSCBC6},{RMD},{Beni Suef,RMD,TG,Zahraa},,,
2016-03-06,2G,Canal,Sinai South_Rural,BSCH28,34,16.92,{MSCBC1-MSCBC2-MSCBC3-MSCBC4-MSCBC5-MSCBC6},{RMD},{Beni Suef,RMD,TG,Zahraa},,,
2016-03-06,2G,Delta,Beheira_Rural,BSCH28,140,9.2399998,{MSCBC1-MSCBC2-MSCBC3-MSCBC4-MSCBC5-MSCBC6},{RMD},{Beni Suef,RMD,TG,Zahraa},,,
2016-03-06,2G,Cairo,Helwan,BSCH32,285,68.669998,{MSCBC1-MSCBC2-MSCBC3-MSCBC4-MSCBC5-MSCBC6},{Zahraa},{Beni Suef,RMD,TG,Zahraa},,,
2016-03-06,2G,Cairo,Maadi,BSCH32,111,30.49,{MSCBC1-MSCBC2-MSCBC3-MSCBC4-MSCBC5-MSCBC6},{Zahraa},{Beni Suef,RMD,TG,Zahraa},,,
2016-03-06,2G,Giza,Kerdasa and Mansoraya,BSCH32,3,1.66,{MSCBC1-MSCBC2-MSCBC3-MSCBC4-MSCBC5-MSCBC6},{Zahraa},{Beni Suef,RMD,TG,Zahraa},,,
2016-03-06,2G,Giza,Giza Outskirts,BSCH32,217,61.130001,{MSCBC1-MSCBC2-MSCBC3-MSCBC4-MSCBC5-MSCBC6},{Zahraa},{Beni Suef,RMD,TG,Zahraa},,,
2016-03-06,2G,Giza,Giza Outskirts,BSCH33,54,15.21,{MSCBC1-MSCBC2-MSCBC3-MSCBC4-MSCBC5-MSCBC6},{Mokattam},{Beni Suef,RMD,TG,Zahraa},,,
2016-03-06,2G,Cairo,Helwan,BSCH33,124,29.879999,{MSCBC1-MSCBC2-MSCBC3-MSCBC4-MSCBC5-MSCBC6},{Mokattam},{Beni Suef,RMD,TG,Zahraa},,,
2016-03-06,2G,Cairo,10Th Of Ramadan,BSCH34,18,5.2800002,{MSCBC1-MSCBC2-MSCBC3-MSCBC4-MSCBC5-MSCBC6},{TG},{Beni Suef,RMD,TG,Zahraa},,,
2016-03-06,2G,Cairo,1St Gathering,BSCH34,104,19.440001,{MSCBC1-MSCBC2-MSCBC3-MSCBC4-MSCBC5-MSCBC6},{TG},{Beni Suef,RMD,TG,Zahraa},,,
2016-03-06,2G,Cairo,Shorouk and Badr,BSCH34,162,69.830002,{MSCBC1-MSCBC2-MSCBC3-MSCBC4-MSCBC5-MSCBC6},{TG},{Beni Suef,RMD,TG,Zahraa},,,
2016-03-06,2G,Cairo,Obour,BSCH34,245,97.610001,{MSCBC1-MSCBC2-MSCBC3-MSCBC4-MSCBC5-MSCBC6},{TG},{Beni Suef,RMD,TG,Zahraa},,,
2016-03-06,2G,Upper Egypt,Qena_Rural,BSCH35,177,36.490002,,,,,,
2016-03-06,2G,Upper Egypt,Souhag_Rural,BSCH35,3,0.64999998,,,,,,
2016-03-06,2G,Delta,Beheira_Rural,BSCH41,660,43.560001,,,,,,
2016-03-06,2G,Delta,Kafr El Sheikh_Rural,BSCH41,12,1.12,,,,,,
2016-03-06,2G,Delta,Beheira_Rural,MNS-BSCH-39,162,10.69,,,,,,
2016-03-06,2G,Delta,Damanhour,MNS-BSCH-39,127,81.940002,,,,,,
2016-03-06,3G,Alexandria,Alex Desert Road,RNC03,1,0.14,{MSCS14-MSCS15-MSCS28-MSCS42-MSCS59-MSCS9},{Alex},{Alex},,,
2016-03-06,3G,Alexandria,Alex_2,RNC03,23,3.73,{MSCS14-MSCS15-MSCS28-MSCS42-MSCS59-MSCS9},{Alex},{Alex},,,
2016-03-06,3G,Alexandria,Alex_3,RNC03,42,10.34,{MSCS14-MSCS15-MSCS28-MSCS42-MSCS59-MSCS9},{Alex},{Alex},,,
2016-03-06,3G,Delta,Monufeyya_Rural,RNC03,21,2.02,{MSCS14-MSCS15-MSCS28-MSCS42-MSCS59-MSCS9},{Alex},{Alex},,,
2016-03-06,3G,Delta,Gharbiya_Rural,RNC05,12,1.2,{MSCS35-MSCS36-MSCS46-MSCS47-MSCS48-MSCS49-MSCS56},{HQ},{Beni Suef},,,
2016-03-06,3G,Delta,Mahala,RNC05,252,97.669998,{MSCS35-MSCS36-MSCS46-MSCS47-MSCS48-MSCS49-MSCS56},{HQ},{Beni Suef},,,
2016-03-06,3G,Alexandria,Alex_2,RNC06,98,15.91,{MSCS14-MSCS15-MSCS28-MSCS42-MSCS59-MSCS9},{Alex},{Alex},,,
2016-03-06,3G,Delta,Dakahleyya_Rural,RNC12,6,0.30000001,{MSCS11-MSCS12-MSCS13-MSCS24-MSCS33-MSCS34},{RMD},{RMD},,,
2016-03-06,3G,Delta,Gharbiya_Rural,RNC12,12,1.2,{MSCS11-MSCS12-MSCS13-MSCS24-MSCS33-MSCS34},{RMD},{RMD},,,
2016-03-06,3G,Delta,Mansoura,RNC12,65,10.42,{MSCS11-MSCS12-MSCS13-MSCS24-MSCS33-MSCS34},{RMD},{RMD},,,
2016-03-06,3G,Delta,Kafr El Sheikh_Rural,RNC15,61,5.2600002,{MSCS26-MSCS27-MSCS38-MSCS39-MSCS40},{TG},{TG},,,
2016-03-06,3G,Alexandria,Alex_3,RNC17,157,38.669998,{MSCS14-MSCS15-MSCS28-MSCS42-MSCS59-MSCS9},{Alex},{Alex},,,
2016-03-06,3G,Alexandria,Alex_2,RNC20,112,18.18,{MSCS14-MSCS15-MSCS28-MSCS42-MSCS59-MSCS9},{Alex},{Alex},,,
2016-03-06,3G,Alexandria,Alex_1,RNC20,9,1.28,{MSCS14-MSCS15-MSCS28-MSCS42-MSCS59-MSCS9},{Alex},{Alex},,,
2016-03-06,3G,Delta,Kafr El Sheikh_Rural,RNC21,73,6.3000002,{MSCS26-MSCS27-MSCS38-MSCS39-MSCS40},{TG},{TG},,,
2016-03-06,3G,Delta,Damietta_Rural,RNC21,60,10.51,{MSCS26-MSCS27-MSCS38-MSCS39-MSCS40},{TG},{TG},,,
2016-03-06,3G,Delta,Dakahleyya_Rural,RNC21,143,7.0700002,{MSCS26-MSCS27-MSCS38-MSCS39-MSCS40},{TG},{TG},,,
2016-03-06,3G,Delta,Monufeyya_Rural,RNC22,6,0.57999998,{MSCS35-MSCS36-MSCS46-MSCS47-MSCS48-MSCS49-MSCS56},,{Beni Suef},,,
2016-03-06,3G,Delta,Qalyubiya_Rural,RNC22,42,4.7199998,{MSCS35-MSCS36-MSCS46-MSCS47-MSCS48-MSCS49-MSCS56},,{Beni Suef},,,
2016-03-06,3G,Delta,Sharkeyya_Rural,RNC22,14,0.66000003,{MSCS35-MSCS36-MSCS46-MSCS47-MSCS48-MSCS49-MSCS56},,{Beni Suef},,,
2016-03-06,3G,Delta,Sharkeyya_Rural,RNC23,213,10.05,{MSCS11-MSCS12-MSCS13-MSCS24-MSCS33-MSCS34},{RMD},{RMD},,,
2016-03-06,3G,Delta,Qalyubiya_Rural,RNC23,38,4.27,{MSCS11-MSCS12-MSCS13-MSCS24-MSCS33-MSCS34},{RMD},{RMD},,,
2016-03-06,3G,Delta,Monufeyya_Rural,RNC23,97,9.3199997,{MSCS11-MSCS12-MSCS13-MSCS24-MSCS33-MSCS34},{RMD},{RMD},,,
2016-03-06,3G,Delta,Mansoura,RNC23,155,24.84,{MSCS11-MSCS12-MSCS13-MSCS24-MSCS33-MSCS34},{RMD},{RMD},,,
2016-03-06,3G,Delta,Banha,RNC23,159,100,{MSCS11-MSCS12-MSCS13-MSCS24-MSCS33-MSCS34},{RMD},{RMD},,,
2016-03-06,3G,Cairo,Nasr City,RNC24,332,24.92,{MSCBC1-MSCBC2-MSCBC3-MSCBC4-MSCBC5-MSCBC6},{Mokattam},{Beni Suef,RMD,TG,Zahraa},,,
2016-03-06,3G,Cairo,Alsalam,RNC25,65,17.469999,{MSCBC1-MSCBC2-MSCBC3-MSCBC4-MSCBC5-MSCBC6},{TG},{Beni Suef,RMD,TG,Zahraa},,,
2016-03-06,3G,Cairo,Heliopolis and Nozha,RNC25,20,2.22,{MSCBC1-MSCBC2-MSCBC3-MSCBC4-MSCBC5-MSCBC6},{TG},{Beni Suef,RMD,TG,Zahraa},,,
2016-03-06,3G,Cairo,Matarya,RNC25,77,9.0200005,{MSCBC1-MSCBC2-MSCBC3-MSCBC4-MSCBC5-MSCBC6},{TG},{Beni Suef,RMD,TG,Zahraa},,,
2016-03-06,3G,Delta,Dakahleyya_Rural,RNC25,149,7.3699999,{MSCBC1-MSCBC2-MSCBC3-MSCBC4-MSCBC5-MSCBC6},{TG},{Beni Suef,RMD,TG,Zahraa},,,
2016-03-06,3G,Delta,Damietta_Rural,RNC25,148,25.92,{MSCBC1-MSCBC2-MSCBC3-MSCBC4-MSCBC5-MSCBC6},{TG},{Beni Suef,RMD,TG,Zahraa},,,
2016-03-06,3G,Giza,Boulaq,RNC25,6,1.22,{MSCBC1-MSCBC2-MSCBC3-MSCBC4-MSCBC5-MSCBC6},{TG},{Beni Suef,RMD,TG,Zahraa},,,
2016-03-06,3G,Giza,Imbaba,RNC25,172,31.1,{MSCBC1-MSCBC2-MSCBC3-MSCBC4-MSCBC5-MSCBC6},{TG},{Beni Suef,RMD,TG,Zahraa},,,
2016-03-06,3G,Giza,Shubra and Imbaba Outskirts,RNC25,12,10.91,{MSCBC1-MSCBC2-MSCBC3-MSCBC4-MSCBC5-MSCBC6},{TG},{Beni Suef,RMD,TG,Zahraa},,,
2016-03-06,3G,Delta,Kafr El Sheikh_Rural,RNC26,102,8.8000002,{MSCBC1-MSCBC2-MSCBC3-MSCBC4-MSCBC5-MSCBC6},{HQ},{Beni Suef,RMD,TG,Zahraa},,,
2016-03-06,3G,Delta,Kafr El-Shikh,RNC26,149,100,{MSCBC1-MSCBC2-MSCBC3-MSCBC4-MSCBC5-MSCBC6},{HQ},{Beni Suef,RMD,TG,Zahraa},,,
2016-03-06,3G,Delta,Gharbiya_Rural,RNC26,6,0.60000002,{MSCBC1-MSCBC2-MSCBC3-MSCBC4-MSCBC5-MSCBC6},{HQ},{Beni Suef,RMD,TG,Zahraa},,,
2016-03-06,3G,Delta,Damanhour,RNC26,17,7.5599999,{MSCBC1-MSCBC2-MSCBC3-MSCBC4-MSCBC5-MSCBC6},{HQ},{Beni Suef,RMD,TG,Zahraa},,,
2016-03-06,3G,Delta,Beheira_Rural,RNC26,6,0.37,{MSCBC1-MSCBC2-MSCBC3-MSCBC4-MSCBC5-MSCBC6},{HQ},{Beni Suef,RMD,TG,Zahraa},,,
2016-03-06,3G,Delta,Damietta_Rural,RNC27,350,61.299999,{MSCS26-MSCS27-MSCS38-MSCS39-MSCS40},{TG},{TG},,,
2016-03-06,3G,Delta,Damyata,RNC27,177,100,{MSCS26-MSCS27-MSCS38-MSCS39-MSCS40},{TG},{TG},,,
2016-03-06,3G,Delta,Dakahleyya_Rural,RNC27,110,5.4400001,{MSCS26-MSCS27-MSCS38-MSCS39-MSCS40},{TG},{TG},,,
2016-03-06,3G,Cairo,Matarya,RNC27,59,6.9099998,{MSCS26-MSCS27-MSCS38-MSCS39-MSCS40},{TG},{TG},,,
2016-03-06,3G,Cairo,Alsalam,RNC27,112,30.110001,{MSCS26-MSCS27-MSCS38-MSCS39-MSCS40},{TG},{TG},,,
2016-03-06,3G,Cairo,Nasr City,RNC27,8,0.60000002,{MSCS26-MSCS27-MSCS38-MSCS39-MSCS40},{TG},{TG},,,
2016-03-06,3G,Cairo,5Th Gathering and Kattamya,RNC27,6,0.66000003,{MSCS26-MSCS27-MSCS38-MSCS39-MSCS40},{TG},{TG},,,
2016-03-06,3G,Cairo,Abbassyia,RNC28,27,11.95,{MSCBC1-MSCBC2-MSCBC3-MSCBC4-MSCBC5-MSCBC6},{Zahraa},{Beni Suef,RMD,TG,Zahraa},,,
2016-03-06,3G,Cairo,Shubra El-Khima,RNC28,6,0.82999998,{MSCBC1-MSCBC2-MSCBC3-MSCBC4-MSCBC5-MSCBC6},{Zahraa},{Beni Suef,RMD,TG,Zahraa},,,
2016-03-06,3G,Cairo,Dar El Salam,RNC28,43,12.29,{MSCBC1-MSCBC2-MSCBC3-MSCBC4-MSCBC5-MSCBC6},{Zahraa},{Beni Suef,RMD,TG,Zahraa},,,
2016-03-06,3G,Cairo,Down Town and Manyal,RNC28,550,54.400002,{MSCBC1-MSCBC2-MSCBC3-MSCBC4-MSCBC5-MSCBC6},{Zahraa},{Beni Suef,RMD,TG,Zahraa},,,
2016-03-06,3G,Cairo,Maadi,RNC28,41,5.4899998,{MSCBC1-MSCBC2-MSCBC3-MSCBC4-MSCBC5-MSCBC6},{Zahraa},{Beni Suef,RMD,TG,Zahraa},,,
2016-03-06,3G,Cairo,Moukattam,RNC28,45,11.25,{MSCBC1-MSCBC2-MSCBC3-MSCBC4-MSCBC5-MSCBC6},{Zahraa},{Beni Suef,RMD,TG,Zahraa},,,
2016-03-06,3G,Giza,Haram,RNC28,197,12.15,{MSCBC1-MSCBC2-MSCBC3-MSCBC4-MSCBC5-MSCBC6},{Zahraa},{Beni Suef,RMD,TG,Zahraa},,,
2016-03-06,3G,Giza,Giza Outskirts,RNC28,6,1.09,{MSCBC1-MSCBC2-MSCBC3-MSCBC4-MSCBC5-MSCBC6},{Zahraa},{Beni Suef,RMD,TG,Zahraa},,,
2016-03-06,3G,Delta,Mansoura,RNC29,9,1.4400001,{MSCBC1-MSCBC2-MSCBC3-MSCBC4-MSCBC5-MSCBC6},{RMD},{Beni Suef,RMD,TG,Zahraa},,,
2016-03-06,3G,Delta,Monufeyya_Rural,RNC29,6,0.57999998,{MSCBC1-MSCBC2-MSCBC3-MSCBC4-MSCBC5-MSCBC6},{RMD},{Beni Suef,RMD,TG,Zahraa},,,
2016-03-06,3G,Delta,Sharkeyya_Rural,RNC29,1294,61.040001,{MSCBC1-MSCBC2-MSCBC3-MSCBC4-MSCBC5-MSCBC6},{RMD},{Beni Suef,RMD,TG,Zahraa},,,
2016-03-06,3G,Delta,Zagazig,RNC29,276,100,{MSCBC1-MSCBC2-MSCBC3-MSCBC4-MSCBC5-MSCBC6},{RMD},{Beni Suef,RMD,TG,Zahraa},,,
2016-03-06,3G,Delta,Dakahleyya_Rural,RNC29,191,9.4399996,{MSCBC1-MSCBC2-MSCBC3-MSCBC4-MSCBC5-MSCBC6},{RMD},{Beni Suef,RMD,TG,Zahraa},,,
2016-03-06,3G,Delta,Damietta_Rural,RNC29,13,2.28,{MSCBC1-MSCBC2-MSCBC3-MSCBC4-MSCBC5-MSCBC6},{RMD},{Beni Suef,RMD,TG,Zahraa},,,
2016-03-06,3G,Delta,Gharbiya_Rural,RNC29,18,1.8,{MSCBC1-MSCBC2-MSCBC3-MSCBC4-MSCBC5-MSCBC6},{RMD},{Beni Suef,RMD,TG,Zahraa},,,
2016-03-06,3G,Delta,Gharbiya_Rural,RNC30,245,24.5,{MSCBC1-MSCBC2-MSCBC3-MSCBC4-MSCBC5-MSCBC6},{HQ},{Beni Suef,RMD,TG,Zahraa},,,
2016-03-06,3G,Delta,Dakahleyya_Rural,RNC30,180,8.8999996,{MSCBC1-MSCBC2-MSCBC3-MSCBC4-MSCBC5-MSCBC6},{HQ},{Beni Suef,RMD,TG,Zahraa},,,
2016-03-06,3G,Delta,Beheira_Rural,RNC30,180,11.2,{MSCBC1-MSCBC2-MSCBC3-MSCBC4-MSCBC5-MSCBC6},{HQ},{Beni Suef,RMD,TG,Zahraa},,,
2016-03-06,3G,Delta,Sharkeyya_Rural,RNC30,86,4.0599999,{MSCBC1-MSCBC2-MSCBC3-MSCBC4-MSCBC5-MSCBC6},{HQ},{Beni Suef,RMD,TG,Zahraa},,,
2016-03-06,3G,Delta,Qalyubiya_Rural,RNC30,50,5.6199999,{MSCBC1-MSCBC2-MSCBC3-MSCBC4-MSCBC5-MSCBC6},{HQ},{Beni Suef,RMD,TG,Zahraa},,,
2016-03-06,3G,Delta,Kafr El Sheikh_Rural,RNC30,298,25.709999,{MSCBC1-MSCBC2-MSCBC3-MSCBC4-MSCBC5-MSCBC6},{HQ},{Beni Suef,RMD,TG,Zahraa},,,
2016-03-06,3G,Delta,Monufeyya_Rural,RNC30,81,7.7800002,{MSCBC1-MSCBC2-MSCBC3-MSCBC4-MSCBC5-MSCBC6},{HQ},{Beni Suef,RMD,TG,Zahraa},,,
2016-03-06,3G,Cairo,Matarya,RNC31,151,17.68,{MSCBC1-MSCBC2-MSCBC3-MSCBC4-MSCBC5-MSCBC6},{Mokattam},{Beni Suef,RMD,TG,Zahraa},,,
2016-03-06,3G,Cairo,Abbassyia,RNC31,199,88.050003,{MSCBC1-MSCBC2-MSCBC3-MSCBC4-MSCBC5-MSCBC6},{Mokattam},{Beni Suef,RMD,TG,Zahraa},,,
2016-03-06,3G,Cairo,Shubra El-Khima,RNC31,257,35.549999,{MSCBC1-MSCBC2-MSCBC3-MSCBC4-MSCBC5-MSCBC6},{Mokattam},{Beni Suef,RMD,TG,Zahraa},,,
2016-03-06,3G,Cairo,Moukattam,RNC31,43,10.75,{MSCBC1-MSCBC2-MSCBC3-MSCBC4-MSCBC5-MSCBC6},{Mokattam},{Beni Suef,RMD,TG,Zahraa},,,
2016-03-06,3G,Cairo,Shubra,RNC31,27,10.51,{MSCBC1-MSCBC2-MSCBC3-MSCBC4-MSCBC5-MSCBC6},{Mokattam},{Beni Suef,RMD,TG,Zahraa},,,
2016-03-06,3G,Cairo,Nasr City,RNC31,137,10.29,{MSCBC1-MSCBC2-MSCBC3-MSCBC4-MSCBC5-MSCBC6},{Mokattam},{Beni Suef,RMD,TG,Zahraa},,,
2016-03-06,3G,Cairo,Zaitoun and Qubba,RNC31,111,41.889999,{MSCBC1-MSCBC2-MSCBC3-MSCBC4-MSCBC5-MSCBC6},{Mokattam},{Beni Suef,RMD,TG,Zahraa},,,
2016-03-06,3G,Cairo,Alsalam,RNC32,9,2.4200001,{MSCBC1-MSCBC2-MSCBC3-MSCBC4-MSCBC5-MSCBC6},{TG},{Beni Suef,RMD,TG,Zahraa},,,
2016-03-06,3G,Delta,Qalyubiya_Rural,RNC32,7,0.79000002,{MSCBC1-MSCBC2-MSCBC3-MSCBC4-MSCBC5-MSCBC6},{TG},{Beni Suef,RMD,TG,Zahraa},,,
2016-03-06,3G,Delta,Sharkeyya_Rural,RNC32,8,0.38,{MSCBC1-MSCBC2-MSCBC3-MSCBC4-MSCBC5-MSCBC6},{TG},{Beni Suef,RMD,TG,Zahraa},,,
2016-03-06,3G,Giza,Haram,RNC32,651,40.139999,{MSCBC1-MSCBC2-MSCBC3-MSCBC4-MSCBC5-MSCBC6},{TG},{Beni Suef,RMD,TG,Zahraa},,,
2016-03-06,3G,Giza,Kerdasa and Mansoraya,RNC32,6,1.75,{MSCBC1-MSCBC2-MSCBC3-MSCBC4-MSCBC5-MSCBC6},{TG},{Beni Suef,RMD,TG,Zahraa},,,
2016-03-06,3G,Giza,Haram,RNC33,9,0.55000001,{MSCBC1-MSCBC2-MSCBC3-MSCBC4-MSCBC5-MSCBC6},{TG},{Beni Suef,RMD,TG,Zahraa},,,
2016-03-06,3G,Giza,Kerdasa and Mansoraya,RNC33,57,16.620001,{MSCBC1-MSCBC2-MSCBC3-MSCBC4-MSCBC5-MSCBC6},{TG},{Beni Suef,RMD,TG,Zahraa},,,
2016-03-06,3G,Giza,Mouhandseen,RNC33,772,98.089996,{MSCBC1-MSCBC2-MSCBC3-MSCBC4-MSCBC5-MSCBC6},{TG},{Beni Suef,RMD,TG,Zahraa},,,
2016-03-06,3G,Giza,October,RNC33,11,0.89999998,{MSCBC1-MSCBC2-MSCBC3-MSCBC4-MSCBC5-MSCBC6},{TG},{Beni Suef,RMD,TG,Zahraa},,,
2016-03-06,3G,Giza,Imbaba,RNC33,357,64.559998,{MSCBC1-MSCBC2-MSCBC3-MSCBC4-MSCBC5-MSCBC6},{TG},{Beni Suef,RMD,TG,Zahraa},,,
2016-03-06,3G,Giza,Boulaq,RNC33,484,98.779999,{MSCBC1-MSCBC2-MSCBC3-MSCBC4-MSCBC5-MSCBC6},{TG},{Beni Suef,RMD,TG,Zahraa},,,
2016-03-06,3G,Delta,Qalyubiya_Rural,RNC33,24,2.7,{MSCBC1-MSCBC2-MSCBC3-MSCBC4-MSCBC5-MSCBC6},{TG},{Beni Suef,RMD,TG,Zahraa},,,
2016-03-06,3G,Cairo,Alsalam,RNC33,138,37.099998,{MSCBC1-MSCBC2-MSCBC3-MSCBC4-MSCBC5-MSCBC6},{TG},{Beni Suef,RMD,TG,Zahraa},,,
2016-03-06,3G,Cairo,Airport,RNC33,12,10.62,{MSCBC1-MSCBC2-MSCBC3-MSCBC4-MSCBC5-MSCBC6},{TG},{Beni Suef,RMD,TG,Zahraa},,,
2016-03-06,3G,Cairo,Matarya,RNC33,30,3.51,{MSCBC1-MSCBC2-MSCBC3-MSCBC4-MSCBC5-MSCBC6},{TG},{Beni Suef,RMD,TG,Zahraa},,,
2016-03-06,3G,Cairo,Matarya,RNC34,198,23.190001,{MSCBC1-MSCBC2-MSCBC3-MSCBC4-MSCBC5-MSCBC6},{Zahraa},{Beni Suef,RMD,TG,Zahraa},,,
2016-03-06,3G,Cairo,Heliopolis and Nozha,RNC34,6,0.67000002,{MSCBC1-MSCBC2-MSCBC3-MSCBC4-MSCBC5-MSCBC6},{Zahraa},{Beni Suef,RMD,TG,Zahraa},,,
2016-03-06,3G,Cairo,Nasr City,RNC34,12,0.89999998,{MSCBC1-MSCBC2-MSCBC3-MSCBC4-MSCBC5-MSCBC6},{Zahraa},{Beni Suef,RMD,TG,Zahraa},,,
2016-03-06,3G,Cairo,Shubra El-Khima,RNC34,69,9.54,{MSCBC1-MSCBC2-MSCBC3-MSCBC4-MSCBC5-MSCBC6},{Zahraa},{Beni Suef,RMD,TG,Zahraa},,,
2016-03-06,3G,Delta,Monufeyya_Rural,RNC34,111,10.66,{MSCBC1-MSCBC2-MSCBC3-MSCBC4-MSCBC5-MSCBC6},{Zahraa},{Beni Suef,RMD,TG,Zahraa},,,
2016-03-06,3G,Delta,Shibin,RNC34,206,100,{MSCBC1-MSCBC2-MSCBC3-MSCBC4-MSCBC5-MSCBC6},{Zahraa},{Beni Suef,RMD,TG,Zahraa},,,
2016-03-06,3G,Delta,Qalyubiya_Rural,RNC34,234,26.290001,{MSCBC1-MSCBC2-MSCBC3-MSCBC4-MSCBC5-MSCBC6},{Zahraa},{Beni Suef,RMD,TG,Zahraa},,,
2016-03-06,3G,Giza,Shubra and Imbaba Outskirts,RNC34,98,89.089996,{MSCBC1-MSCBC2-MSCBC3-MSCBC4-MSCBC5-MSCBC6},{Zahraa},{Beni Suef,RMD,TG,Zahraa},,,
2016-03-06,3G,Cairo,Nasr City,RNC35,273,20.5,{MSCBC1-MSCBC2-MSCBC3-MSCBC4-MSCBC5-MSCBC6},{Mokattam},{Beni Suef,RMD,TG,Zahraa},,,
2016-03-06,3G,Cairo,Hadabah Wostah,RNC35,210,86.419998,{MSCBC1-MSCBC2-MSCBC3-MSCBC4-MSCBC5-MSCBC6},{Mokattam},{Beni Suef,RMD,TG,Zahraa},,,
2016-03-06,3G,Cairo,Maadi,RNC35,33,4.4200001,{MSCBC1-MSCBC2-MSCBC3-MSCBC4-MSCBC5-MSCBC6},{Mokattam},{Beni Suef,RMD,TG,Zahraa},,,
2016-03-06,3G,Cairo,Moukattam,RNC35,300,75,{MSCBC1-MSCBC2-MSCBC3-MSCBC4-MSCBC5-MSCBC6},{Mokattam},{Beni Suef,RMD,TG,Zahraa},,,
2016-03-06,3G,Cairo,Dar El Salam,RNC35,57,16.290001,{MSCBC1-MSCBC2-MSCBC3-MSCBC4-MSCBC5-MSCBC6},{Mokattam},{Beni Suef,RMD,TG,Zahraa},,,
2016-03-06,3G,Delta,Dakahleyya_Rural,RNC36,532,26.299999,{MSCBC1-MSCBC2-MSCBC3-MSCBC4-MSCBC5-MSCBC6},{RMD},{Beni Suef,RMD,TG,Zahraa},,,
2016-03-06,3G,Delta,Sharkeyya_Rural,RNC36,462,21.790001,{MSCBC1-MSCBC2-MSCBC3-MSCBC4-MSCBC5-MSCBC6},{RMD},{Beni Suef,RMD,TG,Zahraa},,,
2016-03-06,3G,Delta,Qalyubiya_Rural,RNC36,18,2.02,{MSCBC1-MSCBC2-MSCBC3-MSCBC4-MSCBC5-MSCBC6},{RMD},{Beni Suef,RMD,TG,Zahraa},,,
2016-03-06,3G,Delta,Monufeyya_Rural,RNC36,15,1.4400001,{MSCBC1-MSCBC2-MSCBC3-MSCBC4-MSCBC5-MSCBC6},{RMD},{Beni Suef,RMD,TG,Zahraa},,,
2016-03-06,3G,Delta,Mansoura,RNC36,10,1.6,{MSCBC1-MSCBC2-MSCBC3-MSCBC4-MSCBC5-MSCBC6},{RMD},{Beni Suef,RMD,TG,Zahraa},,,
2016-03-06,3G,Delta,Kafr El Sheikh_Rural,RNC37,56,4.8299999,{MSCS14-MSCS15-MSCS28-MSCS42-MSCS59-MSCS9},{Alex},{Alex},,,
2016-03-06,3G,Alexandria,Alex Desert Road,RNC37,23,3.29,{MSCS14-MSCS15-MSCS28-MSCS42-MSCS59-MSCS9},{Alex},{Alex},,,
2016-03-06,3G,Alexandria,Alex_1,RNC37,693,98.720001,{MSCS14-MSCS15-MSCS28-MSCS42-MSCS59-MSCS9},{Alex},{Alex},,,
2016-03-06,3G,Alexandria,Alex_2,RNC37,379,61.529999,{MSCS14-MSCS15-MSCS28-MSCS42-MSCS59-MSCS9},{Alex},{Alex},,,
2016-03-06,3G,Alexandria,North Coast East,RNC37,1,7.9999998E-2,{MSCS14-MSCS15-MSCS28-MSCS42-MSCS59-MSCS9},{Alex},{Alex},,,
2016-03-06,3G,Alexandria,Alex_3,RNC37,167,41.130001,{MSCS14-MSCS15-MSCS28-MSCS42-MSCS59-MSCS9},{Alex},{Alex},,,
2016-03-06,3G,Delta,Gharbiya_Rural,RNC38,665,66.5,{MSCBC1-MSCBC2-MSCBC3-MSCBC4-MSCBC5-MSCBC6},{HQ},{Beni Suef,RMD,TG,Zahraa},,,
2016-03-06,3G,Delta,Mahala,RNC38,6,2.3299999,{MSCBC1-MSCBC2-MSCBC3-MSCBC4-MSCBC5-MSCBC6},{HQ},{Beni Suef,RMD,TG,Zahraa},,,
2016-03-06,3G,Delta,Kafr El Sheikh_Rural,RNC38,48,4.1399999,{MSCBC1-MSCBC2-MSCBC3-MSCBC4-MSCBC5-MSCBC6},{HQ},{Beni Suef,RMD,TG,Zahraa},,,
2016-03-06,3G,Delta,Dakahleyya_Rural,RNC38,9,0.44,{MSCBC1-MSCBC2-MSCBC3-MSCBC4-MSCBC5-MSCBC6},{HQ},{Beni Suef,RMD,TG,Zahraa},,,
2016-03-06,3G,Delta,Beheira_Rural,RNC38,164,10.21,{MSCBC1-MSCBC2-MSCBC3-MSCBC4-MSCBC5-MSCBC6},{HQ},{Beni Suef,RMD,TG,Zahraa},,,
2016-03-06,3G,Delta,Monufeyya_Rural,RNC38,595,57.16,{MSCBC1-MSCBC2-MSCBC3-MSCBC4-MSCBC5-MSCBC6},{HQ},{Beni Suef,RMD,TG,Zahraa},,,
2016-03-06,3G,Delta,Qalyubiya_Rural,RNC38,6,0.67000002,{MSCBC1-MSCBC2-MSCBC3-MSCBC4-MSCBC5-MSCBC6},{HQ},{Beni Suef,RMD,TG,Zahraa},,,
2016-03-06,3G,Delta,Tanta,RNC38,251,100,{MSCBC1-MSCBC2-MSCBC3-MSCBC4-MSCBC5-MSCBC6},{HQ},{Beni Suef,RMD,TG,Zahraa},,,
2016-03-06,3G,Giza,Giza Outskirts,RNC39,89,16.209999,{MSCBC1-MSCBC2-MSCBC3-MSCBC4-MSCBC5-MSCBC6},{Zahraa},{Beni Suef,RMD,TG,Zahraa},,,
2016-03-06,3G,Giza,Haram,RNC39,6,0.37,{MSCBC1-MSCBC2-MSCBC3-MSCBC4-MSCBC5-MSCBC6},{Zahraa},{Beni Suef,RMD,TG,Zahraa},,,
2016-03-06,3G,Cairo,Hadabah Wostah,RNC39,33,13.58,{MSCBC1-MSCBC2-MSCBC3-MSCBC4-MSCBC5-MSCBC6},{Zahraa},{Beni Suef,RMD,TG,Zahraa},,,
2016-03-06,3G,Cairo,Dar El Salam,RNC39,250,71.43,{MSCBC1-MSCBC2-MSCBC3-MSCBC4-MSCBC5-MSCBC6},{Zahraa},{Beni Suef,RMD,TG,Zahraa},,,
2016-03-06,3G,Cairo,Maadi,RNC39,433,57.970001,{MSCBC1-MSCBC2-MSCBC3-MSCBC4-MSCBC5-MSCBC6},{Zahraa},{Beni Suef,RMD,TG,Zahraa},,,
2016-03-06,3G,Alexandria,Alex_2,RNC39,4,0.64999998,{MSCBC1-MSCBC2-MSCBC3-MSCBC4-MSCBC5-MSCBC6},{Zahraa},{Beni Suef,RMD,TG,Zahraa},,,
2016-03-06,3G,Alexandria,Alex Desert Road,RNC40,12,1.71,,,,,,
2016-03-06,3G,Delta,Dakahleyya_Rural,RNC40,504,24.91,,,,,,
2016-03-06,3G,Delta,Mansoura,RNC40,385,61.700001,,,,,,
2016-03-06,3G,Delta,Gharbiya_Rural,RNC40,42,4.1999998,,,,,,
2016-03-06,3G,Delta,Kafr El Sheikh_Rural,RNC40,311,26.83,,,,,,
2016-03-06,3G,Cairo,Matarya,RNC41,246,28.809999,{MSCBC1-MSCBC2-MSCBC3-MSCBC4-MSCBC5-MSCBC6},{Zahraa},{Beni Suef,RMD,TG,Zahraa},,,
2016-03-06,3G,Cairo,Alsalam,RNC41,15,4.0300002,{MSCBC1-MSCBC2-MSCBC3-MSCBC4-MSCBC5-MSCBC6},{Zahraa},{Beni Suef,RMD,TG,Zahraa},,,
2016-03-06,3G,Cairo,Down Town and Manyal,RNC41,460,45.5,{MSCBC1-MSCBC2-MSCBC3-MSCBC4-MSCBC5-MSCBC6},{Zahraa},{Beni Suef,RMD,TG,Zahraa},,,
2016-03-06,3G,Cairo,Shubra El-Khima,RNC41,382,52.84,{MSCBC1-MSCBC2-MSCBC3-MSCBC4-MSCBC5-MSCBC6},{Zahraa},{Beni Suef,RMD,TG,Zahraa},,,
2016-03-06,3G,Cairo,Shubra,RNC41,230,89.489998,{MSCBC1-MSCBC2-MSCBC3-MSCBC4-MSCBC5-MSCBC6},{Zahraa},{Beni Suef,RMD,TG,Zahraa},,,
2016-03-06,3G,Cairo,Zamalek,RNC41,154,100,{MSCBC1-MSCBC2-MSCBC3-MSCBC4-MSCBC5-MSCBC6},{Zahraa},{Beni Suef,RMD,TG,Zahraa},,,
2016-03-06,3G,Cairo,Ain Shams,RNC41,82,30.940001,{MSCBC1-MSCBC2-MSCBC3-MSCBC4-MSCBC5-MSCBC6},{Zahraa},{Beni Suef,RMD,TG,Zahraa},,,
2016-03-06,3G,Giza,Imbaba,RNC41,24,4.3400002,{MSCBC1-MSCBC2-MSCBC3-MSCBC4-MSCBC5-MSCBC6},{Zahraa},{Beni Suef,RMD,TG,Zahraa},,,
2016-03-06,3G,Giza,Mouhandseen,RNC41,9,1.14,{MSCBC1-MSCBC2-MSCBC3-MSCBC4-MSCBC5-MSCBC6},{Zahraa},{Beni Suef,RMD,TG,Zahraa},,,
2016-03-06,3G,Delta,Qalyubiya_Rural,RNC41,18,2.02,{MSCBC1-MSCBC2-MSCBC3-MSCBC4-MSCBC5-MSCBC6},{Zahraa},{Beni Suef,RMD,TG,Zahraa},,,
2016-03-06,3G,Cairo,Ain Shams,RNC42,24,9.0600004,{MSCBC1-MSCBC2-MSCBC3-MSCBC4-MSCBC5-MSCBC6},{Mokattam},{Beni Suef,RMD,TG,Zahraa},,,
2016-03-06,3G,Cairo,Shubra El-Khima,RNC42,9,1.24,{MSCBC1-MSCBC2-MSCBC3-MSCBC4-MSCBC5-MSCBC6},{Mokattam},{Beni Suef,RMD,TG,Zahraa},,,
2016-03-06,3G,Cairo,Zaitoun and Qubba,RNC42,154,58.110001,{MSCBC1-MSCBC2-MSCBC3-MSCBC4-MSCBC5-MSCBC6},{Mokattam},{Beni Suef,RMD,TG,Zahraa},,,
2016-03-06,3G,Cairo,Nasr City,RNC42,498,37.389999,{MSCBC1-MSCBC2-MSCBC3-MSCBC4-MSCBC5-MSCBC6},{Mokattam},{Beni Suef,RMD,TG,Zahraa},,,
2016-03-06,3G,Cairo,Heliopolis and Nozha,RNC42,642,71.330002,{MSCBC1-MSCBC2-MSCBC3-MSCBC4-MSCBC5-MSCBC6},{Mokattam},{Beni Suef,RMD,TG,Zahraa},,,
2016-03-06,3G,Cairo,Alsalam,RNC42,33,8.8699999,{MSCBC1-MSCBC2-MSCBC3-MSCBC4-MSCBC5-MSCBC6},{Mokattam},{Beni Suef,RMD,TG,Zahraa},,,
2016-03-06,3G,Cairo,Airport,RNC42,101,89.379997,{MSCBC1-MSCBC2-MSCBC3-MSCBC4-MSCBC5-MSCBC6},{Mokattam},{Beni Suef,RMD,TG,Zahraa},,,
2016-03-06,3G,Delta,Kafr El Sheikh_Rural,RNC43,192,16.57,,,,,,
2016-03-06,3G,Delta,Dakahleyya_Rural,RNC43,58,2.8699999,,,,,,
2016-03-06,3G,Giza,Kerdasa and Mansoraya,RNC43,48,13.99,,,,,,
2016-03-06,3G,Giza,Haram,RNC43,759,46.790001,,,,,,
2016-03-06,3G,Giza,Giza Outskirts,RNC43,24,4.3699999,,,,,,
2016-03-06,3G,Cairo,Heliopolis and Nozha,RNC44,232,25.780001,,,,,,
2016-03-06,3G,Cairo,Matarya,RNC44,93,10.89,,,,,,
2016-03-06,3G,Cairo,Ain Shams,RNC44,159,60,,,,,,
2016-03-06,3G,Delta,Dakahleyya_Rural,RNC45,141,6.9699998,,,,,,
2016-03-06,3G,Delta,Sharkeyya_Rural,RNC45,20,0.94,,,,,,
2016-03-06,3G,Delta,Qalyubiya_Rural,RNC46,64,7.1900001,,,,,,
2016-03-06,3G,Delta,Sharkeyya_Rural,RNC48,23,1.08,,,,,,
2016-03-06,3G,Delta,Monufeyya_Rural,RNC48,109,10.47,,,,,,
2016-03-06,3G,Delta,Qalyubiya_Rural,RNC48,389,43.709999,,,,,,
2016-03-06,3G,Upper Egypt,Aswan,RNCH01,199,100,{MSCBC1-MSCBC2-MSCBC3-MSCBC4-MSCBC5-MSCBC6},{Beni Suef},{Beni Suef,RMD,TG,Zahraa},,,
2016-03-06,3G,Upper Egypt,Asyut_Rural,RNCH01,399,95.68,{MSCBC1-MSCBC2-MSCBC3-MSCBC4-MSCBC5-MSCBC6},{Beni Suef},{Beni Suef,RMD,TG,Zahraa},,,
2016-03-06,3G,Upper Egypt,Bani Sweif_Rural,RNCH01,3,1.0700001,{MSCBC1-MSCBC2-MSCBC3-MSCBC4-MSCBC5-MSCBC6},{Beni Suef},{Beni Suef,RMD,TG,Zahraa},,,
2016-03-06,3G,Upper Egypt,Aswan_Rural,RNCH01,63,25.299999,{MSCBC1-MSCBC2-MSCBC3-MSCBC4-MSCBC5-MSCBC6},{Beni Suef},{Beni Suef,RMD,TG,Zahraa},,,
2016-03-06,3G,Upper Egypt,Asyut,RNCH01,290,100,{MSCBC1-MSCBC2-MSCBC3-MSCBC4-MSCBC5-MSCBC6},{Beni Suef},{Beni Suef,RMD,TG,Zahraa},,,
2016-03-06,3G,Upper Egypt,Fayoum_Rural,RNCH01,116,25.110001,{MSCBC1-MSCBC2-MSCBC3-MSCBC4-MSCBC5-MSCBC6},{Beni Suef},{Beni Suef,RMD,TG,Zahraa},,,
2016-03-06,3G,Upper Egypt,Minia_Rural,RNCH01,27,6.1900001,{MSCBC1-MSCBC2-MSCBC3-MSCBC4-MSCBC5-MSCBC6},{Beni Suef},{Beni Suef,RMD,TG,Zahraa},,,
2016-03-06,3G,Upper Egypt,New Valley_Rural,RNCH01,7,14,{MSCBC1-MSCBC2-MSCBC3-MSCBC4-MSCBC5-MSCBC6},{Beni Suef},{Beni Suef,RMD,TG,Zahraa},,,
2016-03-06,3G,Upper Egypt,Souhag_Rural,RNCH01,21,7.27,{MSCBC1-MSCBC2-MSCBC3-MSCBC4-MSCBC5-MSCBC6},{Beni Suef},{Beni Suef,RMD,TG,Zahraa},,,
2016-03-06,3G,Upper Egypt,New Valley_Rural,RNCH02,14,28,{MSCS1-MSCS2-MSCS3-MSCS20-MSCS21-MSCS29-MSCS30},{Beni Suef},{HQ},,,
2016-03-06,3G,Upper Egypt,Qena_Rural,RNCH02,101,27.6,{MSCS1-MSCS2-MSCS3-MSCS20-MSCS21-MSCS29-MSCS30},{Beni Suef},{HQ},,,
2016-03-06,3G,Upper Egypt,Luxor,RNCH02,249,100,{MSCS1-MSCS2-MSCS3-MSCS20-MSCS21-MSCS29-MSCS30},{Beni Suef},{HQ},,,
2016-03-06,3G,Upper Egypt,Luxor_Rural,RNCH02,171,100,{MSCS1-MSCS2-MSCS3-MSCS20-MSCS21-MSCS29-MSCS30},{Beni Suef},{HQ},,,
2016-03-06,3G,Upper Egypt,Minia_Rural,RNCH02,6,1.38,{MSCS1-MSCS2-MSCS3-MSCS20-MSCS21-MSCS29-MSCS30},{Beni Suef},{HQ},,,
2016-03-06,3G,Upper Egypt,Minya,RNCH02,185,100,{MSCS1-MSCS2-MSCS3-MSCS20-MSCS21-MSCS29-MSCS30},{Beni Suef},{HQ},,,
2016-03-06,3G,Upper Egypt,New Valley,RNCH02,24,100,{MSCS1-MSCS2-MSCS3-MSCS20-MSCS21-MSCS29-MSCS30},{Beni Suef},{HQ},,,
2016-03-06,3G,Upper Egypt,Aswan_Rural,RNCH02,186,74.699997,{MSCS1-MSCS2-MSCS3-MSCS20-MSCS21-MSCS29-MSCS30},{Beni Suef},{HQ},,,
2016-03-06,3G,Canal,Ras Ghareb,RNCH02,51,50,{MSCS1-MSCS2-MSCS3-MSCS20-MSCS21-MSCS29-MSCS30},{Beni Suef},{HQ},,,
2016-03-06,3G,Canal,Red Sea North_Rural,RNCH02,24,20.51,{MSCS1-MSCS2-MSCS3-MSCS20-MSCS21-MSCS29-MSCS30},{Beni Suef},{HQ},,,
2016-03-06,3G,Canal,El-Sukhna,RNCH02,372,69.019997,{MSCS1-MSCS2-MSCS3-MSCS20-MSCS21-MSCS29-MSCS30},{Beni Suef},{HQ},,,
2016-03-06,3G,Canal,Nuweiba,RNCH03,23,100,{MSCS50-MSCS51-MSCS52-MSCS53-MSCS54-MSCS55},{RMD},{Beni Suef,RMD},,,
2016-03-06,3G,Canal,Dahab,RNCH03,39,100,{MSCS50-MSCS51-MSCS52-MSCS53-MSCS54-MSCS55},{RMD},{Beni Suef,RMD},,,
2016-03-06,3G,Canal,Ismailia,RNCH03,304,100,{MSCS50-MSCS51-MSCS52-MSCS53-MSCS54-MSCS55},{RMD},{Beni Suef,RMD},,,
2016-03-06,3G,Canal,Ismailia Rural,RNCH03,92,60.529999,{MSCS50-MSCS51-MSCS52-MSCS53-MSCS54-MSCS55},{RMD},{Beni Suef,RMD},,,
2016-03-06,3G,Canal,Red Sea North_Rural,RNCH03,19,16.24,{MSCS50-MSCS51-MSCS52-MSCS53-MSCS54-MSCS55},{RMD},{Beni Suef,RMD},,,
2016-03-06,3G,Canal,Sinai South_Rural,RNCH03,14,9.3999996,{MSCS50-MSCS51-MSCS52-MSCS53-MSCS54-MSCS55},{RMD},{Beni Suef,RMD},,,
2016-03-06,3G,Canal,Suez,RNCH03,508,100,{MSCS50-MSCS51-MSCS52-MSCS53-MSCS54-MSCS55},{RMD},{Beni Suef,RMD},,,
2016-03-06,3G,Canal,Suez Rural,RNCH03,10,100,{MSCS50-MSCS51-MSCS52-MSCS53-MSCS54-MSCS55},{RMD},{Beni Suef,RMD},,,
2016-03-06,3G,Canal,Taba,RNCH03,18,75,{MSCS50-MSCS51-MSCS52-MSCS53-MSCS54-MSCS55},{RMD},{Beni Suef,RMD},,,
2016-03-06,3G,Canal,Portsaid Rural,RNCH03,9,10.59,{MSCS50-MSCS51-MSCS52-MSCS53-MSCS54-MSCS55},{RMD},{Beni Suef,RMD},,,
2016-03-06,3G,Upper Egypt,New Valley_Rural,RNCH03,3,6,{MSCS50-MSCS51-MSCS52-MSCS53-MSCS54-MSCS55},{RMD},{Beni Suef,RMD},,,
2016-03-06,3G,Canal,Taba,RNCH04,6,25,{MSCS50-MSCS51-MSCS52-MSCS53-MSCS54-MSCS55},{RMD},{Beni Suef,RMD},,,
2016-03-06,3G,Canal,Red Sea North_Rural,RNCH04,33,28.209999,{MSCS50-MSCS51-MSCS52-MSCS53-MSCS54-MSCS55},{RMD},{Beni Suef,RMD},,,
2016-03-06,3G,Canal,Sharm El-Shiekh,RNCH04,664,100,{MSCS50-MSCS51-MSCS52-MSCS53-MSCS54-MSCS55},{RMD},{Beni Suef,RMD},,,
2016-03-06,3G,Canal,Sinai North_Rural,RNCH04,18,22.5,{MSCS50-MSCS51-MSCS52-MSCS53-MSCS54-MSCS55},{RMD},{Beni Suef,RMD},,,
2016-03-06,3G,Canal,Sinai South_Rural,RNCH04,18,12.08,{MSCS50-MSCS51-MSCS52-MSCS53-MSCS54-MSCS55},{RMD},{Beni Suef,RMD},,,
2016-03-06,3G,Canal,El-Sukhna,RNCH04,167,30.98,{MSCS50-MSCS51-MSCS52-MSCS53-MSCS54-MSCS55},{RMD},{Beni Suef,RMD},,,
2016-03-06,3G,Canal,Hurghada,RNCH05,887,100,{MSCBC1-MSCBC2-MSCBC3-MSCBC4-MSCBC5-MSCBC6},{Beni Suef},{Beni Suef,RMD,TG,Zahraa},,,
2016-03-06,3G,Canal,El-Gouna,RNCH05,80,100,{MSCBC1-MSCBC2-MSCBC3-MSCBC4-MSCBC5-MSCBC6},{Beni Suef},{Beni Suef,RMD,TG,Zahraa},,,
2016-03-06,3G,Canal,Red Sea South_Rural,RNCH05,50,21.549999,{MSCBC1-MSCBC2-MSCBC3-MSCBC4-MSCBC5-MSCBC6},{Beni Suef},{Beni Suef,RMD,TG,Zahraa},,,
2016-03-06,3G,Canal,Safaga,RNCH05,39,100,{MSCBC1-MSCBC2-MSCBC3-MSCBC4-MSCBC5-MSCBC6},{Beni Suef},{Beni Suef,RMD,TG,Zahraa},,,
2016-03-06,3G,Canal,Red Sea North_Rural,RNCH05,14,11.97,{MSCBC1-MSCBC2-MSCBC3-MSCBC4-MSCBC5-MSCBC6},{Beni Suef},{Beni Suef,RMD,TG,Zahraa},,,
2016-03-06,3G,Canal,Ras Ghareb,RNCH05,28,27.450001,{MSCBC1-MSCBC2-MSCBC3-MSCBC4-MSCBC5-MSCBC6},{Beni Suef},{Beni Suef,RMD,TG,Zahraa},,,
2016-03-06,3G,Upper Egypt,Minia_Rural,RNCH05,212,48.619999,{MSCBC1-MSCBC2-MSCBC3-MSCBC4-MSCBC5-MSCBC6},{Beni Suef},{Beni Suef,RMD,TG,Zahraa},,,
2016-03-06,3G,Upper Egypt,Fayoum_Rural,RNCH05,102,22.08,{MSCBC1-MSCBC2-MSCBC3-MSCBC4-MSCBC5-MSCBC6},{Beni Suef},{Beni Suef,RMD,TG,Zahraa},,,
2016-03-06,3G,Upper Egypt,Asyut_Rural,RNCH05,18,4.3200002,{MSCBC1-MSCBC2-MSCBC3-MSCBC4-MSCBC5-MSCBC6},{Beni Suef},{Beni Suef,RMD,TG,Zahraa},,,
2016-03-06,3G,Upper Egypt,Minia_Rural,RNCH06,148,33.939999,{MSCBC1-MSCBC2-MSCBC3-MSCBC4-MSCBC5-MSCBC6},{Beni Suef},{Beni Suef,RMD,TG,Zahraa},,,
2016-03-06,3G,Upper Egypt,Qena_Rural,RNCH06,265,72.400002,{MSCBC1-MSCBC2-MSCBC3-MSCBC4-MSCBC5-MSCBC6},{Beni Suef},{Beni Suef,RMD,TG,Zahraa},,,
2016-03-06,3G,Upper Egypt,Quina,RNCH06,135,100,{MSCBC1-MSCBC2-MSCBC3-MSCBC4-MSCBC5-MSCBC6},{Beni Suef},{Beni Suef,RMD,TG,Zahraa},,,
2016-03-06,3G,Upper Egypt,Sohag,RNCH06,154,100,{MSCBC1-MSCBC2-MSCBC3-MSCBC4-MSCBC5-MSCBC6},{Beni Suef},{Beni Suef,RMD,TG,Zahraa},,,
2016-03-06,3G,Upper Egypt,Souhag_Rural,RNCH06,268,92.730003,{MSCBC1-MSCBC2-MSCBC3-MSCBC4-MSCBC5-MSCBC6},{Beni Suef},{Beni Suef,RMD,TG,Zahraa},,,
2016-03-06,3G,Canal,Red Sea North_Rural,RNCH06,2,1.71,{MSCBC1-MSCBC2-MSCBC3-MSCBC4-MSCBC5-MSCBC6},{Beni Suef},{Beni Suef,RMD,TG,Zahraa},,,
2016-03-06,3G,Canal,Red Sea South_Rural,RNCH06,182,78.449997,{MSCBC1-MSCBC2-MSCBC3-MSCBC4-MSCBC5-MSCBC6},{Beni Suef},{Beni Suef,RMD,TG,Zahraa},,,
2016-03-06,3G,Canal,El-Qosseir,RNCH06,36,100,{MSCBC1-MSCBC2-MSCBC3-MSCBC4-MSCBC5-MSCBC6},{Beni Suef},{Beni Suef,RMD,TG,Zahraa},,,
2016-03-06,3G,Canal,Marsa Allam,RNCH06,45,100,{MSCBC1-MSCBC2-MSCBC3-MSCBC4-MSCBC5-MSCBC6},{Beni Suef},{Beni Suef,RMD,TG,Zahraa},,,
2016-03-06,3G,Alexandria,North Coast East,RNCH08,627,52.91,{MSCBC1-MSCBC2-MSCBC3-MSCBC4-MSCBC5-MSCBC6},{Alex},{Beni Suef,RMD,TG,Zahraa},,,
2016-03-06,3G,Alexandria,North Coast West,RNCH08,705,90.5,{MSCBC1-MSCBC2-MSCBC3-MSCBC4-MSCBC5-MSCBC6},{Alex},{Beni Suef,RMD,TG,Zahraa},,,
2016-03-06,3G,Cairo,10Th Of Ramadan,RNCH08,2,0.31,{MSCBC1-MSCBC2-MSCBC3-MSCBC4-MSCBC5-MSCBC6},{Alex},{Beni Suef,RMD,TG,Zahraa},,,
2016-03-06,3G,Alexandria,Alex_3,RNCH08,30,7.3899999,{MSCBC1-MSCBC2-MSCBC3-MSCBC4-MSCBC5-MSCBC6},{Alex},{Beni Suef,RMD,TG,Zahraa},,,
2016-03-06,3G,Alexandria,Alex_4,RNCH08,353,93.629997,{MSCBC1-MSCBC2-MSCBC3-MSCBC4-MSCBC5-MSCBC6},{Alex},{Beni Suef,RMD,TG,Zahraa},,,
2016-03-06,3G,Alexandria,North Coast East,RNCH09,557,47,{MSCS14-MSCS15-MSCS28-MSCS42-MSCS59-MSCS9},{Alex},{Alex},,,
2016-03-06,3G,Alexandria,Alex_4,RNCH09,24,6.3699999,{MSCS14-MSCS15-MSCS28-MSCS42-MSCS59-MSCS9},{Alex},{Alex},,,
2016-03-06,3G,Alexandria,Alex_3,RNCH09,10,2.46,{MSCS14-MSCS15-MSCS28-MSCS42-MSCS59-MSCS9},{Alex},{Alex},,,
2016-03-06,3G,Alexandria,North Coast West,RNCH09,74,9.5,{MSCS14-MSCS15-MSCS28-MSCS42-MSCS59-MSCS9},{Alex},{Alex},,,
2016-03-06,3G,Alexandria,Alex Desert Road,RNCH09,658,94,{MSCS14-MSCS15-MSCS28-MSCS42-MSCS59-MSCS9},{Alex},{Alex},,,
2016-03-06,3G,Cairo,Down Town and Manyal,RNCH09,1,0.1,{MSCS14-MSCS15-MSCS28-MSCS42-MSCS59-MSCS9},{Alex},{Alex},,,
2016-03-06,3G,Delta,Beheira_Rural,RNCH09,9,0.56,{MSCS14-MSCS15-MSCS28-MSCS42-MSCS59-MSCS9},{Alex},{Alex},,,
2016-03-06,3G,Giza,Alex Desert Road (Giza),RNCH09,7,6.0300002,{MSCS14-MSCS15-MSCS28-MSCS42-MSCS59-MSCS9},{Alex},{Alex},,,
2016-03-06,3G,Canal,Portsaid,RNCH10,347,100,{MSCBC1-MSCBC2-MSCBC3-MSCBC4-MSCBC5-MSCBC6},{RMD},{Beni Suef,RMD,TG,Zahraa},,,
2016-03-06,3G,Canal,Portsaid Rural,RNCH10,33,38.82,{MSCBC1-MSCBC2-MSCBC3-MSCBC4-MSCBC5-MSCBC6},{RMD},{Beni Suef,RMD,TG,Zahraa},,,
2016-03-06,3G,Cairo,10Th Of Ramadan,RNCH10,6,0.93000001,{MSCBC1-MSCBC2-MSCBC3-MSCBC4-MSCBC5-MSCBC6},{RMD},{Beni Suef,RMD,TG,Zahraa},,,
2016-03-06,3G,Cairo,5Th Gathering and Kattamya,RNCH11,410,45.009998,{MSCBC1-MSCBC2-MSCBC3-MSCBC4-MSCBC5-MSCBC6},{TG},{Beni Suef,RMD,TG,Zahraa},,,
2016-03-06,3G,Cairo,1St Gathering,RNCH11,649,61.459999,{MSCBC1-MSCBC2-MSCBC3-MSCBC4-MSCBC5-MSCBC6},{TG},{Beni Suef,RMD,TG,Zahraa},,,
2016-03-06,3G,Cairo,Moukattam,RNCH11,12,3,{MSCBC1-MSCBC2-MSCBC3-MSCBC4-MSCBC5-MSCBC6},{TG},{Beni Suef,RMD,TG,Zahraa},,,
2016-03-06,3G,Canal,Red Sea North_Rural,RNCH11,16,13.68,{MSCBC1-MSCBC2-MSCBC3-MSCBC4-MSCBC5-MSCBC6},{TG},{Beni Suef,RMD,TG,Zahraa},,,
2016-03-06,3G,Giza,Sahary Alahram,RNCH11,242,33.799999,{MSCBC1-MSCBC2-MSCBC3-MSCBC4-MSCBC5-MSCBC6},{TG},{Beni Suef,RMD,TG,Zahraa},,,
2016-03-06,3G,Giza,Sahary Alahram,RNCH12,146,20.389999,{MSCBC1-MSCBC2-MSCBC3-MSCBC4-MSCBC5-MSCBC6},{HQ},{Beni Suef,RMD,TG,Zahraa},,,
2016-03-06,3G,Giza,October,RNCH12,970,78.93,{MSCBC1-MSCBC2-MSCBC3-MSCBC4-MSCBC5-MSCBC6},{HQ},{Beni Suef,RMD,TG,Zahraa},,,
2016-03-06,3G,Giza,Mouhandseen,RNCH12,6,0.75999999,{MSCBC1-MSCBC2-MSCBC3-MSCBC4-MSCBC5-MSCBC6},{HQ},{Beni Suef,RMD,TG,Zahraa},,,
2016-03-06,3G,Giza,Alex Desert Road (Giza),RNCH12,8,6.9000001,{MSCBC1-MSCBC2-MSCBC3-MSCBC4-MSCBC5-MSCBC6},{HQ},{Beni Suef,RMD,TG,Zahraa},,,
2016-03-06,3G,Upper Egypt,New Valley_Rural,RNCH12,12,24,{MSCBC1-MSCBC2-MSCBC3-MSCBC4-MSCBC5-MSCBC6},{HQ},{Beni Suef,RMD,TG,Zahraa},,,
2016-03-06,3G,Cairo,Nasr City,RNCH13,72,5.4099998,{MSCBC1-MSCBC2-MSCBC3-MSCBC4-MSCBC5-MSCBC6},{TG},{Beni Suef,RMD,TG,Zahraa},,,
2016-03-06,3G,Cairo,1St Gathering,RNCH13,221,20.93,{MSCBC1-MSCBC2-MSCBC3-MSCBC4-MSCBC5-MSCBC6},{TG},{Beni Suef,RMD,TG,Zahraa},,,
2016-03-06,3G,Cairo,5Th Gathering and Kattamya,RNCH13,495,54.34,{MSCBC1-MSCBC2-MSCBC3-MSCBC4-MSCBC5-MSCBC6},{TG},{Beni Suef,RMD,TG,Zahraa},,,
2016-03-06,3G,Alexandria,Alex Desert Road,RNCH14,6,0.86000001,{MSCBC1-MSCBC2-MSCBC3-MSCBC4-MSCBC5-MSCBC6},{HQ},{Beni Suef,RMD,TG,Zahraa},,,
2016-03-06,3G,Delta,Beheira_Rural,RNCH14,30,1.87,{MSCBC1-MSCBC2-MSCBC3-MSCBC4-MSCBC5-MSCBC6},{HQ},{Beni Suef,RMD,TG,Zahraa},,,
2016-03-06,3G,Delta,Damanhour,RNCH14,15,6.6700001,{MSCBC1-MSCBC2-MSCBC3-MSCBC4-MSCBC5-MSCBC6},{HQ},{Beni Suef,RMD,TG,Zahraa},,,
2016-03-06,3G,Giza,October,RNCH14,248,20.18,{MSCBC1-MSCBC2-MSCBC3-MSCBC4-MSCBC5-MSCBC6},{HQ},{Beni Suef,RMD,TG,Zahraa},,,
2016-03-06,3G,Giza,Kerdasa and Mansoraya,RNCH14,226,65.889999,{MSCBC1-MSCBC2-MSCBC3-MSCBC4-MSCBC5-MSCBC6},{HQ},{Beni Suef,RMD,TG,Zahraa},,,
2016-03-06,3G,Giza,Sahary Alahram,RNCH14,328,45.810001,{MSCBC1-MSCBC2-MSCBC3-MSCBC4-MSCBC5-MSCBC6},{HQ},{Beni Suef,RMD,TG,Zahraa},,,
2016-03-06,3G,Giza,Zayed,RNCH14,612,100,{MSCBC1-MSCBC2-MSCBC3-MSCBC4-MSCBC5-MSCBC6},{HQ},{Beni Suef,RMD,TG,Zahraa},,,
2016-03-06,3G,Giza,Alex Desert Road (Giza),RNCH14,101,87.07,{MSCBC1-MSCBC2-MSCBC3-MSCBC4-MSCBC5-MSCBC6},{HQ},{Beni Suef,RMD,TG,Zahraa},,,
2016-03-06,3G,Giza,Giza Outskirts,RNCH15,6,1.09,{MSCBC1-MSCBC2-MSCBC3-MSCBC4-MSCBC5-MSCBC6},{Beni Suef},{Beni Suef,RMD,TG,Zahraa},,,
2016-03-06,3G,Upper Egypt,Minia_Rural,RNCH15,43,9.8599997,{MSCBC1-MSCBC2-MSCBC3-MSCBC4-MSCBC5-MSCBC6},{Beni Suef},{Beni Suef,RMD,TG,Zahraa},,,
2016-03-06,3G,Upper Egypt,New Valley_Rural,RNCH15,14,28,{MSCBC1-MSCBC2-MSCBC3-MSCBC4-MSCBC5-MSCBC6},{Beni Suef},{Beni Suef,RMD,TG,Zahraa},,,
2016-03-06,3G,Upper Egypt,Bani Sweif_Rural,RNCH15,278,98.93,{MSCBC1-MSCBC2-MSCBC3-MSCBC4-MSCBC5-MSCBC6},{Beni Suef},{Beni Suef,RMD,TG,Zahraa},,,
2016-03-06,3G,Upper Egypt,Bani_Suef,RNCH15,196,100,{MSCBC1-MSCBC2-MSCBC3-MSCBC4-MSCBC5-MSCBC6},{Beni Suef},{Beni Suef,RMD,TG,Zahraa},,,
2016-03-06,3G,Upper Egypt,Fayoum,RNCH15,343,100,{MSCBC1-MSCBC2-MSCBC3-MSCBC4-MSCBC5-MSCBC6},{Beni Suef},{Beni Suef,RMD,TG,Zahraa},,,
2016-03-06,3G,Upper Egypt,Fayoum_Rural,RNCH15,244,52.810001,{MSCBC1-MSCBC2-MSCBC3-MSCBC4-MSCBC5-MSCBC6},{Beni Suef},{Beni Suef,RMD,TG,Zahraa},,,
2016-03-06,3G,Delta,Beheira_Rural,RNCH16,38,2.3599999,{MSCBC1-MSCBC2-MSCBC3-MSCBC4-MSCBC5-MSCBC6},{RMD},{Beni Suef,RMD,TG,Zahraa},,,
2016-03-06,3G,Canal,Ras Sidr,RNCH16,106,100,{MSCBC1-MSCBC2-MSCBC3-MSCBC4-MSCBC5-MSCBC6},{RMD},{Beni Suef,RMD,TG,Zahraa},,,
2016-03-06,3G,Canal,Sinai South_Rural,RNCH16,117,78.519997,{MSCBC1-MSCBC2-MSCBC3-MSCBC4-MSCBC5-MSCBC6},{RMD},{Beni Suef,RMD,TG,Zahraa},,,
2016-03-06,3G,Canal,Sinai North_Rural,RNCH16,62,77.5,{MSCBC1-MSCBC2-MSCBC3-MSCBC4-MSCBC5-MSCBC6},{RMD},{Beni Suef,RMD,TG,Zahraa},,,
2016-03-06,3G,Cairo,Shorouk and Badr,RNCH16,119,29.1,{MSCBC1-MSCBC2-MSCBC3-MSCBC4-MSCBC5-MSCBC6},{RMD},{Beni Suef,RMD,TG,Zahraa},,,
2016-03-06,3G,Canal,Portsaid Rural,RNCH16,43,50.59,{MSCBC1-MSCBC2-MSCBC3-MSCBC4-MSCBC5-MSCBC6},{RMD},{Beni Suef,RMD,TG,Zahraa},,,
2016-03-06,3G,Canal,Arish,RNCH16,69,100,{MSCBC1-MSCBC2-MSCBC3-MSCBC4-MSCBC5-MSCBC6},{RMD},{Beni Suef,RMD,TG,Zahraa},,,
2016-03-06,3G,Canal,Ismailia Rural,RNCH16,48,31.58,{MSCBC1-MSCBC2-MSCBC3-MSCBC4-MSCBC5-MSCBC6},{RMD},{Beni Suef,RMD,TG,Zahraa},,,
2016-03-06,3G,Cairo,Maadi,RNCH17,240,32.130001,{MSCBC1-MSCBC2-MSCBC3-MSCBC4-MSCBC5-MSCBC6},{Zahraa},{Beni Suef,RMD,TG,Zahraa},,,
2016-03-06,3G,Cairo,Helwan,RNCH17,519,67.139999,{MSCBC1-MSCBC2-MSCBC3-MSCBC4-MSCBC5-MSCBC6},{Zahraa},{Beni Suef,RMD,TG,Zahraa},,,
2016-03-06,3G,Giza,Giza Outskirts,RNCH17,323,58.830002,{MSCBC1-MSCBC2-MSCBC3-MSCBC4-MSCBC5-MSCBC6},{Zahraa},{Beni Suef,RMD,TG,Zahraa},,,
2016-03-06,3G,Giza,Kerdasa and Mansoraya,RNCH17,6,1.75,{MSCBC1-MSCBC2-MSCBC3-MSCBC4-MSCBC5-MSCBC6},{Zahraa},{Beni Suef,RMD,TG,Zahraa},,,
2016-03-06,3G,Giza,Giza Outskirts,RNCH18,101,18.4,{MSCBC1-MSCBC2-MSCBC3-MSCBC4-MSCBC5-MSCBC6},{Mokattam},{Beni Suef,RMD,TG,Zahraa},,,
2016-03-06,3G,Cairo,Helwan,RNCH18,254,32.860001,{MSCBC1-MSCBC2-MSCBC3-MSCBC4-MSCBC5-MSCBC6},{Mokattam},{Beni Suef,RMD,TG,Zahraa},,,
2016-03-06,3G,Cairo,Shorouk and Badr,RNCH20,290,70.900002,,,,,,
2016-03-06,3G,Cairo,Obour,RNCH20,508,100,,,,,,
2016-03-06,3G,Cairo,10Th Of Ramadan,RNCH20,29,4.4899998,,,,,,
2016-03-06,3G,Cairo,1St Gathering,RNCH20,186,17.610001,,,,,,
2016-03-06,3G,Canal,Ras Ghareb,RNCH23-BS,23,22.549999,,,,,,
2016-03-06,3G,Canal,Red Sea North_Rural,RNCH23-BS,9,7.6900001,,,,,,
2016-03-06,3G,Delta,Beheira_Rural,RNCH24-MNS,223,13.88,,,,,,
2016-03-06,3G,Delta,Damanhour,RNCH24-MNS,193,85.779999,,,,,,
2016-03-06,3G,Delta,Kafr El Sheikh_Rural,RNCH26,18,1.55,,,,,,
2016-03-06,3G,Delta,Beheira_Rural,RNCH26,957,59.549999,,,,,,
2016-03-06,3G,Canal,Ismailia Rural,RNCH26,12,7.8899999,,,,,,
2016-03-06,3G,Cairo,10Th Of Ramadan,RNCH26,609,94.269997,,,,,,
