SITE_LOGICAL,Network,HOUR_ID,SPEECH_TRAFFIC,DATA_MB
0001,2G,0,7.6859999,101.06946
0002,2G,0,5.3527002,40.545528
0003,2G,0,50.3582,325.71094
0004,2G,0,10.527599,131.46582
0005,2G,0,34.5471,307.12415
0009,2G,0,29.4832,133.28918
0010,2G,0,22.7526,284.11353
0011,2G,0,19.2542,93.7257
0012,2G,0,29.466499,179.68799
0013,2G,0,12.1055,146.62415
0014,2G,0,53.383102,418.12463
0015,2G,0,4.6693001,133.55127
0016,2G,0,11.0526,44.250854
0017,2G,0,14.7859,111.30701
0018,2G,0,9.9749002,106.97217
0019,2G,0,3.5388,116.96057
0024,2G,0,39.497002,289.88147
0025,2G,0,25.788799,118.99817
0027,2G,0,7.9331999,87.634399
0029,2G,0,26.7887,116.96497
0030,2G,0,64.844406,163.48743
0032,2G,0,16.9832,49.245117
0033,2G,0,37.691502,237.80591
0035,2G,0,3.2581999,20.264648
0036,2G,0,11.788799,98.051514
0037,2G,0,15.0026,160.26831
0038,2G,0,12.9555,84.437134
0040,2G,0,23.352699,225.16357
0041,2G,0,10.4166,75.668823
0042,2G,0,8.9415998,105.92041
0043,2G,0,23.727699,258.39368
0045,2G,0,56.497101,363.89905
0046,2G,0,44.505501,459.29163
0048,2G,0,48.3083,174.2471
0049,2G,0,11.5026,111.01685
0050,2G,0,12.1194,151.96167
0052,2G,0,27.594299,180.23718
0053,2G,0,10.4693,184.75732
0054,2G,0,17.088699,81.985352
0055,2G,0,11.2166,122.4342
0056,2G,0,19.555399,162.255
0057,2G,0,53.447201,181.13232
0059,2G,0,19.405399,226.02405
0062,2G,0,7.4054999,128.93811
0063,2G,0,12.8887,73.055664
0065,2G,0,17.274801,318.17932
0066,2G,0,29.0665,259.59827
0067,2G,0,8.2831001,109.00891
0068,2G,0,24.874901,201.13
0069,2G,0,26.044401,48.862793
0070,2G,0,52.480499,390.87402
0071,2G,0,32.527599,434.47522
0072,2G,0,10.897,121.42456
0073,2G,0,3.2414999,41.901123
0074,2G,0,12.9221,104.56409
0075,2G,0,30.930401,425.45117
0076,2G,0,18.2915,175.61096
0077,2G,0,29.249901,283.56897
0078,2G,0,12.7638,101.07996
0079,2G,0,30.506901,129.9286
0081,2G,0,15.7237,46.196899
0082,2G,0,7.9403,103.39861
0083,2G,0,74.679199,206.5582
0084,2G,0,4.9403,28.468199
0085,2G,0,13.5415,85.419312
0088,2G,0,29.761099,118.4704
0090,2G,0,22.2166,210.42688
0091,2G,0,18.508301,127.92957
0093,2G,0,5.0723,13.0539
0094,2G,0,29.319302,123.09082
0095,2G,0,2.6305001,42.955399
0096,2G,0,2.2414999,29.489866
0097,2G,0,8.6693001,178.19727
0098,2G,0,20.8638,132.24536
0099,2G,0,24.461,108.92505
0100,2G,0,35.427803,86.987694
0101,2G,0,11.4776,142.7439
0102,2G,0,13.975,41.991501
0105,2G,0,11.844399,52.888
0106,2G,0,4.0110998,11.9547
0107,2G,0,4.8056002,23.756901
0108,2G,0,38.904099,147.70999
0110,2G,0,11.655399,169.59766
0111,2G,0,9.4804001,106.73987
0112,2G,0,35.974899,258.19861
0113,2G,0,9.6358995,92.189209
0114,2G,0,26.960899,413.604
0115,2G,0,0,0
0116,2G,0,18.460899,208.01172
0117,2G,0,19.9582,144.93079
0118,2G,0,17.5499,269.96082
0119,2G,0,12.4804,83.798828
0120,2G,0,32.285999,121.70215
0121,2G,0,10.7193,53.073608
0122,2G,0,18.183201,268.82556
0124,2G,0,6.8414998,48.119751
0125,2G,0,11.1415,135.16565
0126,2G,0,6.8999,104.27759
0127,2G,0,33.383099,204.89941
0128,2G,0,7.3608999,50.240723
0129,2G,0,38.111099,231.1626
0130,2G,0,21.1943,125.84912
0131,2G,0,15.7194,203.2644
0132,2G,0,12.5777,53.879272
0133,2G,0,9.4303999,161.68372
0134,2G,0,16.2666,308.70984
0135,2G,0,11.4887,303.83057
0136,2G,0,8.3859005,146.60364
0138,2G,0,14.2471,112.50574
0140,2G,0,16.985901,189.22742
0141,2G,0,50.927601,354.42529
0143,2G,0,22.308201,85.879196
0144,2G,0,28.152699,173.48083
0145,2G,0,5.1721001,45.666016
0146,2G,0,9.7414999,53.373779
0147,2G,0,35.080402,229.98816
0148,2G,0,32.577702,344.65381
0150,2G,0,86.752701,439.58203
0151,2G,0,24.8971,219.521
0152,2G,0,18.913799,67.008667
0153,2G,0,12.1027,95.779419
0154,2G,0,82.627602,394.70447
0155,2G,0,11.9583,197.28711
0156,2G,0,14.461,260.29492
0157,2G,0,60.977699,366.81836
0159,2G,0,55.413803,239.53723
0160,2G,0,24.010899,201.31921
0161,2G,0,32.380402,381.0376
0162,2G,0,15.5026,116.05713
0163,2G,0,22.710999,131.39075
0164,2G,0,30.5527,142.72217
0166,2G,0,10.8443,95.915039
0167,2G,0,4.3084002,54.080898
0169,2G,0,9.9512997,62.290298
0170,2G,0,3.3931,15.927099
0171,2G,0,8.7444,74.095825
0172,2G,0,46.811001,194.40405
0173,2G,0,36.210999,283.13586
0174,2G,0,31.130501,217.28992
0176,2G,0,45.2015,228.8549
0177,2G,0,29.1387,204.87354
0178,2G,0,49.313797,481.27271
0179,2G,0,9.3415003,127.21692
0180,2G,0,26.936001,65.838745
0182,2G,0,19.861,129.14624
0185,2G,0,8.6443005,90.977417
0186,2G,0,8.8638,80.316406
0187,2G,0,59.833199,521.66577
0188,2G,0,62.463799,448.28784
0189,2G,0,14.6082,90.991943
0191,2G,0,56.960899,301.73267
0192,2G,0,65.222099,400.94287
0193,2G,0,5.1943998,80.335327
0194,2G,0,21.7498,109.14392
0195,2G,0,44.513802,396.16809
0196,2G,0,1.1931,35.4305
0197,2G,0,6.9914999,60.014038
0198,2G,0,18.9832,91.115723
0199,2G,0,24.7248,129.39478
0200,2G,0,19.430401,247.55591
0202,2G,0,16.4137,98.127075
0203,2G,0,20.1665,240.6875
0204,2G,0,10,32.882099
0205,2G,0,41.027599,301.04089
0207,2G,0,5.2693,116.08118
0208,2G,0,46.5942,69.328369
0209,2G,0,31.7526,106.12244
0210,2G,0,16.9499,202.79248
0211,2G,0,7.3137999,32.140015
0212,2G,0,20.5888,168.43579
0214,2G,0,7.6887999,119.23022
0215,2G,0,17.194199,76.398193
0216,2G,0,27.7304,186.08618
0218,2G,0,8.5580997,67.781738
0219,2G,0,6.8943,45.176758
0220,2G,0,3.5541,10.026099
0221,2G,0,7.9526,45.327271
0222,2G,0,11.4694,74.311279
0225,2G,0,13.3331,157.26355
0228,2G,0,13.1748,61.626709
0229,2G,0,87.655396,518.98999
0230,2G,0,28.136002,108.99072
0231,2G,0,9.4998999,12.853636
0232,2G,0,9.1693001,84.322388
0233,2G,0,21.211,95.450562
0234,2G,0,12.419399,140.53931
0235,2G,0,44.7304,411.5011
0236,2G,0,3.7417002,12.7296
0237,2G,0,8.6764002,19.171799
0238,2G,0,13.7165,29.345825
0239,2G,0,18.2153,103.7483
0240,2G,0,10.761,102.33813
0241,2G,0,31.560902,186.91785
0242,2G,0,9.9582996,24.372499
0243,2G,0,2.1847,29.987101
0245,2G,0,1.3889,11.1245
0246,2G,0,3.3167,4.2930002
0248,2G,0,14.0375,151.44861
0249,2G,0,4.3263998,45.5723
0250,2G,0,13.6764,88.793396
0251,2G,0,3.8347001,126.9421
0252,2G,0,14.2276,55.893921
0254,2G,0,7.2109003,168.18103
0255,2G,0,13.1888,152.82288
0256,2G,0,9.7971001,149.50818
0257,2G,0,7.0110002,56.39209
0258,2G,0,11.7887,81.169556
0259,2G,0,37.722198,398.44775
0260,2G,0,40.991501,327.27295
0261,2G,0,57.144199,180.28381
0262,2G,0,30.594299,72.796021
0263,2G,0,13.0499,153.9917
0264,2G,0,27.160999,103.91418
0265,2G,0,7.1776004,63.375
0266,2G,0,55.2943,399.53284
0267,2G,0,5.8930998,30.258801
0269,2G,0,0.41120002,33.195999
0270,2G,0,9.9886999,55.631714
0271,2G,0,26.455601,6.7038999
0272,2G,0,77.138901,189.8345
0273,2G,0,48.2304,403.56177
0274,2G,0,26.2166,158.9552
0275,2G,0,31.319201,352.83679
0277,2G,0,15.0777,137.44922
0278,2G,0,20.7777,69.503174
0279,2G,0,73.391495,333.3728
0280,2G,0,39.530399,103.17419
0281,2G,0,1.4914,18.870115
0282,2G,0,11.4026,46.286621
0285,2G,0,0.92509997,2.0480001
0286,2G,0,0.2069,14.2387
0287,2G,0,63.172104,350.09387
0288,2G,0,58.805401,200.99426
0289,2G,0,7.9179997,43.441402
0291,2G,0,62.188698,408.9906
0292,2G,0,4.2553997,132.00085
0293,2G,0,36.4664,414.33643
0294,2G,0,5.6499,81.102051
0296,2G,0,38.8498,262.0166
0297,2G,0,38.969299,220.26917
0298,2G,0,19.993,131.25951
0299,2G,0,35.661102,95.041
0301,2G,0,37.0569,147.92349
0302,2G,0,5.8125,28.507299
0304,2G,0,58.599899,489.86584
0305,2G,0,9.3803997,89.4823
0308,2G,0,0,0
0309,2G,0,20.222099,105.19568
0312,2G,0,12.0221,57.921017
0313,2G,0,0.31940001,3.1615999E-2
0315,2G,0,17.525101,100.297
0316,2G,0,8.0486002,41.876499
0317,2G,0,4.7958002,45.782898
0318,2G,0,2.3431001,15.7189
0319,2G,0,0.91109997,2.6475999
0322,2G,0,18.261,186.65564
0323,2G,0,31.360899,250.52527
0324,2G,0,10.9749,64.758057
0327,2G,0,18.808201,76.845703
0328,2G,0,35.372101,309.05286
0329,2G,0,24.1721,136.80933
0330,2G,0,12.316501,147.61462
0331,2G,0,3.4886999,40.750732
0332,2G,0,6.5275998,113.33228
0333,2G,0,1.411,88.445801
0334,2G,0,6.5609999,48.43103
0335,2G,0,16.8971,68.311157
0336,2G,0,13.9987,66.028
0337,2G,0,24.308201,219.22412
0338,2G,0,3.086,4.7387681
0339,2G,0,2.3013,10.2123
0340,2G,0,54.599899,374.31494
0341,2G,0,1.7917,22.211201
0342,2G,0,6.3999,34.0937
0343,2G,0,12.0291,46.842098
0344,2G,0,7.5737,37.636597
0345,2G,0,36.973701,153.2648
0346,2G,0,5.2776999,66.983032
0347,2G,0,10.6332,83.395386
0348,2G,0,23.0165,300.47034
0349,2G,0,4.1930003,27.702
0350,2G,0,28.532,176.08501
0351,2G,0,20.6721,145.35278
0352,2G,0,9.9638004,42.468628
0353,2G,0,47.063698,190.85571
0354,2G,0,32.530399,214.22119
0355,2G,0,56.021999,466.17322
0356,2G,0,12.2359,78.594727
0357,2G,0,1.6179999,18.3927
0358,2G,0,25.552601,211.24536
0359,2G,0,1.2666,15.8669
0360,2G,0,8.3136997,76.628784
0362,2G,0,6.4303999,51.627319
0364,2G,0,28.0277,243.79907
0365,2G,0,20.3027,86.917725
0366,2G,0,30.319302,200.76685
0367,2G,0,40.013699,449.27441
0368,2G,0,19.822001,188.677
0369,2G,0,9.0804005,81.920166
0370,2G,0,27.3915,128.89893
0371,2G,0,15.7415,92.924805
0372,2G,0,12.5527,50.281982
0374,2G,0,16.863701,92.640747
0376,2G,0,62.508198,282.5293
0377,2G,0,38.061001,150.37036
0378,2G,0,32.499901,194.38123
0379,2G,0,35.877701,251.84839
0380,2G,0,10.4138,82.86084
0381,2G,0,2.1903,21.356001
0382,2G,0,13.466499,153.06482
0383,2G,0,10.3056,31.950401
0386,2G,0,0.0111,5.6456289
0387,2G,0,2.9514,3.9465001
0388,2G,0,24.4109,156.78369
0389,2G,0,33.219299,32.675293
0390,2G,0,15.4776,42.063965
0392,2G,0,5.1637998,9.6477032
0393,2G,0,3.4109998,70.660767
0394,2G,0,4.7999001,30.442017
0395,2G,0,13.011,199.89087
0396,2G,0,15.6749,112.43469
0397,2G,0,3.4303999,29.550293
0398,2G,0,21.2637,136.68958
0399,2G,0,10.9055,97.435303
0402,2G,0,13.2582,66.318726
0403,2G,0,8.3526001,156.38977
0405,2G,0,11.5403,8.5895004
0406,2G,0,23.7416,87.270142
0407,2G,0,29.771999,337.92639
0408,2G,0,11.952801,118.3301
0409,2G,0,34.447098,208.18872
0410,2G,0,60.0471,260.09827
0411,2G,0,9.5333004,48.7677
0414,2G,0,23.2943,147.14136
0415,2G,0,0.4833,27.732801
0416,2G,0,4.1750002,10.7888
0417,2G,0,17.4081,264.81055
0421,2G,0,2.0666001,90.111572
0423,2G,0,6.3860002,52.562378
0424,2G,0,49.986,376.0459
0425,2G,0,4.6220999,13.973142
0426,2G,0,8.3358994,153.09875
0427,2G,0,6.2971001,27.179077
0428,2G,0,1.0805,73.15686
0429,2G,0,6.6304002,117.22754
0430,2G,0,7.3692999,130.67896
0431,2G,0,12.361,80.703125
0432,2G,0,39.472,159.41248
0433,2G,0,25.622101,168.42883
0434,2G,0,13.4193,115.7522
0435,2G,0,6.6136999,51.672241
0436,2G,0,5.4997997,100.78625
0437,2G,0,4.7082,99.077515
0438,2G,0,5.5804,82.303711
0439,2G,0,31.5026,289.33679
0440,2G,0,15.8193,126.45581
0441,2G,0,7.2803998,90.062134
0442,2G,0,8.0331993,76.504761
0443,2G,0,15.7888,84.19873
0444,2G,0,24.613701,151.25415
0446,2G,0,6.2831001,118.21802
0448,2G,0,21.1415,177.06091
0449,2G,0,14.0916,52.353027
0450,2G,0,27.2749,87.951782
0451,2G,0,33.422001,358.61523
0452,2G,0,4.0804,87.194092
0453,2G,0,38.449799,217.56165
0454,2G,0,19.3248,193.53027
0455,2G,0,11.0264,87.279999
0456,2G,0,17.094299,152.271
0457,2G,0,10.7915,118.67554
0458,2G,0,26.902601,117.71021
0459,2G,0,0,0
0460,2G,0,32.436001,298.13086
0461,2G,0,28.8332,294.46423
0462,2G,0,6.3860002,26.019775
0464,2G,0,56.077698,325.39111
0466,2G,0,53.285999,315.60193
0467,2G,0,14.6195,111.5052
0468,2G,0,12.5721,87.954956
0469,2G,0,18.4165,97.124756
0470,2G,0,10.1805,63.696167
0471,2G,0,31.4888,107.68726
0472,2G,0,2.3471,15.240601
0473,2G,0,2.6083,94.390259
0475,2G,0,32.5387,156.2406
0476,2G,0,2.4804001,49.54187
0477,2G,0,29.258101,207.63586
0478,2G,0,6.4194002,5.7494998
0479,2G,0,28.566502,223.18225
0480,2G,0,9.0387001,147.74609
0483,2G,0,40.6026,479.46021
0484,2G,0,60.830399,523.16211
0485,2G,0,13.3721,145.90417
0486,2G,0,9.6915998,88.967651
0487,2G,0,20.466499,149.1217
0488,2G,0,28.5693,181.19763
0489,2G,0,39.069298,371.16626
0490,2G,0,10.6415,119.83057
0491,2G,0,1.8749001,8.2164288
0492,2G,0,24.3055,206.87866
0493,2G,0,12.3997,38.457886
0494,2G,0,21.422199,116.17712
0495,2G,0,9.7220001,110.40686
0499,2G,0,1.9776001,51.856934
0502,2G,0,1.2555,0
0508,2G,0,0,0
0514,2G,0,0.13609999,0.119018
0518,2G,0,0.92769998,0.39269999
0525,2G,0,0.41940001,3.1645501
0527,2G,0,0.99440002,0.90039003
0529,2G,0,0.1805,0.60412502
0532,2G,0,3.9749999,14.907226
0538,2G,0,1.7833,17.817383
0539,2G,0,0.32770002,0.58508199
0540,2G,0,1.2194,3.091186
0542,2G,0,2.8194001,18.38916
0548,2G,0,1.8277,0.103027
0551,2G,0,1.3415999,8.9837637
0553,2G,0,5.5943999,3.7852781
0555,2G,0,0.43880001,7.3119998E-2
0557,2G,0,0.24439999,0.14746
0558,2G,0,1.0915999,2.8839109
0559,2G,0,0.1416,0
0562,2G,0,1.6833,0.185913
0564,2G,0,0.1166,0.13330001
0567,2G,0,3.3833001,19.533936
0568,2G,0,0,0
0569,2G,0,0,0
0571,2G,0,0.0138,0.000122
0573,2G,0,0.98329997,2.509521
0574,2G,0,2.3027,6.1650391
0575,2G,0,2.625,1.9897001E-2
0578,2G,0,2.4833,1.141845
0582,2G,0,2.5165999,0
0583,2G,0,0.67220002,2.64624
0585,2G,0,0.73049998,0.408447
0586,2G,0,2.7693999,3.9874001
0587,2G,0,0.7694,2.3214109
0590,2G,0,1.4638,1.794067
0597,2G,0,0.1,5.6838369
0598,2G,0,0,0.0013
0599,2G,0,0,6.0000001E-3
0600,2G,0,5.0000001E-2,4.0778799
0605,2G,0,5.9443002,31.719849
0606,2G,0,6.0609999,31.110106
0607,2G,0,14.3693,115.32605
0608,2G,0,6.3554001,32.758911
0609,2G,0,4.5278001,35.654099
0610,2G,0,23.711,109.23767
0611,2G,0,22.2931,64.723099
0612,2G,0,9.6388006,228.35413
0613,2G,0,18.099899,88.517944
0615,2G,0,16.497101,155.58057
0616,2G,0,13.1819,87.561699
0618,2G,0,4.9526,71.435913
0620,2G,0,14.4081,0
0621,2G,0,28.986099,128.99609
0622,2G,0,2.7541001,16.0173
0623,2G,0,0.40690002,1.3820001
0624,2G,0,7.7304001,138.05481
0625,2G,0,8.2165003,29.862547
0627,2G,0,55.041599,354.93433
0629,2G,0,34.3652,85.2687
0630,2G,0,8.4193001,64.777954
0631,2G,0,13.499901,101.05115
0632,2G,0,4.2514,4.7462001
0633,2G,0,38.899799,207.22876
0634,2G,0,34.749802,195.95435
0636,2G,0,16.530399,141.29358
0637,2G,0,10.3249,74.145386
0639,2G,0,34.866501,105.07019
0640,2G,0,16.7027,49.48999
0641,2G,0,38.144402,106.1001
0642,2G,0,8.25,43.442299
0644,2G,0,2.2749,6.7907691
0645,2G,0,28.927799,123.8916
0646,2G,0,5.9597001,41.5826
0647,2G,0,20.316601,55.165298
0648,2G,0,20.7304,92.610962
0649,2G,0,11.7804,83.217285
0652,2G,0,40.894402,210.89832
0654,2G,0,8.9749002,51.837402
0656,2G,0,25.774899,68.532196
0658,2G,0,35.845699,158.4819
0659,2G,0,19.1443,106.71057
0662,2G,0,9.2220001,73.70105
0663,2G,0,24.3526,105.18787
0665,2G,0,59.397301,189.0811
0666,2G,0,132.9194,736.66992
0667,2G,0,0,0
0668,2G,0,10.3665,43.899536
0669,2G,0,2.3318999,11.3235
0670,2G,0,7.5583997,16.1234
0671,2G,0,5.6859002,82.151245
0672,2G,0,3.1764002,48.0182
0673,2G,0,11.4555,97.897499
0674,2G,0,32.162498,115.1991
0675,2G,0,17.0597,72.540901
0676,2G,0,14.5097,125.2425
0677,2G,0,6.0137,58.129761
0678,2G,0,7.7554002,49.560791
0679,2G,0,0.1708,6.7419004
0680,2G,0,41.255501,202.74524
0681,2G,0,2.6528001,3.6770999
0682,2G,0,8.3220997,153.1189
0683,2G,0,5.0553999,69.816284
0685,2G,0,10.2721,47.702637
0687,2G,0,25.7332,124.78259
0688,2G,0,3.1972001,12.7779
0689,2G,0,32.513798,108.0448
0690,2G,0,21.311001,154.59021
0691,2G,0,4.0583,15.475219
0693,2G,0,20.8193,196.56726
0694,2G,0,13.7832,167.35559
0695,2G,0,46.277599,213.13367
0696,2G,0,28.2943,226.75964
0697,2G,0,59.986,157.60547
0698,2G,0,44.830498,140.4751
0699,2G,0,34.724899,145.4751
0701,2G,0,0.97219998,0.65942299
0702,2G,0,3.3300001E-2,0
0703,2G,0,1.3415999,60.577271
0704,2G,0,0.0277,0
0705,2G,0,1.2555,9.0187979
0706,2G,0,1.3972,0.79956001
0709,2G,0,0,0
0711,2G,0,2.7165999,1.434203
0712,2G,0,0.30000001,0.27539
0713,2G,0,8.2999999E-3,0
0715,2G,0,0,0
0719,2G,0,2.7000001E-3,0
0721,2G,0,8.0499999E-2,3.6558831
0722,2G,0,0,0
0725,2G,0,0,0
0727,2G,0,0.30270001,0.14624
0730,2G,0,0.31380001,1.110839
0733,2G,0,0.75550002,43.187988
0735,2G,0,0,0
0736,2G,0,0.84719998,5.3710002E-3
0740,2G,0,0,0.00122
0742,2G,0,0,0
0743,2G,0,0,0
0748,2G,0,6.9637003,67.351807
0749,2G,0,13.0193,130.1991
0750,2G,0,26.4582,95.792358
0751,2G,0,9.3527002,64.539185
0753,2G,0,27.683201,214.66748
0754,2G,0,2.1264,30.9221
0755,2G,0,8.3957996,71.272995
0756,2G,0,24.3041,108.305
0757,2G,0,10.075,94.608002
0760,2G,0,4.4165001,44.90564
0761,2G,0,6.6220999,29.428221
0762,2G,0,31.216499,197.03442
0763,2G,0,40.388699,496.28479
0764,2G,0,69.688797,333.10962
0765,2G,0,16.9527,176.15259
0766,2G,0,15.0971,138.75525
0768,2G,0,6.4609003,50.837158
0769,2G,0,4.4886999,100.12097
0770,2G,0,8.6219997,93.956177
0771,2G,0,45.688599,78.610229
0772,2G,0,8.0164003,110.65259
0773,2G,0,5.1164999,0
0774,2G,0,21.6166,98.375732
0775,2G,0,36.902599,197.88892
0776,2G,0,10.7888,27.210936
0777,2G,0,14.0028,24.444099
0778,2G,0,7.8597999,74.973602
0779,2G,0,12.4499,129.28308
0780,2G,0,43.522099,58.87793
0781,2G,0,62.222099,123.3064
0782,2G,0,100.6026,571.22644
0783,2G,0,28.7887,216.12329
0784,2G,0,6.8402996,64.441101
0785,2G,0,5.0778999,8.3755999
0786,2G,0,0.4138,3.8098001
0788,2G,0,9.4998999,101.0941
0789,2G,0,1.4819001,1.6398001
0790,2G,0,3.7026999,49.131901
0793,2G,0,2.5360999,26.774601
0794,2G,0,19.6721,85.304688
0795,2G,0,15.7596,27.7337
0796,2G,0,13.3569,34.5173
0797,2G,0,16.109699,91.8358
0798,2G,0,12.0542,39.038898
0799,2G,0,27.3778,154.1824
0800,2G,0,1.6971999,5.361938
0805,2G,0,1.45,0
0807,2G,0,2.0416,6.6459961
0816,2G,0,2.7000001E-3,15.586425
0819,2G,0,0.6444,2.8929999E-2
0820,2G,0,2.7000001E-3,0
0827,2G,0,0.27500001,0.021606
0830,2G,0,0,0
0831,2G,0,0.98329997,1.011718
0835,2G,0,1.175,21.596802
0836,2G,0,0,0
0837,2G,0,1.8583,6.7027578
0842,2G,0,0.28049999,7.1533002E-2
0844,2G,0,0.1944,0.72045797
0847,2G,0,0.0722,0.183837
0848,2G,0,0,0
0849,2G,0,1.975,0
0850,2G,0,0.60000002,4.9550781
0851,2G,0,1.9400001E-2,0
0852,2G,0,0,0
0854,2G,0,2.2138,46.794922
0857,2G,0,3.8800001E-2,1.067138
0859,2G,0,0,0
0860,2G,0,0.0305,1.8544919
0864,2G,0,0.0138,7.6292999E-2
0867,2G,0,6.9916,55.408447
0880,2G,0,0,5.5100001E-2
0881,2G,0,0,5.1635001E-2
0883,2G,0,0.41659999,0.79272401
0897,2G,0,0.77219999,0.45310003
0900,2G,0,0.9138,11.061035
0901,2G,0,0.42219999,7.5072996E-2
0902,2G,0,0,0
0903,2G,0,1.2638,0.73559499
0905,2G,0,0,0
0906,2G,0,0.3583,2.4554441
0907,2G,0,0.59439999,3.8404529
0909,2G,0,0,0.000122
0912,2G,0,1.0527,0.90063399
0913,2G,0,1.4861,23.86084
0915,2G,0,1.775,8.8969717
0916,2G,0,1.6694,0.390991
0917,2G,0,6.1099999E-2,0.20166001
0920,2G,0,0.93330002,3.2836001E-2
0921,2G,0,0.86940002,1.3062741
0922,2G,0,0.3944,3.9671998E-2
0923,2G,0,0.20550001,4.1747998E-2
0924,2G,0,0.63330001,6.7653799
0925,2G,0,1.2944,3.964721
0927,2G,0,0.97500002,14.099731
0928,2G,0,0.90270001,1.0400389
0929,2G,0,1.0527,0.921386
0931,2G,0,0.2305,0.84191799
0932,2G,0,1.125,3.256835
0933,2G,0,8.6099997E-2,2.171752
0935,2G,0,0.1,1.655395
0936,2G,0,1.4583,0
0937,2G,0,2.2693999,2.8686521
0938,2G,0,0,0
0940,2G,0,3.3887999,1.864624
0942,2G,0,0.76660001,0.002319
0944,2G,0,0,0
0945,2G,0,4.8443999,127.98889
0946,2G,0,2.1554999,15.374023
0947,2G,0,0,0
0948,2G,0,0.61110002,0.022216
0950,2G,0,0.1972,4.2199702
0951,2G,0,8.8799998E-2,5.3710002E-3
0952,2G,0,0.7694,9.6520987
0953,2G,0,1.05,1.1157219
0958,2G,0,3.75,6.0692129
0964,2G,0,0.9666,0.464843
0965,2G,0,1.5111001,3.84375
0966,2G,0,0,0
0967,2G,0,0,62.404785
0969,2G,0,7.3111,0
0971,2G,0,1.0527,0.30761701
0972,2G,0,0.76109999,5.276123
0974,2G,0,1.5694,2.482543
0975,2G,0,0,0
0977,2G,0,1.1138,0
0979,2G,0,5.2700002E-2,4.2846002E-2
0981,2G,0,5.0861001,31.55481
0983,2G,0,0.34720001,0.100097
0984,2G,0,6.8193998,6.5550998E-2
0985,2G,0,0,0
0987,2G,0,0.3527,2.572998
0993,2G,0,0.36660001,9.7375479
0994,2G,0,0,6.0000003E-4
0995,2G,0,2.9721999,2.584594
1000,2G,0,0.36109999,9.7924805
1001,2G,0,1.8694,12.153198
1002,2G,0,0.17219999,7.2939448
1003,2G,0,1.0472,4.4315181
1004,2G,0,0.2361,0.035278
1005,2G,0,1.0611,0.108154
1007,2G,0,0,0
1008,2G,0,0,0
1010,2G,0,9.2138004,7.6530762
1011,2G,0,0.0138,1.6257319
1012,2G,0,7.7699997E-2,6.2743999E-2
1013,2G,0,1.0222,0.23413
1014,2G,0,0.2527,5.6098619
1015,2G,0,0,0
1016,2G,0,0.49439999,0.911376
1017,2G,0,0.1277,0.20300201
1018,2G,0,0.5722,0.000122
1021,2G,0,0.18610001,0.90014601
1022,2G,0,2.6166,38.823486
1023,2G,0,0,0
1024,2G,0,6.8999999E-3,0
1025,2G,0,1.8111,20.236572
1026,2G,0,1.5166,6.2388911
1028,2G,0,0,0.62951601
1031,2G,0,18.041599,54.877808
1032,2G,0,1.5055,2.397949
1033,2G,0,0.0222,38.509155
1034,2G,0,9.1600001E-2,0
1035,2G,0,0.30270001,1.111328
1036,2G,0,0.36939999,0.014648
1038,2G,0,0.13590001,0.260741
1039,2G,0,0.63589996,0.29418701
1040,2G,0,0.83880001,9.6259756
1041,2G,0,0.3888,1.700073
1044,2G,0,0,4.5531999E-2
1045,2G,0,0,0
1046,2G,0,7.4361,36.275513
1047,2G,0,1.5444,20.17749
1048,2G,0,14.086,79.357666
1050,2G,0,0,4.2723998E-2
1052,2G,0,0,0
1054,2G,0,0,0
1055,2G,0,6.6600002E-2,0.266601
1056,2G,0,0.22220001,9.0330001E-3
1057,2G,0,0.1443,0.18566801
1058,2G,0,3.3300001E-2,0.1156
1059,2G,0,7.7600002E-2,3.9559309
1060,2G,0,0.0277,9.0330001E-3
1061,2G,0,5.5500001E-2,0.000122
1063,2G,0,8.2999999E-3,0.54125899
1066,2G,0,5.8277001,4.3270259
1067,2G,0,2.7000001E-3,0
1068,2G,0,0,0
1069,2G,0,7.5000003E-2,1.223876
1070,2G,0,0.025,0.014892
1071,2G,0,0.93889999,1.2000001E-3
1072,2G,0,0,0
1073,2G,0,0.1805,8.3129004E-2
1077,2G,0,0.2764,0
1078,2G,0,0.1805,0.51586902
1081,2G,0,0.33050001,1.1957999
1083,2G,0,0.87220001,0.22919999
1084,2G,0,0.3055,0
1086,2G,0,0.61659998,3.3691001
1087,2G,0,0,0
1091,2G,0,0,0
1093,2G,0,0.66530001,2.4999999E-3
1094,2G,0,2.2721,5.1154771
1097,2G,0,2.3137999,7.1165762
1099,2G,0,9.7199999E-2,0.35266101
1100,2G,0,1.3944,2.589843
1101,2G,0,0.31659999,0.69555598
1105,2G,0,5.0000001E-2,0.021728
1106,2G,0,0.2527,1.4106441
1107,2G,0,0.36939999,1.785888
1108,2G,0,0.13609999,0
1111,2G,0,0,0
1112,2G,0,0.18880001,6.2743999E-2
1113,2G,0,0.5194,16.010132
1118,2G,0,0,0
1120,2G,0,1.025,1.335815
1122,2G,0,0.1444,3.2086179
1124,2G,0,8.6099997E-2,0.169433
1125,2G,0,0.22220001,0.114501
1128,2G,0,1.3361,3.362304
1129,2G,0,0.2027,0.16455001
1130,2G,0,0.0305,4.5159999E-3
1131,2G,0,0,0
1132,2G,0,0.31110001,7.2387002E-2
1134,2G,0,0.22220001,2.068969
1135,2G,0,0.61659998,0.422607
1136,2G,0,0.0277,0
1137,2G,0,0,0
1138,2G,0,0.25549999,0.920654
1140,2G,0,0.27770001,0.79308999
1141,2G,0,0.13330001,0
1142,2G,0,0,0
1143,2G,0,0.56110001,0.2052
1144,2G,0,0,0
1145,2G,0,4.4399999E-2,0.079223
1147,2G,0,2.3333001,9.9905996
1149,2G,0,0.15270001,0.21642999
1150,2G,0,1.6472,0.163574
1153,2G,0,0,0
1155,2G,0,1.0915999,2.6273191
1156,2G,0,0.30000001,6.1278999E-2
1163,2G,0,8.2999999E-3,5.8590001E-3
1166,2G,0,0.63609999,0.279663
1167,2G,0,1.6666,3.3569001E-2
1168,2G,0,2.7637999,2.512084
1170,2G,0,2.6194,1.88977
1172,2G,0,3.6847,13.616799
1173,2G,0,3.9638,3.7366941
1174,2G,0,0.59439999,0.27209401
1175,2G,0,0.1194,0.020629
1176,2G,0,0.1611,5.5907998E-2
1181,2G,0,0.35550001,6.3902578
1182,2G,0,1.3055,1.059814
1184,2G,0,0.29159999,0.29919401
1185,2G,0,1.8361,6.388793
1189,2G,0,0.56940001,0.53234798
1190,2G,0,0.5,0.35497999
1192,2G,0,1.8861001,1.890502
1198,2G,0,0.0416,3.087646
1200,2G,0,0.38049999,2.6854999E-2
1201,2G,0,0.0305,0.044799
1202,2G,0,0,0.144897
1203,2G,0,0.30000001,9.5429678
1204,2G,0,0.66939998,19.78772
1206,2G,0,0,0
1207,2G,0,1.1388,3.256958
1208,2G,0,3.2527001,1.490356
1209,2G,0,0.0416,3.5399999E-3
1212,2G,0,1.4416,3.1125481
1213,2G,0,2.1944001,11.617675
1214,2G,0,0.41940001,0.25964299
1215,2G,0,14.1276,51.515381
1218,2G,0,1.197,13.554442
1220,2G,0,228.4944,288.6785
1222,2G,0,13.6665,178.89209
1223,2G,0,7.3304996,71.078613
1224,2G,0,44.774899,410.33801
1226,2G,0,2.9834001,6.9514999
1229,2G,0,23.258202,151.81006
1230,2G,0,18.591499,75.878906
1231,2G,0,1.8029001,18.5769
1232,2G,0,3.3764999,21.551399
1233,2G,0,13.9303,377.12122
1234,2G,0,16.3249,187.81213
1235,2G,0,8.3610001,108.44434
1236,2G,0,6.5276999,33.493042
1237,2G,0,8.1164999,25.883299
1238,2G,0,15.1527,139.89124
1239,2G,0,22.4083,89.085403
1240,2G,0,26.5138,258.27515
1241,2G,0,8.8056002,18.3554
1242,2G,0,17.761501,65.414597
1243,2G,0,7.1652002,24.285101
1244,2G,0,6.0221,28.410276
1245,2G,0,7.3748999,49.638794
1246,2G,0,26.6304,134.72485
1247,2G,0,22.877701,212.46704
1248,2G,0,3.8999,16.327881
1250,2G,0,24.6138,136.61548
1251,2G,0,18.9361,99.322502
1252,2G,0,30.056999,70.368401
1254,2G,0,19.112499,95.965401
1256,2G,0,21.902601,135.40735
1259,2G,0,34.216599,150.82532
1261,2G,0,13.4331,153.06506
1262,2G,0,29.466499,358.88745
1263,2G,0,24.997,274.46423
1265,2G,0,30.0471,212.01392
1266,2G,0,45.627602,197.68604
1267,2G,0,13.1915,123.81445
1268,2G,0,108.6943,672.98804
1269,2G,0,15.7972,45.035999
1270,2G,0,18.585999,127.03821
1271,2G,0,8.6943998,90.06189
1273,2G,0,11.311,181.96887
1274,2G,0,11.7193,48.39624
1275,2G,0,29.005402,279.58777
1276,2G,0,9.3943005,30.231567
1277,2G,0,13.191601,85.847412
1278,2G,0,51.122101,314.30518
1279,2G,0,15.8916,48.937378
1281,2G,0,17.0208,99.287201
1283,2G,0,6.4695001,18.3615
1286,2G,0,19.927601,107.99048
1287,2G,0,30.5998,155.29358
1288,2G,0,6.1623998,87.564201
1289,2G,0,12.3638,98.980804
1290,2G,0,38.0499,177.31665
1291,2G,0,7.5598001,43.978703
1292,2G,0,17.9165,72.736206
1293,2G,0,30.3748,160.06335
1294,2G,0,68.299904,179.80298
1295,2G,0,9.8303995,52.245361
1296,2G,0,56.9025,318.93359
1297,2G,0,30.935999,396.03882
1298,2G,0,5.9138002,124.87585
1299,2G,0,10.7776,154.0741
1301,2G,0,2.7361,24.159666
1303,2G,0,5.2915998,65.34021
1304,2G,0,1.9083,3.006103
1305,2G,0,0.3944,0.56591702
1306,2G,0,0.49160001,7.7562251
1311,2G,0,0.7999,27.697388
1312,2G,0,0.79159999,0.60790998
1316,2G,0,0.26109999,1.268188
1320,2G,0,0,0
1321,2G,0,5.5861001,111.26294
1322,2G,0,1.8388,28.112791
1323,2G,0,6.7305002,112.02258
1324,2G,0,3.2361,14.129882
1325,2G,0,1.9665999,11.629759
1326,2G,0,3.3166001,17.479492
1327,2G,0,3.6220999,100.14636
1328,2G,0,3.8471999,98.202881
1329,2G,0,1.6861,35.437744
1330,2G,0,1.3305,24.12439
1331,2G,0,1.3472,28.031006
1332,2G,0,1.2833,31.661011
1333,2G,0,4.2804999,162.73352
1334,2G,0,1.1,24.176147
1335,2G,0,2.7000001E-3,6.0999999E-4
1338,2G,0,5.0000001E-2,0.80517501
1340,2G,0,0,0
1345,2G,0,3.7221999,15.275024
1346,2G,0,0.8915,39.093384
1347,2G,0,8.0499999E-2,0.26232901
1348,2G,0,0,0.43981901
1349,2G,0,0.0638,1.123168
1351,2G,0,0.70700002,2.0769
1352,2G,0,5.3832998,120.19165
1353,2G,0,4.2388,63.441528
1358,2G,0,0.40000001,2.2826999E-2
1359,2G,0,0.91939998,1.7365
1364,2G,0,1.0416,0.258544
1370,2G,0,4.7200002E-2,0
1371,2G,0,0.29440001,4.8751221
1372,2G,0,0.1388,0.000122
1373,2G,0,0.3527,0
1374,2G,0,0.24160001,3.6619999E-3
1378,2G,0,1.9400001E-2,3.7475001E-2
1379,2G,0,0.0722,0.83227497
1381,2G,0,8.2999999E-3,6.0999999E-4
1382,2G,0,1.0972,0.35876399
1383,2G,0,1.325,0.013
1386,2G,0,0.3777,0.018676
1387,2G,0,1.9400001E-2,0.015014
1388,2G,0,0,0.000122
1392,2G,0,0.17219999,4.4066999E-2
1394,2G,0,0.3888,4.0087881
1395,2G,0,1.1137,8.9100003E-3
1396,2G,0,0.49150002,0.935058
1397,2G,0,0,0
1400,2G,0,0.0222,0.85595697
1401,2G,0,0.43880001,3.431762
1402,2G,0,0.38049999,15.314453
1405,2G,0,0,0
1407,2G,0,6.1099999E-2,0.012451
1411,2G,0,0.86659998,0.75036597
1414,2G,0,0,6.5910001E-3
1415,2G,0,0.54439998,1.637329
1417,2G,0,8.2999999E-3,1.0959001
1419,2G,0,2.5694001,0
1420,2G,0,1.1375,3.8655
1421,2G,0,0.1444,0
1422,2G,0,8.6099997E-2,5.1000002E-3
1423,2G,0,0.1,3.8999999E-3
1425,2G,0,0.15549999,0.219116
1426,2G,0,0,0
1428,2G,0,1.9400001E-2,0
1429,2G,0,0,0
1431,2G,0,0.25819999,4.8270264
1432,2G,0,0.0722,1.734619
1433,2G,0,0.92500001,13.40393
1434,2G,0,0.2861,11.37854
1436,2G,0,0,0
1440,2G,0,0,0
1450,2G,0,0,0
1451,2G,0,2.4819,0.2066
1453,2G,0,4.6943998,1.114501
1454,2G,0,5.5276999,5.3476558
1458,2G,0,6.8583002,36.174438
1459,2G,0,0,0
1460,2G,0,1.6444,1.9619139
1461,2G,0,2.2555001,53.595215
1463,2G,0,5.9805002,0.59680098
1466,2G,0,4.5026999,2.0760491
1472,2G,0,0.1222,0.87805098
1478,2G,0,0,0
1479,2G,0,0.44440001,1.661743
1482,2G,0,0,1.8418
1485,2G,0,0.0305,0
1489,2G,0,0,0
1493,2G,0,0.2361,2.8378899
1497,2G,0,0.2111,0.554443
1498,2G,0,8.2999999E-3,0
1499,2G,0,2.3194001,3.4231999
1500,2G,0,0.2111,0.53576601
1501,2G,0,4.3471999,7.6962891
1502,2G,0,1.1027,0.54516602
1504,2G,0,5.5943999,9.3878174
1505,2G,0,1.4222,1.985351
1506,2G,0,2.8276999,22.761229
1507,2G,0,16.2609,61.131958
1509,2G,0,6.7775998,87.752808
1510,2G,0,5.3582001,118.46375
1512,2G,0,19.874901,107.7074
1513,2G,0,65.610901,302.17468
1514,2G,0,108.397,517.47375
1515,2G,0,4.6665998,16.046019
1517,2G,0,0,0
1518,2G,0,0.23890001,12.6551
1519,2G,0,16.169399,20.5469
1521,2G,0,21.9333,160.31812
1523,2G,0,7.9582,192.95056
1525,2G,0,13.8887,70.644531
1526,2G,0,15.597,122.24072
1527,2G,0,13.5749,112.2157
1528,2G,0,5.5514002,19.241701
1529,2G,0,27.063801,214.18359
1530,2G,0,24.663799,183.70471
1531,2G,0,15.374901,150.37976
1532,2G,0,26.9498,141.75659
1533,2G,0,22.861,232.17627
1536,2G,0,11.8276,153.14307
1538,2G,0,11.1776,120.24268
1539,2G,0,40.310902,111.01294
1540,2G,0,43.149799,203.47986
1541,2G,0,20.4165,45.729492
1544,2G,0,7.3485999,16.574001
1545,2G,0,17.433399,128.01871
1547,2G,0,29.115301,46.188499
1549,2G,0,13.8111,40.065598
1550,2G,0,0,0
1551,2G,0,20.524799,111.54041
1552,2G,0,18.785999,127.05237
1553,2G,0,27.994301,114.53503
1554,2G,0,31.747,118.42871
1555,2G,0,41.447098,280.23877
1556,2G,0,28.894299,222.95264
1557,2G,0,25.7332,157.83521
1559,2G,0,2.5693998,40.780762
1560,2G,0,11.2304,32.099487
1561,2G,0,1.7276,5.6130371
1568,2G,0,1.868,1.813
1571,2G,0,22.874899,181.91626
1572,2G,0,11.2693,32.367188
1573,2G,0,40.947098,274.02368
1574,2G,0,5.2263999,19.7117
1575,2G,0,21.319302,207.25208
1577,2G,0,15.2625,114.149
1578,2G,0,20.768,73.237404
1581,2G,0,15.5554,317.33472
1584,2G,0,14.3027,197.74158
1585,2G,0,0,0
1586,2G,0,44.274899,293.79932
1587,2G,0,57.071999,146.70557
1588,2G,0,145.7305,541.21094
1590,2G,0,12.6276,60.299316
1592,2G,0,67.535995,415.76453
1594,2G,0,10.1054,98.191162
1595,2G,0,18.9804,72.026245
1599,2G,0,30.595701,88.747299
1600,2G,0,1.0998,8.0390606
1601,2G,0,5.2249002,41.617676
1602,2G,0,4.9055004,76.217773
1604,2G,0,6.5999002,32.831055
1605,2G,0,9.7054005,106.50671
1606,2G,0,31.586,181.3125
1607,2G,0,8.5469999,114.65686
1608,2G,0,24.2943,249.20374
1609,2G,0,14.216499,120.94153
1610,2G,0,3.0431001,38.220699
1611,2G,0,27.8736,172.35751
1612,2G,0,2.461,15.002806
1613,2G,0,14.2387,45.946041
1614,2G,0,57.188801,379.54651
1616,2G,0,29.6887,148.88367
1617,2G,0,17.0998,151.87769
1618,2G,0,8.8443003,162.99109
1620,2G,0,18.933201,212.89795
1622,2G,0,13.011,210.35437
1623,2G,0,22.9888,252.44055
1624,2G,0,21.0387,39.380493
1625,2G,0,11.8249,248.07983
1626,2G,0,7.9247999,30.928343
1627,2G,0,10.1277,204.28406
1628,2G,0,33.4221,172.49316
1629,2G,0,32.219299,251.47937
1630,2G,0,14.244301,124.65027
1631,2G,0,6.6582003,154.40381
1633,2G,0,8.0720997,89.613403
1636,2G,0,36.213799,155.40454
1638,2G,0,25.1665,285.39954
1639,2G,0,6.7860003,23.682981
1641,2G,0,17.838699,109.44434
1642,2G,0,17.9359,142.01074
1643,2G,0,30.4804,333.6311
1644,2G,0,17.7915,144.83472
1646,2G,0,18.8556,40.487801
1648,2G,0,38.833302,90.943848
1649,2G,0,3.2109001,20.328611
1650,2G,0,3.7304001,116.22449
1651,2G,0,5.3554001,32.609619
1652,2G,0,14.3693,154.78442
1653,2G,0,37.1693,215.66553
1656,2G,0,7.6691999,133.42676
1659,2G,0,9.3915005,117.38318
1660,2G,0,26.302601,291.18591
1662,2G,0,7.1359997,82.501953
1663,2G,0,14.1304,106.27649
1664,2G,0,19.0721,124.05273
1665,2G,0,16.714001,73.8097
1667,2G,0,31.241499,107.09668
1668,2G,0,10.094399,111.36523
1669,2G,0,4.6318998,39.804001
1671,2G,0,1.743,6.4938002
1672,2G,0,13.0653,25.8517
1673,2G,0,8.0514002,8.9719
1674,2G,0,6.2999001,161.73914
1675,2G,0,7.4777002,53.576782
1676,2G,0,5.1275997,51.202881
1677,2G,0,7.8415995,79.085693
1679,2G,0,14.7082,160.39111
1681,2G,0,10.6221,38.453243
1682,2G,0,10.986,141.46289
1683,2G,0,23.3832,167.54858
1684,2G,0,12.438801,98.317871
1685,2G,0,59.586102,154.2415
1686,2G,0,12.186,125.79956
1687,2G,0,36.949802,87.478516
1689,2G,0,11.6582,244.95605
1690,2G,0,11.3332,124.67517
1691,2G,0,7.4748001,80.104248
1692,2G,0,8.7388,128.44983
1693,2G,0,2.7553999,122.91443
1694,2G,0,6.9832001,66.508545
1695,2G,0,3.4193001,40.176392
1696,2G,0,2.6832001,58.551514
1699,2G,0,6.697,129.72131
1700,2G,0,12.694301,158.6073
1701,2G,0,19.7638,176.29431
1702,2G,0,9.6666002,123.33472
1703,2G,0,23.211,224.08569
1704,2G,0,23.7638,128.69788
1705,2G,0,46.780399,131.85046
1706,2G,0,12.9749,64.489868
1708,2G,0,33.630402,228.61755
1709,2G,0,19.2082,103.52405
1710,2G,0,17.258101,167.74683
1711,2G,0,84.866501,274.26587
1712,2G,0,2.125,1.2428
1713,2G,0,5.4275999,37.21423
1715,2G,0,17.6166,88.692627
1716,2G,0,12.836,62.701904
1717,2G,0,8.1638002,4.7651358
1718,2G,0,13.1749,132.92151
1719,2G,0,7.3304,104.45288
1720,2G,0,20.133202,106.21484
1721,2G,0,10.35,81.083496
1722,2G,0,4.0553999,101.05139
1723,2G,0,23.869301,127.64868
1724,2G,0,32.574898,144.13269
1725,2G,0,12.7166,125.0166
1726,2G,0,9.4359999,37.469971
1727,2G,0,34.066502,112.29431
1728,2G,0,21.4055,113.47473
1729,2G,0,12.2694,125.36621
1730,2G,0,33.088699,265.99768
1732,2G,0,40.816597,222.57153
1733,2G,0,31.149799,280.96472
1734,2G,0,4.3415999,33.710201
1735,2G,0,17.174999,137.9243
1736,2G,0,9.4680004,77.118599
1737,2G,0,40.019398,164.23621
1739,2G,0,52.955402,127.61462
1740,2G,0,30.710899,92.724243
1741,2G,0,23.7859,180.19714
1742,2G,0,1.3749,10.716429
1743,2G,0,6.6637001,33.05481
1745,2G,0,7.5580997,97.26123
1747,2G,0,7.4554005,70.067505
1748,2G,0,7.2441998,87.829468
1749,2G,0,11.3056,54.217598
1750,2G,0,27.5832,293.74634
1751,2G,0,30.3666,213.14783
1752,2G,0,11.5666,138.23499
1754,2G,0,10.197001,74.841064
1756,2G,0,6.0292001,66.974495
1757,2G,0,3.2126,40.972298
1758,2G,0,2.2250001,12.7173
1759,2G,0,0.28200001,4.8204999
1760,2G,0,0,0
1763,2G,0,26.216499,291.09717
1764,2G,0,39.158199,380.64429
1766,2G,0,0,0
1768,2G,0,12.1027,51.327637
1769,2G,0,5.8555002,88.806274
1771,2G,0,10.411,72.348267
1774,2G,0,9.6499004,103.61646
1779,2G,0,24.844299,141.83777
1780,2G,0,12.0248,34.077637
1781,2G,0,4.5943999,105.72729
1782,2G,0,28.994301,203.10315
1783,2G,0,37.580498,113.76392
1785,2G,0,1.9582,32.985107
1786,2G,0,6.1777,46.484863
1787,2G,0,3.0304,23.254517
1788,2G,0,11.0416,85.468994
1790,2G,0,5.5914998,93.656738
1791,2G,0,2.9886999,43.954712
1792,2G,0,9.9498005,97.209106
1794,2G,0,26.677601,149.56506
1795,2G,0,6.3720999,19.189939
1796,2G,0,8.2109003,92.085327
1797,2G,0,12.661,164.54834
1798,2G,0,24.2554,110.6012
1799,2G,0,19.535999,164.35681
1800,2G,0,36.330399,190.11719
1801,2G,0,29.8332,191.88354
1802,2G,0,24.8582,133.47437
1803,2G,0,23.319401,126.27014
1804,2G,0,32.247101,267.90784
1805,2G,0,18.9471,234.78638
1806,2G,0,45.902603,171.23511
1807,2G,0,48.6138,228.33997
1808,2G,0,8.0165005,124.81628
1809,2G,0,14.836,39.393921
1811,2G,0,43.208199,320.66309
1812,2G,0,6.5278001,23.503099
1813,2G,0,20.4471,159.07495
1814,2G,0,43.085999,263.46301
1815,2G,0,1.364,11.4048
1816,2G,0,44.805401,322.66211
1817,2G,0,16.825001,156.57179
1819,2G,0,11.4443,75.044067
1820,2G,0,64.835999,433.72278
1822,2G,0,23.2192,53.166016
1823,2G,0,5.9486003,14.8178
1824,2G,0,14.7778,39.136299
1825,2G,0,65.058197,330.98242
1827,2G,0,0.44029999,1.2797
1828,2G,0,13.3082,109.672
1831,2G,0,34.435902,466.31995
1833,2G,0,26.7082,306.08008
1834,2G,0,26.736,221.94641
1835,2G,0,41.772099,205.67456
1838,2G,0,24.3165,240.1842
1839,2G,0,66.666504,226.2157
1840,2G,0,30.997101,222.98682
1841,2G,0,19.744299,219.07922
1843,2G,0,28.155399,112.17065
1844,2G,0,45.541599,415.13843
1845,2G,0,26.763699,138.35706
1847,2G,0,26.0499,346.03308
1848,2G,0,39.802601,302.23682
1849,2G,0,30.8776,371.05688
1850,2G,0,24.047001,271.16687
1851,2G,0,11.161,144.17053
1852,2G,0,33.755299,270.672
1853,2G,0,28.408199,204.06763
1854,2G,0,7.3720999,96.559937
1855,2G,0,35.8722,169.47839
1856,2G,0,15.9249,66.476196
1858,2G,0,21.051399,65.585701
1860,2G,0,27.1138,191.33643
1861,2G,0,39.636002,181.55457
1863,2G,0,32.3526,265.36804
1864,2G,0,13.2277,63.422852
1865,2G,0,21.124901,146.51831
1866,2G,0,12.086,71.499878
1867,2G,0,23.6665,172.91589
1868,2G,0,34.677601,161.87756
1870,2G,0,4.6055999,65.712799
1872,2G,0,28.6166,49.805664
1874,2G,0,11.0804,165.35596
1875,2G,0,1.9486001,19.688
1876,2G,0,4.2916999,38.3134
1877,2G,0,9.7596998,60.526398
1878,2G,0,9.9137001,131.06555
1880,2G,0,128.00819,616.87085
1881,2G,0,0.19580001,0.95730001
1884,2G,0,13.9445,49.618301
1885,2G,0,3.3221998,10.429
1886,2G,0,15.219399,100.0491
1887,2G,0,4.4138999,34.749298
1888,2G,0,15.7165,94.906738
1889,2G,0,1.8403,9.1500006
1890,2G,0,6.7915001,34.17334
1891,2G,0,3.1664999,67.143433
1893,2G,0,19.552601,129.69189
1894,2G,0,33.569302,149.99561
1895,2G,0,21.883301,150.90137
1897,2G,0,28.952702,217.67188
1898,2G,0,15.8166,104.90234
1899,2G,0,47.285999,191.8667
1900,2G,0,4.9442997,47.955196
1901,2G,0,3.7581999,7.3958721
1902,2G,0,39.344402,283.13611
1903,2G,0,26.944399,93.137703
1904,2G,0,32.452599,184.89185
1905,2G,0,11.8194,35.336304
1907,2G,0,3.9165001,13.64282
1908,2G,0,3.2137001,53.835327
1909,2G,0,18.058201,104.42297
1910,2G,0,5.5180001,17.3864
1911,2G,0,41.249901,122.87317
1912,2G,0,40.4193,397.85803
1913,2G,0,9.1749001,195.87317
1914,2G,0,17.497101,149.65588
1915,2G,0,20.180399,105.71594
1916,2G,0,32.563702,191.22827
1918,2G,0,18.216499,157.49634
1919,2G,0,113.3304,570.65723
1920,2G,0,48.255402,228.33459
1921,2G,0,9.8359995,92.129272
1925,2G,0,17.344299,93.415527
1926,2G,0,33.802601,124.84253
1927,2G,0,25.4804,145.52283
1928,2G,0,43.019199,206.45544
1929,2G,0,100.9359,479.32654
1930,2G,0,36.594299,169.77661
1931,2G,0,76.188599,242.12012
1932,2G,0,0,0
1933,2G,0,18.5415,181.6156
1934,2G,0,31.080502,172.92139
1935,2G,0,19.2138,244.01184
1936,2G,0,25.8193,131.44434
1938,2G,0,32.038799,249.4198
1939,2G,0,0,0
1940,2G,0,24.1777,244.95386
1941,2G,0,20.8221,368.20715
1942,2G,0,27.905401,110.75842
1943,2G,0,13.0081,194.07007
1944,2G,0,3.1970999,9.3034668
1945,2G,0,13.3915,48.916748
1946,2G,0,7.2666001,79.041748
1947,2G,0,16.347099,97.294312
1949,2G,0,17.144199,63.605835
1950,2G,0,5.2486997,7.7010999
1952,2G,0,12.1221,103.72363
1954,2G,0,15.3304,177.93311
1955,2G,0,19.430401,338.33936
1956,2G,0,24.716501,101.82935
1960,2G,0,3.8304,19.958616
1962,2G,0,0,0
1963,2G,0,32.199898,168.20508
1964,2G,0,20.8638,110.4624
1965,2G,0,14.2276,89.053345
1967,2G,0,59.883198,412.87817
1968,2G,0,10.2776,125.82568
1969,2G,0,10.7943,34.927002
1972,2G,0,34.497002,261.10034
1974,2G,0,53.463699,418.31458
1976,2G,0,36.292999,182.1588
1979,2G,0,26.4527,258.1405
1980,2G,0,31.299801,129.08594
1981,2G,0,9.9942999,134.31152
1982,2G,0,40.483101,141.21606
1984,2G,0,44.349899,164.62512
1987,2G,0,34.341599,142.20654
1989,2G,0,11.7638,79.035156
1991,2G,0,70.924797,482.17285
1992,2G,0,14.1902,78.289597
1993,2G,0,7.1054001,180.62524
1995,2G,0,14.9721,59.503418
1996,2G,0,1.1236,1.6389
1997,2G,0,6.5430999,20.2771
1998,2G,0,1.1166999,5.5302
1999,2G,0,3.1831999,18.761597
2005,2G,0,1.4109,21.022217
2008,2G,0,11.6498,113.27417
2009,2G,0,44.369301,160.13379
2010,2G,0,23.561001,152.41809
2012,2G,0,32.622002,364.39868
2013,2G,0,11.652599,41.780396
2014,2G,0,28.527599,162.11743
2016,2G,0,25.799799,218.54114
2017,2G,0,6.2581997,30.238281
2018,2G,0,21.8388,157.58667
2019,2G,0,9.5777998,42.235699
2020,2G,0,2.8598001,37.1824
2022,2G,0,30.954199,295.9505
2023,2G,0,7.5931001,4.5411
2024,2G,0,0.53890002,10.364901
2025,2G,0,25.329201,84.181602
2026,2G,0,4.1929998,14.401199
2027,2G,0,16.3083,138.1481
2028,2G,0,28.8139,161.83119
2029,2G,0,11.981899,83.928398
2030,2G,0,4.2582002,43.154663
2031,2G,0,40.436001,643.11975
2032,2G,0,5.7582998,84.913696
2033,2G,0,33.6054,274.87244
2034,2G,0,22.870899,215.3941
2035,2G,0,9.1303997,12.614623
2037,2G,0,4.1443,103.06042
2041,2G,0,3.0609999,63.938232
2043,2G,0,13.3943,98.659546
2046,2G,0,75.024803,261.52783
2047,2G,0,0,0
2048,2G,0,14.6306,160.78569
2049,2G,0,8.3275995,150.02344
2050,2G,0,11.0665,167.88391
2053,2G,0,16.8276,236.94434
2054,2G,0,14.952701,117.58472
2056,2G,0,11.2582,134.35681
2057,2G,0,15.4165,195.0282
2058,2G,0,10.6805,71.234619
2059,2G,0,24.674799,271.91736
2061,2G,0,23.780399,374.68835
2062,2G,0,18.783199,255.90857
2065,2G,0,60.652699,517.23071
2067,2G,0,9.5277004,325.02039
2069,2G,0,11.402599,113.75952
2070,2G,0,10.9859,354.49939
2071,2G,0,52.957001,251.49741
2072,2G,0,8.5375004,108.506
2073,2G,0,4.5693002,58.988403
2074,2G,0,17.6486,88.851303
2076,2G,0,4.4597001,35.6973
2079,2G,0,6.9833002,43.722
2080,2G,0,9.743,104.16389
2081,2G,0,3.0332999,139.57068
2082,2G,0,1.1832,105.36792
2083,2G,0,7.9526005,17.399656
2090,2G,0,5.4082003,22.292099
2091,2G,0,41.713799,277.8363
2092,2G,0,4.1582999,109.7575
2094,2G,0,22.630402,95.434204
2096,2G,0,18.766701,171.75211
2098,2G,0,8.2526999,119.15027
2099,2G,0,12.963799,169.14429
2100,2G,0,10.9887,297.94446
2101,2G,0,21.691502,211.99548
2102,2G,0,34.708199,254.83594
2103,2G,0,45.497002,393.24597
2105,2G,0,13.7999,76.708374
2106,2G,0,76.994301,638.35205
2107,2G,0,15.8222,216.11853
2108,2G,0,13.4221,215.20276
2109,2G,0,11.1248,79.378784
2110,2G,0,16.177601,161.12964
2111,2G,0,9.1970997,89.070679
2112,2G,0,23.8193,379.85754
2113,2G,0,18.9221,83.692139
2114,2G,0,16.546999,293.33887
2116,2G,0,27.360899,388.56531
2119,2G,0,19.2638,207.34375
2120,2G,0,47.738701,417.48267
2121,2G,0,0,0
2123,2G,0,30.8554,268.18896
2124,2G,0,27.6581,306.26733
2125,2G,0,31.322001,385.03979
2126,2G,0,8.5388002,202.89734
2127,2G,0,10.5389,58.656601
2128,2G,0,8.5055008,84.291595
2129,2G,0,6.0151997,30.008699
2130,2G,0,22.0832,177.06104
2131,2G,0,14.8054,239.18396
2133,2G,0,26.2693,149.54236
2134,2G,0,16.216499,41.672119
2135,2G,0,36.755402,181.04163
2136,2G,0,4.4748998,117.16565
2139,2G,0,12.7554,121.80066
2140,2G,0,27.352699,344.30212
2142,2G,0,11.7083,109.35559
2144,2G,0,28.4804,256.23853
2145,2G,0,6.6443,94.993774
2148,2G,0,22.5581,155.57983
2150,2G,0,17.004101,67.579201
2151,2G,0,22.8027,206.61047
2153,2G,0,24.6359,342.17249
2154,2G,0,7.9221001,91.939209
2156,2G,0,21.6499,83.057251
2157,2G,0,15.869301,54.042725
2158,2G,0,22.961,232.68225
2159,2G,0,15.4026,191.47424
2160,2G,0,26.8804,301.12512
2161,2G,0,8.9638004,118.50562
2162,2G,0,11.5736,68.152405
2165,2G,0,13.896999,73.474487
2166,2G,0,15.0029,72.628098
2167,2G,0,7.4375,48.153603
2168,2G,0,15.1971,279.50037
2169,2G,0,21.035999,163.70972
2170,2G,0,18.1721,95.502563
2172,2G,0,16.4499,133.55957
2173,2G,0,5.3555002,38.37793
2175,2G,0,19.158199,189.65808
2176,2G,0,15.4776,93.446777
2177,2G,0,19.627701,167.30981
2178,2G,0,34.9249,395.93396
2179,2G,0,19.7805,249.95789
2180,2G,0,19.566601,240.1969
2185,2G,0,15.511,138.40918
2186,2G,0,7.5388002,196.32385
2187,2G,0,41.422001,231.3877
2188,2G,0,24.8277,369.21936
2189,2G,0,13.4527,100.72363
2190,2G,0,3.5998001,67.250122
2192,2G,0,3.3443,97.9552
2193,2G,0,13.5886,197.85229
2194,2G,0,17.111,223.22351
2195,2G,0,27.976299,169.0683
2196,2G,0,0.67220002,5.7657471
2197,2G,0,20.111,231.3136
2198,2G,0,42.452602,313.93835
2200,2G,0,33.194298,244.50586
2201,2G,0,14.3582,116.43506
2202,2G,0,52.224899,626.67957
2203,2G,0,9.4387999,60.863159
2204,2G,0,16.0721,44.037964
2205,2G,0,18.608101,285.79285
2211,2G,0,3.6137998,15.827635
2212,2G,0,28.7887,321.58569
2214,2G,0,14.8304,161.72876
2215,2G,0,12.5471,95.999146
2217,2G,0,19.591499,186.04272
2218,2G,0,0,0
2219,2G,0,28.152699,423.40356
2220,2G,0,28.877701,277.10828
2221,2G,0,10.5332,313.76306
2223,2G,0,78.541504,435.5968
2224,2G,0,13.919201,147.56934
2226,2G,0,26.5471,186.93274
2227,2G,0,16.741501,66.854248
2228,2G,0,59.422104,631.76868
2229,2G,0,14.7832,80.467163
2230,2G,0,35.986,210.99963
2231,2G,0,31.874901,319.84961
2232,2G,0,0,0
2233,2G,0,15.5973,122.35239
2235,2G,0,33.655399,285.09058
2236,2G,0,14.1026,91.663452
2237,2G,0,99.435898,868.44653
2238,2G,0,31.1194,196.0708
2239,2G,0,13.494301,167.02197
2240,2G,0,20.2054,371.59668
2241,2G,0,22.3221,183.85986
2242,2G,0,0,0
2243,2G,0,9.8276997,146.32788
2245,2G,0,9.0247993,77.690063
2246,2G,0,6.7666001,158.77185
2247,2G,0,28.8221,210.64233
2250,2G,0,13.5443,248.58301
2251,2G,0,30.7943,578.42542
2252,2G,0,20.5054,138.15857
2253,2G,0,21.2693,251.31689
2254,2G,0,26.5277,389.35559
2256,2G,0,0,0
2257,2G,0,11.661,73.714233
2258,2G,0,48.713898,382.2944
2259,2G,0,3.3803999,45.115234
2260,2G,0,38.024902,274.85559
2261,2G,0,41.436001,142.19873
2262,2G,0,10.9026,181.09888
2264,2G,0,9.2875004,81.816902
2265,2G,0,10.8778,55.524399
2267,2G,0,9.0653,139.7316
2268,2G,0,13.8832,273.14075
2269,2G,0,44.544399,201.2981
2270,2G,0,4.1054001,87.840454
2271,2G,0,16.9582,228.95166
2272,2G,0,36.358101,403.71582
2273,2G,0,18.4167,120.2292
2274,2G,0,2.6914999,101.99133
2275,2G,0,16.6264,36.999298
2278,2G,0,9.7776003,153.28931
2280,2G,0,3.1276999,3.5618
2282,2G,0,2.6264999,7.2059002
2284,2G,0,5.2582002,80.476074
2285,2G,0,10.8943,103.79932
2286,2G,0,60.047001,533.34546
2287,2G,0,7.6081996,41.57373
2288,2G,0,17.7125,92.744896
2289,2G,0,105.9375,254.7601
2292,2G,0,6.4875002,21.475901
2293,2G,0,11.4319,93.533005
2294,2G,0,31.6332,321.31091
2295,2G,0,7.6526999,213.07922
2296,2G,0,5.6219997,59.983154
2297,2G,0,11.7999,121.26953
2298,2G,0,71.379196,240.5656
2299,2G,0,15.0264,80.0214
2300,2G,0,18.736,104.0153
2301,2G,0,31.6527,77.8992
2302,2G,0,0.55000001,35.042301
2303,2G,0,0.41670001,1.7485
2304,2G,0,2.8527999,6.6395998
2307,2G,0,0.0111,6.6817999
2308,2G,0,5.1653004,18.2668
2309,2G,0,2.5402999,12.1129
2310,2G,0,9.7666998,47.9673
2311,2G,0,11.8195,41.191502
2312,2G,0,0.54580003,19.123299
2315,2G,0,10.1276,47.241695
2316,2G,0,7.0053997,86.452881
2317,2G,0,22.237499,88.835899
2318,2G,0,4.4886999,19.730591
2319,2G,0,21.8764,110.6716
2321,2G,0,3.5569,60.6306
2322,2G,0,41.173698,213.767
2323,2G,0,2.9417,1.7133
2324,2G,0,39.266499,524.85986
2326,2G,0,16.898701,130.0836
2327,2G,0,54.819298,318.53333
2329,2G,0,9.9139004,21.613001
2330,2G,0,2.1251001,8.6272993
2331,2G,0,0.24160001,1.2414
2332,2G,0,3.825,5.3617001
2333,2G,0,69.026398,292.50369
2334,2G,0,36.012501,131.6656
2335,2G,0,6.8666,205.37021
2337,2G,0,0.55419999,44.370399
2339,2G,0,25.4737,74.483498
2340,2G,0,34.1819,90.075806
2341,2G,0,13.486,212.875
2342,2G,0,72.662598,137.19749
2343,2G,0,26.8556,184.9781
2344,2G,0,33.037399,282.2421
2346,2G,0,3.9333,4.9102001
2348,2G,0,4.4222002,28.735802
2349,2G,0,5.8499999,26.447601
2350,2G,0,4.4500001E-2,1.1478
2351,2G,0,5.2540998,63.940701
2353,2G,0,5.632,32.275398
2355,2G,0,21.675001,117.9071
2357,2G,0,0,0
2358,2G,0,32.0695,229.55769
2363,2G,0,4.0957999,3.2979
2364,2G,0,1.0806,5.3891997
2365,2G,0,27.3708,171.37711
2366,2G,0,0.41249999,2.7035999
2367,2G,0,27.386,82.411201
2368,2G,0,19.311001,86.360298
2370,2G,0,0.98330003,4.9334998
2371,2G,0,107.03329,527.93921
2373,2G,0,0.59729999,6.3842001
2374,2G,0,1.4251001,3.8778
2375,2G,0,2.6917,4.5453
2376,2G,0,4.9138999,35.707699
2377,2G,0,3.3111999,3.2212
2378,2G,0,1.6028,0.20299999
2379,2G,0,0.4806,1.2230999
2380,2G,0,4.0306001,14.763599
2381,2G,0,1.3986,21.5562
2382,2G,0,4.1971998,9.9792004
2383,2G,0,1.3694,1.0256
2384,2G,0,0.48890001,0.39590001
2385,2G,0,0.78200001,22.965601
2386,2G,0,3.3819001,12.6019
2387,2G,0,2.4777,24.9818
2388,2G,0,9.1083994,118.734
2389,2G,0,0.53609997,7.0500001E-2
2390,2G,0,3.339,39.830898
2392,2G,0,0.67360002,8.3389997
2395,2G,0,2.1958001,17.3806
2396,2G,0,16.133301,227.63811
2397,2G,0,8.0166998,42.114899
2399,2G,0,1.3194001,4.6441998
2400,2G,0,22.6637,301.36523
2401,2G,0,22.3554,176.67786
2402,2G,0,0,0
2408,2G,0,3.4861002,71.113304
2411,2G,0,1.3986,2.3546
2413,2G,0,17.7222,102.1694
2414,2G,0,29.6472,157.79779
2415,2G,0,22.8736,78.089203
2416,2G,0,9.0445004,18.1959
2417,2G,0,39.222198,192.403
2418,2G,0,18.454201,39.402599
2420,2G,0,29.0334,225.47121
2422,2G,0,5.7306004,12.9932
2423,2G,0,4.7888999,13.99
2424,2G,0,9.1264,31.539799
2425,2G,0,0,0
2426,2G,0,0.78330004,22.227701
2427,2G,0,4.0402999,84.744301
2429,2G,0,7.0333004,117.192
2432,2G,0,29.866499,247.53381
2433,2G,0,8.8108997,171.94409
2434,2G,0,45.613701,352.86731
2435,2G,0,42.422203,406.74109
2436,2G,0,18.338699,424.651
2437,2G,0,39.097099,125.1073
2439,2G,0,0,0
2441,2G,0,5.1887999,43.901978
2448,2G,0,7.8263998,40.8759
2449,2G,0,5.2234998,48.8946
2453,2G,0,34.729202,225.8027
2454,2G,0,51.941498,338.67847
2456,2G,0,5.6806002,17.3302
2457,2G,0,6.368,287.5881
2458,2G,0,17.7055,286.49268
2460,2G,0,22.044399,85.382401
2461,2G,0,7.7610002,117.422
2464,2G,0,0,0
2469,2G,0,0.65689999,25.8006
2470,2G,0,2.5888,22.685799
2471,2G,0,1.2860999,1.9571999
2477,2G,0,18.4695,161.65871
2478,2G,0,17.5138,99.915199
2481,2G,0,4.0639,75.044998
2485,2G,0,42.959602,142.5605
2486,2G,0,36.4417,209.59109
2490,2G,0,0.81669998,1.7006
2494,2G,0,9.7000003E-3,4.0000002E-3
2495,2G,0,28.6056,231.084
2497,2G,0,24.332001,36.643299
2498,2G,0,0.2042,0.12819999
2501,2G,0,3.3194001,51.406006
2502,2G,0,4.75,26.222166
2503,2G,0,2.5193999,21.140869
2504,2G,0,2.1500001,15.664916
2510,2G,0,2.9110999,14.800415
2511,2G,0,5.1694002,11.119628
2512,2G,0,2.7193999,1.7200921
2513,2G,0,2.3304999,2.9464109
2516,2G,0,0.2388,1.213623
2517,2G,0,1.8166,0.36291501
2519,2G,0,1.4471999,2.372436
2520,2G,0,1.6526999,4.8916011
2521,2G,0,6.9222002,9.2519531
2522,2G,0,3.7916,20.61792
2525,2G,0,2.2693999,41.329102
2527,2G,0,2.2750001,8.2867432
2528,2G,0,1.9361,5.936645
2530,2G,0,5.1777,30.544434
2532,2G,0,1.4972,2.5518789
2533,2G,0,0.49720001,0.154052
2535,2G,0,0,0
2536,2G,0,3.9611001,29.691528
2558,2G,0,2.125,29.387573
2561,2G,0,0,0
2562,2G,0,1.1222,1.351
2563,2G,0,0.0583,1.9999999E-4
2564,2G,0,0,0
2566,2G,0,0,0
2567,2G,0,0.1847,10.6595
2569,2G,0,0,0
2570,2G,0,3.9721999,113.6593
2572,2G,0,4.6971998,25.14856
2574,2G,0,2.0416,11.251586
2576,2G,0,3.8611,0.65490699
2578,2G,0,6.2333002,17.776978
2582,2G,0,1.8694,0.14624
2588,2G,0,0,0
2600,2G,0,1.625,1.1604
2604,2G,0,9.4400004E-2,0.47570801
2606,2G,0,0.51380002,0.70458901
2607,2G,0,0.99159998,0.63366598
2608,2G,0,3.6526999,15.91394
2609,2G,0,0.98329997,1.08374
2610,2G,0,1.0833,0.104248
2613,2G,0,5.0000001E-2,0
2614,2G,0,2.2305,2.3343501
2615,2G,0,0.2138,0.010009
2618,2G,0,1.125,2.5024409
2619,2G,0,3.3300001E-2,0
2620,2G,0,1.8527,9.8277578
2621,2G,0,0.80269998,0.43310499
2622,2G,0,2.2193999,8.3652344
2623,2G,0,0.4111,4.4262691
2625,2G,0,1.0694,0.790649
2626,2G,0,5.8415999,43.374146
2627,2G,0,8.0137997,24.920532
2629,2G,0,0.7166,1.798828
2630,2G,0,3.8800001E-2,8.9109996E-3
2631,2G,0,0,0
2632,2G,0,0,0
2633,2G,0,1.3832999,0.245849
2634,2G,0,3.1972001,12.250244
2636,2G,0,0.76660001,4.413085
2637,2G,0,1.6138,10.05249
2638,2G,0,5.0194001,38.263428
2639,2G,0,4.9916,25.437744
2640,2G,0,25.838699,395.62048
2642,2G,0,0,0
2644,2G,0,0,0
2645,2G,0,0,0
2646,2G,0,0.27500001,1.04187
2647,2G,0,0.13609999,2.514282
2648,2G,0,0.41659999,0.95812899
2649,2G,0,0.49439999,0.95629799
2650,2G,0,0.58609998,4.6904292
2652,2G,0,5.2832999,13.43457
2657,2G,0,1.0472,8.0739002
2662,2G,0,3.1415999,31.244629
2663,2G,0,0,0
2664,2G,0,2.6194,4.8582759
2665,2G,0,0,0
2666,2G,0,0.29440001,2.1672361
2668,2G,0,0,0
2669,2G,0,0.33329999,1.147338
2670,2G,0,0,0
2672,2G,0,0,0
2673,2G,0,0.2333,2.644165
2675,2G,0,2.1138999,53.657902
2677,2G,0,0.0153,0.1551
2679,2G,0,3.2583001,0.308227
2680,2G,0,22.183201,147.97949
2681,2G,0,1.0915999,1.519897
2684,2G,0,1.4888,4.530273
2685,2G,0,0,0
2686,2G,0,1.5194,0.74949998
2689,2G,0,7.9555001,46.141357
2690,2G,0,0.58609998,1.094848
2691,2G,0,2.1111,2.5875239
2693,2G,0,4.9638,13.338012
2695,2G,0,8.3137999,19.590698
2697,2G,0,4.6637998,9.7635489
2704,2G,0,0,0
2714,2G,0,3.3764,2.6385
2715,2G,0,4.7153001,8.2765999
2716,2G,0,9.4292002,12.3548
2717,2G,0,3.0875001,14.8791
2718,2G,0,3.6443999,5.8485999
2719,2G,0,1.6332999,1.4557
2720,2G,0,2.8708,23.3398
2721,2G,0,2.8347001,57.279701
2723,2G,0,0.40279999,0.18099999
2727,2G,0,4.4805999,21.023199
2728,2G,0,0.18189999,8.8290005
2729,2G,0,5.5903001,10.8434
2731,2G,0,2.4277999,5.7147002
2780,2G,0,0.6972,0.26501399
2786,2G,0,1.625,0.013061
2792,2G,0,1.0694,5.3406978
2793,2G,0,1.9194,25.466431
2797,2G,0,0,0
2798,2G,0,1.8638,1.058715
2799,2G,0,3.6514001,0.7471
2800,2G,0,12.5319,33.1353
2801,2G,0,20.3874,70.034698
2802,2G,0,43.262501,150.4597
2803,2G,0,18.8514,107.651
2804,2G,0,6.8070002,18.407
2805,2G,0,6.0222001,54.293701
2810,2G,0,0.35969999,6.0639
2811,2G,0,8.9582005,105.89417
2812,2G,0,4.0514002,30.767401
2813,2G,0,31.7861,121.62041
2814,2G,0,6.3832998,3.9988
2815,2G,0,11.965301,62.503899
2816,2G,0,14.4653,100.1167
2818,2G,0,4.2790999,9.5978994
2820,2G,0,3.6610999,8.5292997
2822,2G,0,3.8081,57.412964
2823,2G,0,20.669399,279.56384
2824,2G,0,30.097101,465.99207
2826,2G,0,2.3500001,57.420498
2827,2G,0,27.569199,165.16089
2828,2G,0,26.6903,196.0136
2829,2G,0,14.7819,92.736694
2830,2G,0,7.3304005,80.1698
2831,2G,0,13.6582,352.86169
2832,2G,0,26.1611,254.87317
2836,2G,0,7.9207997,27.557901
2837,2G,0,50.165199,141.23891
2838,2G,0,19.8612,63.626499
2839,2G,0,8.6499996,71.648499
2840,2G,0,12.3722,29.055201
2847,2G,0,29.4084,195.8951
2848,2G,0,14.8848,45.659
2850,2G,0,9.3099996E-2,0.1181
2851,2G,0,2.8959,8.3178997
2852,2G,0,16.0625,36.012