ListenPort	---> 8111
HostAddress	---> 172.23.201.115
HostPort	---> 215
ForwardBytes	---> True
AccessList	---> False
LogDirectory	---> /app/Services/Forward/ZFS
ListenPort	---> 8125
HostAddress	---> 172.21.201.151
HostPort	---> 1521
ForwardBytes	---> True
AccessList	---> False
LogDirectory	---> /app/Services/Forward/PROMODB1
ListenPort	---> 8111
HostAddress	---> 172.23.201.115
HostPort	---> 215
ForwardBytes	---> True
AccessList	---> False
LogDirectory	---> /app/Services/Forward/ZFS
