#
# An unexpected error has been detected by HotSpot Virtual Machine:
#
#  SIGSEGV (0xb) at pc=0xf82075ab, pid=11727, tid=1
#
# Java VM: Java HotSpot(TM) Server VM (1.5.0_23-b01 mixed mode)
# Problematic frame:
# j  java.lang.Throwable.<init>(Ljava/lang/String;)V+0
#

---------------  T H R E A D  ---------------

Current thread (0x080736c8):  JavaThread "main" [_thread_in_Java, id=1]

siginfo:si_signo=11, si_errno=0, si_code=1, si_addr=0x0800bfe0

Registers:
EAX=0x00000000, EBX=0xb3e209a8, ECX=0x000065d1, EDX=0xb3e8d348
ESP=0x0800efe0, EBP=0x0800effc, ESI=0xb3e20980, EDI=0x0800f008
EIP=0xf82075ab, EFLAGS=0x00010287

Top of Stack: (sp=0x0800efe0)
0x0800efe0:   0800efe0 b3e20980 0800f008 b3e8d348
0x0800eff0:   00000000 b3e209a8 0800f004 0800f028
0x0800f000:   f8202b6b f13a9898 f13a98b0 0800f00c
0x0800f010:   b3e22362 0800f034 b3f05b30 b4239b88
0x0800f020:   b3e22370 0800f030 0800f054 f8202b6b
0x0800f030:   f13a9898 f13a98b0 0800f038 b3fda0ba
0x0800f040:   0800f060 b40a5d28 00000000 b3fda0c8
0x0800f050:   0800f05c 0800f080 f8202b6b f13a9898 

Instructions: (pc=0xf82075ab)
0xf820759b:   00 00 89 84 24 00 f0 ff ff 89 84 24 00 e0 ff ff
0xf82075ab:   89 84 24 00 d0 ff ff 65 8b 05 e0 00 00 00 c7 80 

Stack: [0x08008000,0x08048000),  sp=0x0800efe0,  free space=27k
Native frames: (J=compiled Java code, j=interpreted, Vv=VM code, C=native code)
j  java.lang.Throwable.<init>(Ljava/lang/String;)V+0
j  java.lang.Exception.<init>(Ljava/lang/String;)V+2
j  java.io.IOException.<init>(Ljava/lang/String;)V+2
j  java.net.SocketException.<init>(Ljava/lang/String;)V+2
j  java.net.ConnectException.<init>(Ljava/lang/String;)V+2
v  ~StubRoutines::call_stub
V  [libjvm.so+0x1436d7]
V  [libjvm.so+0x1439a4]
V  [libjvm.so+0x1439d8]
V  [libjvm.so+0x17e943]
V  [libjvm.so+0x218bd8]
C  [libjava.so+0xb381]  JNU_NewObjectByName+0x71
C  [libjava.so+0x10e5f]  JNU_ThrowByNameWithLastError+0x4f
C  [libnet.so+0xa7d1]
C  [libnet.so+0x8d5f]  Java_java_net_PlainSocketImpl_socketConnect+0x5ae
j  java.net.PlainSocketImpl.socketConnect(Ljava/net/InetAddress;II)V+0


---------------  P R O C E S S  ---------------

Java Threads: ( => current thread )
  0x08460850 JavaThread "MySQL Statement Cancellation Timer" daemon [_thread_blocked, id=24]
  0x082617b8 JavaThread "Low Memory Detector" daemon [_thread_blocked, id=22]
  0x08260798 JavaThread "CompilerThread1" daemon [_thread_blocked, id=21]
  0x0825f9c0 JavaThread "CompilerThread0" daemon [_thread_blocked, id=20]
  0x0825eb30 JavaThread "AdapterThread" daemon [_thread_blocked, id=19]
  0x0825de60 JavaThread "Signal Dispatcher" daemon [_thread_blocked, id=18]
  0x08251558 JavaThread "Finalizer" daemon [_thread_blocked, id=17]
  0x082510c0 JavaThread "Reference Handler" daemon [_thread_blocked, id=16]
=>0x080736c8 JavaThread "main" [_thread_in_Java, id=1]

Other Threads:
  0x0824efe8 VMThread [id=15]
  0x080edba0 WatcherThread [id=23]

VM state:not at safepoint (normal execution)

VM Mutex/Monitor currently owned by a thread: None

Heap
 PSYoungGen      total 26816K, used 9808K [0xf0e00000, 0xf3a00000, 0xf8000000)
  eden space 22976K, 26% used [0xf0e00000,0xf13d61b0,0xf2470000)
  from space 3840K, 99% used [0xf2480000,0xf283e188,0xf2840000)
  to   space 11008K, 0% used [0xf2f40000,0xf2f40000,0xf3a00000)
 PSOldGen        total 233472K, used 31008K [0xb7e00000, 0xc6200000, 0xf0e00000)
  object space 233472K, 13% used [0xb7e00000,0xb9c48000,0xc6200000)
 PSPermGen       total 16384K, used 4337K [0xb3e00000, 0xb4e00000, 0xb7e00000)
  object space 16384K, 26% used [0xb3e00000,0xb423c720,0xb4e00000)

Dynamic libraries:
0x08050000 	/usr/jdk/instances/jdk1.5.0/bin/java
0xfefb0000 	/lib/libthread.so.1
0xfef80000 	/lib/libdl.so.1
0xfee50000 	/lib/libc.so.1
0xfe600000 	/usr/jdk/instances/jdk1.5.0/jre/lib/i386/server/libjvm.so
0xfee30000 	/lib/libsocket.so.1
0xfefa0000 	/usr/lib/libsched.so.1
0xfee00000 	/usr/lib/libCrun.so.1
0xfede0000 	/lib/libm.so.1
0xfed40000 	/lib/libnsl.so.1
0xfece0000 	/lib/libm.so.2
0xfecb0000 	/lib/libscf.so.1
0xfec90000 	/lib/libdoor.so.1
0xfe5e0000 	/lib/libuutil.so.1
0xfe5c0000 	/lib/libgen.so.1
0xfe5a0000 	/lib/libmd.so.1
0xfe580000 	/lib/libmp.so.2
0xfe560000 	/usr/jdk/instances/jdk1.5.0/jre/lib/i386/native_threads/libhpi.so
0xfe510000 	/usr/jdk/instances/jdk1.5.0/jre/lib/i386/libverify.so
0xfe4e0000 	/usr/jdk/instances/jdk1.5.0/jre/lib/i386/libjava.so
0xfe4b0000 	/usr/jdk/instances/jdk1.5.0/jre/lib/i386/libzip.so
0xb2950000 	/usr/jdk/instances/jdk1.5.0/jre/lib/i386/libnet.so

VM Arguments:
java_command: Send-SMS.jar
Launcher Type: SUN_STANDARD

Environment Variables:
PATH=/usr/bin:
LD_LIBRARY_PATH=/usr/jdk/instances/jdk1.5.0/jre/lib/i386/server:/usr/jdk/instances/jdk1.5.0/jre/lib/i386:/usr/jdk/instances/jdk1.5.0/jre/../lib/i386
SHELL=/usr/bin/sh

Signal Handlers:
SIGSEGV: [libjvm.so+0x52bb20], sa_mask[0]=0xffbffeff, sa_flags=0x00000004
SIGBUS: [libjvm.so+0x52bb20], sa_mask[0]=0xffbffeff, sa_flags=0x00000004
SIGFPE: [libjvm.so+0x177c20], sa_mask[0]=0xffbffeff, sa_flags=0x0000000c
SIGPIPE: [libjvm.so+0x177c20], sa_mask[0]=0xffbffeff, sa_flags=0x0000000c
SIGILL: [libjvm.so+0x177c20], sa_mask[0]=0xffbffeff, sa_flags=0x0000000c
SIGUSR1: SIG_DFL, sa_mask[0]=0x00000000, sa_flags=0x00000000
SIGUSR2: SIG_DFL, sa_mask[0]=0x00000000, sa_flags=0x00000000
SIGHUP: SIG_IGN, sa_mask[0]=0x00000000, sa_flags=0x00000000
SIGINT: SIG_IGN, sa_mask[0]=0x00000000, sa_flags=0x00000000
SIGQUIT: [libjvm.so+0x4cf020], sa_mask[0]=0xffbffeff, sa_flags=0x00000004
SIGTERM: [libjvm.so+0x4cf020], sa_mask[0]=0xffbffeff, sa_flags=0x00000004


---------------  S Y S T E M  ---------------

OS:                        Solaris 10 5/09 s10x_u7wos_08 X86
           Copyright 2009 Sun Microsystems, Inc.  All Rights Reserved.
                        Use is subject to license terms.
                             Assembled 30 March 2009

uname:SunOS 5.10 Generic_142901-03 i86pc  (T2 libthread)
rlimit: STACK 10240k, CORE infinity, NOFILE 65536, AS infinity
load average:0.21 0.41 0.48

CPU:total 16 (cores per cpu 8, threads per core 2) family 6 model 10 stepping 5, cmov, cx8, fxsr, mmx, sse, sse2, ht

Memory: 4k page, physical 16768104k(3967116k free)

vm_info: Java HotSpot(TM) Server VM (1.5.0_23-b01) for solaris-x86, built on Dec  3 2009 00:54:35 by unknown with unknown Workshop:0x550

time: Sun Jul 14 02:52:38 2013
elapsed time: 37713 seconds

