0226171086,201063856389,2013-04-01,READY,ADSL 48,2013-04-01
0237210926,201065036510,2013-04-01,READY,ADSL 48,2013-04-01
0222342820,201094636004,2013-04-01,READY,ADSL 48,2013-04-01
0233825215,201064010040,2013-04-01,READY,ADSL 48,2013-04-01
035620500,201225953610,2013-04-01,READY,ADSL 112,2013-04-01
034407296,201060397043,2013-04-01,READY,ADSL 112,2013-04-01
0133242368,201004642977,2013-04-01,READY,ADSL 112,2013-04-01
0235708475,201000674034,2013-04-01,READY,ADSL 48,2013-04-01
0235477872,201097251467,2013-04-01,READY,ADSL 112,2013-04-01
0242198729,201009872394,2013-04-01,READY,ADSL 112,2013-04-01
0226999754,201001968227,2013-04-01,READY,ADSL 112,2013-04-01
0222059810,201065225325,2013-04-01,READY,ADSL 112,2013-04-01
0553182538,201097388995,2013-04-01,READY,ADSL 48,2013-04-01
0553182421,201066453403,2013-04-01,READY,ADSL 112,2013-04-01
0226205172,201065007144,2013-04-01,READY,ADSL 112,2013-04-01
0502310823,201005656191,2013-04-01,READY,ADSL 48,2013-04-01
0235608653,201014314039,2013-04-01,READY,ADSL 14,2013-04-01
0222500876,201090132131,2013-04-01,READY,ADSL 114,2013-04-01
0663644909,201010518467,2013-04-01,READY,ADSL 112,2013-04-01
0237712754,201097594692,2013-04-01,READY,ADSL 112,2013-04-01
0822320135,201064476876,2013-04-01,READY,ADSL 48,2013-04-01
0223963369,201003336911,2013-04-01,READY,ADSL 48,2013-04-01
0405712212,201006967663,2013-04-01,READY,ADSL 112,2013-04-01
0862371110,201005023553,2013-04-01,READY,ADSL 48,2013-04-01
0226975547,201005702454,2013-04-01,READY,ADSL 112,2013-04-01
015370179,201005283184,2013-04-01,READY,ADSL 112,2013-04-01
0502239761,201007300756,2013-04-01,READY,ADSL 112,2013-04-01
0227043902,201065179918,2013-04-01,READY,ADSL 112,2013-04-01
0223632948,201001576013,2013-04-01,READY,ADSL 112,2013-04-01
0226375435,201008987627,2013-04-01,READY,ADSL 112,2013-04-01
0225144520,201013156783,2013-04-01,READY,ADSL 112,2013-04-01
0237812102,201015131494,2013-04-01,READY,ADSL 112,2013-04-01
0403293895,201067213380,2013-04-01,READY,ADSL 112,2013-04-01
0233750594,201095655741,2013-04-01,READY,ADSL 112,2013-04-01
0237805229,201003107609,2013-04-01,READY,ADSL 112,2013-04-01
0246062198,201002809266,2013-04-01,READY,ADSL 112,2013-04-01
0822328841,201000918482,2013-04-01,READY,ADSL 112,2013-04-01
0237982046,201014013785,2013-04-01,READY,ADSL 48,2013-04-01
0224973559,201005220456,2013-04-01,READY,ADSL 112,2013-04-01
0502212769,201009333062,2013-04-01,READY,ADSL 112,2013-04-01
0223703201,201007305471,2013-04-01,READY,ADSL 48,2013-04-01
0464942315,201229390422,2013-04-01,READY,ADSL 48,2013-04-01
0238954575,201005776063,2013-04-01,READY,ADSL 112,2013-04-01
0506959332,201007272290,2013-04-01,READY,ADSL 112,2013-04-01
0222757651,201005325837,2013-04-01,READY,ADSL 48,2013-04-01
0623333281,201019332053,2013-04-01,READY,ADSL 112,2013-04-01
0227954411,201002222023,2013-04-01,READY,ADSL 112,2013-04-01
035776761,201097446494,2013-04-01,READY,ADSL 112,2013-04-01
0227588011,201002847981,2013-04-01,READY,ADSL 112,2013-04-01
0237809738,201001546957,2013-04-01,READY,ADSL 48,2013-04-01
0552842655,201061089454,2013-04-01,READY,ADSL 112,2013-04-01
0238357644,201003300568,2013-04-01,READY,ADSL 112,2013-04-01
0233461860,201063428042,2013-04-01,READY,ADSL 48,2013-04-01
0402536406,201007901942,2013-04-01,READY,ADSL 112,2013-04-01
0235404164,201002428123,2013-04-01,READY,ADSL 48,2013-04-01
0552295211,201001579586,2013-04-01,READY,ADSL 112,2013-04-01
0237719003,201065604532,2013-04-01,READY,ADSL 48,2013-04-01
0225558520,201005365561,2013-04-01,READY,ADSL 48,2013-04-01
0233383587,201004848830,2013-04-01,READY,ADSL 48,2013-04-01
033324046,201061447737,2013-04-01,READY,ADSL 48,2013-04-01
0223938250,201025080074,2013-04-01,READY,ADSL 48,2013-04-01
0233823187,201006040379,2013-04-01,READY,ADSL 112,2013-04-01
0237797004,201019781301,2013-04-01,READY,ADSL 48,2013-04-01
0222737170,201065750760,2013-04-01,READY,ADSL 112,2013-04-01
0238340838,201006545184,2013-04-01,READY,ADSL 112,2013-04-01
0222715370,201002780119,2013-04-01,READY,ADSL 112,2013-04-01
0237240452,201062516204,2013-04-01,READY,ADSL 112,2013-04-01
0237423032,201023510451,2013-04-01,READY,ADSL 112,2013-04-01
0226921949,201001335737,2013-04-01,READY,ADSL 112,2013-04-01
0506903530,201003901545,2013-04-01,READY,ADSL 48,2013-04-01
0227023665,201093793973,2013-04-01,READY,ADSL 14,2013-04-01
0225775083,201003875581,2013-04-01,READY,ADSL 112,2013-04-01
0233442269,201003353770,2013-04-01,READY,ADSL 112,2013-04-01
0225908375,201020909050,2013-04-01,READY,ADSL 112,2013-04-01
0502359122,201005279187,2013-04-01,READY,ADSL 117,2013-04-01
0663223012,201002721351,2013-04-01,READY,ADSL 112,2013-04-01
0235445706,201011878656,2013-04-01,READY,ADSL 112,2013-04-01
0226884200,201006185991,2013-04-01,READY,ADSL 112,2013-04-01
0502354273,201060207778,2013-04-01,READY,ADSL 112,2013-04-01
0225016801,201008368314,2013-04-01,READY,ADSL 112,2013-04-01
0822334230,201061069211,2013-04-01,READY,ADSL 112,2013-04-01
0238524047,201005567458,2013-04-01,READY,ADSL 112,2013-04-01
034374716,201092502821,2013-04-01,READY,ADSL 112,2013-04-01
0227022407,201014613358,2013-04-01,READY,ADSL 48,2013-04-01
0238558607,201015126648,2013-04-01,READY,ADSL 112,2013-04-01
0223706220,201001143231,2013-04-01,READY,ADSL 48,2013-04-01
0225329806,201066681272,2013-04-01,READY,ADSL 14,2013-04-01
0882298789,201006346553,2013-04-01,READY,ADSL 112,2013-04-01
0224503284,201000705289,2013-04-01,READY,ADSL 14,2013-04-01
0222801539,201092723965,2013-04-01,READY,ADSL 112,2013-04-01
0822321956,201000034024,2013-04-01,READY,ADSL 48,2013-04-01
035286674,201023750045,2013-04-01,READY,ADSL 112,2013-04-01
015379594,201226902864,2013-04-01,READY,ADSL 112,2013-04-01
035463673,201060408134,2013-04-01,READY,ADSL 48,2013-04-01
0222795108,201005131901,2013-04-01,READY,ADSL 112,2013-04-01
0222623887,201001268145,2013-04-01,READY,ADSL 48,2013-04-01
0227544349,201007600137,2013-04-01,READY,ADSL 112,2013-04-01
0403509229,201095006587,2013-04-01,READY,ADSL 48,2013-04-01
0453326226,201092918257,2013-04-01,READY,ADSL 14,2013-04-01
0552387315,201003283636,2013-04-01,READY,ADSL 14,2013-04-01
0222957122,201005187528,2013-04-01,READY,ADSL 48,2013-04-01
0502263205,201061680214,2013-04-01,READY,ADSL 112,2013-04-01
0237310804,201002098305,2013-04-01,READY,ADSL 112,2013-04-01
0227025598,201023755669,2013-04-01,READY,ADSL 112,2013-04-01
0227046997,201000090058,2013-04-01,READY,ADSL 48,2013-04-01
0237629174,201099097482,2013-04-01,READY,ADSL 48,2013-04-01
0663654203,201017796011,2013-04-01,READY,ADSL 112,2013-04-01
034834042,201005336961,2013-04-01,READY,ADSL 48,2013-04-01
0226278654,201062685017,2013-04-01,READY,ADSL 112,2013-04-01
0233517812,201019521451,2013-04-01,READY,ADSL 112,2013-04-01
0223690331,201017631138,2013-04-01,READY,ADSL 112,2013-04-01
0225175843,201005714659,2013-04-01,READY,ADSL 48,2013-04-01
0238502221,201091466861,2013-04-01,READY,ADSL 48,2013-04-01
0233835527,201006424900,2013-04-01,READY,ADSL 48,2013-04-01
0453353368,201007470776,2013-04-01,READY,ADSL 48,2013-04-01
035561125,201017350400,2013-04-01,READY,ADSL 112,2013-04-01
0225323520,201008522013,2013-04-01,READY,ADSL 48,2013-04-01
0403509535,201008788337,2013-04-01,READY,ADSL 112,2013-04-01
0862354489,201008606366,2013-04-01,READY,ADSL 48,2013-04-01
0222638513,201064750690,2013-04-01,READY,ADSL 112,2013-04-01
0226762167,201065071944,2013-04-01,READY,ADSL 48,2013-04-01
034373034,201001037528,2013-04-01,READY,ADSL 112,2013-04-01
0552333143,201007978519,2013-04-01,READY,ADSL 112,2013-04-01
0223647852,201004502683,2013-04-01,READY,ADSL 48,2013-04-01
0224707411,201008007220,2013-04-01,READY,ADSL 48,2013-04-01
0237615488,201005378958,2013-04-01,READY,ADSL 48,2013-04-01
0222783949,201006444887,2013-04-01,READY,ADSL 48,2013-04-01
0222960524,201002279593,2013-04-01,READY,ADSL 112,2013-04-01
0226374786,201092786160,2013-04-01,READY,ADSL 112,2013-04-01
035613105,201098760233,2013-04-01,READY,ADSL 112,2013-04-01
0226909625,201006130368,2013-04-01,READY,ADSL 112,2013-04-01
0227005879,201021539340,2013-04-01,READY,ADSL 112,2013-04-01
0572349183,201000595992,2013-04-01,READY,ADSL 112,2013-04-01
0227272340,201069191054,2013-04-01,READY,ADSL 48,2013-04-01
0226249757,201001996003,2013-04-01,READY,ADSL 112,2013-04-01
0238351634,201001736601,2013-04-01,READY,ADSL 112,2013-04-01
0224090742,201001329528,2013-04-01,READY,ADSL 48,2013-04-01
0453691526,201010126119,2013-04-01,READY,ADSL 48,2013-04-01
0227048670,201096261822,2013-04-01,READY,ADSL 112,2013-04-01
034598414,201002981437,2013-04-01,READY,ADSL 112,2013-04-01
0248582063,201096447992,2013-04-01,READY,ADSL 48,2013-04-01
0237214051,201001085185,2013-04-01,READY,ADSL 112,2013-04-01
0226539769,201006186430,2013-04-01,READY,ADSL 112,2013-04-01
034482602,201099584723,2013-04-01,READY,ADSL 112,2013-04-01
0225064924,201001915649,2013-04-01,READY,ADSL 112,2013-04-01
0238506476,201005100414,2013-04-01,READY,ADSL 48,2013-04-01
0133104681,201000588603,2013-04-01,READY,ADSL 48,2013-04-01
0227366249,201091507830,2013-04-01,READY,ADSL 48,2013-04-01
0238343525,201060015634,2013-04-01,READY,ADSL 48,2013-04-01
034877747,201098549613,2013-04-01,READY,ADSL 112,2013-04-01
0225109363,201015510533,2013-04-01,READY,ADSL 48,2013-04-01
0222639797,201007999919,2013-04-01,READY,ADSL 48,2013-04-01
0133255050,201061803912,2013-04-01,READY,ADSL 48,2013-04-01
0225119707,201007614309,2013-04-01,READY,ADSL 112,2013-04-01
034417258,201002908022,2013-04-01,READY,ADSL 112,2013-04-01
0222611234,201004605113,2013-04-01,READY,ADSL 48,2013-04-01
0235653731,201003053703,2013-04-01,READY,ADSL 112,2013-04-01
0244794222,201001896607,2013-04-01,READY,ADSL 48,2013-04-01
0226204538,201012910030,2013-04-01,READY,ADSL 112,2013-04-01
0238321247,201012986678,2013-04-01,READY,ADSL 48,2013-04-01
0235422283,201000176665,2013-04-01,READY,ADSL 48,2013-04-01
0248250124,201017945545,2013-04-01,READY,ADSL 48,2013-04-01
0553185616,201063954844,2013-04-01,READY,ADSL 48,2013-04-01
0882365105,201095981402,2013-04-01,READY,ADSL 48,2013-04-01
0226548377,201091876006,2013-04-01,READY,ADSL 112,2013-04-01
0623302194,201001570480,2013-04-01,READY,ADSL 112,2013-04-01
0233155292,201060069976,2013-04-01,READY,ADSL 48,2013-04-01
0237802030,201069165280,2013-04-01,READY,ADSL 112,2013-04-01
035764899,201060485824,2013-04-01,READY,ADSL 112,2013-04-01
0233536208,201090180700,2013-04-01,READY,ADSL 112,2013-04-01
0237605822,201005468168,2013-04-01,READY,ADSL 112,2013-04-01
0663618659,201093183305,2013-04-01,READY,ADSL 112,2013-04-01
0235837607,201000607000,2013-04-01,READY,ADSL 14,2013-04-01
0235422789,201019432967,2013-04-01,READY,ADSL 14,2013-04-01
0227046764,201069879874,2013-04-01,READY,ADSL 14,2013-04-01
0225310870,201096355635,2013-04-01,READY,ADSL 14,2013-04-01
0224487541,201092192362,2013-04-01,READY,ADSL 112,2013-04-01
0227573173,201005263832,2013-04-01,READY,ADSL 48,2013-04-01
0233042212,201000447416,2013-04-01,READY,ADSL 112,2013-04-01
0224189059,201069457677,2013-04-01,READY,ADSL 48,2013-04-01
0225060987,201027838192,2013-04-01,READY,ADSL 112,2013-04-01
035270395,201024457888,2013-04-01,READY,ADSL 48,2013-04-01
0244797494,201002932677,2013-04-01,READY,ADSL 112,2013-04-01
0683364640,201005878575,2013-04-01,READY,ADSL 48,2013-04-01
034553462,201001190418,2013-04-01,READY,ADSL 48,2013-04-01
0227951722,201014142867,2013-04-01,READY,ADSL 112,2013-04-01
0226173531,201005575818,2013-04-01,READY,ADSL 112,2013-04-01
0822348885,201061473282,2013-04-01,READY,ADSL 112,2013-04-01
0226930570,201012426464,2013-04-01,READY,ADSL 48,2013-04-01
0226761323,201069206902,2013-04-01,READY,ADSL 112,2013-04-01
0453683500,201095809945,2013-04-01,READY,ADSL 112,2013-04-01
0226836408,201026183388,2013-04-01,READY,ADSL 112,2013-04-01
0237300286,201094688860,2013-04-01,READY,ADSL 48,2013-04-01
0552292100,201003804581,2013-04-01,READY,ADSL 112,2013-04-01
0238524665,201004808590,2013-04-01,READY,ADSL 48,2013-04-01
0553181495,201004859116,2013-04-01,READY,ADSL 112,2013-04-01
0238953965,201011421660,2013-04-01,READY,ADSL 48,2013-04-01
0222912755,201000382646,2013-04-01,READY,ADSL 48,2013-04-01
0403322929,201024555640,2013-04-01,READY,ADSL 48,2013-04-01
0244795787,201000603244,2013-04-01,READY,ADSL 112,2013-04-01
0133221582,201093769036,2013-04-01,READY,ADSL 112,2013-04-01
0238374654,201006617003,2013-04-01,READY,ADSL 48,2013-04-01
0405717266,201066516529,2013-04-01,READY,ADSL 112,2013-04-01
035520660,201006665597,2013-04-01,READY,ADSL 48,2013-04-01
0227873748,201090113293,2013-04-01,READY,ADSL 112,2013-04-01
0227043208,201099579986,2013-04-01,READY,ADSL 112,2013-04-01
0248047998,201018654806,2013-04-01,READY,ADSL 14,2013-04-01
0228718041,201008537404,2013-04-01,READY,ADSL 112,2013-04-01
0223586203,201000354133,2013-04-01,READY,ADSL 112,2013-04-01
0226230315,201023935433,2013-04-01,READY,ADSL 48,2013-04-01
0224488919,201002842833,2013-04-01,READY,ADSL 112,2013-04-01
0223630593,201002410933,2013-04-01,READY,ADSL 48,2013-04-01
0402557030,201095757194,2013-04-01,READY,ADSL 112,2013-04-01
0822344812,201066039646,2013-04-01,READY,ADSL 112,2013-04-01
0224707301,201007727880,2013-04-01,READY,ADSL 48,2013-04-01
0224598064,201005367877,2013-04-01,READY,ADSL 112,2013-04-01
035844657,201006230515,2013-04-01,READY,ADSL 112,2013-04-01
0222472171,201005118750,2013-04-01,READY,ADSL 48,2013-04-01
0846370825,201024710675,2013-04-01,READY,ADSL 112,2013-04-01
0226234348,201061815655,2013-04-01,READY,ADSL 48,2013-04-01
0222472388,201002988367,2013-04-01,READY,ADSL 112,2013-04-01
0222816717,201024854965,2013-04-01,READY,ADSL 48,2013-04-01
0223913976,201006849969,2013-04-01,READY,ADSL 48,2013-04-01
0235420944,201090227975,2013-04-01,READY,ADSL 112,2013-04-01
0237714195,201000533440,2013-04-01,READY,ADSL 48,2013-04-01
0882211412,201002029611,2013-04-01,READY,ADSL 112,2013-04-01
0225275957,201064547443,2013-04-01,READY,ADSL 112,2013-04-01
0235454351,201096466655,2013-04-01,READY,ADSL 112,2013-04-01
0235619765,201000480503,2013-04-01,READY,ADSL 112,2013-04-01
0226246206,201015009440,2013-04-01,READY,ADSL 112,2013-04-01
0225162242,201001923565,2013-04-01,READY,ADSL 48,2013-04-01
0235717513,201001027932,2013-04-01,READY,ADSL 48,2013-04-01
034846979,201098833668,2013-04-01,READY,ADSL 112,2013-04-01
0223917526,201008724448,2013-04-01,READY,ADSL 112,2013-04-01
0224230512,201007816180,2013-04-01,READY,ADSL 48,2013-04-01
0572404554,201093894619,2013-04-01,READY,ADSL 48,2013-04-01
0238324403,201062501205,2013-04-01,READY,ADSL 112,2013-04-01
0572413259,201093111326,2013-04-01,READY,ADSL 112,2013-04-01
0222742813,201096021245,2013-04-01,READY,ADSL 48,2013-04-01
0222032050,201091464211,2013-04-01,READY,ADSL 48,2013-04-01
035522442,201092178289,2013-04-01,READY,ADSL 112,2013-04-01
0227044575,201006345543,2013-04-01,READY,ADSL 48,2013-04-01
0233071622,201009483537,2013-04-01,READY,ADSL 14,2013-04-01
0222736279,201069540903,2013-04-01,READY,ADSL 112,2013-04-01
0233825396,201009899380,2013-04-01,READY,ADSL 112,2013-04-01
035050300,201000225938,2013-04-01,READY,ADSL 112,2013-04-01
0224600897,201010050518,2013-04-01,READY,ADSL 48,2013-04-01
0244697929,201025419498,2013-04-01,READY,ADSL 48,2013-04-01
0222404942,201007297985,2013-04-01,READY,ADSL 48,2013-04-01
0222805928,201014015119,2013-04-01,READY,ADSL 48,2013-04-01
0224044549,201000871043,2013-04-01,READY,ADSL 112,2013-04-01
0238342312,201001812062,2013-04-01,READY,ADSL 48,2013-04-01
0225527681,201004554858,2013-04-01,READY,ADSL 112,2013-04-01
0224300054,201006685189,2013-04-01,READY,ADSL 112,2013-04-01
0235837828,201001377970,2013-04-01,READY,ADSL 48,2013-04-01
0403309446,201007531158,2013-04-01,READY,ADSL 48,2013-04-01
033249259,201004181919,2013-04-01,READY,ADSL 112,2013-04-01
035766743,201068810019,2013-04-01,READY,ADSL 112,2013-04-01
0473235138,201007117345,2013-04-01,READY,ADSL 112,2013-04-01
035377523,201093671745,2013-04-01,READY,ADSL 48,2013-04-01
0224032517,201060440224,2013-04-01,READY,ADSL 48,2013-04-01
035615586,201000133520,2013-04-01,READY,ADSL 112,2013-04-01
0224839057,201010258901,2013-04-01,READY,ADSL 112,2013-04-01
033800094,201011173115,2013-04-01,READY,ADSL 48,2013-04-01
035825393,201026884620,2013-04-01,READY,ADSL 14,2013-04-01
0506455398,201061501115,2013-04-01,READY,ADSL 112,2013-04-01
0222740469,201067846487,2013-04-01,READY,ADSL 112,2013-04-01
0222542295,201014140800,2013-04-01,READY,ADSL 48,2013-04-01
0235693316,201010691782,2013-04-01,READY,ADSL 112,2013-04-01
0227003502,201222132464,2013-04-01,READY,ADSL 112,2013-04-01
033911691,201000422988,2013-04-01,READY,ADSL 112,2013-04-01
0222990044,201069330443,2013-04-01,READY,ADSL 112,2013-04-01
0482223971,201062570025,2013-04-01,READY,ADSL 14,2013-04-01
0225100231,201006062559,2013-04-01,READY,ADSL 48,2013-04-01
0237232833,201005533113,2013-04-01,READY,ADSL 112,2013-04-01
0223196103,201018820415,2013-04-01,READY,ADSL 112,2013-04-01
0235824452,201099604093,2013-04-01,READY,ADSL 48,2013-04-01
0224096890,201016158234,2013-04-01,READY,ADSL 112,2013-04-01
0233846010,201006468798,2013-04-01,READY,ADSL 112,2013-04-01
0225066560,201093223918,2013-04-01,READY,ADSL 112,2013-04-01
0222791543,201011128818,2013-04-01,READY,ADSL 112,2013-04-01
0224570552,201066117500,2013-04-01,READY,ADSL 112,2013-04-01
0237245931,201007677572,2013-04-01,READY,ADSL 112,2013-04-01
0226748677,201063594186,2013-04-01,READY,ADSL 112,2013-04-01
034411230,201007977870,2013-04-01,READY,ADSL 112,2013-04-01
0235847103,201016162691,2013-04-01,READY,ADSL 48,2013-04-01
0402201648,201008568953,2013-04-01,READY,ADSL 112,2013-04-01
0224608940,201097997840,2013-04-01,READY,ADSL 112,2013-04-01
0233887080,201064491866,2013-04-01,READY,ADSL 112,2013-04-01
0223900305,201003066589,2013-04-01,READY,ADSL 48,2013-04-01
0222720231,201091037310,2013-04-01,READY,ADSL 48,2013-04-01
035444948,201010772267,2013-04-01,READY,ADSL 48,2013-04-01
0403405145,201092124726,2013-04-01,READY,ADSL 112,2013-04-01
0226245188,201092753194,2013-04-01,READY,ADSL 14,2013-04-01
0235637079,201013522183,2013-04-01,READY,ADSL 112,2013-04-01
0233135749,201002317031,2013-04-01,READY,ADSL 112,2013-04-01
0238091257,201002369239,2013-04-01,READY,ADSL 112,2013-04-01
0233102128,201008400783,2013-04-01,READY,ADSL 112,2013-04-01
0246055114,201016538310,2013-04-01,READY,ADSL 48,2013-04-01
0244678686,201061658764,2013-04-01,READY,ADSL 112,2013-04-01
0222584615,201006148348,2013-04-01,READY,ADSL 112,2013-04-01
0233052213,201005732137,2013-04-01,READY,ADSL 112,2013-04-01
0222974314,201000220283,2013-04-01,READY,ADSL 112,2013-04-01
0223165512,201007328431,2013-04-01,READY,ADSL 112,2013-04-01
0246044409,201015872305,2013-04-01,READY,ADSL 112,2013-04-01
0235820620,201006288558,2013-04-01,READY,ADSL 48,2013-04-01
0222467274,201001611852,2013-04-01,READY,ADSL 112,2013-04-01
0882358155,201023626002,2013-04-01,READY,ADSL 96,2013-04-01
0233255309,201002642544,2013-04-01,READY,ADSL 48,2013-04-01
0226924228,201001016595,2013-04-01,READY,ADSL 146,2013-04-01
0233879976,201090901150,2013-04-01,READY,ADSL 48,2013-04-01
0403306602,201008764768,2013-04-01,READY,ADSL 112,2013-04-01
0482318881,201003300929,2013-04-01,READY,ADSL 48,2013-04-01
0235735781,201000771176,2013-04-01,READY,ADSL 112,2013-04-01
0552846070,201014257495,2013-04-01,READY,ADSL 48,2013-04-01
0226826539,201000536913,2013-04-01,READY,ADSL 48,2013-04-01
0502374815,201060748208,2013-04-01,READY,ADSL 112,2013-04-01
0223915439,201002869277,2013-04-01,READY,ADSL 112,2013-04-01
0225900827,201093807931,2013-04-01,READY,VFBASICPRE,2013-04-01
0237226522,201016903612,2013-04-01,READY,ADSL 112,2013-04-01
0222326347,201000405211,2013-04-01,READY,ADSL 48,2013-04-01
0227958460,201015525863,2013-04-01,READY,ADSL 48,2013-04-01
0553191224,201066039276,2013-04-01,READY,ADSL 112,2013-04-01
0238341041,201225022252,2013-04-01,READY,ADSL 48,2013-04-01
0506917008,201000006921,2013-04-01,READY,ADSL 14,2013-04-01
0235601573,201001220878,2013-04-01,READY,ADSL 112,2013-04-01
0227946750,201005137085,2013-04-01,READY,ADSL 112,2013-04-01
0222383820,201002753895,2013-04-01,READY,ADSL 112,2013-04-01
0223644372,201001192642,2013-04-01,READY,ADSL 48,2013-04-01
0235445039,201006918333,2013-04-01,READY,ADSL 112,2013-04-01
0235871428,201095794188,2013-04-01,READY,ADSL 112,2013-04-01
034872295,201063141458,2013-04-01,READY,ADSL 112,2013-04-01
0226761219,201063849447,2013-04-01,READY,ADSL 112,2013-04-01
0225105516,201062666390,2013-04-01,READY,ADSL 48,2013-04-01
0238518041,201001355333,2013-04-01,READY,ADSL 112,2013-04-01
0222462064,201016283874,2013-04-01,READY,ADSL 112,2013-04-01
0402548397,201064643003,2013-04-01,READY,ADSL 112,2013-04-01
0643313449,201017947408,2013-04-01,READY,ADSL 112,2013-04-01
0226246261,201004490918,2013-04-01,READY,ADSL 112,2013-04-01
0233389842,201009050131,2013-04-01,READY,ADSL 112,2013-04-01
0453344151,201000228609,2013-04-01,READY,ADSL 112,2013-04-01
0233450708,201068676005,2013-04-01,READY,ADSL 112,2013-04-01
0552382777,201005785764,2013-04-01,READY,ADSL 48,2013-04-01
034382038,201005191941,2013-04-01,READY,ADSL 48,2013-04-01
0222523072,201090447663,2013-04-01,READY,ADSL 112,2013-04-01
0235407287,201007604474,2013-04-01,READY,ADSL 112,2013-04-01
0226761959,201004289002,2013-04-01,READY,ADSL 112,2013-04-01
0932316144,201004953872,2013-04-01,READY,ADSL 112,2013-04-01
0223700416,201004987646,2013-04-01,READY,ADSL 14,2013-04-01
0502226339,201006119127,2013-04-01,READY,ADSL 112,2013-04-01
0224870906,201018180590,2013-04-01,READY,ADSL 112,2013-04-01
035420587,201005305426,2013-04-01,READY,ADSL 14,2013-04-01
0238325844,201096499097,2013-04-01,READY,ADSL 48,2013-04-01
0552863785,201021890987,2013-04-01,READY,ADSL 14,2013-04-01
0226236857,201005407939,2013-04-01,READY,ADSL 112,2013-04-01
0235826530,201069730521,2013-04-01,READY,ADSL 112,2013-04-01
0227572921,201002816067,2013-04-01,READY,ADSL 112,2013-04-01
0133226516,201091713511,2013-04-01,READY,ADSL 48,2013-04-01
0132730069,201062347577,2013-04-01,READY,ADSL 48,2013-04-01
0235637057,201020458291,2013-04-01,READY,ADSL 112,2013-04-01
0237810922,201005178419,2013-04-01,READY,ADSL 14,2013-04-01
0553465316,201000916816,2013-04-01,READY,ADSL 112,2013-04-01
0226172903,201005752271,2013-04-01,READY,ADSL 48,2013-04-01
0233145279,201092583498,2013-04-01,READY,ADSL 112,2013-04-01
0225144699,201027838446,2013-04-01,READY,ADSL 48,2013-04-01
0225252381,201000492987,2013-04-01,READY,ADSL 48,2013-04-01
034288241,201001523181,2013-04-01,READY,ADSL 112,2013-04-01
0464908760,201000679201,2013-04-01,READY,ADSL 48,2013-04-01
0453304844,201012403658,2013-04-01,READY,ADSL 112,2013-04-01
0227356403,201008019109,2013-04-01,READY,ADSL 48,2013-04-01
0227012899,201010901466,2013-04-01,READY,ADSL 48,2013-04-01
0233452797,201090101301,2013-04-01,READY,ADSL 112,2013-04-01
0225525325,201006953816,2013-04-01,READY,ADSL 112,2013-04-01
0237400432,201095438603,2013-04-01,READY,ADSL 48,2013-04-01
0222037677,201022911106,2013-04-01,READY,ADSL 112,2013-04-01
0506958681,201005067534,2013-04-01,READY,ADSL 146,2013-04-01
0235866521,201001288995,2013-04-01,READY,ADSL 48,2013-04-01
0238343245,201014037165,2013-04-01,READY,ADSL 48,2013-04-01
0683368649,201000896857,2013-04-01,READY,ADSL 112,2013-04-01
0222398887,201004655272,2013-04-01,READY,ADSL 48,2013-04-01
0222545639,201069351690,2013-04-01,READY,ADSL 48,2013-04-01
0403303042,201005594834,2013-04-01,READY,ADSL 48,2013-04-01
0233508301,201003411782,2013-04-01,READY,ADSL 48,2013-04-01
0223962591,201063254929,2013-04-01,READY,ADSL 48,2013-04-01
0237119898,201090884884,2013-04-01,READY,ADSL 48,2013-04-01
0233386196,201007535555,2013-04-01,READY,ADSL 112,2013-04-01
0227572775,201009571457,2013-04-01,READY,ADSL 48,2013-04-01
0623305668,201004437687,2013-04-01,READY,ADSL 112,2013-04-01
0235622081,201066347888,2013-04-01,READY,ADSL 112,2013-04-01
0222513400,201013914139,2013-04-01,READY,ADSL 112,2013-04-01
0222759360,201001885949,2013-04-01,READY,ADSL 112,2013-04-01
0226274359,201092658375,2013-04-01,READY,ADSL 112,2013-04-01
034266188,201091339862,2013-04-01,READY,ADSL 112,2013-04-01
0663253020,201004425500,2013-04-01,READY,ADSL 112,2013-04-01
015377875,201006022395,2013-04-01,READY,ADSL 48,2013-04-01
0453697970,201006887330,2013-04-01,READY,ADSL 112,2013-04-01
034873250,201002691277,2013-04-01,READY,ADSL 48,2013-04-01
0222048984,201002948973,2013-04-01,READY,ADSL 112,2013-04-01
0222570667,201002009644,2013-04-01,READY,ADSL 112,2013-04-01
0405700599,201092432317,2013-04-01,READY,ADSL 112,2013-04-01
0222508851,201060329011,2013-04-01,READY,ADSL 112,2013-04-01
0224526798,201001442404,2013-04-01,READY,ADSL 48,2013-04-01
0228705004,201092490361,2013-04-01,READY,ADSL 112,2013-04-01
035227586,201003577129,2013-04-01,READY,ADSL 112,2013-04-01
0402214000,201026230060,2013-04-01,READY,ADSL 112,2013-04-01
0238038592,201022005186,2013-04-01,READY,ADSL 112,2013-04-01
0222733441,201004332260,2013-04-01,READY,ADSL 112,2013-04-01
0235853420,201097286807,2013-04-01,READY,ADSL 146,2013-04-01
0238955515,201001055455,2013-04-01,READY,ADSL 48,2013-04-01
0403504491,201007421626,2013-04-01,READY,ADSL 48,2013-04-01
0233888504,201006644886,2013-04-01,READY,ADSL 48,2013-04-01
0553184532,201065442361,2013-04-01,READY,ADSL 48,2013-04-01
0402256011,201007439885,2013-04-01,READY,ADSL 112,2013-04-01
0235474300,201097549990,2013-04-01,READY,ADSL 48,2013-04-01
0226440469,201004238222,2013-04-01,READY,ADSL 112,2013-04-01
0402227973,201093034770,2013-04-01,READY,ADSL 48,2013-04-01
0223712587,201003376555,2013-04-01,READY,ADSL 112,2013-04-01
0552378233,201094256365,2013-04-01,READY,ADSL 48,2013-04-01
0237239211,201009072907,2013-04-01,READY,ADSL 48,2013-04-01
034375072,201025736326,2013-04-01,READY,ADSL 48,2013-04-01
0453291101,201004181178,2013-04-01,READY,ADSL 48,2013-04-01
0224483495,201097140428,2013-04-01,READY,ADSL 112,2013-04-01
0623307967,201094946137,2013-04-01,READY,ADSL 48,2013-04-01
033191235,201097840386,2013-04-01,READY,ADSL 112,2013-04-01
034705230,201006490419,2013-04-01,READY,ADSL 112,2013-04-01
0225505924,201065775803,2013-04-01,READY,ADSL 112,2013-04-01
0643311289,201095626454,2013-04-01,READY,ADSL 112,2013-04-01
0846351938,201016075395,2013-04-01,READY,ADSL 112,2013-04-01
0233126963,201010958136,2013-04-01,READY,ADSL 112,2013-04-01
0233884178,201000148799,2013-04-01,READY,ADSL 48,2013-04-01
0552291747,201012038222,2013-04-01,READY,ADSL 112,2013-04-01
0552288820,201000330604,2013-04-01,READY,ADSL 48,2013-04-01
035831883,201065852136,2013-04-01,READY,ADSL 112,2013-04-01
034705630,201098517181,2013-04-01,READY,ADSL 112,2013-04-01
033249895,201099044775,2013-04-01,READY,ADSL 112,2013-04-01
0223202290,201004317817,2013-04-01,READY,ADSL 48,2013-04-01
0552292053,201061833129,2013-04-01,READY,ADSL 48,2013-04-01
0224487037,201099010797,2013-04-01,READY,ADSL 48,2013-04-01
0553189722,201016015789,2013-04-01,READY,ADSL 112,2013-04-01
0226848657,201001167898,2013-04-01,READY,ADSL 112,2013-04-01
0403321008,201092987744,2013-04-01,READY,ADSL 48,2013-04-01
0132721586,201068042804,2013-04-01,READY,ADSL 112,2013-04-01
0224594094,201006593422,2013-04-01,READY,ADSL 48,2013-04-01
0502374485,201022015220,2013-04-01,READY,ADSL 112,2013-04-01
035344129,201005229227,2013-04-01,READY,ADSL 112,2013-04-01
033629046,201099050030,2013-04-01,READY,ADSL 48,2013-04-01
0224300679,201000424259,2013-04-01,READY,ADSL 112,2013-04-01
033231808,201061214914,2013-04-01,READY,ADSL 48,2013-04-01
0225781576,201095088801,2013-04-01,READY,ADSL 112,2013-04-01
0224156345,201006797231,2013-04-01,READY,ADSL 112,2013-04-01
0237233779,201062702930,2013-04-01,READY,ADSL 112,2013-04-01
0226970961,201027407005,2013-04-01,READY,ADSL 112,2013-04-01
0552297674,201060020432,2013-04-01,READY,ADSL 48,2013-04-01
0225108962,201004675650,2013-04-01,READY,ADSL 14,2013-04-01
0222803975,201007431099,2013-04-01,READY,ADSL 48,2013-04-01
0226763933,201223537842,2013-04-01,READY,ADSL 112,2013-04-01
0235872668,201002277631,2013-04-01,READY,ADSL 48,2013-04-01
0233359449,201000608435,2013-04-01,READY,ADSL 48,2013-04-01
035445613,201006942725,2013-04-01,READY,ADSL 112,2013-04-01
0223921035,201006079997,2013-04-01,READY,ADSL 48,2013-04-01
0226321903,201098710883,2013-04-01,READY,ADSL 112,2013-04-01
0226992020,201004222324,2013-04-01,READY,ADSL 48,2013-04-01
0643914738,201066775262,2013-04-01,READY,ADSL 112,2013-04-01
0222752099,201006655246,2013-04-01,READY,ADSL 48,2013-04-01
0643455546,201001122843,2013-04-01,READY,ADSL 112,2013-04-01
0238607542,201027129394,2013-04-01,READY,ADSL 112,2013-04-01
0223161186,201003144694,2013-04-01,READY,ADSL 48,2013-04-01
033239150,201069419328,2013-04-01,READY,ADSL 112,2013-04-01
0226855867,201063842103,2013-04-01,READY,ADSL 112,2013-04-01
0966592484,201006265662,2013-04-01,READY,ADSL 112,2013-04-01
0222676491,201000207406,2013-04-01,READY,ADSL 48,2013-04-01
035615596,201004807240,2013-04-01,READY,ADSL 48,2013-04-01
015372215,201060499422,2013-04-01,READY,ADSL 48,2013-04-01
034390703,201014958286,2013-04-01,READY,ADSL 48,2013-04-01
0402546955,201096525622,2013-04-01,READY,ADSL 48,2013-04-01
0224603865,201011863290,2013-04-01,READY,ADSL 112,2013-04-01
0502520633,201005124522,2013-04-01,READY,ADSL 48,2013-04-01
0226183905,201001829032,2013-04-01,READY,ADSL 112,2013-04-01
0237080449,201098119809,2013-04-01,READY,ADSL 48,2013-04-01
0132718170,201061435547,2013-04-01,READY,ADSL 112,2013-04-01
0473254303,201007799204,2013-04-01,READY,ADSL 112,2013-04-01
0402552962,201005134856,2013-04-01,READY,ADSL 48,2013-04-01
0222666147,201006971060,2013-04-01,READY,ADSL 112,2013-04-01
0224012350,201010533952,2013-04-01,READY,ADSL 48,2013-04-01
033630746,201065169411,2013-04-01,READY,ADSL 112,2013-04-01
0222011192,201001018030,2013-04-01,READY,ADSL 48,2013-04-01
0235680991,201063446295,2013-04-01,READY,ADSL 112,2013-04-01
0226635931,201099233277,2013-04-01,READY,ADSL 112,2013-04-01
0235478742,201008895241,2013-04-01,READY,ADSL 112,2013-04-01
0233470189,201001527714,2013-04-01,READY,ADSL 48,2013-04-01
0133211308,201093895727,2013-04-01,READY,ADSL 112,2013-04-01
0222668646,201009594221,2013-04-01,READY,ADSL 112,2013-04-01
0226173928,201002442896,2013-04-01,READY,ADSL 112,2013-04-01
0222327285,201065704569,2013-04-01,READY,ADSL 112,2013-04-01
0227366975,201091070550,2013-04-01,READY,ADSL 48,2013-04-01
0222630319,201023606990,2013-04-01,READY,ADSL 48,2013-04-01
0224328696,201091728987,2013-04-01,READY,ADSL 112,2013-04-01
0966588999,201002522399,2013-04-01,READY,ADSL 112,2013-04-01
0222700139,201001414868,2013-04-01,READY,ADSL 14,2013-04-01
0244695148,201017360518,2013-04-01,READY,ADSL 112,2013-04-01
0643351672,201068665934,2013-04-01,READY,ADSL 14,2013-04-01
0225905899,201000388308,2013-04-01,READY,ADSL 112,2013-04-01
0227039824,201003545581,2013-04-01,READY,ADSL 14,2013-04-01
0235829650,201005700854,2013-04-01,READY,ADSL 112,2013-04-01
0222681689,201098776126,2013-04-01,READY,ADSL 48,2013-04-01
0223165950,201009936331,2013-04-01,READY,ADSL 112,2013-04-01
033191231,201097840892,2013-04-01,READY,ADSL 112,2013-04-01
0223591917,201001651233,2013-04-01,READY,ADSL 48,2013-04-01
0222749268,201000419653,2013-04-01,READY,ADSL 112,2013-04-01
0862373143,201096965491,2013-04-01,READY,ADSL 112,2013-04-01
0224143195,201014242822,2013-04-01,READY,ADSL 48,2013-04-01
0244726432,201097090045,2013-04-01,READY,ADSL 48,2013-04-01
034276042,201010780054,2013-04-01,READY,ADSL 112,2013-04-01
0663739423,201006480120,2013-04-01,READY,ADSL 112,2013-04-01
0227030096,201008464707,2013-04-01,READY,ADSL 48,2013-04-01
034847464,201005551718,2013-04-01,READY,ADSL 48,2013-04-01
0227644626,201006593838,2013-04-01,READY,ADSL 112,2013-04-01
0472552731,201008356583,2013-04-01,READY,ADSL 96,2013-04-01
0224703096,201091027409,2013-04-01,READY,ADSL 48,2013-04-01
0237222368,201001520714,2013-04-01,READY,ADSL 112,2013-04-01
0623315997,201019354243,2013-04-01,READY,ADSL 112,2013-04-01
0226070492,201009706558,2013-04-01,READY,ADSL 112,2013-04-01
0227169456,201091560366,2013-04-01,READY,ADSL 112,2013-04-01
0226874255,201009458820,2013-04-01,READY,ADSL 112,2013-04-01
0242148029,201004372982,2013-04-01,READY,ADSL 112,2013-04-01
0224822408,201002212800,2013-04-01,READY,ADSL 48,2013-04-01
0233123182,201006571745,2013-04-01,READY,ADSL 112,2013-04-01
035350672,201026944930,2013-04-01,READY,ADSL 112,2013-04-01
0502373360,201007744917,2013-04-01,READY,ADSL 14,2013-04-01
0226932589,201094435336,2013-04-01,READY,ADSL 48,2013-04-01
035251402,201001779824,2013-04-01,READY,ADSL 112,2013-04-01
0235633146,201025536253,2013-04-01,READY,ADSL 112,2013-04-01
0643337140,201093030410,2013-04-01,READY,ADSL 48,2013-04-01
0453339050,201024106889,2013-04-01,SUSPENDED,ADSL 48,2013-02-27
0403322476,201023637360,2013-04-01,READY,ADSL 112,2013-04-01
0238956836,201094347468,2013-04-01,READY,ADSL 112,2013-04-01
0225109290,201097564110,2013-04-01,READY,ADSL 48,2013-04-01
0223627112,201001521112,2013-04-01,READY,ADSL 112,2013-04-01
035072843,201066542998,2013-04-01,READY,ADSL 112,2013-04-01
0222419565,201002931364,2013-04-01,READY,ADSL 112,2013-04-01
033924727,201005731671,2013-04-01,READY,ADSL 48,2013-04-01
0238020105,201006038926,2013-04-01,READY,ADSL 112,2013-04-01
0472568580,201001589860,2013-04-01,READY,ADSL 112,2013-04-01
0224708739,201014884058,2013-04-01,READY,ADSL 112,2013-04-01
0226076566,201068040235,2013-04-01,READY,ADSL 112,2013-04-01
0623320057,201007939530,2013-04-01,READY,ADSL 48,2013-04-01
0222562731,201061844397,2013-04-01,READY,ADSL 112,2013-04-01
0224943337,201004320070,2013-04-01,READY,ADSL 14,2013-04-01
0224249034,201000561240,2013-04-01,READY,ADSL 112,2013-04-01
0225761776,201064750460,2013-04-01,READY,ADSL 14,2013-04-01
0233870976,201005794191,2013-04-01,READY,ADSL 112,2013-04-01
034347562,201026717164,2013-04-01,READY,ADSL 112,2013-04-01
0225119416,201027743561,2013-04-01,READY,ADSL 112,2013-04-01
0227168495,201015922713,2013-04-01,READY,ADSL 112,2013-04-01
0228707569,201065974929,2013-04-01,READY,ADSL 112,2013-04-01
0233518008,201026528793,2013-04-01,READY,ADSL 112,2013-04-01
0224036350,201221668838,2013-04-01,READY,ADSL 48,2013-04-01
0224051555,201004671727,2013-04-01,READY,ADSL 112,2013-04-01
0238370414,201003979121,2013-04-01,READY,ADSL 112,2013-04-01
0226401325,201091616062,2013-04-01,READY,ADSL 14,2013-04-01
0233077155,201006150534,2013-04-01,READY,ADSL 48,2013-04-01
0222756080,201069243600,2013-04-01,READY,ADSL 48,2013-04-01
0235847963,201001541211,2013-04-01,READY,ADSL 14,2013-04-01
0643200524,201020994901,2013-04-01,READY,ADSL 112,2013-04-01
0244636994,201099878788,2013-04-01,READY,ADSL 112,2013-04-01
0464930620,201000099622,2013-04-01,READY,ADSL 112,2013-04-01
0553187547,201005658013,2013-04-01,READY,ADSL 48,2013-04-01
0225568341,201004227951,2013-04-01,READY,ADSL 112,2013-04-01
0224489711,201019132562,2013-04-01,READY,ADSL 48,2013-04-01
0453685818,201019939137,2013-04-01,READY,ADSL 48,2013-04-01
0235844881,201002463055,2013-04-01,READY,ADSL 112,2013-04-01
0238507918,201068558389,2013-04-01,READY,ADSL 112,2013-04-01
0502246891,201009826254,2013-04-01,READY,ADSL 48,2013-04-01
0224300345,201005155500,2013-04-01,READY,ADSL 48,2013-04-01
0238570056,201004629924,2013-04-01,READY,ADSL 48,2013-04-01
0552288090,201020937369,2013-04-01,READY,ADSL 112,2013-04-01
0233370319,201001617400,2013-04-01,READY,ADSL 112,2013-04-01
0473241879,201002806008,2013-04-01,READY,ADSL 112,2013-04-01
0223911596,201011525343,2013-04-01,READY,ADSL 112,2013-04-01
0222701211,201069181144,2013-04-01,READY,ADSL 48,2013-04-01
0663730936,201016644625,2013-04-01,READY,ADSL 112,2013-04-01
0222995622,201019152770,2013-04-01,READY,ADSL 112,2013-04-01
0225106122,201060455495,2013-04-01,READY,ADSL 14,2013-04-01
0233547092,201003578670,2013-04-01,READY,ADSL 112,2013-04-01
0965223496,201004453371,2013-04-01,READY,ADSL 96,2013-04-01
0235871031,201001226481,2013-04-01,READY,ADSL 48,2013-04-01
0227033333,201000878716,2013-04-01,READY,ADSL 48,2013-04-01
0222871303,201067000896,2013-04-01,READY,ADSL 48,2013-04-01
0233371356,201003892313,2013-04-01,READY,ADSL 112,2013-04-01
0506454888,201066206287,2013-04-01,READY,ADSL 48,2013-04-01
0222942335,201093530589,2013-04-01,READY,ADSL 75,2013-04-01
0237418074,201009163556,2013-04-01,READY,ADSL 112,2013-04-01
0403344372,201094608885,2013-04-01,READY,ADSL 112,2013-04-01
0225552211,201011600960,2013-04-01,READY,ADSL 48,2013-04-01
0502262107,201060288699,2013-04-01,READY,ADSL 48,2013-04-01
0643218877,201016712158,2013-04-01,READY,ADSL 48,2013-04-01
0237746214,201000195293,2013-04-01,READY,ADSL 112,2013-04-01
0223163988,201001576474,2013-04-01,READY,ADSL 48,2013-04-01
0225017020,201004182090,2013-04-01,READY,ADSL 112,2013-04-01
0224188615,201008595457,2013-04-01,READY,ADSL 48,2013-04-01
0224198186,201001103258,2013-04-01,READY,ADSL 48,2013-04-01
0225887571,201001722871,2013-04-01,READY,ADSL 112,2013-04-01
0227542471,201015424065,2013-04-01,READY,ADSL 48,2013-04-01
035442596,201093179622,2013-04-01,READY,ADSL 112,2013-04-01
0132726921,201091101649,2013-04-01,READY,ADSL 112,2013-04-01
0226760895,201006662734,2013-04-01,READY,ADSL 112,2013-04-01
0227572752,201016109092,2013-04-01,READY,ADSL 112,2013-04-01
0643454330,201010159692,2013-04-01,READY,ADSL 112,2013-04-01
0225105172,201095129728,2013-04-01,READY,ADSL 48,2013-04-01
034292251,201007801100,2013-04-01,READY,ADSL 112,2013-04-01
0244696953,201099797157,2013-04-01,READY,ADSL 112,2013-04-01
0224034371,201006001196,2013-04-01,READY,ADSL 48,2013-04-01
0133236227,201005088533,2013-04-01,READY,ADSL 48,2013-04-01
0233825764,201001557656,2013-04-01,READY,ADSL 112,2013-04-01
035903917,201002621010,2013-04-01,READY,ADSL 112,2013-04-01
0226925753,201005647800,2013-04-01,READY,ADSL 112,2013-04-01
0224326568,201007847969,2013-04-01,READY,ADSL 48,2013-04-01
0227593876,201004020761,2013-04-01,READY,ADSL 112,2013-04-01
0223704359,201004715673,2013-04-01,READY,ADSL 48,2013-04-01
033228492,201009001298,2013-04-01,READY,ADSL 112,2013-04-01
0233885596,201095968276,2013-04-01,READY,ADSL 48,2013-04-01
0237223757,201005108473,2013-04-01,READY,ADSL 112,2013-04-01
0552862379,201007685070,2013-04-01,READY,ADSL 48,2013-04-01
0502538989,201063666306,2013-04-01,READY,ADSL 48,2013-04-01
0238381296,201001472856,2013-04-01,READY,ADSL 48,2013-04-01
0238501064,201066088574,2013-04-01,READY,ADSL 112,2013-04-01
0235696543,201061179615,2013-04-01,READY,ADSL 48,2013-04-01
0222949271,201014753767,2013-04-01,READY,ADSL 14,2013-04-01
0222668922,201093968370,2013-04-01,READY,ADSL 48,2013-04-01
0226985609,201001103462,2013-04-01,READY,ADSL 48,2013-04-01
0663656582,201017569855,2013-04-01,READY,ADSL 112,2013-04-01
0222819841,201005637859,2013-04-01,READY,ADSL 112,2013-04-01
035765096,201001267644,2013-04-01,READY,ADSL 112,2013-04-01
0623228842,201009431905,2013-04-01,READY,ADSL 48,2013-04-01
0233258677,201005066387,2013-04-01,READY,ADSL 14,2013-04-01
033255227,201090344707,2013-04-01,READY,ADSL 48,2013-04-01
0663332932,201067319097,2013-04-01,READY,ADSL 112,2013-04-01
0862328194,201003864877,2013-04-01,READY,ADSL 112,2013-04-01
0552865951,201012777210,2013-04-01,READY,ADSL 112,2013-04-01
0224053992,201007446779,2013-04-01,READY,ADSL 112,2013-04-01
0225520149,201092843050,2013-04-01,READY,ADSL 48,2013-04-01
0233115116,201008655598,2013-04-01,READY,ADSL 48,2013-04-01
0862355692,201004565643,2013-04-01,READY,ADSL 48,2013-04-01
0224704522,201001560772,2013-04-01,READY,ADSL 112,2013-04-01
0132710482,201018387012,2013-04-01,READY,ADSL 48,2013-04-01
0223904974,201002651155,2013-04-01,READY,ADSL 48,2013-04-01
0244692526,201005391859,2013-04-01,READY,ADSL 48,2013-04-01
0235822073,201069551599,2013-04-01,READY,ADSL 48,2013-04-01
034357422,201001700886,2013-04-01,READY,ADSL 48,2013-04-01
0223902911,201094337086,2013-04-01,READY,ADSL 112,2013-04-01
0553185087,201003775308,2013-04-01,READY,ADSL 112,2013-04-01
0224176493,201068675477,2013-04-01,READY,ADSL 14,2013-04-01
0238951350,201011058012,2013-04-01,READY,ADSL 112,2013-04-01
0235701471,201090534003,2013-04-01,READY,ADSL 112,2013-04-01
0402539413,201019893286,2013-04-01,READY,ADSL 112,2013-04-01
0226367225,201003186385,2013-04-01,READY,ADSL 48,2013-04-01
034344583,201004616116,2013-04-01,READY,ADSL 112,2013-04-01
0965214966,201067771063,2013-04-01,READY,ADSL 112,2013-04-01
0464932453,201002666441,2013-04-01,READY,ADSL 112,2013-04-01
0224034570,201061268373,2013-04-01,READY,ADSL 112,2013-04-01
0233142542,201060977641,2013-04-01,READY,ADSL 112,2013-04-01
0502262397,201067747083,2013-04-01,READY,ADSL 48,2013-04-01
0225281768,201027591870,2013-04-01,READY,ADSL 112,2013-04-01
0222686085,201001667680,2013-04-01,READY,ADSL 112,2013-04-01
0402532243,201012719848,2013-04-01,READY,ADSL 48,2013-04-01
0223683884,201011163901,2013-04-01,READY,ADSL 112,2013-04-01
0822311787,201066176077,2013-04-01,READY,ADSL 14,2013-04-01
0226999298,201097662008,2013-04-01,READY,ADSL 48,2013-04-01
035044760,201097577146,2013-04-01,READY,ADSL 112,2013-04-01
0226247002,201001530137,2013-04-01,READY,ADSL 48,2013-04-01
0224321395,201013153423,2013-04-01,READY,ADSL 112,2013-04-01
034867494,201023391105,2013-04-01,READY,ADSL 112,2013-04-01
0225755927,201005217334,2013-04-01,READY,ADSL 48,2013-04-01
0402530695,201006133976,2013-04-01,READY,ADSL 48,2013-04-01
035464738,201000199955,2013-04-01,READY,ADSL 112,2013-04-01
0224108698,201099779123,2013-04-01,READY,ADSL 112,2013-04-01
0233859451,201003346046,2013-04-01,READY,ADSL 48,2013-04-01
0224043356,201005071589,2013-04-01,READY,ADSL 112,2013-04-01
0227574731,201006964437,2013-04-01,READY,ADSL 112,2013-04-01
0222839899,201001050023,2013-04-01,READY,ADSL 112,2013-04-01
0552312032,201004010047,2013-04-01,READY,ADSL 112,2013-04-01
0226369598,201005678123,2013-04-01,READY,ADSL 14,2013-04-01
0238367525,201001616047,2013-04-01,READY,ADSL 48,2013-04-01
0226991254,201004833134,2013-04-01,READY,ADSL 48,2013-04-01
0223626868,201023568449,2013-04-01,READY,ADSL 112,2013-04-01
0235640381,201009078003,2013-04-01,READY,ADSL 48,2013-04-01
0237611608,201005200468,2013-04-01,READY,ADSL 112,2013-04-01
0222627690,201015499750,2013-04-01,READY,ADSL 112,2013-04-01
0225102656,201003935870,2013-04-01,READY,ADSL 48,2013-04-01
034499357,201002336079,2013-04-01,READY,ADSL 112,2013-04-01
0238381812,201004691987,2013-04-01,READY,ADSL 112,2013-04-01
0233822954,201096780812,2013-04-01,READY,ADSL 112,2013-04-01
0223644111,201005375375,2013-04-01,READY,ADSL 112,2013-04-01
0402543036,201009779949,2013-04-01,READY,ADSL 112,2013-04-01
0464940562,201023823576,2013-04-01,READY,ADSL 48,2013-04-01
0238620235,201002686521,2013-04-01,READY,ADSL 112,2013-04-01
015378901,201097528818,2013-04-01,READY,ADSL 112,2013-04-01
0623306796,201000257979,2013-04-01,READY,ADSL 48,2013-04-01
0132716860,201013567039,2013-04-01,READY,ADSL 112,2013-04-01
034442592,201014659451,2013-04-01,READY,ADSL 112,2013-04-01
033802680,201008253244,2013-04-01,READY,ADSL 112,2013-04-01
0238090814,201001895793,2013-04-01,READY,ADSL 112,2013-04-01
0643918215,201062730593,2013-04-01,READY,ADSL 112,2013-04-01
0233446319,201001121690,2013-04-01,READY,ADSL 48,2013-04-01
0238097001,201099173166,2013-04-01,READY,ADSL 112,2013-04-01
0224517032,201001763401,2013-04-01,READY,ADSL 112,2013-04-01
0222667517,201001474310,2013-04-01,READY,ADSL 48,2013-04-01
0237201230,201060142526,2013-04-01,READY,ADSL 112,2013-04-01
0403415846,201094080880,2013-04-01,READY,ADSL 48,2013-04-01
0226369056,201003591469,2013-04-01,READY,ADSL 48,2013-04-01
0482220686,201062356999,2013-04-01,READY,ADSL 112,2013-04-01
0222446195,201061484045,2013-04-01,READY,ADSL 112,2013-04-01
035770137,201001195367,2013-04-01,READY,ADSL 112,2013-04-01
0238334104,201001311247,2013-04-01,READY,ADSL 112,2013-04-01
0233288998,201092670165,2013-04-01,READY,ADSL 48,2013-04-01
0224937577,201003044044,2013-04-01,READY,ADSL 112,2013-04-01
0235717954,201006337763,2013-04-01,READY,ADSL 48,2013-04-01
0233363577,201002504030,2013-04-01,READY,ADSL 112,2013-04-01
0225758218,201009188608,2013-04-01,READY,ADSL 112,2013-04-01
0623350370,201024763660,2013-04-01,READY,ADSL 112,2013-04-01
0643215490,201003154789,2013-04-01,READY,ADSL 112,2013-04-01
033810443,201005469477,2013-04-01,READY,ADSL 112,2013-04-01
0233827861,201019113819,2013-04-01,READY,ADSL 112,2013-04-01
0226334637,201006962968,2013-04-01,READY,ADSL 48,2013-04-01
0222608155,201062975566,2013-04-01,READY,ADSL 48,2013-04-01
0226715144,201003023880,2013-04-01,READY,ADSL 112,2013-04-01
0552291310,201002989800,2013-04-01,READY,ADSL 48,2013-04-01
0238026240,201065809095,2013-04-01,READY,ADSL 112,2013-04-01
0222739290,201001110039,2013-04-01,READY,ADSL 112,2013-04-01
0235865666,201001026661,2013-04-01,READY,ADSL 112,2013-04-01
0643910303,201023232370,2013-04-01,READY,ADSL 112,2013-04-01
0222714795,201091242510,2013-04-01,READY,ADSL 48,2013-04-01
0224662538,201006809552,2013-04-01,READY,ADSL 112,2013-04-01
035829522,201018204245,2013-04-01,READY,ADSL 112,2013-04-01
0473210005,201008241411,2013-04-01,READY,ADSL 112,2013-04-01
0235723085,201097977476,2013-04-01,READY,ADSL 112,2013-04-01
0233298020,201069795704,2013-04-01,READY,ADSL 48,2013-04-01
0224555888,201000885592,2013-04-01,READY,ADSL 112,2013-04-01
0502363179,201006799008,2013-04-01,READY,ADSL 48,2013-04-01
0502375157,201062652344,2013-04-01,READY,ADSL 112,2013-04-01
0222723165,201002234154,2013-04-01,READY,ADSL 48,2013-04-01
0238607441,201005442439,2013-04-01,READY,ADSL 112,2013-04-01
033310500,201003775045,2013-04-01,READY,ADSL 112,2013-04-01
0224213524,201007460345,2013-04-01,READY,ADSL 14,2013-04-01
034446540,201069008852,2013-04-01,READY,ADSL 112,2013-04-01
0233074083,201098002418,2013-04-01,READY,ADSL 48,2013-04-01
0226391170,201002849043,2013-04-01,READY,ADSL 112,2013-04-01
0237293098,201022615475,2013-04-01,READY,ADSL 14,2013-04-01
0473225719,201069784629,2013-04-01,READY,ADSL 112,2013-04-01
033318939,201003191602,2013-04-01,READY,ADSL 112,2013-04-01
0237424423,201025824277,2013-04-01,READY,ADSL 112,2013-04-01
035324755,201005858546,2013-04-01,READY,ADSL 48,2013-04-01
0226171086,201063856389,2013-04-01,READY,ADSL 48,2013-04-01
0233825215,201064010040,2013-04-01,READY,ADSL 48,2013-04-01
0223703201,201007305471,2013-04-01,READY,ADSL 48,2013-04-01
0237982046,201014013785,2013-04-01,READY,ADSL 48,2013-04-01
0227954411,201002222023,2013-04-01,READY,ADSL 112,2013-04-01
0506959332,201007272290,2013-04-01,READY,ADSL 112,2013-04-01
0222757651,201005325837,2013-04-01,READY,ADSL 48,2013-04-01
0623333281,201019332053,2013-04-01,READY,ADSL 112,2013-04-01
0222715370,201002780119,2013-04-01,READY,ADSL 112,2013-04-01
0237240452,201062516204,2013-04-01,READY,ADSL 112,2013-04-01
0222737170,201065750760,2013-04-01,READY,ADSL 112,2013-04-01
0237423032,201023510451,2013-04-01,READY,ADSL 112,2013-04-01
0227023665,201093793973,2013-04-01,READY,ADSL 14,2013-04-01
034374716,201092502821,2013-04-01,READY,ADSL 112,2013-04-01
0822334230,201061069211,2013-04-01,READY,ADSL 112,2013-04-01
0227022407,201014613358,2013-04-01,READY,ADSL 48,2013-04-01
0502263205,201061680214,2013-04-01,READY,ADSL 112,2013-04-01
0223706220,201001143231,2013-04-01,READY,ADSL 48,2013-04-01
0224503284,201000705289,2013-04-01,READY,ADSL 14,2013-04-01
0822321956,201000034024,2013-04-01,READY,ADSL 48,2013-04-01
0227046997,201000090058,2013-04-01,READY,ADSL 48,2013-04-01
0233517812,201019521451,2013-04-01,READY,ADSL 112,2013-04-01
0223690331,201017631138,2013-04-01,READY,ADSL 112,2013-04-01
0225175843,201005714659,2013-04-01,READY,ADSL 48,2013-04-01
0453353368,201007470776,2013-04-01,READY,ADSL 48,2013-04-01
0403509535,201008788337,2013-04-01,READY,ADSL 112,2013-04-01
035561125,201017350400,2013-04-01,READY,ADSL 112,2013-04-01
0862354489,201008606366,2013-04-01,READY,ADSL 48,2013-04-01
0222638513,201064750690,2013-04-01,READY,ADSL 112,2013-04-01
0226762167,201065071944,2013-04-01,READY,ADSL 48,2013-04-01
0223647852,201004502683,2013-04-01,READY,ADSL 48,2013-04-01
0237615488,201005378958,2013-04-01,READY,ADSL 48,2013-04-01
0222960524,201002279593,2013-04-01,READY,ADSL 112,2013-04-01
035613105,201098760233,2013-04-01,READY,ADSL 112,2013-04-01
0226909625,201006130368,2013-04-01,READY,ADSL 112,2013-04-01
0227005879,201021539340,2013-04-01,READY,ADSL 112,2013-04-01
0453691526,201010126119,2013-04-01,READY,ADSL 48,2013-04-01
0226374786,201092786160,2013-04-01,READY,ADSL 112,2013-04-01
0227272340,201069191054,2013-04-01,READY,ADSL 48,2013-04-01
0226249757,201001996003,2013-04-01,READY,ADSL 112,2013-04-01
0227048670,201096261822,2013-04-01,READY,ADSL 112,2013-04-01
0237214051,201001085185,2013-04-01,READY,ADSL 112,2013-04-01
0238351634,201001736601,2013-04-01,READY,ADSL 112,2013-04-01
0224090742,201001329528,2013-04-01,READY,ADSL 48,2013-04-01
0226539769,201006186430,2013-04-01,READY,ADSL 112,2013-04-01
034417258,201002908022,2013-04-01,READY,ADSL 112,2013-04-01
0248582063,201096447992,2013-04-01,READY,ADSL 48,2013-04-01
034482602,201099584723,2013-04-01,READY,ADSL 112,2013-04-01
0133104681,201000588603,2013-04-01,READY,ADSL 48,2013-04-01
0238343525,201060015634,2013-04-01,READY,ADSL 48,2013-04-01
0225109363,201015510533,2013-04-01,READY,ADSL 48,2013-04-01
0222639797,201007999919,2013-04-01,READY,ADSL 48,2013-04-01
0133255050,201061803912,2013-04-01,READY,ADSL 48,2013-04-01
0225119707,201007614309,2013-04-01,READY,ADSL 112,2013-04-01
0244794222,201001896607,2013-04-01,READY,ADSL 48,2013-04-01
0235422283,201000176665,2013-04-01,READY,ADSL 48,2013-04-01
0226204538,201012910030,2013-04-01,READY,ADSL 112,2013-04-01
0238321247,201012986678,2013-04-01,READY,ADSL 48,2013-04-01
0237605822,201005468168,2013-04-01,READY,ADSL 112,2013-04-01
0663618659,201093183305,2013-04-01,READY,ADSL 112,2013-04-01
0227046764,201069879874,2013-04-01,READY,ADSL 14,2013-04-01
0225310870,201096355635,2013-04-01,READY,ADSL 14,2013-04-01
0227573173,201005263832,2013-04-01,READY,ADSL 48,2013-04-01
0233042212,201000447416,2013-04-01,READY,ADSL 112,2013-04-01
0235653731,201003053703,2013-04-01,READY,ADSL 112,2013-04-01
0225060987,201027838192,2013-04-01,READY,ADSL 112,2013-04-01
0226173531,201005575818,2013-04-01,READY,ADSL 112,2013-04-01
0238953965,201011421660,2013-04-01,READY,ADSL 48,2013-04-01
